testClosedOpenDescending,floatRange,adapt,toCollection,
METHOD_0,METHOD_1,METHOD_2,METHOD_3,

functor,FloatRange,Ranges,BoundType,CLOSED,OPEN,Float,loop,IteratorToGeneratorAdapter,CollectionTransformer,E,
IDENT_0,IDENT_1,IDENT_2,IDENT_3,IDENT_4,IDENT_5,IDENT_6,IDENT_7,IDENT_8,IDENT_9,IDENT_10,










5.0F,3.0F,2.0F,1.0F,4.0F,
FLOAT_0,FLOAT_1,FLOAT_2,FLOAT_3,FLOAT_4,






















