asStringShouldSupportDirectBufferWithNoArrayAndUseUTF8,allocateDirect,flip,asString,
METHOD_0,METHOD_1,METHOD_2,METHOD_3,

utf8Bytes,gateway,UtilsTest,NON_ASCII_UTF8_STRING,
IDENT_0,IDENT_1,IDENT_2,IDENT_3,







"{}",'{',"(this Map)",'=','}',", ",
STRING_0,STRING_1,STRING_2,STRING_3,STRING_4,STRING_5,

























