mapped,wrap,entering,
METHOD_0,METHOD_1,METHOD_2,

expectedBytes,gateway,WrappedByteBuffer,Base64Util,CLASS_NAME,encoded,encodedArray,decodedArray,decodedArrayOffset,char0,char1,char2,char3,byte0,byte1,byte2,byte3,PADDING_BYTE,
IDENT_0,IDENT_1,IDENT_2,IDENT_3,IDENT_4,IDENT_5,IDENT_6,IDENT_7,IDENT_8,IDENT_9,IDENT_10,IDENT_11,IDENT_12,IDENT_13,IDENT_14,IDENT_15,IDENT_16,IDENT_17,

131,81,135,32,146,139,48,211,143,65,147,85,151,97,150,155,113,215,159,130,24,163,89,167,162,154,171,178,219,175,195,28,179,93,183,227,158,187,243,223,191,252,240,192,63,
INT_0,INT_1,INT_2,INT_3,INT_4,INT_5,INT_6,INT_7,INT_8,INT_9,INT_10,INT_11,INT_12,INT_13,INT_14,INT_15,INT_16,INT_17,INT_18,INT_19,INT_20,INT_21,INT_22,INT_23,INT_24,INT_25,INT_26,INT_27,INT_28,INT_29,INT_30,INT_31,INT_32,INT_33,INT_34,INT_35,INT_36,INT_37,INT_38,INT_39,INT_40,INT_41,INT_42,INT_43,INT_44,




"ABCDEFGHIJKLMNOPQRSTUVWXYZabcdefghijklmnopqrstuvwxyz0123456789+/","decode","Invalid Base64 Encoded String",
STRING_0,STRING_1,STRING_2,




%,
OP_0,



















