shouldBeEnabledByEmptyProperty,EarlyAccessFeature,isEnabled,
METHOD_0,METHOD_1,METHOD_2,

gateway,EarlyAccessFeature,
IDENT_0,IDENT_1,







"feature.test","test description",
STRING_0,STRING_1,

























