testImageInfo,getImageInfo,emptyMap,ByteSourceArray,
METHOD_0,METHOD_1,METHOD_2,METHOD_3,

imaging,ImageInfo,imageInfo,Imaging,imageFile,bytesource,filename,
IDENT_0,IDENT_1,IDENT_2,IDENT_3,IDENT_4,IDENT_5,IDENT_6,


































