testGetHeader,getHeader,getProtocolFamily,
METHOD_0,METHOD_1,METHOD_2,

pcap4j,BsdLoopbackPacket,BsdLoopbackHeader,h,protocolFamily,
IDENT_0,IDENT_1,IDENT_2,IDENT_3,IDENT_4,


































