testEqualsHashCode,
METHOD_0,

kairosdb,DataPoint,dataPointsSet,datapoints,DataPointTestCommon,dataPointList,
IDENT_0,IDENT_1,IDENT_2,IDENT_3,IDENT_4,IDENT_5,


































