test_timestampNegative_valid,DataPoint,getTimestamp,
METHOD_0,METHOD_1,METHOD_2,

kairosdb,DataPoint,dataPoint,timestamp,
IDENT_0,IDENT_1,IDENT_2,IDENT_3,


































