testTermDetection2,JUser,JTweet,addOwnTweet,getTextTerms,
METHOD_0,METHOD_1,METHOD_2,METHOD_3,METHOD_4,

jetwick,JUser,JTweet,tw1,tw2,tw,cmd,TermCreateCommandTest,textTerms,
IDENT_0,IDENT_1,IDENT_2,IDENT_3,IDENT_4,IDENT_5,IDENT_6,IDENT_7,IDENT_8,







"Peter","#term1 #term1","term1",
STRING_0,STRING_1,STRING_2,

























