type_3,commonAssert,getLowResGrayscaleFingerprints,
METHOD_0,METHOD_1,METHOD_2,

jnbis,Nist,decoded,AnsiReferencesTest,FILES,lowResolutionGrayscaleFingerprints,
IDENT_0,IDENT_1,IDENT_2,IDENT_3,IDENT_4,IDENT_5,


































