generate,compile,
METHOD_0,METHOD_1,

Pattern,cherry,jeeves,DeviceIdGenerator,
IDENT_0,IDENT_1,IDENT_2,IDENT_3,







"^e\\d{15}$",
STRING_0,

























