testFindEmpty,findAll,QuerySpec,
METHOD_0,METHOD_1,METHOD_2,

katharsis,Task,tasks,taskRepo,queryspec,
IDENT_0,IDENT_1,IDENT_2,IDENT_3,IDENT_4,


































