testFilterByMultiValuedAttribute2,QuerySpec,addFilter,FilterSpec,
METHOD_0,METHOD_1,METHOD_2,METHOD_3,

katharsis,queryspec,QuerySpec,Task,FilterOperator,EQ,ResourceList,tasks,
IDENT_0,IDENT_1,IDENT_2,IDENT_3,IDENT_4,IDENT_5,IDENT_6,IDENT_7,

14L,
INT_0,




"projects","id",
STRING_0,STRING_1,

























