testOrOneExpr,FilterSpec,or,
METHOD_0,METHOD_1,METHOD_2,

katharsis,queryspec,FilterSpec,spec1,FilterOperator,EQ,orSpec,conditions,
IDENT_0,IDENT_1,IDENT_2,IDENT_3,IDENT_4,IDENT_5,IDENT_6,IDENT_7,







"name1",
STRING_0,

























