testFilterNotEquals,QuerySpec,addFilter,FilterSpec,
METHOD_0,METHOD_1,METHOD_2,METHOD_3,

katharsis,queryspec,QuerySpec,Task,FilterOperator,NEQ,tasks,
IDENT_0,IDENT_1,IDENT_2,IDENT_3,IDENT_4,IDENT_5,IDENT_6,







"test1",
STRING_0,

























