testTemplate,Code,createTemplate,setTemplate,getTemplate,
METHOD_0,METHOD_1,METHOD_2,METHOD_3,METHOD_4,

kefirsf,bb,Code,Template,
IDENT_0,IDENT_1,IDENT_2,IDENT_3,


































