nullWithMessage,notNull,
METHOD_0,METHOD_1,

gitective,iae,V,
IDENT_0,IDENT_1,IDENT_2,







"this is null","Illegal argument exception not thrown","Object cannot be null",
STRING_0,STRING_1,STRING_2,

























