testSave,
METHOD_0,

uberfire,vfs,editor,DefaultMetadata,PluginSimpleContent,comment,pluginServices,guvnor,POM,Metadata,pomPath,pom,
IDENT_0,IDENT_1,IDENT_2,IDENT_3,IDENT_4,IDENT_5,IDENT_6,IDENT_7,IDENT_8,IDENT_9,IDENT_10,IDENT_11,







"comment",
STRING_0,

























