testClear,clear,clearItems,clearSearch,getLastSearch,
METHOD_0,METHOD_1,METHOD_2,METHOD_3,METHOD_4,

presenter,lastSearch,
IDENT_0,IDENT_1,


































