testFilterListNullParameters,filterList,trueFileFilter,
METHOD_0,METHOD_1,METHOD_2,

filefilter,FileFilterUtils,iae,IOFileFilter,filteredList,
IDENT_0,IDENT_1,IDENT_2,IDENT_3,IDENT_4,


































