testSkipWithoutBOM,BOMInputStream,createUtf8DataStream,skip,
METHOD_0,METHOD_1,METHOD_2,METHOD_3,




2L,
INT_0,




'A','B','C','D',
STRING_0,STRING_1,STRING_2,STRING_3,

























