testDummyResourceWithWrongEncodedFileName,DummyResource,getSourcePath,
METHOD_0,METHOD_1,METHOD_2,

Resource,dummyResource,KieBuilderSetImpl,sourcePath,
IDENT_0,IDENT_1,IDENT_2,IDENT_3,







"Dummy 100%",
STRING_0,

























