testBigDecimalBigIntegerCoercion,getCanonicalName,getKieSession,setMoney,fireAllRules,
METHOD_0,METHOD_1,METHOD_2,METHOD_3,METHOD_4,

modelcompiler,KieSession,ksession1,p1,
IDENT_0,IDENT_1,IDENT_2,IDENT_3,







"import ",";\n","rule \"rule1\"\n","when\n"," Person( money == new BigInteger( \"1\" ) )\n","then\n","end\n","rule \"rule2\"\n"," Person( money == new BigInteger( \"2\" ) )\n","rule \"rule3\"\n"," Person( money == new BigInteger( \"3\" ) )\n",
STRING_0,STRING_1,STRING_2,STRING_3,STRING_4,STRING_5,STRING_6,STRING_7,STRING_8,STRING_9,STRING_10,

























