testInWithNullNoFire,getKieSession,Child,fireAllRules,
METHOD_0,METHOD_1,METHOD_2,METHOD_3,

KieSession,ksession,modelcompiler,
IDENT_0,IDENT_1,IDENT_2,







"import org.drools.modelcompiler.domain.Child; \n","rule R when \n"," $c : Child(parent in (\"Gustav\", \"Alice\"))\n","then \n","end ","Ben",
STRING_0,STRING_1,STRING_2,STRING_3,STRING_4,STRING_5,

























