testImmutableField,getKieSession,fireAllRules,
METHOD_0,METHOD_1,METHOD_2,

KieSession,ksession,
IDENT_0,IDENT_1,

42,42L,
INT_0,INT_1,




"declare Integer @propertyReactive end\n","declare Long @propertyReactive end\n","rule R when\n"," $i : Integer( intValue > 0 )\n"," Long( $l : intValue == $i )\n","then\n","end\n",
STRING_0,STRING_1,STRING_2,STRING_3,STRING_4,STRING_5,STRING_6,

























