testUseConstructorInConstraint,getKieSession,fireAllRules,
METHOD_0,METHOD_1,METHOD_2,

KieSession,ksession,
IDENT_0,IDENT_1,







"rule R when\n"," $s: Short()"," $d: Double( this > new Double($s) )\n","then\n","end\n",
STRING_0,STRING_1,STRING_2,STRING_3,STRING_4,

























