testErrorMessages,createExpectingDMNMessages,
METHOD_0,METHOD_1,

dmn,DMNMessage,DMNRuntimeUtil,
IDENT_0,IDENT_1,IDENT_2,







"car_damage_responsibility2.dmn",
STRING_0,

























