checkDoesNotSupportNonGuidedDecisionTables,getFileName,supports,
METHOD_0,METHOD_1,METHOD_2,

uberfire,vfs,resourceType,destination,
IDENT_0,IDENT_1,IDENT_2,IDENT_3,







"a-file.txt",
STRING_0,

























