checkDoesSupportGuidedDecisionTables,getFileName,getSuffix,supports,
METHOD_0,METHOD_1,METHOD_2,METHOD_3,

dtableType,uberfire,vfs,resourceType,destination,
IDENT_0,IDENT_1,IDENT_2,IDENT_3,IDENT_4,







"a-file.",
STRING_0,

























