testGetOperator,getFactField,editingCol,getOperator,
METHOD_0,METHOD_1,METHOD_2,METHOD_3,

expectedOperator,operator,
IDENT_0,IDENT_1,







"operator","factField",
STRING_0,STRING_1,

























