testDisableNegatedPatterns,disableNegatedPatterns,isNegatedPatternEnabled,
METHOD_0,METHOD_1,METHOD_2,

negatedPatternEnabled,
IDENT_0,


































