testCurrentWorkItem,getWorkItem,currentWorkItem,
METHOD_0,METHOD_1,METHOD_2,

expectedWorkItem,actualWorkItem,selectedWorkItemKey,
IDENT_0,IDENT_1,IDENT_2,







"workItem",
STRING_0,

























