testToWidgetValue,toWidgetValue,SimpleDateFormat,getDateTimeStr,
METHOD_0,METHOD_1,METHOD_2,METHOD_3,

dateStr,jbpm,DateUtils,
IDENT_0,IDENT_1,IDENT_2,







"dd/MM/yyyy HH:mm",
STRING_0,

























