testRequestUriAbsolute,isUriValid,
METHOD_0,METHOD_1,

isValidUri,adobe,acs,dispatcher,PermissionSensitiveCacheServletTest,TEST_PAGE,requestUri,
IDENT_0,IDENT_1,IDENT_2,IDENT_3,IDENT_4,IDENT_5,IDENT_6,


































