testFormatObjectStringBufferFieldPositionWithComplex,getLocale,getDecimalCharacter,ofCartesian,FieldPosition,getFitness,
METHOD_0,METHOD_1,METHOD_2,METHOD_3,METHOD_4,METHOD_5,

complex,ComplexFormat,cf,numbers,Complex,formatted,
IDENT_0,IDENT_1,IDENT_2,IDENT_3,IDENT_4,IDENT_5,







"23 + 1","43i","(f=%s)",
STRING_0,STRING_1,STRING_2,

1.23,1.43,
FLOAT_0,FLOAT_1,






















