testCompareToWhenItemOrderingNameIsGreaterThanObjectOrderingName,DecisionNavigatorItem,getOrderingName,
METHOD_0,METHOD_1,METHOD_2,

dmn,decision,DecisionNavigatorItem,
IDENT_0,IDENT_1,IDENT_2,







"123","Hat","456","Red",
STRING_0,STRING_1,STRING_2,STRING_3,

























