testSetter,ExpressionLanguage,
METHOD_0,METHOD_1,

expressionLanguage,dmn,ExpressionLanguageTest,VALUE,rootPath,
IDENT_0,IDENT_1,IDENT_2,IDENT_3,IDENT_4,


































