testGetValue,
METHOD_0,

expectedValue,actualValue,dataTypeSelect,rootPath,
IDENT_0,IDENT_1,IDENT_2,IDENT_3,







"typeName",
STRING_0,

























