testGetValue,getYears,getMonths,toDMNString,
METHOD_0,METHOD_1,METHOD_2,METHOD_3,

dmn,editors,listview,constraint,typed,years,months,YearsMonthsValue,selector,
IDENT_0,IDENT_1,IDENT_2,IDENT_3,IDENT_4,IDENT_5,IDENT_6,IDENT_7,IDENT_8,







"duration(\"P2Y1M\")",
STRING_0,

























