testToRawTimeWithTimeZoneWithDash,isTimeZone,toRaw,appendPrefixAndSuffix,
METHOD_0,METHOD_1,METHOD_2,METHOD_3,

formatter,parts,secondPart,timeZoneProvider,offSet,
IDENT_0,IDENT_1,IDENT_2,IDENT_3,IDENT_4,







"time(\"22:30:10@US/Pacific-New\")","22:30:10 US/Pacific-New","@","Z",
STRING_0,STRING_1,STRING_2,STRING_3,

























