testToDisplaySimpleTime,toDisplay,toDisplayValue,
METHOD_0,METHOD_1,METHOD_2,

formatter,rawValue,
IDENT_0,IDENT_1,







"time(\"22:30:10\")","22:30:10",
STRING_0,STRING_1,

























