testDisableEditModeWhenValueIsEmpty,disableEditMode,hideAnchor,hideText,hideTextLabel,isEditModeEnabled,
METHOD_0,METHOD_1,METHOD_2,METHOD_3,METHOD_4,METHOD_5,

dataTypeConstraint,
IDENT_0,


































