testReducingBall,Cartesian3D,WelzlEncloser,SphereGenerator,enclose,getRadius,
METHOD_0,METHOD_1,METHOD_2,METHOD_3,METHOD_4,METHOD_5,

euclidean,threed,Cartesian3D,enclosing,WelzlEncloser,Euclidean3D,encloser,EnclosingBall,ball,radius,
IDENT_0,IDENT_1,IDENT_2,IDENT_3,IDENT_4,IDENT_5,IDENT_6,IDENT_7,IDENT_8,IDENT_9,










7.140397329568118,16.571661242582177,11.714458961735405,7.137986707455888,16.57076732337572,11.708602108715928,7.139185068549035,16.57089120470225,11.715554057357394,7.142682716997507,16.57160981823429,11.710787934580328,7.139018392423351,16.57440561415702,11.710518716711425,7.14087065993673,16.567993074240455,11.710914678204503,7.136350173659562,16.57049822882093,11.713965225900928,7.141675762759172,16.572852471407028,11.714033471449508,7.140453077221105,16.570212820780647,11.70862457800498,7.140322188726825,16.574152894557717,11.71030561112141,7.141116131477088,16.57406116462456,11.712938509321699,1.0E-10,
FLOAT_0,FLOAT_1,FLOAT_2,FLOAT_3,FLOAT_4,FLOAT_5,FLOAT_6,FLOAT_7,FLOAT_8,FLOAT_9,FLOAT_10,FLOAT_11,FLOAT_12,FLOAT_13,FLOAT_14,FLOAT_15,FLOAT_16,FLOAT_17,FLOAT_18,FLOAT_19,FLOAT_20,FLOAT_21,FLOAT_22,FLOAT_23,FLOAT_24,FLOAT_25,FLOAT_26,FLOAT_27,FLOAT_28,FLOAT_29,FLOAT_30,FLOAT_31,FLOAT_32,FLOAT_33,






















