testSpace,Cartesian1D,getSpace,getDimension,
METHOD_0,METHOD_1,METHOD_2,METHOD_3,

Space,space,euclidean,oned,dimension,
IDENT_0,IDENT_1,IDENT_2,IDENT_3,IDENT_4,


































