testGetValueIncludeStartExcludeEnd,getIncludeStartValue,getStartValue,getEndValue,getIncludeEndValue,
METHOD_0,METHOD_1,METHOD_2,METHOD_3,METHOD_4,

constraintRange,rootPath,
IDENT_0,IDENT_1,







"6","[1..6)",
STRING_0,STRING_1,

























