testGetValue,getIncludeStartValue,getStartValue,getEndValue,getIncludeEndValue,
METHOD_0,METHOD_1,METHOD_2,METHOD_3,METHOD_4,

constraintRange,rootPath,
IDENT_0,IDENT_1,







"some_value","other_value","[some_value..other_value]",
STRING_0,STRING_1,STRING_2,

























