testNegativeX,Cartesian1D,getDecimalCharacter,FieldPosition,
METHOD_0,METHOD_1,METHOD_2,METHOD_3,

euclidean,oned,Cartesian1D,vector1DFormat,Vector,vector,
IDENT_0,IDENT_1,IDENT_2,IDENT_3,IDENT_4,IDENT_5,







"{-1","2323232323}",
STRING_0,STRING_1,

1.232323232323,
FLOAT_0,






















