testDoDestroy,bind,doDestroy,getMousePanMediator,getSession,getCanvasControl,
METHOD_0,METHOD_1,METHOD_2,METHOD_3,METHOD_4,METHOD_5,

dmn,layer,MousePanMediatorControl,
IDENT_0,IDENT_1,IDENT_2,


































