testisSupported,isSupported,
METHOD_0,METHOD_1,

typeInfo,TypeKind,ENUM,forms,TypeInfo,
IDENT_0,IDENT_1,IDENT_2,IDENT_3,IDENT_4,


































