testNotifications,notifyDateChange,setDate,notifyHide,getDate,
METHOD_0,METHOD_1,METHOD_2,METHOD_3,METHOD_4,

presenter,valueChangeCommand,hideCommand,
IDENT_0,IDENT_1,IDENT_2,


































