testSetValue,CharacterSelectorOption,
METHOD_0,METHOD_1,

forms,fieldTypes,basic,selectors,CharacterSelectorOption,opt,valueB,rootPath,
IDENT_0,IDENT_1,IDENT_2,IDENT_3,IDENT_4,IDENT_5,IDENT_6,IDENT_7,


































