testGetModelType,getModelType,
METHOD_0,METHOD_1,

modelType,forms,rendering,slider,converters,
IDENT_0,IDENT_1,IDENT_2,IDENT_3,IDENT_4,


































