testValidateValidDescriptor,dayTimeValues,allMatch,
METHOD_0,METHOD_1,METHOD_2,

guvnor,ValidationMessage,descriptor,isNone,
IDENT_0,IDENT_1,IDENT_2,IDENT_3,


































