testRevert,Line,Cartesian3D,getDirection,negate,revert,
METHOD_0,METHOD_1,METHOD_2,METHOD_3,METHOD_4,METHOD_5,

euclidean,threed,Line,reverted,
IDENT_0,IDENT_1,IDENT_2,IDENT_3,

90000,
INT_0,







1653345.6696423641,6170370.041579291,1650757.5050732433,6160710.879908984,0.9,1.0E-10,
FLOAT_0,FLOAT_1,FLOAT_2,FLOAT_3,FLOAT_4,FLOAT_5,






















