testNameChange,onNameChange,
METHOD_0,METHOD_1,

screens,datasource,editor,NAME,mainPanel,
IDENT_0,IDENT_1,IDENT_2,IDENT_3,IDENT_4,


































