testIsProjectSelected_Selected,addProject,isProjectSelected,getProjects,
METHOD_0,METHOD_1,METHOD_2,METHOD_3,

screens,ImportProject,
IDENT_0,IDENT_1,


































