testParseZeroX,getDecimalCharacter,Cartesian3D,ParsePosition,getIndex,MathParseException,getErrorIndex,
METHOD_0,METHOD_1,METHOD_2,METHOD_3,METHOD_4,METHOD_5,METHOD_6,

euclidean,threed,Vector3D,vector3DFormat,ParsePosition,parsePosition,twod,Vector2D,
IDENT_0,IDENT_1,IDENT_2,IDENT_3,IDENT_4,IDENT_5,IDENT_6,IDENT_7,







"{0","0; -1","4343; 1","6333}",
STRING_0,STRING_1,STRING_2,STRING_3,

1.4343,1.6333,
FLOAT_0,FLOAT_1,






















