testAddShape,addShape,never,setUUID,getShapes,
METHOD_0,METHOD_1,METHOD_2,METHOD_3,METHOD_4,

tested,parentShape,canvasView,parentShapeView,shapes,
IDENT_0,IDENT_1,IDENT_2,IDENT_3,IDENT_4,


































