testInitializeWithoutParams,clear,initialize,setMax,getMax,
METHOD_0,METHOD_1,METHOD_2,METHOD_3,METHOD_4,

fieldElementParams,initializer,fieldElement,
IDENT_0,IDENT_1,IDENT_2,


































