testGetView,getView,
METHOD_0,METHOD_1,

stunner,editor,AbstractProjectDiagramEditor,View,baseView,
IDENT_0,IDENT_1,IDENT_2,IDENT_3,IDENT_4,


































