testBindDuplicated,newServer,bind,newRemotingServer,
METHOD_0,METHOD_1,METHOD_2,METHOD_3,

taobao,gecko,ServerController,ServerConfig,RemotingServer,RemotingFactory,serverConfig,
IDENT_0,IDENT_1,IDENT_2,IDENT_3,IDENT_4,IDENT_5,IDENT_6,

8080,
INT_0,































