testCreate,URIBuilder,schemaLiteral,verifyNoMoreInteractions,
METHOD_0,METHOD_1,METHOD_2,METHOD_3,

datasetUri,kitesdk,repoUri,DatasetDescriptor,descriptor,Dataset,ds,Datasets,
IDENT_0,IDENT_1,IDENT_2,IDENT_3,IDENT_4,IDENT_5,IDENT_6,IDENT_7,







"ns","\"string\"",
STRING_0,STRING_1,

























