testSimpleNoDecimals,ArrayRealVector,FieldPosition,
METHOD_0,METHOD_1,METHOD_2,

ArrayRealVector,realVectorFormat,Vector,vector,
IDENT_0,IDENT_1,IDENT_2,IDENT_3,







"{1; 1; 1}",
STRING_0,

























