ovalTestHeightMapDef2,generateConfig,validateR,filterRootCauses,
METHOD_0,METHOD_1,METHOD_2,METHOD_3,

nx42,maps4cim,Config,ConfigTest,relief,HeightmapDef,oval,ConstraintViolation,cvs,ValidatorUtils,
IDENT_0,IDENT_1,IDENT_2,IDENT_3,IDENT_4,IDENT_5,IDENT_6,IDENT_7,IDENT_8,IDENT_9,










100.0,300.0,
FLOAT_0,FLOAT_1,






















