testParse,parseDoubleValues,ParseException,Coordinate,
METHOD_0,METHOD_1,METHOD_2,METHOD_3,

nx42,maps4cim,gis,Coordinate,CoordinateTest,ParseException,parsed,
IDENT_0,IDENT_1,IDENT_2,IDENT_3,IDENT_4,IDENT_5,IDENT_6,







"47.421217, 10.986314","Error while parsing: ",",","No coordinates were recognized in the string \"%s\"",
STRING_0,STRING_1,STRING_2,STRING_3,

























