testNaturalOrder,naturalOrder,sort,copyOf,
METHOD_0,METHOD_1,METHOD_2,METHOD_3,

Comparator,natural,kocakosm,pitaya,Comparators,copy,
IDENT_0,IDENT_1,IDENT_2,IDENT_3,IDENT_4,IDENT_5,

5L,3L,2L,4L,
INT_0,INT_1,INT_2,INT_3,































