testReadBooleanRandom,toCharArray,readBoolean,readString,
METHOD_0,METHOD_1,METHOD_2,METHOD_3,

kocakosm,pitaya,Strings,Booleans,Scanf,
IDENT_0,IDENT_1,IDENT_2,IDENT_3,IDENT_4,







"abcdef0123456789",
STRING_0,

























