testBuilder,sort,reverse,rotate,
METHOD_0,METHOD_1,METHOD_2,METHOD_3,

kocakosm,pitaya,ImmutableSet,E,inner,
IDENT_0,IDENT_1,IDENT_2,IDENT_3,IDENT_4,







"C","A","B","D",
STRING_0,STRING_1,STRING_2,STRING_3,

























