testReadBigIntegerHex,readBigInteger,readString,
METHOD_0,METHOD_1,METHOD_2,

kocakosm,pitaya,Scanf,radix,
IDENT_0,IDENT_1,IDENT_2,IDENT_3,


































