byTimestampAllRuns,setUpByTimestampRuns,byTimestamp,hasMoreTokens,nextToken,
METHOD_0,METHOD_1,METHOD_2,METHOD_3,METHOD_4,

RunList,Run,tested,rlist,
IDENT_0,IDENT_1,IDENT_2,IDENT_3,

400,
INT_0,































