testInit0,nextInt,DescriptiveStatistics,getWindowSize,
METHOD_0,METHOD_1,METHOD_2,METHOD_3,

window,stat,descriptive,DescriptiveStatisticsTest,DescriptiveStatistics,
IDENT_0,IDENT_1,IDENT_2,IDENT_3,IDENT_4,


































