toXMLUTF8,XStream2,Thing,fromXML,getFullName,
METHOD_0,METHOD_1,METHOD_2,METHOD_3,METHOD_4,

baos,XStream2,xs,XStream2EncodingTest,unspecifiedData,Job,
IDENT_0,IDENT_1,IDENT_2,IDENT_3,IDENT_4,IDENT_5,







"k chyb",
STRING_0,

























