testDoubleValuePosMantissaIsZero,doubleValue,
METHOD_0,METHOD_1,

aSign,aNumber,
IDENT_0,IDENT_1,

128,
INT_0,







8.98846567431158E307,
FLOAT_0,






















