testBelowMaxCount,Incrementor,setMaximalCount,incrementCount,getCount,
METHOD_0,METHOD_1,METHOD_2,METHOD_3,METHOD_4,

Incrementor,
IDENT_0,


































