testPosPosSameLength,xor,
METHOD_0,METHOD_1,

numA,numB,aNumber,bNumber,teavm,classlib,TParsePosition,currentPosition,errorIndex,
IDENT_0,IDENT_1,IDENT_2,IDENT_3,IDENT_4,IDENT_5,IDENT_6,IDENT_7,IDENT_8,







"283746278342837476784564875684767","293478573489347658763745839457637","71412358434940908477702819237626",
STRING_0,STRING_1,STRING_2,

























