testEnhancedFind,compile,
METHOD_0,METHOD_1,

Pattern,pat,Matcher,mat,
IDENT_0,IDENT_1,IDENT_2,IDENT_3,







"foob","a*b",
STRING_0,STRING_1,

























