putsShortToGivenLocation,wrap,slice,TReadOnlyBufferException,IndexOutOfBoundsException,
METHOD_0,METHOD_1,METHOD_2,METHOD_3,METHOD_4,

ShortBuffer,readOnly,teavm,classlib,limit,
IDENT_0,IDENT_1,IDENT_2,IDENT_3,IDENT_4,







"Index "," is outside of range [0;",")",
STRING_0,STRING_1,STRING_2,

























