setsVariableBeforeTryCatch,parseInt,
METHOD_0,METHOD_1,

NumberFormatException,teavm,classlib,TInteger,
IDENT_0,IDENT_1,IDENT_2,IDENT_3,

23,
INT_0,




"not a number",
STRING_0,

























