testClasses,DefaultTransformer,TransformerMap,putTransformer,keySet,
METHOD_0,METHOD_1,METHOD_2,METHOD_3,METHOD_4,

NumberTransformer,TransformerMap,TransformerMapTest,
IDENT_0,IDENT_1,IDENT_2,


































