cloneTest,ColoredPoint,clone,AssertionError,
METHOD_0,METHOD_1,METHOD_2,METHOD_3,

part2,point,ColoredPoint,cp,cp2,CloneNotSupportedException,
IDENT_0,IDENT_1,IDENT_2,IDENT_3,IDENT_4,IDENT_5,

16711680,
INT_0,































