testDoubleValue,doubleValue,pow,
METHOD_0,METHOD_1,METHOD_2,

expectedDouble,factor,scale,scaledValue,
IDENT_0,IDENT_1,IDENT_2,IDENT_3,










10.0,
FLOAT_0,






















