removeIfTest,ColoredPoint,removeIf,getX,
METHOD_0,METHOD_1,METHOD_2,METHOD_3,

part2,point,ColoredPoint,Predicate,Point,part1,SinglyLinkedList,current,
IDENT_0,IDENT_1,IDENT_2,IDENT_3,IDENT_4,IDENT_5,IDENT_6,IDENT_7,

16711680,
INT_0,































