testCreateFromBytes,NtpV3Impl,DatagramPacket,setDatagramPacket,getMode,
METHOD_0,METHOD_1,METHOD_2,METHOD_3,METHOD_4,

ntp,NtpV3Packet,DatagramPacket,dp,TestNtpPacket,ntpPacket,_mode,
IDENT_0,IDENT_1,IDENT_2,IDENT_3,IDENT_4,IDENT_5,IDENT_6,


































