testFromHL7Empty,PatientInfo,fromHL7,getAddress,
METHOD_0,METHOD_1,METHOD_2,METHOD_3,

openehealth,ipf,ihe,xds,PatientInfo,patientInfo,transformer,
IDENT_0,IDENT_1,IDENT_2,IDENT_3,IDENT_4,IDENT_5,IDENT_6,


































