testSetSpeedUnit,setSpeedUnit,getSpeedUnit,getCharValue,
METHOD_0,METHOD_1,METHOD_2,METHOD_3,

mwv,Units,KMH,marineapi,nmea,MWVParser,SPEED_UNITS,
IDENT_0,IDENT_1,IDENT_2,IDENT_3,IDENT_4,IDENT_5,IDENT_6,


































