testSetMessageIndex,setMessageIndex,getMessageIndex,getIntValue,
METHOD_0,METHOD_1,METHOD_2,METHOD_3,

marineapi,nmea,TXTParser,MESSAGE_INDEX,
IDENT_0,IDENT_1,IDENT_2,IDENT_3,


































