testCreate,saveRecipientDelivererConfig,getDeliverersForRecipient,
METHOD_0,METHOD_1,METHOD_2,

prefsvc,kuali,rice,kcb,bo,RecipientDelivererConfig,deliverers,
IDENT_0,IDENT_1,IDENT_2,IDENT_3,IDENT_4,IDENT_5,IDENT_6,







"user1","mock","channel2",
STRING_0,STRING_1,STRING_2,

























