testGetAllLinksFromOrgnDocSucess,addDocumentLink,getOutgoingDocumentLinks,
METHOD_0,METHOD_1,METHOD_2,

kuali,rice,kew,DocumentLink,link1,link2,link3,link4,links,
IDENT_0,IDENT_1,IDENT_2,IDENT_3,IDENT_4,IDENT_5,IDENT_6,IDENT_7,IDENT_8,







"5000","6000","5009","6009","6003","6004",
STRING_0,STRING_1,STRING_2,STRING_3,STRING_4,STRING_5,

























