test_getpid,getPid,getRuntimeMXBean,parseInt,
METHOD_0,METHOD_1,METHOD_2,METHOD_3,

pid,rocketmq,UtilAll,RuntimeMXBean,ManagementFactory,
IDENT_0,IDENT_1,IDENT_2,IDENT_3,IDENT_4,







"PID = ",'@',
STRING_0,STRING_1,

























