testBuildJobTriggers,JobBuilder,triggers,getTriggers,
METHOD_0,METHOD_1,METHOD_2,METHOD_3,

kylenicholls,stash,parameterizedbuilds,Job,Trigger,Stream,ADD,MANUAL,Collectors,
IDENT_0,IDENT_1,IDENT_2,IDENT_3,IDENT_4,IDENT_5,IDENT_6,IDENT_7,IDENT_8,







"add","manual",
STRING_0,STRING_1,

























