Text,addInput,getConfiguration,getFirst,
METHOD_0,METHOD_1,METHOD_2,METHOD_3,

Text,mapDriver,BatchConstants,MAPPER_SAMPLE_NUMBER,mrunit,Pair,LongWritable,columns,
IDENT_0,IDENT_1,IDENT_2,IDENT_3,IDENT_4,IDENT_5,IDENT_6,IDENT_7,

1001,
INT_0,




"abc","100",
STRING_0,STRING_1,

























