testValidKey,generateKey,generate,validateAndDecrypt,
METHOD_0,METHOD_1,METHOD_2,METHOD_3,

macasaet,fernet,Key,Token,Validator,
IDENT_0,IDENT_1,IDENT_2,IDENT_3,IDENT_4,







"secret message",
STRING_0,

























