getDriverVersionShouldBeCorrect,Neo4jDatabaseMetaData,getDriverVersion,
METHOD_0,METHOD_1,METHOD_2,

Neo4jDatabaseMetaData,databaseMetaData,driverVersion,
IDENT_0,IDENT_1,IDENT_2,


































