testAdd,getAllStoredKey,getIndexSize,createIndexKey,getFromMemcached,
METHOD_0,METHOD_1,METHOD_2,METHOD_3,METHOD_4,

keyStore,keyArray,allKeys,storedkey,ms,udas,MemcachedKeyStore,
IDENT_0,IDENT_1,IDENT_2,IDENT_3,IDENT_4,IDENT_5,IDENT_6,







"Key",
STRING_0,

























