ValueIteratorAdapter,
METHOD_0,

mockValueIterator,fm,last,kyoto,ValueIteratorAdapter,NoSuchElementException,nextValue,
IDENT_0,IDENT_1,IDENT_2,IDENT_3,IDENT_4,IDENT_5,IDENT_6,


































