normal,
METHOD_0,

ms,ValidationResult,valid,FormValidator,fieldKey,displayName,validatorIds,
IDENT_0,IDENT_1,IDENT_2,IDENT_3,IDENT_4,IDENT_5,IDENT_6,







"12345678901",
STRING_0,

























