noSpuriousDecodes,unescape,
METHOD_0,METHOD_1,

leap,Entities,
IDENT_0,IDENT_1,







"http://www.foo.com?a=1&num_rooms=1&children=0&int=VA&b=2",
STRING_0,

























