attr,asStartElement,getAttributeByName,
METHOD_0,METHOD_1,METHOD_2,

leap,Jsoup,classVal,namespace,QName,
IDENT_0,IDENT_1,IDENT_2,IDENT_3,IDENT_4,







"<p title=foo><p title=bar><p class=foo><p class=bar>","p","class",
STRING_0,STRING_1,STRING_2,

























