testWithQuotePolicy,withQuotePolicy,getQuotePolicy,
METHOD_0,METHOD_1,METHOD_2,

leap,csv,CSVFormat,formatWithQuotePolicy,DEFAULT,Quote,ALL,quotePolicy,
IDENT_0,IDENT_1,IDENT_2,IDENT_3,IDENT_4,IDENT_5,IDENT_6,IDENT_7,


































