andCompressedSize,bitmapOf,sizeInBytes,sizeInWords,
METHOD_0,METHOD_1,METHOD_2,METHOD_3,

javaewah32,EWAHCompressedBitmap32,b1,b2,WORD_IN_BITS,javaewah,EWAHCompressedBitmap,
IDENT_0,IDENT_1,IDENT_2,IDENT_3,IDENT_4,IDENT_5,IDENT_6,


































