TestCloneEwahCompressedBitArray,EWAHCompressedBitmap32,clone,setSizeInBits,xorToContainer,NonEmptyVirtualStorage32,
METHOD_0,METHOD_1,METHOD_2,METHOD_3,METHOD_4,METHOD_5,

javaewah32,EWAHCompressedBitmap32,
IDENT_0,IDENT_1,

410018,410019,410020,410021,410022,410023,487123,
INT_0,INT_1,INT_2,INT_3,INT_4,INT_5,INT_6,




"testing EWAH clone",
STRING_0,

























