andNotCompressedSize,bitmapOf,andNot,sizeInBytes,sizeInWords,
METHOD_0,METHOD_1,METHOD_2,METHOD_3,METHOD_4,

javaewah,EWAHCompressedBitmap,b1,WORD_IN_BITS,
IDENT_0,IDENT_1,IDENT_2,IDENT_3,


































