testReadBlockGroupNormal,allocate,setContent,getFile,seek,getContent,
METHOD_0,METHOD_1,METHOD_2,METHOD_3,METHOD_4,METHOD_5,

geekhua,filequeue,BlockGroup,blockGroup,RandomAccessFile,readBlockGroup,
IDENT_0,IDENT_1,IDENT_2,IDENT_3,IDENT_4,IDENT_5,

1024,
INT_0,































