count_value_in_map_using_java8,toMap,
METHOD_0,METHOD_1,

monthsStartWith_M,MONTHS,Collectors,
IDENT_0,IDENT_1,IDENT_2,







"M",
STRING_0,

























