remove_null_from_list_apache_commons,Predicate,
METHOD_0,METHOD_1,

strings,CollectionUtils,levelup,ListContainsAll,Camera,camera,focalLength,
IDENT_0,IDENT_1,IDENT_2,IDENT_3,IDENT_4,IDENT_5,IDENT_6,

80,
INT_0,




"www","leveluplunch","com",
STRING_0,STRING_1,STRING_2,

























