map_to_intstream,mapToInt,getAsInt,
METHOD_0,METHOD_1,METHOD_2,

integers,OptionalInt,intStream,parseInt,
IDENT_0,IDENT_1,IDENT_2,IDENT_3,







"3",
STRING_0,

























