predicate_or,or,
METHOD_0,METHOD_1,

Predicate,containsLetterA,containsA,outcome,hasLengthOf10,
IDENT_0,IDENT_1,IDENT_2,IDENT_3,IDENT_4,







"A","And",
STRING_0,STRING_1,

























