heads_up,getSideUp,isHeadsUp,
METHOD_0,METHOD_1,METHOD_2,

levelup,exercises,beginner,TossingCoinsForADollar,Coin,coin,TossingCoinsForADollar$Coin,
IDENT_0,IDENT_1,IDENT_2,IDENT_3,IDENT_4,IDENT_5,IDENT_6,







"heads",
STRING_0,

























