issue21,createImageInputStream,getPage,getBitmap,md5,digest,getByteArray,
METHOD_0,METHOD_1,METHOD_2,METHOD_3,METHOD_4,METHOD_5,METHOD_6,

md5Expected,imageStream,globalsStream,imageio,ImageInputStream,globalsIIS,ImageIO,imageIIS,md5Actual,pdfbox,jbig2,JBIG2Document,JBIG2Page,Bitmap,bitmap,MessageDigest,
IDENT_0,IDENT_1,IDENT_2,IDENT_3,IDENT_4,IDENT_5,IDENT_6,IDENT_7,IDENT_8,IDENT_9,IDENT_10,IDENT_11,IDENT_12,IDENT_13,IDENT_14,IDENT_15,

83,74,69,60,122,99,21,126,115,13,107,31,109,77,119,
INT_0,INT_1,INT_2,INT_3,INT_4,INT_5,INT_6,INT_7,INT_8,INT_9,INT_10,INT_11,INT_12,INT_13,INT_14,




"/com/levigo/jbig2/github/21.jb2","/com/levigo/jbig2/github/21.glob","MD5",
STRING_0,STRING_1,STRING_2,

























