test_getDiameter,CircleClass,Circle,getDiameter,
METHOD_0,METHOD_1,METHOD_2,METHOD_3,

levelup,exercises,beginner,CircleClass,circleClass,Circle,circle,radius,
IDENT_0,IDENT_1,IDENT_2,IDENT_3,IDENT_4,IDENT_5,IDENT_6,IDENT_7,


































