map_to_longstream,mapToLong,getAsLong,
METHOD_0,METHOD_1,METHOD_2,

longs,OptionalLong,longStream,parseLong,
IDENT_0,IDENT_1,IDENT_2,IDENT_3,







"3",
STRING_0,

























