predicate_negate,negate,
METHOD_0,METHOD_1,

lengthGTThan10,outcome,hasLengthOf10,
IDENT_0,IDENT_1,IDENT_2,







"Thunderstruck is a 2012 children's ","film starring Kevin Durant",
STRING_0,STRING_1,

























