testDeepCopy_PairContainingNull,ints,initialize,deepCopy,
METHOD_0,METHOD_1,METHOD_2,METHOD_3,

crunch,Pair,inputPair,DeepCopier,deepCopier,TupleDeepCopier,Avros,deepCopyPair,
IDENT_0,IDENT_1,IDENT_2,IDENT_3,IDENT_4,IDENT_5,IDENT_6,IDENT_7,


































