treeParentContainsChild,Prueba,addToRoot,
METHOD_0,METHOD_1,METHOD_2,

zkoss,ganttz,MutableTreeModel,MutableTreeModelTest,Prueba,libreplan,BaseEntity,each,
IDENT_0,IDENT_1,IDENT_2,IDENT_3,IDENT_4,IDENT_5,IDENT_6,IDENT_7,


































