testSaveProfile,createValidProfile,
METHOD_0,METHOD_1,

libreplan,users,Profile,profile,profileDAO,
IDENT_0,IDENT_1,IDENT_2,IDENT_3,IDENT_4,


































