testSubtraction2,createDDMExpression,getPrimaryKey,
METHOD_0,METHOD_1,METHOD_2,

dynamic,DDMExpressionImpl,ddmExpression,bigDecimal,adaptive,AMImageEntry,primaryKey,amImageEntry,
IDENT_0,IDENT_1,IDENT_2,IDENT_3,IDENT_4,IDENT_5,IDENT_6,IDENT_7,







"4 - 2 - 1",
STRING_0,

























