testApplyWithNull2,ContainsFunction,pow,intValue,
METHOD_0,METHOD_1,METHOD_2,METHOD_3,

dynamic,form,evaluator,ContainsFunction,containsFunction,n1,n2,
IDENT_0,IDENT_1,IDENT_2,IDENT_3,IDENT_4,IDENT_5,IDENT_6,







"liferay",
STRING_0,

























