testEmptyParameter,IsEmptyFunction,_getUrlTitle,
METHOD_0,METHOD_1,METHOD_2,

dynamic,form,evaluator,IsEmptyFunction,isEmptyFunction,languageId,
IDENT_0,IDENT_1,IDENT_2,IDENT_3,IDENT_4,IDENT_5,


































