testFoldersCountWhenAddingRootMessage,getDLFoldersCount,addMessage,getService,
METHOD_0,METHOD_1,METHOD_2,METHOD_3,

initialFoldersCount,DLFolderLocalServiceUtil,
IDENT_0,IDENT_1,


































