testFindByPrimaryKeyExisting,addMBBan,findByPrimaryKey,getPrimaryKey,
METHOD_0,METHOD_1,METHOD_2,METHOD_3,

boards,MBBan,newMBBan,existingMBBan,_persistence,_amImageEntryId,
IDENT_0,IDENT_1,IDENT_2,IDENT_3,IDENT_4,IDENT_5,


































