testSegments2,fromPath,segment,
METHOD_0,METHOD_1,METHOD_2,

path1,path2,UriBuilder,
IDENT_0,IDENT_1,IDENT_2,







"a1","3b ","a1/%2F/3b%20",
STRING_0,STRING_1,STRING_2,

























