testRemove,addMDRAction,fetchByPrimaryKey,getPrimaryKey,
METHOD_0,METHOD_1,METHOD_2,METHOD_3,

mobile,MDRAction,newMDRAction,_persistence,existingMDRAction,_amImageEntryId,
IDENT_0,IDENT_1,IDENT_2,IDENT_3,IDENT_4,IDENT_5,


































