testToTemplate,fromPath,segment,toTemplate,doBuildUriParts,buildUriString,
METHOD_0,METHOD_1,METHOD_2,METHOD_3,METHOD_4,METHOD_5,

path1,path2,UriBuilder,UriBuilderImpl,UriParts,parts,fragment,
IDENT_0,IDENT_1,IDENT_2,IDENT_3,IDENT_4,IDENT_5,IDENT_6,







"ab","a1","{xy}","3b ","ab/a1/{xy}/3b%20",
STRING_0,STRING_1,STRING_2,STRING_3,STRING_4,

























