testNestedQuery,nested,NestedQueryImpl,
METHOD_0,METHOD_1,METHOD_2,

NestedQuery,nestedQuery,QueriesInstantiationTest,_queries,
IDENT_0,IDENT_1,IDENT_2,IDENT_3,







"path",
STRING_0,

























