testGeoDistanceSort,geoDistance,GeoDistanceSortImpl,
METHOD_0,METHOD_1,METHOD_2,

sort,GeoDistanceSort,geoDistanceSort,SortsInstantiationTest,_sorts,
IDENT_0,IDENT_1,IDENT_2,IDENT_3,IDENT_4,







"field",
STRING_0,

























