testPercolateQuery,percolate,PercolateQueryImpl,
METHOD_0,METHOD_1,METHOD_2,

documentJSONs,PercolateQuery,percolateQuery,QueriesInstantiationTest,_queries,
IDENT_0,IDENT_1,IDENT_2,IDENT_3,IDENT_4,







"field",
STRING_0,

























