testPathParamSpaceBuild,fromUri,
METHOD_0,METHOD_1,

UriBuilder,
IDENT_0,







"http://localhost:8080/name/%20","http://localhost:8080","name/%20",
STRING_0,STRING_1,STRING_2,

























