testScoreSort,score,ScoreSortImpl,
METHOD_0,METHOD_1,METHOD_2,

sort,ScoreSort,scoreSort,SortsInstantiationTest,_sorts,
IDENT_0,IDENT_1,IDENT_2,IDENT_3,IDENT_4,


































