testReadableForm,FormEncodingProvider,isReadable,
METHOD_0,METHOD_1,METHOD_2,

FormEncodingProvider,Form,ferp,Annotation,MediaType,
IDENT_0,IDENT_1,IDENT_2,IDENT_3,IDENT_4,


































