testEndpointPublishAfterGetBinding,Hello,getBinding,publish,stop,
METHOD_0,METHOD_1,METHOD_2,METHOD_3,METHOD_4,

Endpoint,endpoint,jaxws,Binding,
IDENT_0,IDENT_1,IDENT_2,IDENT_3,







"http://localhost:8080/test",
STRING_0,

























