testDirectory,getParent,checkOrder,createAndPublish,toURI,createServerApp,
METHOD_0,METHOD_1,METHOD_2,METHOD_3,METHOD_4,METHOD_5,

emptyFile,dir,phMock,epAddr,js,rhino,ServerApp,
IDENT_0,IDENT_1,IDENT_2,IDENT_3,IDENT_4,IDENT_5,IDENT_6,







"empty/empty2.jsx","empty/empty3.js","empty/empty4.jsx","-b",
STRING_0,STRING_1,STRING_2,STRING_3,

























