testThrowException,throwException,_throwException,
METHOD_0,METHOD_1,METHOD_2,

petra,ReflectionUtil,throwable,
IDENT_0,IDENT_1,IDENT_2,


































