testGetLibraryBook,queryBooks,getSize,
METHOD_0,METHOD_1,METHOD_2,

Book,books,
IDENT_0,IDENT_1,







"library.books.bookTitle==num10",
STRING_0,

























