testCheckTokenValid,createToken,checkToken,_expungeExpiredToken,
METHOD_0,METHOD_1,METHOD_2,METHOD_3,

tokenString,TransientTokenUtil,currentTime,_tokens,itr,curToken,
IDENT_0,IDENT_1,IDENT_2,IDENT_3,IDENT_4,IDENT_5,


































