testHasInstanceId6,fromPortletInstanceKey,getPortletInstanceKey,hasInstanceId,isNotNull,
METHOD_0,METHOD_1,METHOD_2,METHOD_3,METHOD_4,

PortletInstance,portletInstance,Validator,_instanceId,
IDENT_0,IDENT_1,IDENT_2,IDENT_3,







"1234",
STRING_0,

























