testAuthorized,mockUser,isAllowed,isAdmin,
METHOD_0,METHOD_1,METHOD_2,METHOD_3,










"not-the-admin","somthing-else","another-group","administrators",
STRING_0,STRING_1,STRING_2,STRING_3,

























