testGetUserId6,fromPortletInstanceKey,getPortletInstanceKey,getUserId,
METHOD_0,METHOD_1,METHOD_2,METHOD_3,

PortletInstance,portletInstance,_userId,
IDENT_0,IDENT_1,IDENT_2,







"1234",
STRING_0,

























