testGetProxyMethodSignatures,getProxyMethodSignatures,getField,
METHOD_0,METHOD_1,METHOD_2,

TestClass,intraband,IntrabandProxyUtil,_PROXY_METHOD_SIGNATURES_FIELD_NAME,
IDENT_0,IDENT_1,IDENT_2,IDENT_3,


































