testMarkSupported,LimitedInputStream,markSupported,
METHOD_0,METHOD_1,METHOD_2,

LimitedInputStream,limitedInputStream,
IDENT_0,IDENT_1,


































