testFilterIntegerNullArray,
METHOD_0,

filteredArray,ArrayUtil,_integerPredicate,Predicate,predicate,
IDENT_0,IDENT_1,IDENT_2,IDENT_3,IDENT_4,


































