testRemoveMultipleElements,copy,
METHOD_0,METHOD_1,

removeList,ListUtil,E,
IDENT_0,IDENT_1,IDENT_2,







"aaa","bbb","ccc",
STRING_0,STRING_1,STRING_2,

























