simple_StringBuilder_vs_String,
METHOD_0,

timeStringBuilder,before,bld,after,timeString,ops,
IDENT_0,IDENT_1,IDENT_2,IDENT_3,IDENT_4,IDENT_5,

1000000,
INT_0,




"asdf",'_',
STRING_0,STRING_1,

























