byComplexKeys,queryView,getRows,
METHOD_0,METHOD_1,METHOD_2,

keysToGet,Vector,lightcouch,ViewResult,Foo,fooRows,ViewsTest,dbClient,rows,
IDENT_0,IDENT_1,IDENT_2,IDENT_3,IDENT_4,IDENT_5,IDENT_6,IDENT_7,IDENT_8,

2011,2013,17,
INT_0,INT_1,INT_2,




"example/by_date",
STRING_0,

























