test_sameContent_omitted_NOK,GeneratedTemplate,setOmitted,isSameContent,
METHOD_0,METHOD_1,METHOD_2,METHOD_3,

GeneratedTemplate,thisTemplate,otherTemplate,
IDENT_0,IDENT_1,IDENT_2,







"path","content","name2","path2","contentX",
STRING_0,STRING_1,STRING_2,STRING_3,STRING_4,

























