should_not_remove_WS,GenerationUnit,resourceFor,removeDuplicates,keySet,
METHOD_0,METHOD_1,METHOD_2,METHOD_3,METHOD_4,

gus,extracted,templates,EntityBuilderType,WS,GenerationPackage,
IDENT_0,IDENT_1,IDENT_2,IDENT_3,IDENT_4,IDENT_5,


































