getTagsAsList_shouldReturnEmptyString,getTagsAsList,
METHOD_0,METHOD_1,

PropertyTagEntity,propertyTags,globalPropertyTags,tag,
IDENT_0,IDENT_1,IDENT_2,IDENT_3,







", ","'",
STRING_0,STRING_1,

























