mpConfigIsNotConfigured,getBrandPortalConfigs,resourceResolver,
METHOD_0,METHOD_1,METHOD_2,

slingContext,assetsFolderPathWithoutMpConfig,sling,Resource,
IDENT_0,IDENT_1,IDENT_2,IDENT_3,


































