propertyDescriptorDoesNotExistInEarlierRevision,
METHOD_0,

PropertyDescriptorEntity,propertyDescriptor,auditReader,revisionInBetween,
IDENT_0,IDENT_1,IDENT_2,IDENT_3,


































