testNPlusOne2,Role2_,Account22,setEmail,setRole,selectAll,supportSelectAll,
METHOD_0,METHOD_1,METHOD_2,METHOD_3,METHOD_4,METHOD_5,METHOD_6,

indi,mybatis,flying,pojo,Role2_,role2Service,r2,Account22,account22Service,a2,accounts,accounts2,accounts3,LoginLog_,
IDENT_0,IDENT_1,IDENT_2,IDENT_3,IDENT_4,IDENT_5,IDENT_6,IDENT_7,IDENT_8,IDENT_9,IDENT_10,IDENT_11,IDENT_12,IDENT_13,

21,22,
INT_0,INT_1,




"root","user","10","11",
STRING_0,STRING_1,STRING_2,STRING_3,

























