test1,LoginLog_Condition,setLoginIPHeadLikeOr,getLoginIPHeadLikeOr,
METHOD_0,METHOD_1,METHOD_2,METHOD_3,

indi,mybatis,flying,pojo,LoginLog_Condition,lc,loginIPHeadLikeOr,
IDENT_0,IDENT_1,IDENT_2,IDENT_3,IDENT_4,IDENT_5,IDENT_6,


































