testBasic1,TermPositions,getTf,
METHOD_0,METHOD_1,METHOD_2,

ivory,TermPositions,tp,innerPrevTf,
IDENT_0,IDENT_1,IDENT_2,IDENT_3,

23,
INT_0,































