testDot,Int2IntOpenHashMapWritable,dot,
METHOD_0,METHOD_1,METHOD_2,

tl,lin,Int2IntOpenHashMapWritable,m1,m2,MapKL,K,
IDENT_0,IDENT_1,IDENT_2,IDENT_3,IDENT_4,IDENT_5,IDENT_6,


































