testIntersection4,ArrayListOfLongs,intersection,
METHOD_0,METHOD_1,METHOD_2,

tl,lin,ArrayListOfLongs,
IDENT_0,IDENT_1,IDENT_2,


































