testHasMany,getDatabase1,users,posts,getPosts,
METHOD_0,METHOD_1,METHOD_2,METHOD_3,METHOD_4,

rapleaf,jack,test_project,database_1,iface,IUserPersistence,users,dbs,u1,IPostPersistence,posts,Post,p1,p2,p3,__assoc_posts,
IDENT_0,IDENT_1,IDENT_2,IDENT_3,IDENT_4,IDENT_5,IDENT_6,IDENT_7,IDENT_8,IDENT_9,IDENT_10,IDENT_11,IDENT_12,IDENT_13,IDENT_14,IDENT_15,







"bryand","this is a relatively long string","title1","title2","title3",
STRING_0,STRING_1,STRING_2,STRING_3,STRING_4,

1.2,3.4,
FLOAT_0,FLOAT_1,






















