testGetPathForResourceWithSimplePath,getPathForResource,endsWith,
METHOD_0,METHOD_1,METHOD_2,

liquibase,SpringBootFatJar,
IDENT_0,IDENT_1,







"some/simple/path","!",".jar",
STRING_0,STRING_1,STRING_2,

























