testNotMatch,isMatch,areEqualInternally,
METHOD_0,METHOD_1,METHOD_2,

eurekastreams,EasyMatcher,sut,inTestObject,IsEqualInternally,compareAgainst,
IDENT_0,IDENT_1,IDENT_2,IDENT_3,IDENT_4,IDENT_5,




protected,
MOD_0,




























