testEmptyConstructor,AuthorizationException,
METHOD_0,METHOD_1,

eurekastreams,AuthorizationException,sut,
IDENT_0,IDENT_1,IDENT_2,


































