testGetters,getDomainEnity,
METHOD_0,METHOD_1,

eurekastreams,mappers,requests,PersistenceRequest,Activity,sut,domainEntity,
IDENT_0,IDENT_1,IDENT_2,IDENT_3,IDENT_4,IDENT_5,IDENT_6,


































