testGetters,IdSetRequest,getIds,
METHOD_0,METHOD_1,METHOD_2,

eurekastreams,mappers,requests,opensocial,IdSetRequest,sut,ids,
IDENT_0,IDENT_1,IDENT_2,IDENT_3,IDENT_4,IDENT_5,IDENT_6,


































