testRetrieveLetter,getResponseBody,getData,retrieve,
METHOD_0,METHOD_1,METHOD_2,METHOD_3,

lob,Letter,testLetter,LobResponse,
IDENT_0,IDENT_1,IDENT_2,IDENT_3,


































