testNoConflictIfSameDiff,WKTReader,GeometryAttributeDiff,conflicts,equalsExact,
METHOD_0,METHOD_1,METHOD_2,METHOD_3,METHOD_4,

Geometry,oldGeom,newGeom,geogig,plumbing,diff,GeometryAttributeDiff,diff2,AttributeDiff,ad,gad,TYPE,myType,otherType,NO_CHANGE,REMOVED,MODIFIED,ADDED,newGeometry,
IDENT_0,IDENT_1,IDENT_2,IDENT_3,IDENT_4,IDENT_5,IDENT_6,IDENT_7,IDENT_8,IDENT_9,IDENT_10,IDENT_11,IDENT_12,IDENT_13,IDENT_14,IDENT_15,IDENT_16,IDENT_17,IDENT_18,







"MULTILINESTRING ((40 40, 20 45, 45 30, 40 40),(20 35, 45 10, 30 5, 10 30, 20 35))","MULTILINESTRING ((40 40, 20 45, 45 35, 30 30),(20 35, 45 10, 30 5, 10 30, 20 35))",
STRING_0,STRING_1,

























