testRead,begin,emptyMap,
METHOD_0,METHOD_1,METHOD_2,

sardine,Sardine,SardineFactory,
IDENT_0,IDENT_1,IDENT_2,







"http://sardine.googlecode.com/svn/trunk/README.html",
STRING_0,

























