testDestination_None,isStarted,getCount,
METHOD_0,METHOD_1,METHOD_2,

appender,CountDownLatch,latch,shutdownLatch,
IDENT_0,IDENT_1,IDENT_2,IDENT_3,


































