testSplit,
METHOD_0,

words,character,retrieval,CollectionUtils,arrays,
IDENT_0,IDENT_1,IDENT_2,IDENT_3,IDENT_4,







"split","a,bc",",","bc",
STRING_0,STRING_1,STRING_2,STRING_3,

























