readStringTest,ClassPathResource,readUtf8Str,isNotEmpty,
METHOD_0,METHOD_1,METHOD_2,METHOD_3,

cn,hutool,ClassPathResource,CharSequence,StrUtil,
IDENT_0,IDENT_1,IDENT_2,IDENT_3,IDENT_4,







"test.properties",
STRING_0,

























