testDestination_MixedType,setRemoteHost,setPort,addDestination,isStarted,getCount,
METHOD_0,METHOD_1,METHOD_2,METHOD_3,METHOD_4,METHOD_5,

appender,CountDownLatch,latch,shutdownLatch,
IDENT_0,IDENT_1,IDENT_2,IDENT_3,

10000,
INT_0,




"localhost","localhost:10001",
STRING_0,STRING_1,

























