findTest,EntityListHandler,
METHOD_0,METHOD_1,

cn,hutool,CRUDTest,CollUtil,
IDENT_0,IDENT_1,IDENT_2,IDENT_3,







"name AS name2","user",
STRING_0,STRING_1,

























