findAllTest,findAll,compile,
METHOD_0,METHOD_1,METHOD_2,

resultFindAll,cn,hutool,ReUtil,CollectionUtil,CharSequence,Pattern,DOTALL,
IDENT_0,IDENT_1,IDENT_2,IDENT_3,IDENT_4,IDENT_5,IDENT_6,IDENT_7,







"\\w{2}","ZZ","Za","aa","bb","bc","cc","12","34",
STRING_0,STRING_1,STRING_2,STRING_3,STRING_4,STRING_5,STRING_6,STRING_7,STRING_8,

























