randomEleSetTest,randomEleSet,
METHOD_0,METHOD_1,

cn,hutool,RandomUtil,CollectionUtil,LinkedHashMap,
IDENT_0,IDENT_1,IDENT_2,IDENT_3,IDENT_4,


































