canAddBlocksToPiece,Sha1Hash,Piece,getBegin,addBlock,checkHash,
METHOD_0,METHOD_1,METHOD_2,METHOD_3,METHOD_4,METHOD_5,

Hashing,files,Piece,piece,Block,b1,b2,
IDENT_0,IDENT_1,IDENT_2,IDENT_3,IDENT_4,IDENT_5,IDENT_6,

26,13,
INT_0,INT_1,




"abcdefghijklmnopqrstuvwxyz","abcdefghijklm","nopqrstuvwxyz",
STRING_0,STRING_1,STRING_2,

























