shouldExpandStringsComposedByOnlyTilde,expand,lock,unlock,
METHOD_0,METHOD_1,METHOD_2,METHOD_3,

expander,readLock,
IDENT_0,IDENT_1,







"~","user.home",
STRING_0,STRING_1,

























