encodeAndDecode,Random,nextLong,UnsupportedOperationException,
METHOD_0,METHOD_1,METHOD_2,METHOD_3,

encoded,aeonbits,owner,Base64,decoderMethod,decoderObject,
IDENT_0,IDENT_1,IDENT_2,IDENT_3,IDENT_4,IDENT_5,







"The date is: ",", a random number is: ","Cannot find Base64 decoder.",
STRING_0,STRING_1,STRING_2,

























