post_A$String$Map,post,
METHOD_0,METHOD_1,

formParams,m3,curly,HTTP,
IDENT_0,IDENT_1,IDENT_2,IDENT_3,







"Andy","http://localhost:8802/",
STRING_0,STRING_1,

























