getHeader_A$String,Request,getHeader,toHttpURLConnection,getHeaderField,
METHOD_0,METHOD_1,METHOD_2,METHOD_3,METHOD_4,

m3,curly,Request,specifiedHeaderValue,GET,
IDENT_0,IDENT_1,IDENT_2,IDENT_3,IDENT_4,







"https://github.com/m3dev","Set-Cookie",
STRING_0,STRING_1,

























