__A$VoidFunction1,Called,
METHOD_0,METHOD_1,

m3,scalaflavor4j,CollectionLike,xs1,Seq,xs2,xs3,xs4,Option,ForComprehension4Test,Called,For,VoidF1,Tuple4,T1,T2,T3,T4,T5,Tuple5,_1,_2,_3,_4,_5,
IDENT_0,IDENT_1,IDENT_2,IDENT_3,IDENT_4,IDENT_5,IDENT_6,IDENT_7,IDENT_8,IDENT_9,IDENT_10,IDENT_11,IDENT_12,IDENT_13,IDENT_14,IDENT_15,IDENT_16,IDENT_17,IDENT_18,IDENT_19,IDENT_20,IDENT_21,IDENT_22,IDENT_23,IDENT_24,

10L,20L,
INT_0,INT_1,































