get_A$Request_HeaderInjectionByQueryString,Request,addQueryParam,
METHOD_0,METHOD_1,METHOD_2,

m3,curly,Request,HTTP,
IDENT_0,IDENT_1,IDENT_2,IDENT_3,







"http://localhost:8811/","k","v\nH2: evil",
STRING_0,STRING_1,STRING_2,

























