flatMap_A$Function1_Option,flatMap,until,
METHOD_0,METHOD_1,METHOD_2,

m3,scalaflavor4j,CollectionLike,xs,Option,Generator,cl,FlatMapF1,SInt,R,
IDENT_0,IDENT_1,IDENT_2,IDENT_3,IDENT_4,IDENT_5,IDENT_6,IDENT_7,IDENT_8,IDENT_9,


































