tupled_A$,RichFunction5,tupled,
METHOD_0,METHOD_1,METHOD_2,

m3,scalaflavor4j,RichFunction5,F5,v3,v5,Tuple,T1,T2,T3,T4,T5,Tuple5,_1,_2,_3,_4,_5,
IDENT_0,IDENT_1,IDENT_2,IDENT_3,IDENT_4,IDENT_5,IDENT_6,IDENT_7,IDENT_8,IDENT_9,IDENT_10,IDENT_11,IDENT_12,IDENT_13,IDENT_14,IDENT_15,IDENT_16,IDENT_17,







"c","d","e",
STRING_0,STRING_1,STRING_2,

























