mergeToRight_A$Function1,mergeToRight,getOrNull,ScalaFlavor4JException,
METHOD_0,METHOD_1,METHOD_2,METHOD_3,

m3,scalaflavor4j,Either,Left,Function1,leftToRight,F1,
IDENT_0,IDENT_1,IDENT_2,IDENT_3,IDENT_4,IDENT_5,IDENT_6,







"xxx",
STRING_0,

























