forall_A$Function1_Nil,forall,MainFunction,foreach,
METHOD_0,METHOD_1,METHOD_2,METHOD_3,

m3,scalaflavor4j,Seq,seq,F1,MainFunction,main,print,VoidF1,arg,
IDENT_0,IDENT_1,IDENT_2,IDENT_3,IDENT_4,IDENT_5,IDENT_6,IDENT_7,IDENT_8,IDENT_9,


































