getOrElse_A$Integer,getOrElse,
METHOD_0,METHOD_1,

m3,scalaflavor4j,SInt,defaultValue,
IDENT_0,IDENT_1,IDENT_2,IDENT_3,

123,
INT_0,































