toString_A$,
METHOD_0,

m3,scalaflavor4j,Either,Right,
IDENT_0,IDENT_1,IDENT_2,IDENT_3,

123,
INT_0,




"Right(123)","<function5>",
STRING_0,STRING_1,

























