toString_A$,
METHOD_0,

m3,scalaflavor4j,Tuple5,
IDENT_0,IDENT_1,IDENT_2,







"(1,2,3,4,5)","SInt(",")",
STRING_0,STRING_1,STRING_2,

























