toString_A$,RichVoidFunction3,
METHOD_0,METHOD_1,

m3,scalaflavor4j,RichVoidFunction3,vf,VoidFunction3,v3,
IDENT_0,IDENT_1,IDENT_2,IDENT_3,IDENT_4,IDENT_5,







"<void-function3>","<function5>",
STRING_0,STRING_1,

























