toString_A$,StringLike,
METHOD_0,METHOD_1,

Character,m3,scalaflavor4j,StringLike,sl,
IDENT_0,IDENT_1,IDENT_2,IDENT_3,IDENT_4,







'a','b','c','',"abc","<function5>",
STRING_0,STRING_1,STRING_2,STRING_3,STRING_4,STRING_5,

























