isEmpty_A$_true,Resource,
METHOD_0,METHOD_1,

m3,scalaflavor4j,arm,Resource,ManagedResource,mr,
IDENT_0,IDENT_1,IDENT_2,IDENT_3,IDENT_4,IDENT_5,


































