shouldUseExistingManaToPayColorless,Mana,setRed,setGeneric,subtractCost,getRed,
METHOD_0,METHOD_1,METHOD_2,METHOD_3,METHOD_4,METHOD_5,

mage,Mana,available,cost,red,
IDENT_0,IDENT_1,IDENT_2,IDENT_3,IDENT_4,


































