testManager,blockingPromise,invokeWithPromise,
METHOD_0,METHOD_1,METHOD_2,

advantageous,reakt,promise,Promise,mammatustech,todo,Todo,listPromise2,todoManager,todos2,todoMap,
IDENT_0,IDENT_1,IDENT_2,IDENT_3,IDENT_4,IDENT_5,IDENT_6,IDENT_7,IDENT_8,IDENT_9,IDENT_10,


































