getDefaultValueReturnsDefaultValue,getDefaultValue,
METHOD_0,METHOD_1,

lidalia,sysoutslf4j,system,PerContextStore,storeUnderTest,defaultValue,
IDENT_0,IDENT_1,IDENT_2,IDENT_3,IDENT_4,IDENT_5,







"default",
STRING_0,

























