testPossibleCloneOfNotCloneable,cloneIfPossible,clone,
METHOD_0,METHOD_1,METHOD_2,

clone,ObjectUtils,
IDENT_0,IDENT_1,







"apache",
STRING_0,

























