testAtLeastOneThreadExists,getAllThreads,findThreads,
METHOD_0,METHOD_1,METHOD_2,

ThreadUtils,ALWAYS_TRUE_PREDICATE,
IDENT_0,IDENT_1,


































