testSubtractValuePrimitive,MutableByte,subtract,byteValue,
METHOD_0,METHOD_1,METHOD_2,METHOD_3,

MutableByte,mutNum,
IDENT_0,IDENT_1,


































