testLocaleMatches,getLocale,
METHOD_0,METHOD_1,

DateParser,FastDateParserTest,yMdHmsSZ,SWEDEN,mLocale,
IDENT_0,IDENT_1,IDENT_2,IDENT_3,IDENT_4,


































