testToString,StrBuilder,getLeft,getRight,
METHOD_0,METHOD_1,METHOD_2,METHOD_3,

StrBuilder,fieldName,
IDENT_0,IDENT_1,







"abc","[%s: %s, %s]",
STRING_0,STRING_1,

























