testSubtractValuePrimitive,MutableShort,subtract,shortValue,
METHOD_0,METHOD_1,METHOD_2,METHOD_3,

MutableShort,mutNum,
IDENT_0,IDENT_1,


































