testNotNaN2,notNaN,getFormattedExceptionMessage,
METHOD_0,METHOD_1,METHOD_2,

Validate,POSITIVE_INFINITY,NEGATIVE_INFINITY,NaN,
IDENT_0,IDENT_1,IDENT_2,IDENT_3,







"MSG","Expecting IllegalArgumentException",
STRING_0,STRING_1,

























