asSingle_array,JCalValue,JsonValue,asSingle,isNull,getArray,
METHOD_0,METHOD_1,METHOD_2,METHOD_3,METHOD_4,METHOD_5,

biweekly,JCalValue,
IDENT_0,IDENT_1,







"value1",
STRING_0,

























