newFile,Utf8Writer,Gobble,asString,buildReader,consumeReader,
METHOD_0,METHOD_1,METHOD_2,METHOD_3,METHOD_4,METHOD_5,

folder,biweekly,Utf8Writer,Reader,charset,
IDENT_0,IDENT_1,IDENT_2,IDENT_3,IDENT_4,







"one two three","UTF-8",
STRING_0,STRING_1,

























