parse_timezone,UtcOffset,buildTimezone,SimpleTimeZone,
METHOD_0,METHOD_1,METHOD_2,METHOD_3,

biweekly,UtcOffset,hourMillis,hours,minuteMillis,minutes,
IDENT_0,IDENT_1,IDENT_2,IDENT_3,IDENT_4,IDENT_5,

60,
INT_0,










*=,
OP_0,



















