writeJson_indent,ICalendar,setProductId,writeJson,prettyPrint,go,
METHOD_0,METHOD_1,METHOD_2,METHOD_3,METHOD_4,METHOD_5,

biweekly,ICalendar,ical,NEWLINE,Biweekly,sw,
IDENT_0,IDENT_1,IDENT_2,IDENT_3,IDENT_4,IDENT_5,







"["," \"vcalendar\" ],"," ["," [ \"version\", { }, \"text\", \"2.0\" ]"," ],"," [ ]",
STRING_0,STRING_1,STRING_2,STRING_3,STRING_4,STRING_5,

























