basic,ICalendar,setProductId,VEvent,getProperties,clear,setSummary,addEvent,JCalWriter,
METHOD_0,METHOD_1,METHOD_2,METHOD_3,METHOD_4,METHOD_5,METHOD_6,METHOD_7,METHOD_8,

biweekly,ICalendar,ical,VEvent,sw,JCalWriter,ICalVersion,V2_0,
IDENT_0,IDENT_1,IDENT_2,IDENT_3,IDENT_4,IDENT_5,IDENT_6,IDENT_7,







"prodid","summary","[\"vcalendar\",","[","[\"version\",{},\"text\",\"2.0\"],","[\"prodid\",{},\"text\",\"prodid\"]","],","[\"vevent\",","[\"summary\",{},\"text\",\"summary\"]",
STRING_0,STRING_1,STRING_2,STRING_3,STRING_4,STRING_5,STRING_6,STRING_7,STRING_8,

























