copy,VCardParameters,sanitizeKey,
METHOD_0,METHOD_1,METHOD_2,

ezvcard,VCardParameters,K,V,
IDENT_0,IDENT_1,IDENT_2,IDENT_3,







"NAME",
STRING_0,

























