write_raw_property,JCardWriter,setAddProdId,VCard,setFormattedName,addExtendedProperty,
METHOD_0,METHOD_1,METHOD_2,METHOD_3,METHOD_4,METHOD_5,

sw,ezvcard,JCardWriter,VCard,vcard,
IDENT_0,IDENT_1,IDENT_2,IDENT_3,IDENT_4,







"John Doe","x-type","[\"vcard\",","[","[\"version\",{},\"text\",\"4.0\"],","[\"fn\",{},\"text\",\"John Doe\"],","[\"x-type\",{},\"unknown\",\"value\"]",
STRING_0,STRING_1,STRING_2,STRING_3,STRING_4,STRING_5,STRING_6,

























