write_extended_property,JCardWriter,registerScribe,TestScribe,setAddProdId,VCard,setFormattedName,addProperty,TestProperty,single,
METHOD_0,METHOD_1,METHOD_2,METHOD_3,METHOD_4,METHOD_5,METHOD_6,METHOD_7,METHOD_8,METHOD_9,

sw,ezvcard,JCardWriter,JCardWriterTest,VCard,vcard,JCardValue,
IDENT_0,IDENT_1,IDENT_2,IDENT_3,IDENT_4,IDENT_5,IDENT_6,







"John Doe","[\"vcard\",","[","[\"version\",{},\"text\",\"4.0\"],","[\"fn\",{},\"text\",\"John Doe\"],","[\"x-type\",{},\"text\",\"value\"]",
STRING_0,STRING_1,STRING_2,STRING_3,STRING_4,STRING_5,

























