getQName_default,QName,getXmlNamespace,getQName,
METHOD_0,METHOD_1,METHOD_2,METHOD_3,

namespace,QName,ezvcard,VCardVersion,V4_0,scribe,qname,
IDENT_0,IDENT_1,IDENT_2,IDENT_3,IDENT_4,IDENT_5,IDENT_6,


































