utf8,VCard,addNote,newFile,JCardWriter,setAddProdId,Gobble,asString,buildReader,consumeReader,
METHOD_0,METHOD_1,METHOD_2,METHOD_3,METHOD_4,METHOD_5,METHOD_6,METHOD_7,METHOD_8,METHOD_9,

ezvcard,VCard,vcard,tempFolder,JCardWriter,Reader,charset,
IDENT_0,IDENT_1,IDENT_2,IDENT_3,IDENT_4,IDENT_5,IDENT_6,







"Ɲote","[\"vcard\",","[","[\"version\",{},\"text\",\"4.0\"],","[\"note\",{},\"text\",\"Ɲote\"]","UTF-8",
STRING_0,STRING_1,STRING_2,STRING_3,STRING_4,STRING_5,

























