getFirstChildElement_no_children,toDocument,getFirstChild,getFirstChildElement,
METHOD_0,METHOD_1,METHOD_2,METHOD_3,

ezvcard,XmlUtils,child1,
IDENT_0,IDENT_1,IDENT_2,


































