nullIsNotValid,isWellFormatted,hasKnownCountryCode,
METHOD_0,METHOD_1,METHOD_2,

bic,marcwrobel,jbanking,Bic,
IDENT_0,IDENT_1,IDENT_2,IDENT_3,


































