testPrintAllBrands,getCars,getBrand,joinFrom,
METHOD_0,METHOD_1,METHOD_2,METHOD_3,

lambdaj,demo,Car,car,brandsIterative,brands,brand,
IDENT_0,IDENT_1,IDENT_2,IDENT_3,IDENT_4,IDENT_5,IDENT_6,







", ",
STRING_0,

























