testConstructor6,MaryData,getData,
METHOD_0,METHOD_1,METHOD_2,

marytts,datatypes,MaryData,md,MaryDataType,RAWMARYXML,
IDENT_0,IDENT_1,IDENT_2,IDENT_3,IDENT_4,IDENT_5,


































