testObjectIdentity_types,
METHOD_0,

matsim,v01,Id,IdTest,TLink,linkId1,TNode,nodeId1,
IDENT_0,IDENT_1,IDENT_2,IDENT_3,IDENT_4,IDENT_5,IDENT_6,IDENT_7,


































