testHashSetCache_get_null,unmodifiableSet,
METHOD_0,METHOD_1,

matsim,LinkImpl,HashSetCache,set2,set3,
IDENT_0,IDENT_1,IDENT_2,IDENT_3,IDENT_4,


































