testParsePath,ChildNumber,parsePath,endsWith,parseInt,
METHOD_0,METHOD_1,METHOD_2,METHOD_3,METHOD_4,

tv,matthewmitchell,peercoinj,strPath,expectedPath,HDUtils,parsedNodes,isHard,nodeNumber,
IDENT_0,IDENT_1,IDENT_2,IDENT_3,IDENT_4,IDENT_5,IDENT_6,IDENT_7,IDENT_8,

44,
INT_0,




"M / 44H / 0H / 0H / 1 / 1","M/7H/3/3/1H/","1 H / 2 H / 3 H /","1 / 2 / 3 /","M","H",
STRING_0,STRING_1,STRING_2,STRING_3,STRING_4,STRING_5,

























