getImage,createSequentialImage,SimpleIterator,
METHOD_0,METHOD_1,METHOD_2,

jaitools,imageutils,SimpleIteratorTest,WIDTH,HEIGHT,NUM_BANDS,iter,OUTSIDE,
IDENT_0,IDENT_1,IDENT_2,IDENT_3,IDENT_4,IDENT_5,IDENT_6,IDENT_7,


































