sameHash,ImageLayout2,
METHOD_0,METHOD_1,

jaitools,imageutils,ImageLayout2,il1,il2,prime,
IDENT_0,IDENT_1,IDENT_2,IDENT_3,IDENT_4,IDENT_5,

31,
INT_0,































