testSetCacheFolder,getCacheFolder,setCacheFolder,toURI,
METHOD_0,METHOD_1,METHOD_2,METHOD_3,

oldFolder,jaitools,tilecache,DiskCachedTile,newFolder,cacheFolder,
IDENT_0,IDENT_1,IDENT_2,IDENT_3,IDENT_4,IDENT_5,







"java.io.tmpdir",
STRING_0,

























