testGetTileY,Point,DiskCachedTile,getTileY,
METHOD_0,METHOD_1,METHOD_2,METHOD_3,

Point,jaitools,tilecache,DiskCachedTile,DiskCachedTileTest,raster,tileY,
IDENT_0,IDENT_1,IDENT_2,IDENT_3,IDENT_4,IDENT_5,IDENT_6,

1234,
INT_0,































