singleNotSupportedValidator,supports,CompositeValidator,MapBindingResult,
METHOD_0,METHOD_1,METHOD_2,METHOD_3,

Validator,biz,deinum,CompositeValidator,cv,Errors,
IDENT_0,IDENT_1,IDENT_2,IDENT_3,IDENT_4,IDENT_5,







"command",
STRING_0,

























