testAddTextGetText,getObjectToTest,addText,
METHOD_0,METHOD_1,METHOD_2,

openhealthtools,mdht,uml,hl7,datatypes,ED,ed,DatatypeTestCase,TEST_TEXT,
IDENT_0,IDENT_1,IDENT_2,IDENT_3,IDENT_4,IDENT_5,IDENT_6,IDENT_7,IDENT_8,


































