testGetIntWithStringWithDefaultWithValidProperty,getInt,
METHOD_0,METHOD_1,

NoSuchElementException,NumberFormatException,defaultValue,
IDENT_0,IDENT_1,IDENT_2,







"test1",
STRING_0,

























