testGet,PurgeDelegateMethodInvocationCacheCommand,APITask,getUUID,findFirst,orElse,
METHOD_0,METHOD_1,METHOD_2,METHOD_3,METHOD_4,METHOD_5,

Callable,callable,APITask,tasks,uuid,
IDENT_0,IDENT_1,IDENT_2,IDENT_3,IDENT_4,


































