testGetCharsetNull,Header,setContentType,getCharset,getContentType,getMediaTypeParameters,
METHOD_0,METHOD_1,METHOD_2,METHOD_3,METHOD_4,METHOD_5,

predic8,membrane,Header,charset,
IDENT_0,IDENT_1,IDENT_2,IDENT_3,







"text/xml","charset",
STRING_0,STRING_1,

























