setToNextTimeOnMoment,atUTC,setToNext,inTimezone,
METHOD_0,METHOD_1,METHOD_2,METHOD_3,

Moment,tsp,PlainTimestamp,PlainTime,COMPONENT,ZonalOffset,UTC,year,month,dayOfMonth,hour,minute,
IDENT_0,IDENT_1,IDENT_2,IDENT_3,IDENT_4,IDENT_5,IDENT_6,IDENT_7,IDENT_8,IDENT_9,IDENT_10,IDENT_11,

2014,19,14,30,21,45,
INT_0,INT_1,INT_2,INT_3,INT_4,INT_5,































