withClosedEnd,between,isInfinite,isClosed,getContext,getTemporal,getFactory,
METHOD_0,METHOD_1,METHOD_2,METHOD_3,METHOD_4,METHOD_5,METHOD_6,

PlainDate,DateInterval,interval,Boundary,IntervalEdge,CLOSED,
IDENT_0,IDENT_1,IDENT_2,IDENT_3,IDENT_4,IDENT_5,

2014,27,14,
INT_0,INT_1,INT_2,




"Infinite future cannot be included.",
STRING_0,

























