testIsNotAuthor,configure,getRunModes,verifyNoMoreInteractions,isAuthor,
METHOD_0,METHOD_1,METHOD_2,METHOD_3,METHOD_4,

modes,adobe,acs,ModeUtil,slingSettings,
IDENT_0,IDENT_1,IDENT_2,IDENT_3,IDENT_4,







"publish",
STRING_0,

























