shouldCreateRandomId,Payload,isNotNull,randomUUID,
METHOD_0,METHOD_1,METHOD_2,METHOD_3,

mercateo,schemagen,WithId,WithIdTest,Payload,payloadWithId,
IDENT_0,IDENT_1,IDENT_2,IDENT_3,IDENT_4,IDENT_5,


































