shouldContainExistingField,getFieldIndex,getFieldCount,getEntry,
METHOD_0,METHOD_1,METHOD_2,METHOD_3,

kvStore,FIELD_NOT_FOUND,
IDENT_0,IDENT_1,







"field",
STRING_0,

























