test2521586,getMap,
METHOD_0,METHOD_1,

sqe,convertResult,
IDENT_0,IDENT_1,







"INSERT INTO M_Forecast (M_Forecast_ID) VALUES (1000000)",
STRING_0,

























