test_standard,groupByAndStream,toImmutableList,
METHOD_0,METHOD_1,METHOD_2,

metas,GuavaCollectors,Stream,
IDENT_0,IDENT_1,IDENT_2,







"aa","ab","ac","ba","bb","bc","ca","cb","cc",
STRING_0,STRING_1,STRING_2,STRING_3,STRING_4,STRING_5,STRING_6,STRING_7,STRING_8,

























