getContextNullTest,getApplicationContextLocal,onCreate,getContext,
METHOD_0,METHOD_1,METHOD_2,METHOD_3,

myApp,mewx,wenku8,MyApp,
IDENT_0,IDENT_1,IDENT_2,IDENT_3,


































