test_toImmutableMapByKey,toImmutableMapByKey,
METHOD_0,METHOD_1,

Stream,metas,GuavaCollectors,resultExpected,patternPrepared,beginIndex,endIndex,
IDENT_0,IDENT_1,IDENT_2,IDENT_3,IDENT_4,IDENT_5,IDENT_6,







"1_one","2_two1","2_two2","3_three","3",
STRING_0,STRING_1,STRING_2,STRING_3,STRING_4,

























