testGetAsPennTreebankString2,StringReader,readTreeInPtbFormat,getAsPennTreebankString,canonicalizeTreeString,
METHOD_0,METHOD_1,METHOD_2,METHOD_3,METHOD_4,

origTreeStr,StringReader,jhu,pacaya,cky,NaryTree,newTreeStr,NaryTreeTest,
IDENT_0,IDENT_1,IDENT_2,IDENT_3,IDENT_4,IDENT_5,IDENT_6,IDENT_7,







"((S (VP (VB join)\n","(NP (DT the) (NN board) )\n","(PP-CLR (IN as)\n","(NP (DT a) (JJ nonexecutive) (NN director) ))\n","(NP-TMP (NNP Nov.) (CD 29) )) ))\n","\\s+\\)",")","\\s+",
STRING_0,STRING_1,STRING_2,STRING_3,STRING_4,STRING_5,STRING_6,STRING_7,

























