test_format_null_pattern,MapFormat,setArguments,
METHOD_0,METHOD_1,METHOD_2,

strExpected,strActual,adempiere,MapFormat,arguments,
IDENT_0,IDENT_1,IDENT_2,IDENT_3,IDENT_4,







"SessionID","TransactionID",
STRING_0,STRING_1,

























