getLoadedPaths,addPath,toURL,
METHOD_0,METHOD_1,METHOD_2,

classLoader,loadedPaths,
IDENT_0,IDENT_1,







"src/test/resources/commons-beanutils-1.8.3.jar",
STRING_0,

























