execStaticMethod,
METHOD_0,

classLoader,className,methodName,
IDENT_0,IDENT_1,IDENT_2,







"org.apache.commons.io.FileUtils","getTempDirectoryPath",
STRING_0,STRING_1,

























