RunnableAssert,MultithreadingTester,
METHOD_0,METHOD_1,

junittoolbox,RunnableAssert,ra,success,
IDENT_0,IDENT_1,IDENT_2,IDENT_3,


































