testDecode,NoranProtocolDecoder,setDataManager,TestDataManager,wrappedBuffer,convertArray,
METHOD_0,METHOD_1,METHOD_2,METHOD_3,METHOD_4,METHOD_5,

traccar,NoranProtocolDecoder,decoder,buf1,buf2,ChannelBuffers,ByteOrder,LITTLE_ENDIAN,ChannelBufferTools,
IDENT_0,IDENT_1,IDENT_2,IDENT_3,IDENT_4,IDENT_5,IDENT_6,IDENT_7,IDENT_8,

78,82,48,57,70,52,49,53,34,138,126,157,170,66,123,221,65,167,243,226,56,
INT_0,INT_1,INT_2,INT_3,INT_4,INT_5,INT_6,INT_7,INT_8,INT_9,INT_10,INT_11,INT_12,INT_13,INT_14,INT_15,INT_16,INT_17,INT_18,INT_19,INT_20,































