testReadPrimitiveLong,getPrimitive,
METHOD_0,METHOD_1,

michaelwittig,javaq,PrimitiveResult,primitive,
IDENT_0,IDENT_1,IDENT_2,IDENT_3,







"1j",
STRING_0,

























