testSaveOrderWithItems,getCurrentSession,Order,getItems,Item,flush,
METHOD_0,METHOD_1,METHOD_2,METHOD_3,METHOD_4,METHOD_5,

classic,Session,sessionFactory,baselogic,demos,Order,
IDENT_0,IDENT_1,IDENT_2,IDENT_3,IDENT_4,IDENT_5,







"================================================","order: ",
STRING_0,STRING_1,

























