testSeed,Generex,setSeed,prepareRandom,getInitialState,
METHOD_0,METHOD_1,METHOD_2,METHOD_3,METHOD_4,

seed,mifmif,Generex,firstGenerex,firstValue,secondGenerex,secondValue,automaton,
IDENT_0,IDENT_1,IDENT_2,IDENT_3,IDENT_4,IDENT_5,IDENT_6,IDENT_7,

5106534569952410475L,
INT_0,




"[0-9][a-zA-Z]",
STRING_0,

























