shouldReturnTrueWhenValidatingValidPattern,isValidPattern,createRegExp,
METHOD_0,METHOD_1,METHOD_2,

validPattern,valid,mifmif,Generex,ignore,StackOverflowError,
IDENT_0,IDENT_1,IDENT_2,IDENT_3,IDENT_4,IDENT_5,







"[a-z0-9]{1,3}",
STRING_0,

























