shouldReturnExistingFee,findById,getFeeId,getChargeType,
METHOD_0,METHOD_1,METHOD_2,METHOD_3,

mifos,accounts,fees,FeeBO,fee,feeDao,weeklyPeriodicFeeForCenterOnly,
IDENT_0,IDENT_1,IDENT_2,IDENT_3,IDENT_4,IDENT_5,IDENT_6,







":",
STRING_0,

























