shouldReturnAllWaiveEnumForValuesNotEqualToZeroOrOne_2,fromInt,
METHOD_0,METHOD_1,

mifos,accounts,WaiveEnum,waiveType,ALL,waiveTypeOrdinal,FEES,PENALTY,
IDENT_0,IDENT_1,IDENT_2,IDENT_3,IDENT_4,IDENT_5,IDENT_6,IDENT_7,


































