testSet,sliceCount,getStride,getSlices,
METHOD_0,METHOD_1,METHOD_2,METHOD_3,

mikera,vectorz,Vector,SparseHashedVector,sv,dimensions,st,arrayz,
IDENT_0,IDENT_1,IDENT_2,IDENT_3,IDENT_4,IDENT_5,IDENT_6,IDENT_7,

11,
INT_0,































