testMatrixAdd,createRandom,addCopy,checkSameShape,addResult,
METHOD_0,METHOD_1,METHOD_2,METHOD_3,METHOD_4,

mikera,matrixx,Matrix,dest,vectorz,DoubleArrays,
IDENT_0,IDENT_1,IDENT_2,IDENT_3,IDENT_4,IDENT_5,


































