isNietValid_einddatumNull,SelectiePeriodeDTO,
METHOD_0,METHOD_1,

beheer,selectie,SelectiePeriodeDTO,selectiePeriodeDTO,LocalDate,validatieResultaat,
IDENT_0,IDENT_1,IDENT_2,IDENT_3,IDENT_4,IDENT_5,


































