testToMap,toMap,
METHOD_0,METHOD_1,

separator,adobe,acs,ParameterUtil,
IDENT_0,IDENT_1,IDENT_2,IDENT_3,







"key1:value1","key2:value2","key3:value3",":","key1","value1","key2","value2","key3","value3",
STRING_0,STRING_1,STRING_2,STRING_3,STRING_4,STRING_5,STRING_6,STRING_7,STRING_8,STRING_9,

























