nietUitvoerbaarAutorisatiesLeeg,setField,isUitvoerbaar,
METHOD_0,METHOD_1,METHOD_2,

ReflectionTestUtils,selectie,
IDENT_0,IDENT_1,







"selectietaakAutorisatieList",
STRING_0,

























