schrijfDiffFiltertWildcardMatch,geefInput,geefOutput,schrijfDiff,toFile,
METHOD_0,METHOD_1,METHOD_2,METHOD_3,METHOD_4,

xml1,xml2,diffHandler,
IDENT_0,IDENT_1,IDENT_2,







"1-expected.xml","1-actual.xml","diff2.diff",
STRING_0,STRING_1,STRING_2,

























