testIsLandCodeBuitenland,Lo3LandCode,isLandCodeBuitenland,
METHOD_0,METHOD_1,METHOD_2,

lo3,Lo3LandCode,landCode,moderniseringgba,migratie,CODE_NEDERLAND,CODE_STANDAARD,CODE_ONBEKEND,
IDENT_0,IDENT_1,IDENT_2,IDENT_3,IDENT_4,IDENT_5,IDENT_6,IDENT_7,







"6040",
STRING_0,

























