testGetCode,Lo3LandCode,getWaarde,
METHOD_0,METHOD_1,METHOD_2,

lo3,Lo3LandCode,landCode,Lo3LandCodeTest,STRING_1234,waarde,
IDENT_0,IDENT_1,IDENT_2,IDENT_3,IDENT_4,IDENT_5,


































