stop,getDeclaredConstructor,setAccessible,
METHOD_0,METHOD_1,METHOD_2,

Main,Constructor,constructor,AccessibleObject,accessibleObject,
IDENT_0,IDENT_1,IDENT_2,IDENT_3,IDENT_4,


































