toSpdString,fromOperationItems,
METHOD_0,METHOD_1,

voisc,spd,ListMessagesConfirmation,
IDENT_0,IDENT_1,IDENT_2,







"1111",
STRING_0,

























