toSpdStringForMandatoryAndNotEmpty,toSpdString,
METHOD_0,METHOD_1,

mandatorySubject,SpdConstants,NotificationRequest,NON_RECEIPT,noOperationError,
IDENT_0,IDENT_1,IDENT_2,IDENT_3,IDENT_4,







"%04d",
STRING_0,

























