notificationRequest,fromOperationItems,toSpdString,
METHOD_0,METHOD_1,METHOD_2,

voisc,spd,GetMessageHeading,noOperationError,
IDENT_0,IDENT_1,IDENT_2,IDENT_3,







"112233445566665544332211usernamrecip011","%04d",
STRING_0,STRING_1,

























