testSave,BerichtModel,BerichtData,
METHOD_0,METHOD_1,METHOD_2,

BerichtModel,statisch,Richting,INGAAND,attribuuttype,
IDENT_0,IDENT_1,IDENT_2,IDENT_3,IDENT_4,


































