testOverlijdenBuitenland,executeer,maakOverLedenPersoon,
METHOD_0,METHOD_1,METHOD_2,

Melding,meldingen,bral0210,StatischeObjecttypeBuilder,LAND_BELGIE,elementen,
IDENT_0,IDENT_1,IDENT_2,IDENT_3,IDENT_4,IDENT_5,

20110831,
INT_0,































