testVerschillendeDatums2,executeer,maakPersoonMetPlaats,maakGemeente,maakActie,
METHOD_0,METHOD_1,METHOD_2,METHOD_3,METHOD_4,

Melding,meldingen,brby0527,elementen,
IDENT_0,IDENT_1,IDENT_2,IDENT_3,

19920101,200020101,19910231,19911231,
INT_0,INT_1,INT_2,INT_3,




"24","gemeente","id.actie1",
STRING_0,STRING_1,STRING_2,

























