testResizing,ArrayWrappedIntIntMap,
METHOD_0,METHOD_1,

ArrayWrappedIntIntMap,expectedValues,underlyingMap,
IDENT_0,IDENT_1,IDENT_2,

32,64,150,256,4000,
INT_0,INT_1,INT_2,INT_3,INT_4,































