testDefaultDelimiterColumnSelection,testSqlWithResults,TestResultSet,addRow,testRunAndReturn,
METHOD_0,METHOD_1,METHOD_2,METHOD_3,METHOD_4,

rpc,QueryDataBatch,actualResults,TestResultSet,expectedResultSet,actualResultSet,BaseTestQuery,QueryType,SQL,
IDENT_0,IDENT_1,IDENT_2,IDENT_3,IDENT_4,IDENT_5,IDENT_6,IDENT_7,IDENT_8,







"SELECT columns[0] as entire_row ","g,, \\n h","a, b,\",\"c\",\"d,, \\n e","d, e,\",\"f\",\"g,, \\n h","g, h,\",\"i\",\"j,, \\n k",
STRING_0,STRING_1,STRING_2,STRING_3,STRING_4,

























