nested,Accountant,ensureAccurateReservations,getAllocatedMemory,
METHOD_0,METHOD_1,METHOD_2,METHOD_3,

memory,Accountant,locallyHeldMemory,
IDENT_0,IDENT_1,IDENT_2,


































