testLiveBackingList6,standardConverter,
METHOD_0,METHOD_1,

Converters,TypeReference,logService,LogService,LOG_WARNING,
IDENT_0,IDENT_1,IDENT_2,IDENT_3,IDENT_4,

9L,8L,
INT_0,INT_1,




"PathTracker.add: ",
STRING_0,

























