testPredikaatLeeg,bouwGroep,
METHOD_0,METHOD_1,

ConstraintViolation,overtredingen,StatischeObjecttypeBuilder,ADEL_TITEL_BARON,elementen,
IDENT_0,IDENT_1,IDENT_2,IDENT_3,IDENT_4,







"-","abc",
STRING_0,STRING_1,

























