testWcLines,addCommand,Posix,getSimpleName,
METHOD_0,METHOD_1,METHOD_2,METHOD_3,

felix,gogo,jline,CharSequence,
IDENT_0,IDENT_1,IDENT_2,IDENT_3,







"echo","wc","tac","echo \"test\" | wc -l | tac","execute<","> = (","Null",")(",")\n",
STRING_0,STRING_1,STRING_2,STRING_3,STRING_4,STRING_5,STRING_6,STRING_7,STRING_8,

























