testNationaliteitenNull,voerRegelUit,bouwNieuweSituatie,
METHOD_0,METHOD_1,METHOD_2,

basis,BerichtEntiteit,overtreders,brby0151,elementen,
IDENT_0,IDENT_1,IDENT_2,IDENT_3,IDENT_4,


































