testIsIngezetene,isIngezetene,voerRegelUit,PersoonBericht,
METHOD_0,METHOD_1,METHOD_2,METHOD_3,

bral0106,logisch,Persoon,basis,BerichtEntiteit,resultaat,brby0913,elementen,
IDENT_0,IDENT_1,IDENT_2,IDENT_3,IDENT_4,IDENT_5,IDENT_6,IDENT_7,


































