testMeedereKinderen,voerRegelUit,maakHuidigePersoon,maakNieuwePersoon,
METHOD_0,METHOD_1,METHOD_2,METHOD_3,

basis,BerichtEntiteit,overtreders,brby0909,elementen,
IDENT_0,IDENT_1,IDENT_2,IDENT_3,IDENT_4,

20100101,20000101,19900101,19800101,20130101,
INT_0,INT_1,INT_2,INT_3,INT_4,































