testNietCorrectePeriode,voerRegelUit,maakPersoonOverlijden,maakLand,maakActie,
METHOD_0,METHOD_1,METHOD_2,METHOD_3,METHOD_4,

basis,BerichtEntiteit,objectenDieDeRegelOvertreden,brby0904,elementen,
IDENT_0,IDENT_1,IDENT_2,IDENT_3,IDENT_4,

19000101,19000110,
INT_0,INT_1,




"24","land","id.actie1",
STRING_0,STRING_1,STRING_2,

























