findAllGemeentes,findAllGemeente,
METHOD_0,METHOD_1,

stamgegeven,Gemeente,stamTabelRepository,elementen,
IDENT_0,IDENT_1,IDENT_2,IDENT_3,


































