testEncodingAndDecoding,Encoder,drain,Decoder,flush,clear,
METHOD_0,METHOD_1,METHOD_2,METHOD_3,METHOD_4,METHOD_5,

randomLimit,success,raw,flex,messaging,Base64,Encoder,encoder,encoded,Decoder,decoder,check,Log,loggers,targets,targetLevel,LogEvent,NONE,
IDENT_0,IDENT_1,IDENT_2,IDENT_3,IDENT_4,IDENT_5,IDENT_6,IDENT_7,IDENT_8,IDENT_9,IDENT_10,IDENT_11,IDENT_12,IDENT_13,IDENT_14,IDENT_15,IDENT_16,IDENT_17,

500,1024,256,128,
INT_0,INT_1,INT_2,INT_3,










%,
OP_0,



















