testClientX,echo,waitCount,incr,getQueue,
METHOD_0,METHOD_1,METHOD_2,METHOD_3,METHOD_4,

ds,craft,atom,rpc,RpcClientX,wc,CaseCounter,
IDENT_0,IDENT_1,IDENT_2,IDENT_3,IDENT_4,IDENT_5,IDENT_6,







"hi","[CRAFT-ATOM-NIO] (^_^) <%s> Case -> test client x. ",
STRING_0,STRING_1,

























