testBytesNoBoundsNaturalComparator,copyOf,sort,ByteComparator,
METHOD_0,METHOD_1,METHOD_2,METHOD_3,

stable,names,mintern,primitive,Primitive,comparators,b1,b2,d1,d2,
IDENT_0,IDENT_1,IDENT_2,IDENT_3,IDENT_4,IDENT_5,IDENT_6,IDENT_7,IDENT_8,IDENT_9,







", stable",
STRING_0,

























