testBizException,bizException,incr,IllegalAccessException,
METHOD_0,METHOD_1,METHOD_2,METHOD_3,

ds,IllegalAccessException,craft,atom,CaseCounter,
IDENT_0,IDENT_1,IDENT_2,IDENT_3,IDENT_4,







"[CRAFT-ATOM-NIO] (^_^) <%s> Case -> test biz exception. ","biz error",
STRING_0,STRING_1,

























