testDebugobject,debugobject,incr,master,
METHOD_0,METHOD_1,METHOD_2,METHOD_3,

redis1,craft,atom,CaseCounter,
IDENT_0,IDENT_1,IDENT_2,IDENT_3,







"[CRAFT-ATOM-REDIS] (^_^) <%s> Case -> test debugobject. ",
STRING_0,

























