testAttachment,getContext,setAttachment,attachment,incr,getAttachment,
METHOD_0,METHOD_1,METHOD_2,METHOD_3,METHOD_4,METHOD_5,

craft,atom,rpc,RpcContext,atta,ds,CaseCounter,
IDENT_0,IDENT_1,IDENT_2,IDENT_3,IDENT_4,IDENT_5,IDENT_6,







"demo","[CRAFT-ATOM-NIO] (^_^) <%s> Case -> test attachment. ",
STRING_0,STRING_1,

























