testDoubleValue,Container,doubleValue,
METHOD_0,METHOD_1,METHOD_2,

theDouble,mirkosertic,bytecoder,PrimitivesTest,Container,theContainer,byteValue,
IDENT_0,IDENT_1,IDENT_2,IDENT_3,IDENT_4,IDENT_5,IDENT_6,

13,
INT_0,































