testIntArray,createIntArray,
METHOD_0,METHOD_1,

mirkosertic,bytecoder,IntArray,OpaqueArrays,aValue,
IDENT_0,IDENT_1,IDENT_2,IDENT_3,IDENT_4,

99,
INT_0,































