execute_nullpage,NullPageCountingPageOperation,getCounter,
METHOD_0,METHOD_1,METHOD_2,

mitre,AbstractPageOperationTemplateTest,CountingPageOperation,counter,
IDENT_0,IDENT_1,IDENT_2,IDENT_3,


































