shouldParseInputFileArg,createTempFile,deleteOnExit,getInputFile,
METHOD_0,METHOD_1,METHOD_2,METHOD_3,

infile,inputFile,
IDENT_0,IDENT_1,







"input",
STRING_0,

























