shouldMatchUpperCaseVersionOfCharacterWhenCaseInsensitive,makeCaseInsensitive,consume,
METHOD_0,METHOD_1,METHOD_2,










"SS",
STRING_0,

























