testCopy,BooleanValue,ByteValue,CharValue,DoubleValue,FloatValue,IntValue,LongValue,NullValue,ShortValue,StringValue,copy,DoubleValueArray,copyTo,
METHOD_0,METHOD_1,METHOD_2,METHOD_3,METHOD_4,METHOD_5,METHOD_6,METHOD_7,METHOD_8,METHOD_9,METHOD_10,METHOD_11,METHOD_12,METHOD_13,

CopyableValue,value_types,valuearray,ValueArray,
IDENT_0,IDENT_1,IDENT_2,IDENT_3,

42,42L,
INT_0,INT_1,




'q',"QED",
STRING_0,STRING_1,

3.141592653589793,3.14159265,
FLOAT_0,FLOAT_1,






















