shouldNotConsiderNodeToBeAncestorOfItself,isAncestorOf,isNotNull,isDescendantOf,
METHOD_0,METHOD_1,METHOD_2,METHOD_3,

modeshape,CheckArg,descendant,
IDENT_0,IDENT_1,IDENT_2,







"descendant",
STRING_0,

























