testMerge_NoDuplicates_Calendar,adaptTo,merge,
METHOD_0,METHOD_1,METHOD_2,

january,JANUARY,july,JULY,september,SEPTEMBER,sling,ModifiableValueMap,propertyMerge,metaDataMap,
IDENT_0,IDENT_1,IDENT_2,IDENT_3,IDENT_4,IDENT_5,IDENT_6,IDENT_7,IDENT_8,IDENT_9,

2015,
INT_0,




"cold","hot","dates",
STRING_0,STRING_1,STRING_2,

























