testIPv6toURL,getByName,ipAddressToUrlString,NullPointerException,getHostAddress,getIPv6UrlRepresentation,
METHOD_0,METHOD_1,METHOD_2,METHOD_3,METHOD_4,METHOD_5,

addressString,normalizedAddress,InetAddress,Inet4Address,Inet6Address,NetUtils,
IDENT_0,IDENT_1,IDENT_2,IDENT_3,IDENT_4,IDENT_5,







"2001:01db8:00:0:00:ff00:42:8329","[2001:1db8::ff00:42:8329]","address is null","Unrecognized type of InetAddress: ",
STRING_0,STRING_1,STRING_2,STRING_3,

























