shouldIterateOverAllValues,
METHOD_0,

iter,modeshape,schematic,IndexSequence,MAXIMUM_KEY_COUNT,INDEX_VALUES,
IDENT_0,IDENT_1,IDENT_2,IDENT_3,IDENT_4,IDENT_5,


































