testBlogService,Blog,setTitle,setContent,setComment,findAllBlogs,findById,
METHOD_0,METHOD_1,METHOD_2,METHOD_3,METHOD_4,METHOD_5,METHOD_6,

zqgame,Blog,blog,blogService,blogs,blog2,blogMapper,
IDENT_0,IDENT_1,IDENT_2,IDENT_3,IDENT_4,IDENT_5,IDENT_6,







"title","content","comment",
STRING_0,STRING_1,STRING_2,

























