testOverlayList_topHasValue,overlay,
METHOD_0,METHOD_1,

sut,top,bottom,
IDENT_0,IDENT_1,IDENT_2,







"bottom","top",
STRING_0,STRING_1,

























