testTimeAtResolution,getTimeAtResolution,getTimeInMillis,setTimeInMillis,
METHOD_0,METHOD_1,METHOD_2,METHOD_3,

cal,mozilla,JULY,resTime,DateUtil,DATE,MILLISECOND,resolution,HOUR_OF_DAY,MINUTE,SECOND,
IDENT_0,IDENT_1,IDENT_2,IDENT_3,IDENT_4,IDENT_5,IDENT_6,IDENT_7,IDENT_8,IDENT_9,IDENT_10,

2012,13,22,30,
INT_0,INT_1,INT_2,INT_3,































