testNotFollowedByNextAfterOneOrMoreEager,testNotFollowedByAfterOneOrMore,
METHOD_0,METHOD_1,

cep,Event,routes,
IDENT_0,IDENT_1,IDENT_2,


































