canSetAndGetRating,ID3v2PopmFrameData,setRating,getRating,
METHOD_0,METHOD_1,METHOD_2,METHOD_3,

mpatric,mp3agic,ID3v2PopmFrameData,iD3v2PopmFrameData,rating,
IDENT_0,IDENT_1,IDENT_2,IDENT_3,IDENT_4,


































