test27,build_filler,
METHOD_0,METHOD_1,

mpjct,jmpjct,mysql,proto,Proto,filler_value,
IDENT_0,IDENT_1,IDENT_2,IDENT_3,IDENT_4,IDENT_5,


































