equalObjectsHaveSameHashCode,ID3v2ChapterTOCFrameData,
METHOD_0,METHOD_1,

mpatric,mp3agic,ID3v2ChapterTOCFrameData,frameData,frameDataAgain,prime,comment,language,
IDENT_0,IDENT_1,IDENT_2,IDENT_3,IDENT_4,IDENT_5,IDENT_6,IDENT_7,

31,
INT_0,




"toc1","ch1","ch2",
STRING_0,STRING_1,STRING_2,

























