incrementsValue,MutableInteger,increment,
METHOD_0,METHOD_1,METHOD_2,

mpatric,mp3agic,MutableInteger,integer,
IDENT_0,IDENT_1,IDENT_2,IDENT_3,


































