shouldReturn2StarRating,ID3v2PopmFrameData,getRating,
METHOD_0,METHOD_1,METHOD_2,

mpatric,mp3agic,ID3v2PopmFrameData,iD3v2PopmFrameData,rating,
IDENT_0,IDENT_1,IDENT_2,IDENT_3,IDENT_4,

64,
INT_0,




'A','d','r','e','s',
STRING_0,STRING_1,STRING_2,STRING_3,STRING_4,

























