shouldReadWmpRating,loadFile,createTag,getWmpRating,
METHOD_0,METHOD_1,METHOD_2,METHOD_3,

mpatric,mp3agic,TestHelper,ID3v2,id3tag,ID3v2TagFactory,
IDENT_0,IDENT_1,IDENT_2,IDENT_3,IDENT_4,IDENT_5,







"src/test/resources/v23tagwithwmprating.mp3",
STRING_0,

























