testDeleteBid,getBid,deleteBid,
METHOD_0,METHOD_1,METHOD_2,

actionbazaar,Bid,bid,bidService,BidServiceTest,bidId,
IDENT_0,IDENT_1,IDENT_2,IDENT_3,IDENT_4,IDENT_5,


































