testIsWrapperForNonWrapper,isWrapper,
METHOD_0,METHOD_1,

cz,zcu,kiv,jop,PrimitiveUtils,wrappers,
IDENT_0,IDENT_1,IDENT_2,IDENT_3,IDENT_4,IDENT_5,


































