testToDoubleArrayForNull,toObjectArray,
METHOD_0,METHOD_1,

cz,zcu,kiv,jop,ArrayUtils,EMPTY_BOOLEAN_OBJECT_ARRAY,retArray,
IDENT_0,IDENT_1,IDENT_2,IDENT_3,IDENT_4,IDENT_5,IDENT_6,


































