appends_0em1_0em1_idempotent,generateStreamName,mapToObj,newTestEvent,newStreamWriter,appendToStream,
METHOD_0,METHOD_1,METHOD_2,METHOD_3,METHOD_4,METHOD_5,

msemys,esjc,EventData,eventstore,
IDENT_0,IDENT_1,IDENT_2,IDENT_3,


































