testGetTitlesTest4,getPageText,responseMessage,responseCode,
METHOD_0,METHOD_1,METHOD_2,METHOD_3,

sample,SimpleRequests,javalite,Get,Http,connectionTimeout,readTimeout,
IDENT_0,IDENT_1,IDENT_2,IDENT_3,IDENT_4,IDENT_5,IDENT_6,







"Fetching page ","Got response as: ","(",")",
STRING_0,STRING_1,STRING_2,STRING_3,

























