toAnalyseRegexCanBeSpecified,makeArgs,createOptions,
METHOD_0,METHOD_1,METHOD_2,










"-match","*.somepackage.*",
STRING_0,STRING_1,

























