untakeAddsElementFirst,createQueue,offer,untake,poll,
METHOD_0,METHOD_1,METHOD_2,METHOD_3,METHOD_4,

QueueStore,tck,QueueStoreTestCase,VALUE,ANOTHER_VALUE,queueStore,timeout,
IDENT_0,IDENT_1,IDENT_2,IDENT_3,IDENT_4,IDENT_5,IDENT_6,


































