isDynamic,getResolver,createCollectionResolver,
METHOD_0,METHOD_1,METHOD_2,

childResolvers,resolvingContext,ValueResolver,
IDENT_0,IDENT_1,IDENT_2,







"whatever",
STRING_0,

























