pollDoesNotReturnsUntilPollTimeout,createQueue,poll,
METHOD_0,METHOD_1,METHOD_2,

QueueStore,initialTime,tck,QueueStoreTestCase,LONG_POLL_TIMEOUT,queueStore,timeout,
IDENT_0,IDENT_1,IDENT_2,IDENT_3,IDENT_4,IDENT_5,IDENT_6,


































