should_get_empty_table,Toml,getTable,
METHOD_0,METHOD_1,METHOD_2,

moandjiezana,toml,Toml,
IDENT_0,IDENT_1,IDENT_2,







"[a]",
STRING_0,

























