runTest,slurp,MarkdownProcessor,markdown,
METHOD_0,METHOD_1,METHOD_2,METHOD_3,

testText,dir,separator,htmlText,markdownj,MarkdownProcessor,markup,markdownText,
IDENT_0,IDENT_1,IDENT_2,IDENT_3,IDENT_4,IDENT_5,IDENT_6,IDENT_7,







".text",".html",
STRING_0,STRING_1,

























