getUseForHref,lastIndexOf,handleTEI,
METHOD_0,METHOD_1,METHOD_2,

hrefWithoutSlash,href,lastFolderPosition,mycore,mets,MCRMetsModelHelper,ALTO_USE,MASTER_USE,
IDENT_0,IDENT_1,IDENT_2,IDENT_3,IDENT_4,IDENT_5,IDENT_6,IDENT_7,







"tei/","alto/",
STRING_0,STRING_1,

























