test_String,OgnlValueFormatter,evalOgnl,OgnlContext,
METHOD_0,METHOD_1,METHOD_2,METHOD_3,

gh,mygreen,xlsmapper,OgnlValueFormatter,formatter,ognl,OgnlContext,Ognl,A,OgnlException,
IDENT_0,IDENT_1,IDENT_2,IDENT_3,IDENT_4,IDENT_5,IDENT_6,IDENT_7,IDENT_8,IDENT_9,







"Hello\"こんにちは","\"Hello\\\"こんにちは\"",
STRING_0,STRING_1,

























