testGetName,getDeclaredField,FieldAccessor,isEqualTo,
METHOD_0,METHOD_1,METHOD_2,METHOD_3,

mygreen,supercsv,FieldAccessorTest,SampleBean,FieldAccessor,comparator,
IDENT_0,IDENT_1,IDENT_2,IDENT_3,IDENT_4,IDENT_5,







"col1",
STRING_0,

























