test4,$,BooleanBuilder,or,where,
METHOD_0,METHOD_1,METHOD_2,METHOD_3,METHOD_4,

mysema,rdfbean,BeanQuery,BooleanBuilder,NoteType,TYPE1,TYPE2,Predicate,SimpleQueriesTest,var,conditions,
IDENT_0,IDENT_1,IDENT_2,IDENT_3,IDENT_4,IDENT_5,IDENT_6,IDENT_7,IDENT_8,IDENT_9,IDENT_10,


































