OpenConnection,openConnection,MiniConnection,
METHOD_0,METHOD_1,METHOD_2,

mysema,rdfbean,RDFConnection,
IDENT_0,IDENT_1,IDENT_2,


































