FindInstances_Of_Note,findInstances,
METHOD_0,METHOD_1,

mysema,rdfbean,SessionInvLoadTest,Note,notes,
IDENT_0,IDENT_1,IDENT_2,IDENT_3,IDENT_4,







"Get all notes",
STRING_0,

























