should_be_equal_when_having_2_values,QualityMeasure,
METHOD_0,METHOD_1,

norad,visuwall,quality,QualityMeasure,qm1,qm2,
IDENT_0,IDENT_1,IDENT_2,IDENT_3,IDENT_4,IDENT_5,







"percent",
STRING_0,

























