ReplicatorConfig,verifyAndGetLowercaseKey,
METHOD_0,METHOD_1,

booking,replication,ReplicatorConfig,myMap,one,innerMap,CaseInsensitiveMap,
IDENT_0,IDENT_1,IDENT_2,IDENT_3,IDENT_4,IDENT_5,IDENT_6,







"one",
STRING_0,

























