testCreateServerSocket,getServerSocketFactory,ServerSocket,
METHOD_0,METHOD_1,METHOD_2,

ServerSocket,ss,
IDENT_0,IDENT_1,







"CreateServerSocket test",
STRING_0,

























