testFromLong,normalize,normalizeDelegateType,
METHOD_0,METHOD_1,METHOD_2,

rightNow,normalizedFromLong,normalizer,normalizedFromDate,delegateIn,
IDENT_0,IDENT_1,IDENT_2,IDENT_3,IDENT_4,


































