withinTest,getQueryResults,evaluateEvents,
METHOD_0,METHOD_1,METHOD_2,

datawave,webservice,DefaultEvent,jexl,functions,ContentFunctionQueryTest,typeMetadata,
IDENT_0,IDENT_1,IDENT_2,IDENT_3,IDENT_4,IDENT_5,IDENT_6,







"ID == 'TEST_ID' && content:within(1,termOffsetMap,'dog','cat')","dog","cat",
STRING_0,STRING_1,STRING_2,

























