testCast,allocateBytes,CastStruct,getIntField,
METHOD_0,METHOD_1,METHOD_2,METHOD_3,

bridj,Pointer,StructTest,CastStruct,
IDENT_0,IDENT_1,IDENT_2,IDENT_3,


































