testSerialization,toMutation,toMetric,Value,getUpdates,
METHOD_0,METHOD_1,METHOD_2,METHOD_3,METHOD_4,

Mutation,datawave,webservice,QueryMetricUtil,metric,QueryMetric,metric2,
IDENT_0,IDENT_1,IDENT_2,IDENT_3,IDENT_4,IDENT_5,IDENT_6,


































