testBindValueBoolean,
METHOD_0,

setBoolean,navercorp,pinpoint,bootstrap,bindvalue,BindValueConverter,TRUE,
IDENT_0,IDENT_1,IDENT_2,IDENT_3,IDENT_4,IDENT_5,IDENT_6,







"setBoolean","Java9ClassLoader{","name=","} ",
STRING_0,STRING_1,STRING_2,STRING_3,

























