shuffle,TransactionId,sort,getTransactionSequence,
METHOD_0,METHOD_1,METHOD_2,METHOD_3,

numbers,navercorp,pinpoint,TransactionId,comparator,transactionId,transactionSequence,
IDENT_0,IDENT_1,IDENT_2,IDENT_3,IDENT_4,IDENT_5,IDENT_6,







"A","{}",
STRING_0,STRING_1,

























