testTokenizeToStringList_nullValue,tokenizeToStringList,
METHOD_0,METHOD_1,

tokenList,navercorp,pinpoint,
IDENT_0,IDENT_1,IDENT_2,







",",
STRING_0,

























