test1,PinpointByteArrayOutputStream,
METHOD_0,METHOD_1,

navercorp,pinpoint,thrift,PinpointByteArrayOutputStream,pbaos,TEST_STRING,
IDENT_0,IDENT_1,IDENT_2,IDENT_3,IDENT_4,IDENT_5,







"Java9ClassLoader{","name=","} ",
STRING_0,STRING_1,STRING_2,

























