testPut,LRUCache,Random,nextInt,getSize,
METHOD_0,METHOD_1,METHOD_2,METHOD_3,METHOD_4,

cacheSize,navercorp,pinpoint,profiler,LRUCache,Random,
IDENT_0,IDENT_1,IDENT_2,IDENT_3,IDENT_4,IDENT_5,

100000,
INT_0,































