RetryQueue,RetryMessage,
METHOD_0,METHOD_1,

navercorp,pinpoint,profiler,sender,RetryQueue,retryQueue,
IDENT_0,IDENT_1,IDENT_2,IDENT_3,IDENT_4,IDENT_5,


































