


navercorp,pinpoint,profiler,instrument,ASMClass,
IDENT_0,IDENT_1,IDENT_2,IDENT_3,IDENT_4,







"com.navercorp.pinpoint.profiler.instrument.mock.BaseClass",
STRING_0,

























