testGetWindowRangeLength2,Range,TimeWindow,getWindowRangeCount,
METHOD_0,METHOD_1,METHOD_2,METHOD_3,

navercorp,pinpoint,Range,TimeWindow,window,windowRangeLength,slf4j,Marker,marker,
IDENT_0,IDENT_1,IDENT_2,IDENT_3,IDENT_4,IDENT_5,IDENT_6,IDENT_7,IDENT_8,

60L,
INT_0,




"{}",
STRING_0,

























