flipTest8,ChainBuffer,addLast,gets,flip,readableBytes,isEOB,
METHOD_0,METHOD_1,METHOD_2,METHOD_3,METHOD_4,METHOD_5,METHOD_6,

krakenapps,pcap,Buffer,testArray,testArray2,testArray3,testArray4,testArray5,buffer2,testArray6,testArray7,testArray8,buffers,bufIndex,remain,bufOffset,
IDENT_0,IDENT_1,IDENT_2,IDENT_3,IDENT_4,IDENT_5,IDENT_6,IDENT_7,IDENT_8,IDENT_9,IDENT_10,IDENT_11,IDENT_12,IDENT_13,IDENT_14,IDENT_15,

11,13,14,101,102,103,104,105,106,107,108,109,110,111,112,26,
INT_0,INT_1,INT_2,INT_3,INT_4,INT_5,INT_6,INT_7,INT_8,INT_9,INT_10,INT_11,INT_12,INT_13,INT_14,INT_15,































