shouldSetAndGet,newArray,between,
METHOD_0,METHOD_1,METHOD_2,

graphalgo,paged,SparseLongArray,AllocationTracker,EMPTY,distance,nodeId,POSITIVE_INFINITY,multiplier,
IDENT_0,IDENT_1,IDENT_2,IDENT_3,IDENT_4,IDENT_5,IDENT_6,IDENT_7,IDENT_8,

42,1337,
INT_0,INT_1,































