create_node_using_create_unique_with_java_maps,getGraphDatabaseAPI,
METHOD_0,METHOD_1,

graphdb,
IDENT_0,







"Andy","position","Developer","props","MATCH (n) WHERE id(n) = 0 ","MERGE p = (n)-[:REL]->({name: $props.name, position: $props.position}) ","RETURN last(nodes(p)) AS X",
STRING_0,STRING_1,STRING_2,STRING_3,STRING_4,STRING_5,STRING_6,

























