testLazy,fromString,ensureMaterialized,
METHOD_0,METHOD_1,METHOD_2,

javaStr,dataformat,BinaryString,
IDENT_0,IDENT_1,IDENT_2,







"haha","EventTimeTrigger()",
STRING_0,STRING_1,

























