hasPendingJobsShouldReportFalseWhenInitialised,newConnection,hasPendingJobs,
METHOD_0,METHOD_1,METHOD_2,

bolt,BoltConnection,
IDENT_0,IDENT_1,


































