create_node_from_map,dumpToFile,getGraphDatabaseAPI,
METHOD_0,METHOD_1,METHOD_2,

graphdb,
IDENT_0,







"Andy","position","Developer","props","CREATE ($props)","create_node_from_map","MATCH (n) WHERE n.name = 'Andy' AND n.position = 'Developer' RETURN n",
STRING_0,STRING_1,STRING_2,STRING_3,STRING_4,STRING_5,STRING_6,

























