testDateTimeTypeWithZoneId,datetime,newTransaction,asObjectCopy,
METHOD_0,METHOD_1,METHOD_2,METHOD_3,

storable,DateTimeValue,dateTime,ZoneId,node1,
IDENT_0,IDENT_1,IDENT_2,IDENT_3,IDENT_4,

1991,13,37,
INT_0,INT_1,INT_2,




"Europe/Stockholm","dt",
STRING_0,STRING_1,

























