shouldBeAbleToReadWrittenGenerator,createGenerator,IdGeneratorImpl,getHighId,
METHOD_0,METHOD_1,METHOD_2,METHOD_3,

IdGeneratorImpl,fsr,idGenerator,IdType,NODE,rangeStart,rangeLength,
IDENT_0,IDENT_1,IDENT_2,IDENT_3,IDENT_4,IDENT_5,IDENT_6,

42,42L,
INT_0,INT_1,































