shouldDeleteIfClosed,createEmptyFile,IdContainer,fileExists,
METHOD_0,METHOD_1,METHOD_2,METHOD_3,

IdContainer,idContainer,
IDENT_0,IDENT_1,


































