shouldReturnNullWhenThereIsNoHeaderInTheCache,LogHeaderCache,getLogHeader,
METHOD_0,METHOD_1,METHOD_2,

LogHeaderCache,logHeader,logHeaderCache,logVersion,
IDENT_0,IDENT_1,IDENT_2,IDENT_3,


































