testPrintable,SimpleEvent,setBody,dumpEvent,
METHOD_0,METHOD_1,METHOD_2,METHOD_3,

flume,SimpleEvent,eventDump,EventHelper,Event,DEFAULT_MAX_BYTES,
IDENT_0,IDENT_1,IDENT_2,IDENT_3,IDENT_4,IDENT_5,







"Some text",
STRING_0,

























