testCreateLayer,World,WorldTab,getLayers,createLayer,
METHOD_0,METHOD_1,METHOD_2,METHOD_3,METHOD_4,

mudmap2,World,world,frontend,WorldTab,layerCnt,layers,
IDENT_0,IDENT_1,IDENT_2,IDENT_3,IDENT_4,IDENT_5,IDENT_6,







"createLayer",
STRING_0,

























