testIsIncludePathColors,Legend,isIncludePathColors,
METHOD_0,METHOD_1,METHOD_2,

mudmap2,legend,Legend,layer,Orientation,HORIZONTAL,includePathColors,
IDENT_0,IDENT_1,IDENT_2,IDENT_3,IDENT_4,IDENT_5,IDENT_6,

500,
INT_0,




"isIncludePathColors",
STRING_0,

























