testGetFlags,Place,TreeMap,setFlag,getFlags,
METHOD_0,METHOD_1,METHOD_2,METHOD_3,METHOD_4,

mudmap2,Place,PlaceTest,layer,TreeMap,flags,
IDENT_0,IDENT_1,IDENT_2,IDENT_3,IDENT_4,IDENT_5,







"getFlags","MyPlace","foobar",
STRING_0,STRING_1,STRING_2,

























