maximalRectangle,getHistogram,largestRectangleInHistogram,
METHOD_0,METHOD_1,METHOD_2,

matrix,heights,
IDENT_0,IDENT_1,







'1','0',"calc :","sub max :",
STRING_0,STRING_1,STRING_2,STRING_3,

























