test2,build_fixed_int,
METHOD_0,METHOD_1,

openddal,mysql,proto,Proto,
IDENT_0,IDENT_1,IDENT_2,IDENT_3,

24,32,40,48,56,
INT_0,INT_1,INT_2,INT_3,INT_4,




"Encoding int[","] "," failed!",
STRING_0,STRING_1,STRING_2,

























