test21,build_fixed_str,
METHOD_0,METHOD_1,

openddal,mysql,proto,Proto,
IDENT_0,IDENT_1,IDENT_2,IDENT_3,

97,98,99,
INT_0,INT_1,INT_2,




"abc",
STRING_0,

























