testGetAll,getAll,
METHOD_0,METHOD_1,

baidu,beidou,sample,Company,companyMgr,company,bookList,
IDENT_0,IDENT_1,IDENT_2,IDENT_3,IDENT_4,IDENT_5,IDENT_6,


































