test19,build_null_str,arraycopy,
METHOD_0,METHOD_1,METHOD_2,

strByte,openddal,mysql,proto,Proto,CHARSET,
IDENT_0,IDENT_1,IDENT_2,IDENT_3,IDENT_4,IDENT_5,

97,98,99,
INT_0,INT_1,INT_2,




"abc",
STRING_0,

























