testUnmodifiableBuffer,unmodifiableBuffer,ReadOnlyByteBuf,
METHOD_0,METHOD_1,METHOD_2,

ByteBuf,ByteOrder,endianness,Unpooled,BIG_ENDIAN,LITTLE_ENDIAN,
IDENT_0,IDENT_1,IDENT_2,IDENT_3,IDENT_4,IDENT_5,


































