testCopyWithOffset,allocate,putLong,flip,asReadOnlyBuffer,copy,release,slice,checkIndex0,unwrap,idx,
METHOD_0,METHOD_1,METHOD_2,METHOD_3,METHOD_4,METHOD_5,METHOD_6,METHOD_7,METHOD_8,METHOD_9,METHOD_10,

ByteBuf,copy,
IDENT_0,IDENT_1,


































