testRandomByteAccess,capacity,nextInt,setByte,setSeed,getByte,ensureAccessible,_getByte,
METHOD_0,METHOD_1,METHOD_2,METHOD_3,METHOD_4,METHOD_5,METHOD_6,METHOD_7,

seed,
IDENT_0,


































