exhaustedStreamsDoNotBuffer,encoderWriteHeaders,newPromise,setMaxConcurrentStreams,cause,
METHOD_0,METHOD_1,METHOD_2,METHOD_3,METHOD_4,

ChannelFuture,ChannelGroupException,
IDENT_0,IDENT_1,


































