testDecodeULE128LongOverflow1,wrappedBuffer,readerIndex,decodeULE128,release,
METHOD_0,METHOD_1,METHOD_2,METHOD_3,METHOD_4,

ByteBuf,Unpooled,readerIndex,http2,HpackDecoder,
IDENT_0,IDENT_1,IDENT_2,IDENT_3,IDENT_4,


































