testLeadingZeros,sortAndTest,sort,
METHOD_0,METHOD_1,METHOD_2,

sortedArray,sortedList,
IDENT_0,IDENT_1,







"T 01 abc","1584164_460s_v1.jpg","08082008.jpg","02122011150.jpg","03122011151.jpg","9999999999999999999999999999992.jpg","T 00 abc","T 000 abc","T 1 abc","T 001 abc",
STRING_0,STRING_1,STRING_2,STRING_3,STRING_4,STRING_5,STRING_6,STRING_7,STRING_8,STRING_9,

























