testOCFiles,OCFile,setFolder,shuffle,sort,getFileName,
METHOD_0,METHOD_1,METHOD_2,METHOD_3,METHOD_4,METHOD_5,

owncloud,OCFile,sortedArray,unsortedList,sortedName,unsortedName,
IDENT_0,IDENT_1,IDENT_2,IDENT_3,IDENT_4,IDENT_5,







"/ah.txt","/h.txt","/oh.txt","/uh.txt","/h 2.txt","target:","actual:",
STRING_0,STRING_1,STRING_2,STRING_3,STRING_4,STRING_5,STRING_6,

























