testRead,getByte,
METHOD_0,METHOD_1,

nativeInputStream,nginx,clojure,NginxClojureRT,UNSAFE,addr,
IDENT_0,IDENT_1,IDENT_2,IDENT_3,IDENT_4,IDENT_5,


































