testNonRandomAccessCollectionSerialization,Random,abs,nextLong,setLength,JsonWriter,
METHOD_0,METHOD_1,METHOD_2,METHOD_3,METHOD_4,METHOD_5,

dslplatform,Random,rnd,LinkedList,MIN_VALUE,tmp,JsonWriter,sw,NumberConverter,LONG_WRITER,
IDENT_0,IDENT_1,IDENT_2,IDENT_3,IDENT_4,IDENT_5,IDENT_6,IDENT_7,IDENT_8,IDENT_9,

1337,1000000000000000000L,
INT_0,INT_1,




"[",',',']',
STRING_0,STRING_1,STRING_2,




*=,%,
OP_0,OP_1,



















