testDelete,intValue,
METHOD_0,METHOD_1,

violet,VObject,myRecord,Factories,VOBJECT,event_id,EVENT,Event,theEvent,SQLException,Matcher,nbFind,myMatcher,
IDENT_0,IDENT_1,IDENT_2,IDENT_3,IDENT_4,IDENT_5,IDENT_6,IDENT_7,IDENT_8,IDENT_9,IDENT_10,IDENT_11,IDENT_12,

31,
INT_0,































