testDoOCR_PDF,doOCR,getAbsoluteFile,
METHOD_0,METHOD_1,METHOD_2,

tess4j,TesseractTest,inputFile,testResourcesDataPath,TesseractException,Rectangle,imageList,rect,
IDENT_0,IDENT_1,IDENT_2,IDENT_3,IDENT_4,IDENT_5,IDENT_6,IDENT_7,







"doOCR on a PDF document","eurotext.pdf","The (quick) [brown] {fox} jumps!\nOver the $43,456.78 <lazy> #90 dog","Exception-Message: '{}'. Imagefile: '{}'",
STRING_0,STRING_1,STRING_2,STRING_3,

























