getBirthday,People,setBirthday,
METHOD_0,METHOD_1,METHOD_2,

robusta,birthday,implementations,People,people,
IDENT_0,IDENT_1,IDENT_2,IDENT_3,IDENT_4,


































