testEmptyAnnotation,getDefinedExceptions,keySet,
METHOD_0,METHOD_1,METHOD_2,

nickvl,xspring,aop,ExceptionDescriptor,descriptor,currLogException,exceptionSeverity,
IDENT_0,IDENT_1,IDENT_2,IDENT_3,IDENT_4,IDENT_5,IDENT_6,


































