basicAnyHttpMethod,METHOD,buildRoute,
METHOD_0,METHOD_1,METHOD_2,

routeBuilder,ninja,RouteBuilderImpl,RouteBuilderImplTest,MockController,injector,
IDENT_0,IDENT_1,IDENT_2,IDENT_3,IDENT_4,IDENT_5,







"PROPFIND","/index","execute",
STRING_0,STRING_1,STRING_2,

























