validationShouldBeAppliedInCorrectOrderPass,getParameter,requiredInt,hasViolations,
METHOD_0,METHOD_1,METHOD_2,METHOD_3,

mockController,violations,
IDENT_0,IDENT_1,







"param1","20","requiredInt",
STRING_0,STRING_1,STRING_2,

























