testSchemeWithNoStuff3,getScheme,
METHOD_0,METHOD_1,

ning,Uri,dup,scheme,
IDENT_0,IDENT_1,IDENT_2,IDENT_3,







"rds","hello","world",
STRING_0,STRING_1,STRING_2,

























