testPostPersonXml,postXml,getServerAddress,XmlMapper,readValue,
METHOD_0,METHOD_1,METHOD_2,METHOD_3,METHOD_4,

ninjaTestBrowser,dataformat,ninjaTestServer,
IDENT_0,IDENT_1,IDENT_2,







"zeeess name - and some utf8 => ","api/person.xml","j: ",
STRING_0,STRING_1,STRING_2,

























