decode_values_of_the_previously_supported_format,oldEncoder,
METHOD_0,METHOD_1,

inMap,outMap,ninja,CookieDataCodec,keyValues,keyValue,splitted,URLDecoder,
IDENT_0,IDENT_1,IDENT_2,IDENT_3,IDENT_4,IDENT_5,IDENT_6,IDENT_7,







"c","d","&","=","utf-8",
STRING_0,STRING_1,STRING_2,STRING_3,STRING_4,

























