recognition,EmailRecognition,
METHOD_0,METHOD_1,

ansj,splitWord,ToAnalysis,terms,
IDENT_0,IDENT_1,IDENT_2,IDENT_3,







"ansj-sun@163.com",
STRING_0,

























