simplePoll,BlockingMap,Runnable,poll,timeUnit,TimeoutException,Timeout,
METHOD_0,METHOD_1,METHOD_2,METHOD_3,METHOD_4,METHOD_5,METHOD_6,

nohope,BlockingMap,K,Timeout,V,
IDENT_0,IDENT_1,IDENT_2,IDENT_3,IDENT_4,







"Timeout getting '","' from queue",
STRING_0,STRING_1,

























