testNow,getFitsDateString,regionMatches,
METHOD_0,METHOD_1,METHOD_2,

nom,tam,fits,FitsDate,now2,tryCount,epoch,
IDENT_0,IDENT_1,IDENT_2,IDENT_3,IDENT_4,IDENT_5,IDENT_6,













--,
OP_0,



















