testDefault,HeaderCard,cast,
METHOD_0,METHOD_1,METHOD_2,

nom,tam,fits,HeaderCard,PrimitiveTypeHandler,byBitPix,bitPix,BIT_PIX_OFFSET,
IDENT_0,IDENT_1,IDENT_2,IDENT_3,IDENT_4,IDENT_5,IDENT_6,IDENT_7,







"TEST","dummy",
STRING_0,STRING_1,

























