testFeedbackCalls,singletonMap,getInactiveDevices,ApnsServiceImpl,
METHOD_0,METHOD_1,METHOD_2,METHOD_3,

notnoop,apns,ApnsFeedbackConnection,feed,ApnsServiceImpl,
IDENT_0,IDENT_1,IDENT_2,IDENT_3,IDENT_4,







"Test",
STRING_0,

























