testGenerateCombinations_EmptySubList3,generateCombinations,
METHOD_0,METHOD_1,

cqengine,compound,inputLists,permutations,TupleCombinationGenerator,
IDENT_0,IDENT_1,IDENT_2,IDENT_3,IDENT_4,







"baz",
STRING_0,

























