testPut_SplitAndMove,getNodeFactory,prettyPrint,getNode,
METHOD_0,METHOD_1,METHOD_2,METHOD_3,

concurrenttrees,radix,ConcurrentRadixTree,PrettyPrinter,PrettyPrintable,
IDENT_0,IDENT_1,IDENT_2,IDENT_3,IDENT_4,







"TEST","TEAM","TOAST","○\n","└── ○ T\n"," ├── ○ E\n"," │ ├── ○ AM (2)\n"," │ └── ○ ST (1)\n"," └── ○ OAST (3)\n",
STRING_0,STRING_1,STRING_2,STRING_3,STRING_4,STRING_5,STRING_6,STRING_7,STRING_8,

























