shouldInjectPersistenceContextUsingSetter,getBean,getEm,
METHOD_0,METHOD_1,METHOD_2,

novatec,beantest,demo,ejb,MyEJBServiceWithEntityManagerSetter,myService,
IDENT_0,IDENT_1,IDENT_2,IDENT_3,IDENT_4,IDENT_5,


































