testMissingData,setUp,initASE,initEncoder,setPeriodic,
METHOD_0,METHOD_1,METHOD_2,METHOD_3,METHOD_4,

ase,Encoder,SENTINEL_VALUE_FOR_MISSING_DATA,periodic,
IDENT_0,IDENT_1,IDENT_2,IDENT_3,

14,
INT_0,




"mv","\nEncoded missing data as: ",
STRING_0,STRING_1,

1.5,0.5,
FLOAT_0,FLOAT_1,






















