testCoordinateForPositionOrigin,setUp,scale,timestep,initGE,coordinateForPosition,toMercator,
METHOD_0,METHOD_1,METHOD_2,METHOD_3,METHOD_4,METHOD_5,METHOD_6,

coords,coordinate,ge,longitude,lattitude,
IDENT_0,IDENT_1,IDENT_2,IDENT_3,IDENT_4,

30,60,
INT_0,INT_1,










/=,
OP_0,



















