testNextDouble,MersenneTwisterFast,nextDouble,nextInt,doubleValue,
METHOD_0,METHOD_1,METHOD_2,METHOD_3,METHOD_4,

numenta,nupic,MersenneTwisterFast,nd,retVal,UniversalRandom,MATH_CONTEXT,
IDENT_0,IDENT_1,IDENT_2,IDENT_3,IDENT_4,IDENT_5,IDENT_6,

42,10000,
INT_0,INT_1,







1.0E-4,
FLOAT_0,






















