testDupAop,define,cd,doPrivileged,DefaultClassDefiner,
METHOD_0,METHOD_1,METHOD_2,METHOD_3,METHOD_4,

nutz,aop,asm,Aop1,klass,classAgent,Nutzs,AccessController,PrivilegedAction,DefaultClassDefiner,
IDENT_0,IDENT_1,IDENT_2,IDENT_3,IDENT_4,IDENT_5,IDENT_6,IDENT_7,IDENT_8,IDENT_9,

10000,
INT_0,































