test_issue_1302,Issue1302Master,UU32,setAct,ordinal,fetch,getAct,
METHOD_0,METHOD_1,METHOD_2,METHOD_3,METHOD_4,METHOD_5,METHOD_6,

nutz,issue1302,Issue1302Master,pojo,R,Issue1302UserAction,VIEW,DB,SQLSERVER,act,
IDENT_0,IDENT_1,IDENT_2,IDENT_3,IDENT_4,IDENT_5,IDENT_6,IDENT_7,IDENT_8,IDENT_9,


































