fetch_by_name,fetch,where,
METHOD_0,METHOD_1,METHOD_2,

nutz,Pet,pet,Cnd,ioc,IocLoader,iocLoader,iocLoaders,
IDENT_0,IDENT_1,IDENT_2,IDENT_3,IDENT_4,IDENT_5,IDENT_6,IDENT_7,







"=","pet2",
STRING_0,STRING_1,

























