test_annotation_NPE,getAnnotation,getSuperclass,
METHOD_0,METHOD_1,METHOD_2,

nutz,ioc,IocBean,Mirror,MirrorTest,klass,A,ann,annType,
IDENT_0,IDENT_1,IDENT_2,IDENT_3,IDENT_4,IDENT_5,IDENT_6,IDENT_7,IDENT_8,


































