testChildrenRemoval3,getConnection,getRootNode,addChildNode,removeNode,getChildren,getCollectedDocumentIds,
METHOD_0,METHOD_1,METHOD_2,METHOD_3,METHOD_4,METHOD_5,METHOD_6,

Session,foo,children,
IDENT_0,IDENT_1,IDENT_2,







"TestDoc",
STRING_0,

























