testInvalidProbe,getOrRunHealthCheck,getService,getOrRunHealthChecks,
METHOD_0,METHOD_1,METHOD_2,METHOD_3,

pm,e1,ProbeManager,Framework,probe,
IDENT_0,IDENT_1,IDENT_2,IDENT_3,IDENT_4,







"invalidProbe",
STRING_0,

























