testScalarPropertyChangedDirty,getScalarProperty,clearDirtyFlags,isDirty,
METHOD_0,METHOD_1,METHOD_2,METHOD_3,

ScalarProperty,listDiff,
IDENT_0,IDENT_1,







"test1","test2",
STRING_0,STRING_1,

























