testFileChecksum,HarFileSystem,getFileChecksum,getFileChecksumWithCombineMode,getUriPath,
METHOD_0,METHOD_1,METHOD_2,METHOD_3,METHOD_4,

HarFileSystem,harfs,dfs,
IDENT_0,IDENT_1,IDENT_2,







"har://file-localhost/foo.har/file1",
STRING_0,

























