testTwoByteTextFil,readUsingTextCommand,getCompName,
METHOD_0,METHOD_1,METHOD_2,

twoByteContents,TestTextCommand,TEXT_FILENAME,ComponentInstanceId,
IDENT_0,IDENT_1,IDENT_2,IDENT_3,







'x','y',
STRING_0,STRING_1,

























