removeBIll,processXmlFile,getBill,BaseBillId,getAmendment,getSameAs,
METHOD_0,METHOD_1,METHOD_2,METHOD_3,METHOD_4,METHOD_5,

xmlPath,nysenate,openleg,bill,Bill,billDataService,BillAmendment,amendment,Version,ORIGINAL,sameAs,
IDENT_0,IDENT_1,IDENT_2,IDENT_3,IDENT_4,IDENT_5,IDENT_6,IDENT_7,IDENT_8,IDENT_9,IDENT_10,

2017,
INT_0,




"processor/bill/sameas/2017-02-09-12.48.56.095416_SAMEAS_A05457.XML","processor/bill/sameas/2017-02-09-12.48.35.004442_SAMEAS_A05454-remove.XML","A5457",
STRING_0,STRING_1,STRING_2,

























