processOptionsExpression,Find,setConf,getArgs,processOptions,
METHOD_0,METHOD_1,METHOD_2,METHOD_3,METHOD_4,

Find,TestFind,paths,LinkedList,argsList,pathList,cmd,
IDENT_0,IDENT_1,IDENT_2,IDENT_3,IDENT_4,IDENT_5,IDENT_6,







"path1 path2 path3","-L -H "," -print -name test",
STRING_0,STRING_1,STRING_2,

























