testParseSuperErr,OFPFlowMatchQuery,checkMapExactly,
METHOD_0,METHOD_1,METHOD_2,

o3project,odenos,BasicQuery,actions,
IDENT_0,IDENT_1,IDENT_2,IDENT_3,







"aaa","bbb",
STRING_0,STRING_1,

























