testIsModify,ObjectProperty,isModify,getKeys,
METHOD_0,METHOD_1,METHOD_2,METHOD_3,

o3project,odenos,remoteobject,newProperty,oldKeySet,newKeySet,newValue,oldValue,
IDENT_0,IDENT_1,IDENT_2,IDENT_3,IDENT_4,IDENT_5,IDENT_6,IDENT_7,







"ObjType","ObjID",
STRING_0,STRING_1,

























