testIsErrorDeleteTrue,isError,
METHOD_0,METHOD_1,

statusCode,ACCEPTED,o3project,odenos,remoteobject,OK,CREATED,
IDENT_0,IDENT_1,IDENT_2,IDENT_3,IDENT_4,IDENT_5,IDENT_6,







"GET","DELETE","PUT",
STRING_0,STRING_1,STRING_2,

























