getPackagesNull,TokenRegistry,getPackages,unmodifiableList,
METHOD_0,METHOD_1,METHOD_2,METHOD_3,

obeonetwork,m2doc,TokenRegistry,packagesRegistry,tokenName,
IDENT_0,IDENT_1,IDENT_2,IDENT_3,IDENT_4,


































