testIsBodyNullTrue,isNilValue,isBodyNull,
METHOD_0,METHOD_1,METHOD_2,

bodyValue,o3project,odenos,remoteobject,msgpack,Value,
IDENT_0,IDENT_1,IDENT_2,IDENT_3,IDENT_4,IDENT_5,


































