test1,check,XmlIterator,readNext,
METHOD_0,METHOD_1,METHOD_2,METHOD_3,

cmu,lti,oaqa,knn4qa,XmlIterator,tagName,XmlIteratorTest,
IDENT_0,IDENT_1,IDENT_2,IDENT_3,IDENT_4,IDENT_5,IDENT_6,







"<az/>","<a><x> 1</x></a>","<a attrib=\"test\"><y>элемент 2</y><ab>some irrelevant tag</ab></a>","<az>some irrelevant piece</az>","<a attrib=\"test\" />","Unexpected # of results, expected %d, got %d","Wrong element index %d, expected '%s', got '%s'",
STRING_0,STRING_1,STRING_2,STRING_3,STRING_4,STRING_5,STRING_6,

























