shouldWriteAndReadBytes,
METHOD_0,

ociweb,pronghorn,rs232,RS232ClientTest,client1,client2,connected,backing,fd,
IDENT_0,IDENT_1,IDENT_2,IDENT_3,IDENT_4,IDENT_5,IDENT_6,IDENT_7,IDENT_8,







"bazinga #","UTF-8",
STRING_0,STRING_1,

























