testcapturedFieldSetValue,TrieParserReader,TrieParser,setUTF8Value,capturedFieldSetValue,
METHOD_0,METHOD_1,METHOD_2,METHOD_3,METHOD_4,

ociweb,pronghorn,TrieParserReader,TrieParser,CharSequence,trie,
IDENT_0,IDENT_1,IDENT_2,IDENT_3,IDENT_4,IDENT_5,

33,22,
INT_0,INT_1,




"12%b1234","12abcd1234","abcd",
STRING_0,STRING_1,STRING_2,

























