testApiMisuse4_3,getQuantityRounded,
METHOD_0,METHOD_1,

prettytime,Duration,duration,
IDENT_0,IDENT_1,IDENT_2,







" minut",
STRING_0,

























