testGetType,
METHOD_0,

omertron,thetvdbapi,BannerTypeTest,BannerType,ARTWORK,
IDENT_0,IDENT_1,IDENT_2,IDENT_3,IDENT_4,







"getType","artwork",
STRING_0,STRING_1,

























