testPort,setPort,getPort,shout_get_port,
METHOD_0,METHOD_1,METHOD_2,METHOD_3,

libshout,gmail,kunicins,olegs,Libshout,
IDENT_0,IDENT_1,IDENT_2,IDENT_3,IDENT_4,

8000,
INT_0,































