testNonBlocking,setNonBlocking,isNonBlocking,shout_get_nonblocking,
METHOD_0,METHOD_1,METHOD_2,METHOD_3,

libshout,gmail,kunicins,olegs,Libshout,
IDENT_0,IDENT_1,IDENT_2,IDENT_3,IDENT_4,


































