testDeleteById,doNothing,anyInt,ok,
METHOD_0,METHOD_1,METHOD_2,METHOD_3,

olacabs,fabric,GlobalPropertyResourceTest,globalProperty,
IDENT_0,IDENT_1,IDENT_2,IDENT_3,


































