testContainsKeyValue,IniStyleFile,
METHOD_0,METHOD_1,

freedesktop,IniStyleFile,
IDENT_0,IDENT_1,







"default-group","key",
STRING_0,STRING_1,

























