testLastWhen,sorted,lastWhen,naturalOrder,firstOrLastWhen,
METHOD_0,METHOD_1,METHOD_2,METHOD_3,METHOD_4,

Stream,omnifaces,Comparators,Predicate,Comparator,predicate,comparator,
IDENT_0,IDENT_1,IDENT_2,IDENT_3,IDENT_4,IDENT_5,IDENT_6,







"D","A","BB","C","BA","B",
STRING_0,STRING_1,STRING_2,STRING_3,STRING_4,STRING_5,

























