testGetServiceDatesWithinRange03,getServiceDateArrivalsWithinRange,
METHOD_0,METHOD_1,

onebusaway,gtfs,DateSupport,calendar,LocalizedServiceId,intervals,
IDENT_0,IDENT_1,IDENT_2,IDENT_3,IDENT_4,IDENT_5,







"2010-02-02 03:30 Pacific Standard Time","2010-02-02 03:45 Pacific Standard Time",
STRING_0,STRING_1,

























