testMallocAndFree,malloc,free,usedBlocks,
METHOD_0,METHOD_1,METHOD_2,METHOD_3,

pointer,m_allocationSize,m_blocks,
IDENT_0,IDENT_1,IDENT_2,


































