testGenerateUniqueID_usesDefaultOnEmpty,generateUniqueID,randomUUID,
METHOD_0,METHOD_1,METHOD_2,

s1,onelogin,saml2,Util,prefix,UNIQUE_ID_PREFIX,
IDENT_0,IDENT_1,IDENT_2,IDENT_3,IDENT_4,IDENT_5,


































