test07_01,readAllFromResouce,print,getDisplayName,getChildren,
METHOD_0,METHOD_1,METHOD_2,METHOD_3,METHOD_4,

t1,eulerlcs,regularexpression,ret1,ret2,v3,Description,
IDENT_0,IDENT_1,IDENT_2,IDENT_3,IDENT_4,IDENT_5,IDENT_6,







"07.txt","--orignal text start--","--orignal text end --","(\r\n)|\r","-- start--","(?m)^\\s*(.*?)\\s*$","$1","--trim start--","--trim end --",
STRING_0,STRING_1,STRING_2,STRING_3,STRING_4,STRING_5,STRING_6,STRING_7,STRING_8,

























