testGenerateNameIdException,generateNameId,
METHOD_0,METHOD_1,

nameId,onelogin,saml2,Util,spnq,
IDENT_0,IDENT_1,IDENT_2,IDENT_3,IDENT_4,


































