testSameAs2,runTests,getBindingNames,
METHOD_0,METHOD_1,METHOD_2,

ontopBindingSet,
IDENT_0,







"PREFIX : <http://ontop.inf.unibz.it/test/wellbore#> SELECT DISTINCT ?x \n","WHERE {\n"," ?x a :Wellbore . \n"," ?x :hasName ?y . \n","}",
STRING_0,STRING_1,STRING_2,STRING_3,STRING_4,

























