reverseNullElement,reverse,
METHOD_0,METHOD_1,

opcfoundation,ua,encoding,binary,ByteUtils,
IDENT_0,IDENT_1,IDENT_2,IDENT_3,IDENT_4,


































