testByteStringHashCode,
METHOD_0,

b1,b2,opcfoundation,ua,builtintypes,ByteString,bs1,bs2,serverIndex,
IDENT_0,IDENT_1,IDENT_2,IDENT_3,IDENT_4,IDENT_5,IDENT_6,IDENT_7,IDENT_8,

17,
INT_0,































