testGetHost,getHost,
METHOD_0,METHOD_1,

hosttrustreporttype,intel,mountwilson,hosttrustreport,HostType,hosttype1,hosttype2,
IDENT_0,IDENT_1,IDENT_2,IDENT_3,IDENT_4,IDENT_5,IDENT_6,


































