testCopy,Fruit,writeValueAsString,copy,toMap,
METHOD_0,METHOD_1,METHOD_2,METHOD_3,METHOD_4,

patch,RelationalPatchTest,Fruit,apple,fruitName,fruitColor,groveId,apple2,intel,mtwilson,datatypes,PatchUtil,
IDENT_0,IDENT_1,IDENT_2,IDENT_3,IDENT_4,IDENT_5,IDENT_6,IDENT_7,IDENT_8,IDENT_9,IDENT_10,IDENT_11,







"1234","apple","red","abcd","apple: {}","apple2: {}",
STRING_0,STRING_1,STRING_2,STRING_3,STRING_4,STRING_5,

























