testInvalidAddressExceptionThrown,IPAddress,getHost,
METHOD_0,METHOD_1,METHOD_2,

intel,mtwilson,datatypes,IPAddress,ipaddress,valid,
IDENT_0,IDENT_1,IDENT_2,IDENT_3,IDENT_4,IDENT_5,







"1.2.3.4","1,2,3,4",":","//[%s]","//%s","[\\d\\.]+",
STRING_0,STRING_1,STRING_2,STRING_3,STRING_4,STRING_5,

























