testGetHttpReasonPhraseNull,ApiException,getHttpReasonPhrase,
METHOD_0,METHOD_1,METHOD_2,

intel,mtwilson,ApiException,apiexception,httpReasonPhrase,
IDENT_0,IDENT_1,IDENT_2,IDENT_3,IDENT_4,







"error!",
STRING_0,

























