testNoLimitNoOffset,SmartIterator,createMap,applyLimitAndOffset,
METHOD_0,METHOD_1,METHOD_2,METHOD_3,

smartIterator,opencastproject,unfilteredList,filteredList,
IDENT_0,IDENT_1,IDENT_2,IDENT_3,


































