testExceptionTransformation3,handle,none,isNone,
METHOD_0,METHOD_1,METHOD_2,METHOD_3,

opencastproject,Option,penv,Function,EntityManager,entityManager,A,functions,
IDENT_0,IDENT_1,IDENT_2,IDENT_3,IDENT_4,IDENT_5,IDENT_6,IDENT_7,







"error",
STRING_0,

























