getUsersFromEmptyLDAPGroup,getUsersFromLDAPGroup,
METHOD_0,METHOD_1,

bioUsers,opencb,opencga,LDAPUtils,
IDENT_0,IDENT_1,IDENT_2,IDENT_3,







"ldap://localhost:9000","cipapi-ldp-rxn","ou=groups,dc=ge,dc=co,dc=uk",
STRING_0,STRING_1,STRING_2,

























