testEqual,parseInt,getFileName,
METHOD_0,METHOD_1,METHOD_2,

comp,vcfRecordComparator,a1,id_o1,o1,id_o2,o2,
IDENT_0,IDENT_1,IDENT_2,IDENT_3,IDENT_4,IDENT_5,IDENT_6,







"_",
STRING_0,

























