resolveRefOverlap,getVariant,setType,toJson,VariantLocalConflictResolver,resolveConflicts,forEach,
METHOD_0,METHOD_1,METHOD_2,METHOD_3,METHOD_4,METHOD_5,METHOD_6,

opencb,biodata,variant,Variant,opencga,archive,mr,VariantLocalConflictResolverTest,NO_VARIATION,resolved,
IDENT_0,IDENT_1,IDENT_2,IDENT_3,IDENT_4,IDENT_5,IDENT_6,IDENT_7,IDENT_8,IDENT_9,







"2:10048155-10048156:","PASS","220","0/0","2:10048155:AAA:-","0/1","a.toString() = ","b.toString() = ","res.toJson() = ",
STRING_0,STRING_1,STRING_2,STRING_3,STRING_4,STRING_5,STRING_6,STRING_7,STRING_8,

























