testSendSampleEvent,sendEvent,SampleEvent,getNumberOfTimesInvoked,
METHOD_0,METHOD_1,METHOD_2,METHOD_3,

opencredo,esper,sample,numberOfTimesInvoked,
IDENT_0,IDENT_1,IDENT_2,IDENT_3,


































