removeSslDataTest,removeSslData,
METHOD_0,METHOD_1,

aaa,cert,AaaCertMdsalProviderTest,aaaCertMdsalProvider,BUNDLE_NAME,keyStoresData,dataBroker,bundleName,
IDENT_0,IDENT_1,IDENT_2,IDENT_3,IDENT_4,IDENT_5,IDENT_6,IDENT_7,


































