anAuthorizationOfRejectedIsNotAllowed,rejected,isServerAllowed,
METHOD_0,METHOD_1,METHOD_2,

netconf,callhome,CallHomeAuthorization,
IDENT_0,IDENT_1,IDENT_2,


































