testToNumberWithSmallArray,toNumber,getLSBMask,
METHOD_0,METHOD_1,METHOD_2,

numBits,Byte,SIZE,bitsRest,startOffset,openflowplugin,libraries,liblldp,BitBufferHelper,
IDENT_0,IDENT_1,IDENT_2,IDENT_3,IDENT_4,IDENT_5,IDENT_6,IDENT_7,IDENT_8,

32,256,
INT_0,INT_1,










%,&=,
OP_0,OP_1,



















