setExtensionConverterProvider,getExtensionConverterProvider,
METHOD_0,METHOD_1,

sm,extensionConverterManager,extensionConverterProvider,
IDENT_0,IDENT_1,IDENT_2,


































