usesLogicalInterfacesLogicalSff,getSffDataPlaneLocator,usesLogicalInterfaces,
METHOD_0,METHOD_1,METHOD_2,

sff,urn,cisco,ns,sfc,rev140701,forwarders,ServiceFunctionForwarder,theSff,
IDENT_0,IDENT_1,IDENT_2,IDENT_3,IDENT_4,IDENT_5,IDENT_6,IDENT_7,IDENT_8,


































