testYang11,parseYangSources,
METHOD_0,METHOD_1,

SchemaContext,StmtTestUtils,StatementStreamSource,StatementParserMode,DEFAULT_MODE,sources,
IDENT_0,IDENT_1,IDENT_2,IDENT_3,IDENT_4,IDENT_5,







"/bugs/bug7038/yang11",
STRING_0,

























