getCachedTsl,getTsl,loadTsl,
METHOD_0,METHOD_1,METHOD_2,

digidoc4j,TSLCertificateSource,tsl,tslManager,newTsl,tslCertificateSource,asic,TslManager,
IDENT_0,IDENT_1,IDENT_2,IDENT_3,IDENT_4,IDENT_5,IDENT_6,IDENT_7,







"Using TSL cached copy",
STRING_0,

























