conversionString,toDmxValue,
METHOD_0,METHOD_1,

openhab,dmx,Util,smarthome,thing,ThingTypeUID,thingTypeUID,otherThingTypeUID,
IDENT_0,IDENT_1,IDENT_2,IDENT_3,IDENT_4,IDENT_5,IDENT_6,IDENT_7,







"100",
STRING_0,

























