testWriteOffset,nativeBytes,unchecked,elasticBytes,release,readLong,
METHOD_0,METHOD_1,METHOD_2,METHOD_3,METHOD_4,METHOD_5,

openhft,chronicle,Bytes,NativeBytes,alloc1,
IDENT_0,IDENT_1,IDENT_2,IDENT_3,IDENT_4,

128,
INT_0,































