testCAS,isArm,wrap,allocate,compareAndSwapLong,readLong,translate,
METHOD_0,METHOD_1,METHOD_2,METHOD_3,METHOD_4,METHOD_5,METHOD_6,

openhft,chronicle,Jvm,jetbrains,annotations,NotNull,BytesStore,memory,
IDENT_0,IDENT_1,IDENT_2,IDENT_3,IDENT_4,IDENT_5,IDENT_6,IDENT_7,


































