testFromString2,fromString,
METHOD_0,METHOD_1,

openhft,chronicle,wire,Marshallable,CharSequence,WireType,TEXT,
IDENT_0,IDENT_1,IDENT_2,IDENT_3,IDENT_4,IDENT_5,IDENT_6,







"\"",
STRING_0,

























