testDate,elasticByteBuffer,getValueOut,release,getValueIn,
METHOD_0,METHOD_1,METHOD_2,METHOD_3,METHOD_4,

openhft,chronicle,Bytes,wire,Wire,wireType,valueIn,
IDENT_0,IDENT_1,IDENT_2,IDENT_3,IDENT_4,IDENT_5,IDENT_6,

1234567890000L,
INT_0,































