testFromString,fromString,Scanner,useDelimiter,
METHOD_0,METHOD_1,METHOD_2,METHOD_3,

jetbrains,annotations,Nullable,w,WireType,TEXT,Scanner,openhft,chronicle,wire,
IDENT_0,IDENT_1,IDENT_2,IDENT_3,IDENT_4,IDENT_5,IDENT_6,IDENT_7,IDENT_8,IDENT_9,







"changedRow: {\n"," close: 107.7,\n"," ],\n"," oldRow: {\n"," volume: 26880400.0,\n"," adjClose: 107.7,\n"," low: 107.51,\n"," key: !java.util.Date 1473116400000,\n"," open: 107.9\n"," }\n","\\A",
STRING_0,STRING_1,STRING_2,STRING_3,STRING_4,STRING_5,STRING_6,STRING_7,STRING_8,STRING_9,STRING_10,

























