testForEach,synchronizedSet,forEach,perform,
METHOD_0,METHOD_1,METHOD_2,METHOD_3,

intsList,openimaj,parallel,Parallel,
IDENT_0,IDENT_1,IDENT_2,IDENT_3,

1000000,
INT_0,































