testDecodeString,PositionSpec,
METHOD_0,METHOD_1,

imageterrier,locfile,PositionSpec,PositionSpecMode,SPATIAL,term,splitno,flushno,
IDENT_0,IDENT_1,IDENT_2,IDENT_3,IDENT_4,IDENT_5,IDENT_6,IDENT_7,

11,
INT_0,




":",
STRING_0,

























