testGetName,Topic,
METHOD_0,METHOD_1,

topicName,websphere,Topic,topic,_cInstanceName,
IDENT_0,IDENT_1,IDENT_2,IDENT_3,IDENT_4,







"com/ibm/websphere/context/test/Topic",
STRING_0,

























