testListConverter,ListConverter,
METHOD_0,METHOD_1,

one,two,three,fourA,fourB,microprofile,config12,converters,ListConverter,converted,
IDENT_0,IDENT_1,IDENT_2,IDENT_3,IDENT_4,IDENT_5,IDENT_6,IDENT_7,IDENT_8,IDENT_9,







"One","Two","Three","FourA","FourB",",","\\,","String: ","102=",
STRING_0,STRING_1,STRING_2,STRING_3,STRING_4,STRING_5,STRING_6,STRING_7,STRING_8,

























