testRetryForever,connectCForever,getConnectCount,
METHOD_0,METHOD_1,METHOD_2,

HttpServletRequest,HttpServletResponse,beanC,connectCount,
IDENT_0,IDENT_1,IDENT_2,IDENT_3,


































