testInvalidURLNoCloseBracket,setUrl,getEventsSize,getEvents,
METHOD_0,METHOD_1,METHOD_2,METHOD_3,

validationHelper,
IDENT_0,







"https://{development.gigantic-server.com/v1",
STRING_0,

























