testNullSchema,TestValidationHelper,getEventsSize,getEvents,
METHOD_0,METHOD_1,METHOD_2,METHOD_3,

microprofile,openapi,SchemaValidator,TestValidationHelper,vh,SchemaImpl,
IDENT_0,IDENT_1,IDENT_2,IDENT_3,IDENT_4,IDENT_5,


































