getParamListNormal,MethodInfo,getParamList,
METHOD_0,METHOD_1,METHOD_2,

mn,pl,jacc,MethodInfo,mi,paramList,
IDENT_0,IDENT_1,IDENT_2,IDENT_3,IDENT_4,IDENT_5,







"methodName","methodInterfaceName","com.ibm.class1","com.ibm.class2",
STRING_0,STRING_1,STRING_2,STRING_3,

























