testSize003,LdapName,UnsupportedOperationException,
METHOD_0,METHOD_1,METHOD_2,

naming,LdapName,ln,
IDENT_0,IDENT_1,IDENT_2,







"t1=test+t2=test,t3=test;t4=test",
STRING_0,

























