testEquals_null,BasicUser,
METHOD_0,METHOD_1,

basic,BasicUser,ProbeImpl,identifier,
IDENT_0,IDENT_1,IDENT_2,IDENT_3,







"user","password",
STRING_0,STRING_1,

























