getRealm,
METHOD_0,

websphere,simplicity,Log,wim,fat,BasicTests,
IDENT_0,IDENT_1,IDENT_2,IDENT_3,IDENT_4,IDENT_5,







"getRealm","Checking expected realm","allURAPIs",
STRING_0,STRING_1,STRING_2,

























