testCompareTo007,LdapName,
METHOD_0,METHOD_1,

naming,LdapName,ln,ln2,pmi,SpdData,dataId,
IDENT_0,IDENT_1,IDENT_2,IDENT_3,IDENT_4,IDENT_5,IDENT_6,


































