testAutocastFloat,BigDecimalValue,autocast,
METHOD_0,METHOD_1,METHOD_2,

openl,BigDecimalValue,expectedResult,
IDENT_0,IDENT_1,IDENT_2,







"12.23",
STRING_0,

12.23,
FLOAT_0,






















