testDivide,BigDecimalValue,divide,doubleValue,OpenLRuntimeException,
METHOD_0,METHOD_1,METHOD_2,METHOD_3,METHOD_4,

openl,BigDecimalValue,expectedResult,value1,value2,ONE,number,Formulas,DIVIDE,Operators,
IDENT_0,IDENT_1,IDENT_2,IDENT_3,IDENT_4,IDENT_5,IDENT_6,IDENT_7,IDENT_8,IDENT_9,







"12.24552","96.4947","7.88","Division by zero",
STRING_0,STRING_1,STRING_2,STRING_3,

























