testIsSimple,getOpenClass,isSimple,
METHOD_0,METHOD_1,METHOD_2,

openl,IOpenClass,JavaOpenClass,StringValue,
IDENT_0,IDENT_1,IDENT_2,IDENT_3,


































