testString,getFormatter,FormatterAdapter,
METHOD_0,METHOD_1,METHOD_2,

openl,formatters,IFormatter,formatter,FormattersManager,DefaultFormatter,
IDENT_0,IDENT_1,IDENT_2,IDENT_3,IDENT_4,IDENT_5,







"text",
STRING_0,

























