testGetDeployments,getDeployments,
METHOD_0,METHOD_1,

openl,abstraction,Deployment,deployments,dataSource,constraints,
IDENT_0,IDENT_1,IDENT_2,IDENT_3,IDENT_4,IDENT_5,


































