getObs_shouldNotGetVoidedObs,Encounter,Obs,setVoided,addObs,getObs,LinkedHashSet,getObsLeaves,
METHOD_0,METHOD_1,METHOD_2,METHOD_3,METHOD_4,METHOD_5,METHOD_6,METHOD_7,

Encounter,enc,Obs,obs,
IDENT_0,IDENT_1,IDENT_2,IDENT_3,


































