isSuperUser_shouldNotBeSuperUser,isSuperUser,containsRole,
METHOD_0,METHOD_1,METHOD_2,

RoleConstants,SUPERUSER,
IDENT_0,IDENT_1,


































