getConceptByUuid_shouldFindObjectGivenValidUuid,getConceptService,getConceptByUuid,getConceptId,
METHOD_0,METHOD_1,METHOD_2,METHOD_3,

uuid,Concept,concept,conceptId,
IDENT_0,IDENT_1,IDENT_2,IDENT_3,







"0cbe2ed3-cd5f-4f46-9459-26127c9265ab",
STRING_0,

























