unvoidObs_shouldUnsetVoidedBitOnGivenObs,getObsService,getObs,unvoidObs,getVoided,
METHOD_0,METHOD_1,METHOD_2,METHOD_3,METHOD_4,

ObsService,obsService,Obs,obs,voided,
IDENT_0,IDENT_1,IDENT_2,IDENT_3,IDENT_4,


































