getPersonByUuid_shouldFindObjectGivenValidUuid,getPersonService,getPersonByUuid,getPersonId,
METHOD_0,METHOD_1,METHOD_2,METHOD_3,

uuid,personId,
IDENT_0,IDENT_1,







"ba1b19c2-3ed6-4f63-b8c0-f762dc8d7562",
STRING_0,

























