getAllObjects_shouldReturnAllSavedObjectsOfThePassedType,getAllObjects,
METHOD_0,METHOD_1,

Program,allergies,
IDENT_0,IDENT_1,


































