handle_shouldNotSetDateVoidedIfNonNull,BaseVoidHandler,setDateVoided,handle,getDateVoided,
METHOD_0,METHOD_1,METHOD_2,METHOD_3,METHOD_4,

VoidHandler,Voidable,voidable,dateVoided,
IDENT_0,IDENT_1,IDENT_2,IDENT_3,


































