getHigh_shouldReturnCorrectValueOfHighIfHighWasSetPreviously,DoubleRange,getHigh,
METHOD_0,METHOD_1,METHOD_2,

DoubleRange,dr,high,
IDENT_0,IDENT_1,IDENT_2,










4.0,
FLOAT_0,






















