contains_shouldReturnFalseIfParameterIsNotInRange,DoubleRange,getSession,
METHOD_0,METHOD_1,METHOD_2,

DoubleRange,r1,
IDENT_0,IDENT_1,










1.1,
FLOAT_0,






















