testGetFields,generatePathSegments,generateAsPath,getPathSegments,
METHOD_0,METHOD_1,METHOD_2,METHOD_3,

routing,bgp,BgpRouteEntry,PathSegment,pathSegments,AsPath,asPath,
IDENT_0,IDENT_1,IDENT_2,IDENT_3,IDENT_4,IDENT_5,IDENT_6,


































