testOrder,sort,Versioned,incrementAndGet,
METHOD_0,METHOD_1,METHOD_2,METHOD_3,

Version,versions,V,counter,
IDENT_0,IDENT_1,IDENT_2,IDENT_3,







"0.1.0","1.0.1","0.0.1","1.0.0","1.1.1",
STRING_0,STRING_1,STRING_2,STRING_3,STRING_4,

























