save_should_persist_item_list,createListOfItems,
METHOD_0,METHOD_1,

simpledb,SimpleDbUser,SimpleDbUserBuilder,consistentRead,
IDENT_0,IDENT_1,IDENT_2,IDENT_3,


































