testInterfaceIpAddress,setInterfaceIpAddress,interfaceIpAddress,
METHOD_0,METHOD_1,METHOD_2,

defaultIsisInterface,ip4Address,resultIPv4Addr,
IDENT_0,IDENT_1,IDENT_2,


































