testIsAlreadyCreated,setAlreadyCreated,isAlreadyCreated,
METHOD_0,METHOD_1,METHOD_2,

deviceInformation,alreadyCreated,
IDENT_0,IDENT_1,


































