testToLong,toLong,NumberFormatException,parseShort,
METHOD_0,METHOD_1,METHOD_2,METHOD_3,

dpidStr,valid,testLong,onlab,HexString,octets,octet,Short,
IDENT_0,IDENT_1,IDENT_2,IDENT_3,IDENT_4,IDENT_5,IDENT_6,IDENT_7,

4476298738394751793L,
INT_0,




"3e:1f:01:fc:72:8c:63:31",":","Input string is too big to fit in long: ","Each colon-separated byte component must consist of 1 or 2 hex digits: ",
STRING_0,STRING_1,STRING_2,STRING_3,

























