testNoAnswer,Lookup,setCache,SimpleResolver,setPort,setResolver,getResult,getAnswers,
METHOD_0,METHOD_1,METHOD_2,METHOD_3,METHOD_4,METHOD_5,METHOD_6,METHOD_7,

xbill,DNS,Lookup,AAAA,SimpleResolver,Record,answers,m_answers,
IDENT_0,IDENT_1,IDENT_2,IDENT_3,IDENT_4,IDENT_5,IDENT_6,IDENT_7,

9153,
INT_0,




"example.com","::1","result: ",
STRING_0,STRING_1,STRING_2,

























