testDiskNull,createBasicParams,poll,createMonitor,isAvailable,
METHOD_0,METHOD_1,METHOD_2,METHOD_3,METHOD_4,

netmgt,poller,PollStatus,available,
IDENT_0,IDENT_1,IDENT_2,IDENT_3,







"disk",
STRING_0,

























