testDivisionByZeroB,isUserInRole,
METHOD_0,METHOD_1,

wrapper,HttpServletRequest,Authentication,ROLE_ADMIN,DisplayStatus,NO_DISPLAY,
IDENT_0,IDENT_1,IDENT_2,IDENT_3,IDENT_4,IDENT_5,







"ifInOctets","ifSpeed","ifHighSpeed",
STRING_0,STRING_1,STRING_2,

200000.0,
FLOAT_0,






















