testDeliver,findElementByXpath,click,findElements,xpath,readLock,lock,unlock,
METHOD_0,METHOD_1,METHOD_2,METHOD_3,METHOD_4,METHOD_5,METHOD_6,METHOD_7,

WebElement,m_driver,By,m_lock,m_managedAddresses,
IDENT_0,IDENT_1,IDENT_2,IDENT_3,IDENT_4,







"//td[@class=\"o-report-deliver\"]/a","//h3[contains(text(), 'Error')]",
STRING_0,STRING_1,

























