testSetHeaders,setHeaders,getHeaders,
METHOD_0,METHOD_1,METHOD_2,

partWithOutContent,
IDENT_0,







"myheader","myValue","myheader2","myValue2",
STRING_0,STRING_1,STRING_2,STRING_3,

























