testGetNameWhenUndefined,asString,getNode,getPropertyKeys,
METHOD_0,METHOD_1,METHOD_2,METHOD_3,

openshift,restclient,VALUE,
IDENT_0,IDENT_1,IDENT_2,


































