testPluralizeWhenEmpty,pluralize,
METHOD_0,METHOD_1,

openshift,restclient,ResourceKind,kind,
IDENT_0,IDENT_1,IDENT_2,IDENT_3,


































