testDeactivate,deactivate,debugString,
METHOD_0,METHOD_1,METHOD_2,

pdu,
IDENT_0,







"HELLO","\nPDU debug string: ",
STRING_0,STRING_1,

























