testDebugString,Address,debugString,getMessageId,debugStringOptional,
METHOD_0,METHOD_1,METHOD_2,METHOD_3,METHOD_4,

ton,smpp,pdu,AddressTest,TONS,npi,NPIS,MAX_ADDRESS_LENGTH,dbgs,
IDENT_0,IDENT_1,IDENT_2,IDENT_3,IDENT_4,IDENT_5,IDENT_6,IDENT_7,IDENT_8,







"(addr: ",") ","(data_resp: ",
STRING_0,STRING_1,STRING_2,

























