testRemoveByteRemovesFirstByte,bufferOf,removeByte,removeBytes,getBuffer,
METHOD_0,METHOD_1,METHOD_2,METHOD_3,METHOD_4,

smpp,ByteBufferTest,A,B,C,bite,resBuff,SZ_BYTE,
IDENT_0,IDENT_1,IDENT_2,IDENT_3,IDENT_4,IDENT_5,IDENT_6,IDENT_7,


































