testReadBytesWithCountDoesNotReduceBuffer,bufferOf,readBytes,
METHOD_0,METHOD_1,METHOD_2,

smpp,ByteBufferTest,A,B,C,
IDENT_0,IDENT_1,IDENT_2,IDENT_3,IDENT_4,


































