WrappedByteArrayInputStream,
METHOD_0,

oracle,bmc,WrappedByteArrayInputStream,desiredEndPositionInSource,desiredStartPositionInSource,
IDENT_0,IDENT_1,IDENT_2,IDENT_3,IDENT_4,

35,
INT_0,































