version_unsupported,parseInt,
METHOD_0,METHOD_1,

oracle,bmc,JavaRuntimeUtils,JreVersion,Unknown,versionString,versionParts,featureVersion,Unsupported,Java_7,Java_8,Java_9,Matcher,JEP223_PATTERN,majorVersion,
IDENT_0,IDENT_1,IDENT_2,IDENT_3,IDENT_4,IDENT_5,IDENT_6,IDENT_7,IDENT_8,IDENT_9,IDENT_10,IDENT_11,IDENT_12,IDENT_13,IDENT_14,







"java.version","1.6","1.","\\.",
STRING_0,STRING_1,STRING_2,STRING_3,

























