testEncode,AssertionError,
METHOD_0,METHOD_1,

opengrok,indexer,Util,
IDENT_0,IDENT_1,IDENT_2,







"Test <code>title</code>","Test&nbsp;&#60;code&#62;title&#60;/code&#62;","ahoj","<>|&\"\'","&#60;&#62;|&#38;&#34;&#39;","tab\ttab","tab&nbsp;&nbsp;&nbsp;&nbsp;tab","multi\nline\t\nstring","multi&lt;br/&gt;line&nbsp;&nbsp;&nbsp;&nbsp;&lt;br/&gt;string","StringBuilder threw IOException",
STRING_0,STRING_1,STRING_2,STRING_3,STRING_4,STRING_5,STRING_6,STRING_7,STRING_8,STRING_9,

1.5,
FLOAT_0,






















