testBugPattern,setBugPattern,getBugPattern,
METHOD_0,METHOD_1,METHOD_2,

opengrok,indexer,RuntimeEnvironment,bugPattern,
IDENT_0,IDENT_1,IDENT_2,IDENT_3,







"\\b([12456789][0-9]{6})\\b","\\b(#\\d+)\\b","(BUG123)","\\sbug=(\\d+[a-t])*(\\W*)","The pattern '","' should not throw an exception",
STRING_0,STRING_1,STRING_2,STRING_3,STRING_4,STRING_5,

























