sharedInstance,
METHOD_0,

graalvm,visualvm,scheduler,Scheduler,result1,result2,
IDENT_0,IDENT_1,IDENT_2,IDENT_3,IDENT_4,IDENT_5,







"sharedInstance",
STRING_0,

























