shouldConvertMicrometersToPixels,micrometersToPixels,getMicrometersPerPixel,
METHOD_0,METHOD_1,METHOD_2,

micrometers,
IDENT_0,


































