testGetFallback,getRecodedArea,getFallbackParameters,AreaParameters,Color,
METHOD_0,METHOD_1,METHOD_2,METHOD_3,METHOD_4,

orbisgis,legend,thematic,recode,RecodedArea,ra,AreaParameters,fb,PointParameters,sup,wkn,height,width,
IDENT_0,IDENT_1,IDENT_2,IDENT_3,IDENT_4,IDENT_5,IDENT_6,IDENT_7,IDENT_8,IDENT_9,IDENT_10,IDENT_11,IDENT_12,

51,85,103,102,
INT_0,INT_1,INT_2,INT_3,







0.4,0.9,
FLOAT_0,FLOAT_1,






















