testST_Remove3Holes,removeHole,
METHOD_0,METHOD_1,

vividsolutions,Polygon,polygon,wKTReader,Geometry,orbisgis,mapeditor,geometryUtils,GeometryEdit,sif,ContainerItem,
IDENT_0,IDENT_1,IDENT_2,IDENT_3,IDENT_4,IDENT_5,IDENT_6,IDENT_7,IDENT_8,IDENT_9,IDENT_10,







"POLYGON (( 112 68, 112 307, 318 307, 318 68, 112 68 ), ","( 184 169, 247 197, 242 247, 167 258, 184 169 ), ","( 235 107, 277 120, 267 167, 221 161, 235 107 ), ","( 277 280, 266 255, 281 249, 300 270, 277 280 ))","POLYGON (( 112 68, 112 307, 318 307, 318 68, 112 68 ))",
STRING_0,STRING_1,STRING_2,STRING_3,STRING_4,

























