testRemoveNoStroke,getNoStroke,AreaParameters,
METHOD_0,METHOD_1,METHOD_2,

orbisgis,legend,thematic,categorize,CategorizedArea,AreaParameters,rm,tester,Color,WHITE,sif,ContainerItem,
IDENT_0,IDENT_1,IDENT_2,IDENT_3,IDENT_4,IDENT_5,IDENT_6,IDENT_7,IDENT_8,IDENT_9,IDENT_10,IDENT_11,







"#ffaa99",
STRING_0,

100000.0,0.5,
FLOAT_0,FLOAT_1,






















