checkISBNAndCaseNormalized,ExternalID,setRelationship,setType,setNormalized,TransientNonEmptyString,normalise,
METHOD_0,METHOD_1,METHOD_2,METHOD_3,METHOD_4,METHOD_5,METHOD_6,

orcid,jaxb,v3,rc2,ExternalID,normed,Relationship,SELF,id1,norm,
IDENT_0,IDENT_1,IDENT_2,IDENT_3,IDENT_4,IDENT_5,IDENT_6,IDENT_7,IDENT_8,IDENT_9,







"isbn","ISBN: 123-456-7-89x junk","123456789X",
STRING_0,STRING_1,STRING_2,

























