serializeZero,BytesContainer,readAsLong,readSignedVarLong,
METHOD_0,METHOD_1,METHOD_2,METHOD_3,

binary,BytesContainer,OVarIntSerializer,
IDENT_0,IDENT_1,IDENT_2,


































