testParamConcat,UnsupportedOperationException,
METHOD_0,METHOD_1,

ODocument,OCommandExecutorSQLSelectTest,OSQLSynchQuery,
IDENT_0,IDENT_1,IDENT_2,







"select from TestParams where surname like ? + '%'","fo","Not implemented yet",
STRING_0,STRING_1,STRING_2,

























