shouldGetAllTablesFilteredByAllTypes,getTableTypes,getTables,sizeOf,isEqualTo,
METHOD_0,METHOD_1,METHOD_2,METHOD_3,METHOD_4,

metaData,tableTypes,tableCount,
IDENT_0,IDENT_1,IDENT_2,


































