withRules_persistRules,getRandomValue,getRules,
METHOD_0,METHOD_1,METHOD_2,

openpojo,Rule,anyRule,RandomFactory,ValidatorBuilder,validatorBuilder,
IDENT_0,IDENT_1,IDENT_2,IDENT_3,IDENT_4,IDENT_5,


































