insertNullError,Animal,setRace,setCountry,
METHOD_0,METHOD_1,METHOD_2,METHOD_3,

easycassandra,Animal,animal,
IDENT_0,IDENT_1,IDENT_2,







"I know no","Brazil",
STRING_0,STRING_1,

























