testGetInstance_2Calls,VdmSymbolTable,
METHOD_0,METHOD_1,

overture,npp,VdmSymbolTable,table2,
IDENT_0,IDENT_1,IDENT_2,IDENT_3,


































