testRead,ChunkingInputStream,ChunkedInputStream,fine,
METHOD_0,METHOD_1,METHOD_2,METHOD_3,

owasp,buff,got,ChunkingInputStreamTest,
IDENT_0,IDENT_1,IDENT_2,IDENT_3,

16385,256,1024,
INT_0,INT_1,INT_2,




"Read ","Read failed, got "," of ",
STRING_0,STRING_1,STRING_2,




%,
OP_0,



















