testNegOWLClass,ObjectComplementOf,iri,getNNF,
METHOD_0,METHOD_1,METHOD_2,METHOD_3,

semanticweb,owlapi,OWLClassExpression,cls,
IDENT_0,IDENT_1,IDENT_2,IDENT_3,







"A",
STRING_0,

























