shouldInspectImage,getResponse,readEntity,
METHOD_0,METHOD_1,METHOD_2,

JsonObject,responseContent,WebTarget,kodcu,rapid,Networking,
IDENT_0,IDENT_1,IDENT_2,IDENT_3,IDENT_4,IDENT_5,







"images","ubuntu:latest","json",
STRING_0,STRING_1,STRING_2,

























