testEquals,GreyPalette,getModuleClass,
METHOD_0,METHOD_1,METHOD_2,

plot,ColorPalette,p1,p2,modules,PackageState,packageState,
IDENT_0,IDENT_1,IDENT_2,IDENT_3,IDENT_4,IDENT_5,IDENT_6,


































