test_split_path_no_components,splitPath,
METHOD_0,METHOD_1,

afollestad,ason,Util,
IDENT_0,IDENT_1,IDENT_2,







"Hello!",'.','\\',"\\.",".",
STRING_0,STRING_1,STRING_2,STRING_3,STRING_4,

























