testDefinedName,FacebookClient,isBlank,getSimpleName,
METHOD_0,METHOD_1,METHOD_2,METHOD_3,

pac4j,oauth,OAuth20Client,TYPE,CommonHelper,
IDENT_0,IDENT_1,IDENT_2,IDENT_3,IDENT_4,


































