accumulatesFunctionNTimes,
METHOD_0,

jnape,palatable,lambda,functions,Fn1,inc,Function,builtin,fn3,Times,A,fn,
IDENT_0,IDENT_1,IDENT_2,IDENT_3,IDENT_4,IDENT_5,IDENT_6,IDENT_7,IDENT_8,IDENT_9,IDENT_10,IDENT_11,


































