shouldConvertToUrlEncode,toUrlEncode,
METHOD_0,METHOD_1,

expectedUrlEncoded,urlEncoded,requestMap,URLEncoder,charset,
IDENT_0,IDENT_1,IDENT_2,IDENT_3,IDENT_4,







"key1=value1&key2=value2","UTF-8","&","%s=%s",
STRING_0,STRING_1,STRING_2,STRING_3,

























