viewsUnderConst,runConst,
METHOD_0,METHOD_1,

jnape,palatable,lambda,lens,LensTest,LENS,functor,builtin,Const,
IDENT_0,IDENT_1,IDENT_2,IDENT_3,IDENT_4,IDENT_5,IDENT_6,IDENT_7,IDENT_8,







"baz",
STRING_0,

























