doesNotHaveNextIfFinishedReversingIterator,mockIteratorToHaveValues,
METHOD_0,METHOD_1,

testsupport,Mocking,reversingIterator,
IDENT_0,IDENT_1,IDENT_2,


































