should_not_collapse_adjacent_single_kmer_width,KmerPathNode,K,PathSimplificationIterator,
METHOD_0,METHOD_1,METHOD_2,METHOD_3,

wehi,idsv,debruijn,positional,KmerPathNode,kmers,
IDENT_0,IDENT_1,IDENT_2,IDENT_3,IDENT_4,IDENT_5,

64,
INT_0,




"AAAA",
STRING_0,

























