should_return_empty_iterator_if_read_too_short,ReadKmerIterable,B,mergedIterator,
METHOD_0,METHOD_1,METHOD_2,METHOD_3,

wehi,idsv,debruijn,ReadKmerIterable,rki,SAMEvidenceSource,all,
IDENT_0,IDENT_1,IDENT_2,IDENT_3,IDENT_4,IDENT_5,IDENT_6,







"A",
STRING_0,

























