microhomology_bases_should_ignore_case,withAttr,withSequence,Read,asAssemblyEvidence,getHomologySequence,
METHOD_0,METHOD_1,METHOD_2,METHOD_3,METHOD_4,METHOD_5,

htsjdk,samtools,SAMRecord,wehi,idsv,SplitReadEvidence,
IDENT_0,IDENT_1,IDENT_2,IDENT_3,IDENT_4,IDENT_5,

13,
INT_0,




"SA","polyA,100,+,4M4S,0,0","aaaaaaaa","4S4M",
STRING_0,STRING_1,STRING_2,STRING_3,

























