NetworkInterface,parseByte,setMac,getHardwareAddress,
METHOD_0,METHOD_1,METHOD_2,METHOD_3,

macString,parabot,NetworkInterface,networkInterface,mac,Byte,
IDENT_0,IDENT_1,IDENT_2,IDENT_3,IDENT_4,IDENT_5,







"19","5C","11",
STRING_0,STRING_1,STRING_2,

























