typedObjectFromLongAndFloat,CField,typedObjectFromValueAndField,typedObjectFromValueAndFieldType,
METHOD_0,METHOD_1,METHOD_2,METHOD_3,

pardot,rhombus,cobject,CField,jsonValue,JsonUtil,
IDENT_0,IDENT_1,IDENT_2,IDENT_3,IDENT_4,IDENT_5,

123456789012345L,
INT_0,




"float","Field ",": Unable to convert "," of type "," to C* type ",
STRING_0,STRING_1,STRING_2,STRING_3,STRING_4,

1.23456788E14F,
FLOAT_0,






















