partialCancel,enter,cancel,Add,Cancel,Match,
METHOD_0,METHOD_1,METHOD_2,METHOD_3,METHOD_4,METHOD_5,

book,Side,BUY,SELL,paritytrading,parity,Event,bid,ask,
IDENT_0,IDENT_1,IDENT_2,IDENT_3,IDENT_4,IDENT_5,IDENT_6,IDENT_7,IDENT_8,

75,25,
INT_0,INT_1,































