testGetCodeBlockClassWithComment,setComment,getCodeBlock,getModelWriter,writeParameter,
METHOD_0,METHOD_1,METHOD_2,METHOD_3,METHOD_4,

cls,
IDENT_0,







"MyClass","Hello World","/**\n"," * Hello World\n"," */\n","class MyClass {\n","}\n",
STRING_0,STRING_1,STRING_2,STRING_3,STRING_4,STRING_5,STRING_6,

























