testInstanceInitializer,isStatic,getBlockContent,writeInitializer,
METHOD_0,METHOD_1,METHOD_2,METHOD_3,

thoughtworks,qdox,JavaInitializer,modelWriter,
IDENT_0,IDENT_1,IDENT_2,IDENT_3,







"//test","{\n","\t//test\n","}\n","++",
STRING_0,STRING_1,STRING_2,STRING_3,STRING_4,

























