testParenthesis,createURI,getSubject,getPredicate,getObject,
METHOD_0,METHOD_1,METHOD_2,METHOD_3,METHOD_4,

hp,hpl,buff,
IDENT_0,IDENT_1,IDENT_2,







"http://theyknow.whatiswhat.com/text(withParens)","\t",".\n",
STRING_0,STRING_1,STRING_2,

























