nullIsntInterpretedSpeciallyExceptAsADefaultValue,getOptions,
METHOD_0,METHOD_1,

devtools,OptionsTest,HttpOptions,Options,
IDENT_0,IDENT_1,IDENT_2,IDENT_3,







"--host","null",
STRING_0,STRING_1,

























