test9,Key,print,reset,decodeInt,decodeIntInternal,decodeEnd,
METHOD_0,METHOD_1,METHOD_2,METHOD_3,METHOD_4,METHOD_5,METHOD_6,

persistit,Key,key1,_persistit,u,_index,
IDENT_0,IDENT_1,IDENT_2,IDENT_3,IDENT_4,IDENT_5,

10000000,123,
INT_0,INT_1,




"test9 ","at u="," k=","- done",
STRING_0,STRING_1,STRING_2,STRING_3,




%,
OP_0,



















