testGetName,EnvironmentConfigSource,
METHOD_0,METHOD_1,

fish,payara,nucleus,microprofile,EnvironmentConfigSource,OSGiSniffer,CONTAINER_NAME,
IDENT_0,IDENT_1,IDENT_2,IDENT_3,IDENT_4,IDENT_5,IDENT_6,







"getName","Environment",
STRING_0,STRING_1,

























