testLast,StringLoader,strictVariables,getTemplate,
METHOD_0,METHOD_1,METHOD_2,METHOD_3,

mitchellbosecke,pebble,PebbleEngine,PebbleTemplate,names,Writer,
IDENT_0,IDENT_1,IDENT_2,IDENT_3,IDENT_4,IDENT_5,







"{{ names | last }}","Alex","Joe","Bob","names",
STRING_0,STRING_1,STRING_2,STRING_3,STRING_4,

























