testNullAdded,clear,factoryAdded,emptyMap,getPropertyNames,
METHOD_0,METHOD_1,METHOD_2,METHOD_3,METHOD_4,

serviceFactoryMap,serviceLocator,
IDENT_0,IDENT_1,


































