testPopulateEc2Roles_ec2RoleNull,populateEc2Roles,getPropertyNames,
METHOD_0,METHOD_1,METHOD_2,

xul,AbstractModelList,roles,jobExecutorController,
IDENT_0,IDENT_1,IDENT_2,IDENT_3,


































