longIsLongOrDouble,setHBaseTypeFromString,getIsLongOrDouble,
METHOD_0,METHOD_1,METHOD_2,

stubValueMeta,isLongOrDouble,
IDENT_0,IDENT_1,







"Long",
STRING_0,

























