testSetKeyType,getMapping,setKeyType,
METHOD_0,METHOD_1,METHOD_2,

shim,Mapping,KeyType,STRING,Mapping$KeyType,m_keyType,
IDENT_0,IDENT_1,IDENT_2,IDENT_3,IDENT_4,IDENT_5,


































