testSetFieldAlias,ColumnFilterTest,setFieldAlias,
METHOD_0,METHOD_1,METHOD_2,

shim,ColumnFilter,cf,m_fieldAlias,alias,
IDENT_0,IDENT_1,IDENT_2,IDENT_3,IDENT_4,


































