testSetFormat,ColumnFilterTest,setFormat,
METHOD_0,METHOD_1,METHOD_2,

shim,ColumnFilter,cf,m_format,
IDENT_0,IDENT_1,IDENT_2,IDENT_3,


































