testGetKeyType,getMapping,getKeyType,
METHOD_0,METHOD_1,METHOD_2,

shim,Mapping,m_keyType,KeyType,INTEGER,
IDENT_0,IDENT_1,IDENT_2,IDENT_3,IDENT_4,


































