testNewJobWithContainerObjectId,randomUUID,getContainerObjectId,Job,
METHOD_0,METHOD_1,METHOD_2,METHOD_3,

Repository,JobMeta,carteId,Job,containerObjectId,
IDENT_0,IDENT_1,IDENT_2,IDENT_3,IDENT_4,


































