fieldMetaIndex,
METHOD_0,

trans,steps,csvinput,NamedFieldsMapping,FIELD_DOES_NOT_EXIST,actualToMetaFieldMapping,
IDENT_0,IDENT_1,IDENT_2,IDENT_3,IDENT_4,IDENT_5,







"FIRST","SECOND","THIRD",
STRING_0,STRING_1,STRING_2,

























