hashEntryTest,getHashEntry,
METHOD_0,METHOD_1,

trans,steps,memgroupby,MemoryGroupByData,HashEntry,byteValue1,groupData1,hashEntry1,byteValue2,groupData2,hashEntry2,ints,pageCoords,
IDENT_0,IDENT_1,IDENT_2,IDENT_3,IDENT_4,IDENT_5,IDENT_6,IDENT_7,IDENT_8,IDENT_9,IDENT_10,IDENT_11,IDENT_12,







"key",
STRING_0,

























