setSelectLength,getSelectLength,getLength,
METHOD_0,METHOD_1,METHOD_2,

selectValuesMeta,selectLength,selectFields,
IDENT_0,IDENT_1,IDENT_2,


































