testErrorHandling,SalesforceDeleteMeta,supportsErrorHandling,
METHOD_0,METHOD_1,METHOD_2,

trans,steps,salesforce,SalesforceStepMeta,salesforcedelete,
IDENT_0,IDENT_1,IDENT_2,IDENT_3,IDENT_4,


































