testGetUsedFields_xmlNotInField,isInFields,getUsedFields,
METHOD_0,METHOD_1,METHOD_2,

metaverse,StepField,usedFields,analyzer,pageCoords,ints,
IDENT_0,IDENT_1,IDENT_2,IDENT_3,IDENT_4,IDENT_5,


































