setAndGetThrowableTest,ActionInvokeStatus,setThrowable,getThrowable,
METHOD_0,METHOD_1,METHOD_2,METHOD_3,

ActionInvokeStatus,actionInvokeStatus,throwable,
IDENT_0,IDENT_1,IDENT_2,







"test_message",
STRING_0,

























