testMissingLocale,parseXmi,getLocaleCodes,getLocales,
METHOD_0,METHOD_1,METHOD_2,METHOD_3,

Domain,locales,
IDENT_0,IDENT_1,







"/missing_locale.xmi",
STRING_0,

























