createActionBeanHappyPath,createActionBean,
METHOD_0,METHOD_1,

IAction,iaction,ActionUtil,MyTestAction,
IDENT_0,IDENT_1,IDENT_2,IDENT_3,


































