testGetSubreportCount,CrosstabSummaryHeader,getSubReportCount,
METHOD_0,METHOD_1,METHOD_2,

reporting,classic,CrosstabSummaryHeader,
IDENT_0,IDENT_1,IDENT_2,


































