testGetElementCount,CrosstabOtherGroupBody,getElementCount,
METHOD_0,METHOD_1,METHOD_2,

reporting,classic,CrosstabOtherGroupBody,
IDENT_0,IDENT_1,IDENT_2,


































