testGetElementCount,CrosstabOtherGroup,getElementCount,
METHOD_0,METHOD_1,METHOD_2,

reporting,classic,CrosstabOtherGroup,crosstab,
IDENT_0,IDENT_1,IDENT_2,IDENT_3,


































