toArray_OnIntactSheet,ElementStyleSheet,
METHOD_0,METHOD_1,

reporting,classic,style,ElementStyleSheet,sheet,objects,
IDENT_0,IDENT_1,IDENT_2,IDENT_3,IDENT_4,IDENT_5,


































