testGetValueAt,TableCutList,getValueAt,IndexOutOfBoundsException,
METHOD_0,METHOD_1,METHOD_2,METHOD_3,

reporting,classic,modules,TableCutList,TRUE,indexPosition,entries,
IDENT_0,IDENT_1,IDENT_2,IDENT_3,IDENT_4,IDENT_5,IDENT_6,


































