testConfigure,getZoom,getZoomFactors,configure,setZoom,
METHOD_0,METHOD_1,METHOD_2,METHOD_3,METHOD_4,

reporting,classic,modules,gui,PreviewPane,reportPane,previewPane,zoomFactor,
IDENT_0,IDENT_1,IDENT_2,IDENT_3,IDENT_4,IDENT_5,IDENT_6,IDENT_7,










5.5,5.0,10.4,15.0,
FLOAT_0,FLOAT_1,FLOAT_2,FLOAT_3,






















