rollback,getDefault,beginWrites,WriteModel,endWrites,
METHOD_0,METHOD_1,METHOD_2,METHOD_3,METHOD_4,

psddev,dari,Database,Static,h2,objectClass,
IDENT_0,IDENT_1,IDENT_2,IDENT_3,IDENT_4,IDENT_5,


































