testGet,CountDownLatch,Worker,countDown,getInstanceCount,
METHOD_0,METHOD_1,METHOD_2,METHOD_3,METHOD_4,

CountDownLatch,latch,threads,psddev,dari,LazyTest,Foo,INSTANCE_COUNT,
IDENT_0,IDENT_1,IDENT_2,IDENT_3,IDENT_4,IDENT_5,IDENT_6,IDENT_7,


































