testKeyConversion,reconstructKeyPair,getDomainParameterSetById,
METHOD_0,METHOD_1,METHOD_2,

pubKeyBytes,persosim,simulator,HexString,privKeyBytes,KeyPair,keyPair,CryptoUtil,StandardizedDomainParameters,standDomParamId,publicKeyData,privateKeyData,
IDENT_0,IDENT_1,IDENT_2,IDENT_3,IDENT_4,IDENT_5,IDENT_6,IDENT_7,IDENT_8,IDENT_9,IDENT_10,IDENT_11,

13,
INT_0,




"047D1EA24146C3ADAC11143E7267B4E3EC572534828DB54904877B8D6EFDC5C13123A9E955890447643735C4F0AB9093FAA0C96DEFA1CE9079DA0B3C43BE6A0255","1183F16814B3947D01DAED7F8D236769F5ABD8020FFF53C5E5FE86A8ABAB02D2",
STRING_0,STRING_1,

























