testNot,BitField,not,getNumberOfBits,getZeroPaddedBit,
METHOD_0,METHOD_1,METHOD_2,METHOD_3,METHOD_4,

persosim,simulator,BitField,field1,
IDENT_0,IDENT_1,IDENT_2,IDENT_3,

170,
INT_0,































