testAnd,BitField,getNumberOfBits,getZeroPaddedBit,
METHOD_0,METHOD_1,METHOD_2,METHOD_3,

persosim,simulator,BitField,field1,field2,
IDENT_0,IDENT_1,IDENT_2,IDENT_3,IDENT_4,


































