testMaskUnsignedShortToIntShort_HighestBit,maskUnsignedShortToInt,
METHOD_0,METHOD_1,

persosim,simulator,shortValue,MASK_SHORT_TO_INT,
IDENT_0,IDENT_1,IDENT_2,IDENT_3,

32769,
INT_0,































