testConcatenateByte_HighestAndLowestByte,concatenate,maskUnsignedByteToShort,
METHOD_0,METHOD_1,METHOD_2,

persosim,simulator,concatenation,byte1,byte2,
IDENT_0,IDENT_1,IDENT_2,IDENT_3,IDENT_4,

65280,
INT_0,










<<=,|=,
OP_0,OP_1,



















