testDocument,XmlDocument,getRootElement,getChildren,
METHOD_0,METHOD_1,METHOD_2,METHOD_3,

petitparser,grammar,XmlDocument,XmlNode,XmlElement,
IDENT_0,IDENT_1,IDENT_2,IDENT_3,IDENT_4,


































