emptyInputGivesEmptyIterator,LinkedList,LazyPrimaryEntityIterator,
METHOD_0,METHOD_1,METHOD_2,

phenotips,LazyPrimaryEntityIterator,PrimaryEntity,
IDENT_0,IDENT_1,IDENT_2,


































