setDateOfBirthFormatWorks,setDateOfBirthFormat,getDateOfBirthFormat,
METHOD_0,METHOD_1,METHOD_2,

dateFormat,
IDENT_0,







"MMMM yyyy",
STRING_0,

























