testFluentHtmlCheckbox,div,checkbox,endAll,getBuffer,
METHOD_0,METHOD_1,METHOD_2,METHOD_3,METHOD_4,

sw,
IDENT_0,







"adam","crap","<div>\n","\t<input type=\"checkbox\" name=\"adam\" value=\"crap\"/>\n","\t<input type=\"checkbox\"/>\n","</div>",
STRING_0,STRING_1,STRING_2,STRING_3,STRING_4,STRING_5,

























