readJSONIgnoresNullParameter,readJSON,
METHOD_0,METHOD_1,

phenotips,PatientData,vocabulary,VocabularyTerm,patientData,tested,
IDENT_0,IDENT_1,IDENT_2,IDENT_3,IDENT_4,IDENT_5,


































