setCustomElements,getCustomElements,
METHOD_0,METHOD_1,

phenotips,FormGroup,customElementFormGroup,testFormSection,customElements,
IDENT_0,IDENT_1,IDENT_2,IDENT_3,IDENT_4,


































