readWithWrongDataDoesNothing,readJSON,
METHOD_0,METHOD_1,

phenotips,LabeledExternalIdentifiersControllerTest,CONTROLLER_NAME,PatientData,Pair,
IDENT_0,IDENT_1,IDENT_2,IDENT_3,IDENT_4,







"Wrong data",
STRING_0,

























