searchWithErrorReturnsEmptySet,thenThrow,getComponentUnderTest,
METHOD_0,METHOD_1,METHOD_2,

HttpUriRequest,phenotips,vocabulary,VocabularyTerm,mocker,
IDENT_0,IDENT_1,IDENT_2,IDENT_3,IDENT_4,


































