shouldFindByCityAndName,findByCityAndName,
METHOD_0,METHOD_1,

springfaces,traveladvisor,Hotel,hotel,hotelRepository,bath,
IDENT_0,IDENT_1,IDENT_2,IDENT_3,IDENT_4,IDENT_5,







"Bath Travelodge",
STRING_0,

























