shouldDelegateGetSortColumn,given,getSortColumn,willReturn,
METHOD_0,METHOD_1,METHOD_2,METHOD_3,

sortColumn,
IDENT_0,







"column",
STRING_0,

























