shouldGetComponents,createComponents,DefaultComponentInfo,getComponents,
METHOD_0,METHOD_1,METHOD_2,METHOD_3,

faces,UIComponent,springfaces,ComponentInfo,
IDENT_0,IDENT_1,IDENT_2,IDENT_3,


































