testActionInstantiationWhichHasAlreadyBeenRequested,addComponent,getActionImpl,
METHOD_0,METHOD_1,METHOD_2,

picocontainer,webwork,TestAction,action1,action2,
IDENT_0,IDENT_1,IDENT_2,IDENT_3,IDENT_4,


































