addVertex,traversal,V,
METHOD_0,METHOD_1,METHOD_2,

umlg,sqlg,Vertex,a1,sqlgGraph,label,a1Again,sqlgTransaction,
IDENT_0,IDENT_1,IDENT_2,IDENT_3,IDENT_4,IDENT_5,IDENT_6,IDENT_7,







"A","John","Peter",
STRING_0,STRING_1,STRING_2,

























