testBulkWithinInteger,addVertex,traversal,V,hasLabel,has,within,
METHOD_0,METHOD_1,METHOD_2,METHOD_3,METHOD_4,METHOD_5,METHOD_6,

sqlgGraph,label,gremlin,structure,Vertex,vertices,P,
IDENT_0,IDENT_1,IDENT_2,IDENT_3,IDENT_4,IDENT_5,IDENT_6,







"A",
STRING_0,

























