issue62,addVertex,addEdge,V,has,outE,or,inV,nextLazy,
METHOD_0,METHOD_1,METHOD_2,METHOD_3,METHOD_4,METHOD_5,METHOD_6,METHOD_7,METHOD_8,

gremlin,structure,Vertex,sqlgGraph,label,gt,__,lazy,E,allElements,
IDENT_0,IDENT_1,IDENT_2,IDENT_3,IDENT_4,IDENT_5,IDENT_6,IDENT_7,IDENT_8,IDENT_9,







"p","c","e","x","y",
STRING_0,STRING_1,STRING_2,STRING_3,STRING_4,

























