testOrderByWithShuffleComparator,addVertex,addEdge,traversal,V,by,
METHOD_0,METHOD_1,METHOD_2,METHOD_3,METHOD_4,METHOD_5,

gremlin,structure,Vertex,a1,sqlgGraph,label,b1,b2,b3,Order,shuffle,
IDENT_0,IDENT_1,IDENT_2,IDENT_3,IDENT_4,IDENT_5,IDENT_6,IDENT_7,IDENT_8,IDENT_9,IDENT_10,







"A","a1","B","b1","b2","b3","ab",
STRING_0,STRING_1,STRING_2,STRING_3,STRING_4,STRING_5,STRING_6,

























