testGremlinAddE,addVertex,traversal,V,addE,
METHOD_0,METHOD_1,METHOD_2,METHOD_3,METHOD_4,

gremlin,structure,Vertex,a1,sqlgGraph,label,b1,Edge,addedEdges,
IDENT_0,IDENT_1,IDENT_2,IDENT_3,IDENT_4,IDENT_5,IDENT_6,IDENT_7,IDENT_8,







"A","a1","B","b1","ab",
STRING_0,STRING_1,STRING_2,STRING_3,STRING_4,

























