testHashCode,createUser,
METHOD_0,METHOD_1,

piraso,e1,CommonMockObjects,UserTest,EXPECTED_REMOTE_ADDRESS,e2,e3,pathsSet,
IDENT_0,IDENT_1,IDENT_2,IDENT_3,IDENT_4,IDENT_5,IDENT_6,IDENT_7,







"a1",
STRING_0,

























