testCompareSameAttributeSet,SortOrder,bothOrdersUseTheSameAttributeSet,getAttr,getNextSortOrder,
METHOD_0,METHOD_1,METHOD_2,METHOD_3,METHOD_4,

pm4j,SortOrder,so1,qa1,qa2,qa3,so2,ObjectUtils,
IDENT_0,IDENT_1,IDENT_2,IDENT_3,IDENT_4,IDENT_5,IDENT_6,IDENT_7,


































