testStringParserEmptyString,ExceptionParser,hasErrors,
METHOD_0,METHOD_1,METHOD_2,

pmd,errorprone,AvoidDuplicateLiteralsRule,ExceptionParser,violations,
IDENT_0,IDENT_1,IDENT_2,IDENT_3,IDENT_4,







',',
STRING_0,

























