testGitHubBug309,readAsString,parseJava18,parseJava,getLanguageVersionHandler,
METHOD_0,METHOD_1,METHOD_2,METHOD_3,METHOD_4,

pmd,ASTCompilationUnit,compilationUnit,ParserTstUtil,
IDENT_0,IDENT_1,IDENT_2,IDENT_3,







"GitHubBug309.java","1.8",
STRING_0,STRING_1,

























