testTrue,getNodes,isTrue,
METHOD_0,METHOD_1,METHOD_2,

pmd,ASTBooleanLiteral,ops,ParserTstUtil,ASTBooleanLiteralTest,TEST1,
IDENT_0,IDENT_1,IDENT_2,IDENT_3,IDENT_4,IDENT_5,


































