testMoreTokens,tokenize,toSourceCode,
METHOD_0,METHOD_1,METHOD_2,

tokenizer,
IDENT_0,







"class Foo {\n"," void bar() {\n"," int a = 1 >> 2; \n"," a += 1; \n"," a++; \n"," a /= 3e2; \n"," float f = -3.1; \n"," f *= 2; \n"," }\n","}",
STRING_0,STRING_1,STRING_2,STRING_3,STRING_4,STRING_5,STRING_6,STRING_7,STRING_8,STRING_9,

























