testEmptyStructure,getDataStructure,getSize,
METHOD_0,METHOD_1,METHOD_2,

meisen,dissertation,DataStructure,structure,
IDENT_0,IDENT_1,IDENT_2,IDENT_3,







"/net/meisen/dissertation/config/xslt/emptyStructure.xml",
STRING_0,

























