testNoMeasures,getMeasures,unmodifiableList,
METHOD_0,METHOD_1,METHOD_2,

meisen,dissertation,SelectQuery,measures,
IDENT_0,IDENT_1,IDENT_2,IDENT_3,







"select timeseries from testPersonModel",
STRING_0,

























