testParsingOfNoGroupBy,getGroup,getSelectors,readLock,lock,getDescriptorIndex,unlock,
METHOD_0,METHOD_1,METHOD_2,METHOD_3,METHOD_4,METHOD_5,METHOD_6,

meisen,dissertation,SelectQuery,GroupExpression,descriptors,idxLock,
IDENT_0,IDENT_1,IDENT_2,IDENT_3,IDENT_4,IDENT_5,







"select timeSeries from \"model\" in [03.03.2014,05.03.2014)",
STRING_0,

























