parseIfWithElseIf,parsePLSQL,getLanguage,getDefaultVersion,
METHOD_0,METHOD_1,METHOD_2,METHOD_3,

pmd,plsql,ASTInput,LanguageRegistry,PLSQLLanguageModule,NAME,
IDENT_0,IDENT_1,IDENT_2,IDENT_3,IDENT_4,IDENT_5,







"BEGIN\nIF 1 = 1 THEN null;\nELSIF (2 = 2) THEN null;\nELSE null;\nEND IF;\nEND;\n/\n",
STRING_0,

























