getOrganizationStreamV2,getAPI,DateTime,getDefault,
METHOD_0,METHOD_1,METHOD_2,METHOD_3,

podio,StreamObjectV2,objects,DateTimeZone,UTC,APIFactoryProvider,contact,ContactAPI,
IDENT_0,IDENT_1,IDENT_2,IDENT_3,IDENT_4,IDENT_5,IDENT_6,IDENT_7,

2010,
INT_0,































