testDecodeBSONSPEC2,decodeFromWire,decodeDocument,
METHOD_0,METHOD_1,METHOD_2,

jetdrone,BSONSPECTest,BSON,Buffer,BSONMessageCodec,
IDENT_0,IDENT_1,IDENT_2,IDENT_3,IDENT_4,

49,38,51,64,194,1986,
INT_0,INT_1,INT_2,INT_3,INT_4,INT_5,




'B','S','O','N','0','a','w','e','s','o','m','1','2',"awesome","BSON",
STRING_0,STRING_1,STRING_2,STRING_3,STRING_4,STRING_5,STRING_6,STRING_7,STRING_8,STRING_9,STRING_10,STRING_11,STRING_12,STRING_13,STRING_14,

5.05,
FLOAT_0,






















