componentConfiguration,SpringComponent,getComponentConfiguration,
METHOD_0,METHOD_1,METHOD_2,

icolumbo,breeze,SpringComponent,
IDENT_0,IDENT_1,IDENT_2,







"clear()",
STRING_0,

























