testWriter,HtmlWriter,head,done,getBuffer,
METHOD_0,METHOD_1,METHOD_2,METHOD_3,METHOD_4,

jatl,
IDENT_0,




protected,
MOD_0,

"Hello","<html>\n","\t<head>\n","\t</head>\n","\t<body>Hello\n","\t</body>\n","</html>",
STRING_0,STRING_1,STRING_2,STRING_3,STRING_4,STRING_5,STRING_6,

























