test2a,IntegersZp,solve,
METHOD_0,METHOD_1,METHOD_2,

lhs0,rhs0,modulus,bigint,lhs,LinearSolverTest,rhs,IntegersZp,
IDENT_0,IDENT_1,IDENT_2,IDENT_3,IDENT_4,IDENT_5,IDENT_6,IDENT_7,

14945154,15840518,23072526,18556231,7274769,1285016,2411651,9614891,4514307,17488741,7852752,22089485,22655879,12777324,1128298,20152010,4506067,23072527,16402965,11505290,2916536,13894224,7600529,2132874,
INT_0,INT_1,INT_2,INT_3,INT_4,INT_5,INT_6,INT_7,INT_8,INT_9,INT_10,INT_11,INT_12,INT_13,INT_14,INT_15,INT_16,INT_17,INT_18,INT_19,INT_20,INT_21,INT_22,INT_23,































