test2,IntegersZp64,multiply,PolynomialGCD,isConstant,lEvaluation,evaluateFrom,allCoprime,allMatch,degree,lc,multivariateLift0,degrees,assertSameCoefficientRingWith,isTrivial,isZero,trivial,isOne,Ideal,canonicalize,clone,
METHOD_0,METHOD_1,METHOD_2,METHOD_3,METHOD_4,METHOD_5,METHOD_6,METHOD_7,METHOD_8,METHOD_9,METHOD_10,METHOD_11,METHOD_12,METHOD_13,METHOD_14,METHOD_15,METHOD_16,METHOD_17,METHOD_18,METHOD_19,METHOD_20,

IntegersZp64,vars,poly,multivar,MultivariatePolynomialZp64,factors,HenselLiftingTest,MultivariateGCD,HenselLifting,lEvaluation,evaluation,nVariables,ordering,uFactors,IntStream,factorsLC,Poly,AMultivariatePolynomial,oth,Ideal,groebnerBasis,Collectors,
IDENT_0,IDENT_1,IDENT_2,IDENT_3,IDENT_4,IDENT_5,IDENT_6,IDENT_7,IDENT_8,IDENT_9,IDENT_10,IDENT_11,IDENT_12,IDENT_13,IDENT_14,IDENT_15,IDENT_16,IDENT_17,IDENT_18,IDENT_19,IDENT_20,IDENT_21,

43313,1146,
INT_0,INT_1,




"36045*b^2+23621*a*b+21517*a^2","12894*b^3+22166*a+31033*a*b^2+25906*a^2*b^3","2387*b+11677*a+14775*a^2+25925*a^2*b","1+17708*a*b^2+7251*a*b^5+12898*a^2*b^2+12277*a^3*b^4+23269*a^5*b","27799+34918*a+25070*a^2+2145*a^2*b",
STRING_0,STRING_1,STRING_2,STRING_3,STRING_4,

























