testSparseGB1,solveGB,keySet,
METHOD_0,METHOD_1,METHOD_2,

vars,poly,multivar,MultivariatePolynomial,bigint,Z,MonomialOrder,GREVLEX,gens,gb,SortedSet,DegreeVector,terms,Collectors,univar,degree,
IDENT_0,IDENT_1,IDENT_2,IDENT_3,IDENT_4,IDENT_5,IDENT_6,IDENT_7,IDENT_8,IDENT_9,IDENT_10,IDENT_11,IDENT_12,IDENT_13,IDENT_14,IDENT_15,







"x","y","z","8*x^2*y^2 + 5*x*y^3 + 3*x^3*z + x^2*y*z","x^5 + 2*y^3*z^2 + 13*y^2*z^3 + 5*y*z^4","8*x^3 + 12*y^3 + x*z^2 + 3","7*x^2*y^4 + 18*x*y^3*z^2 + y^3*z^3","z^2","1 + 4*y^3",
STRING_0,STRING_1,STRING_2,STRING_3,STRING_4,STRING_5,STRING_6,STRING_7,STRING_8,

























