Equal,
METHOD_0,

predicate,Equal,equalObj,doubleCompare,dirName,metastore,HiveProtoEventsCleanerTask,expiredDatePtn,
IDENT_0,IDENT_1,IDENT_2,IDENT_3,IDENT_4,IDENT_5,IDENT_6,IDENT_7,







"date=",
STRING_0,

10.5,
FLOAT_0,






















