testInQ1,MultivariateRing,mkMultivariateCoder,ResultantInQ,toCommonDenominator,multiply,pow,degree,asOverRationals,Resultant,divideExact,Rational,
METHOD_0,METHOD_1,METHOD_2,METHOD_3,METHOD_4,METHOD_5,METHOD_6,METHOD_7,METHOD_8,METHOD_9,METHOD_10,METHOD_11,

poly,MultivariateRing,multivar,MultivariatePolynomial,Rational,bigint,ring,Q,Coder,coder,Util,Tuple2,E,aRat,bRat,Ring,_1,correction,_2,variable,MultivariateResultants,
IDENT_0,IDENT_1,IDENT_2,IDENT_3,IDENT_4,IDENT_5,IDENT_6,IDENT_7,IDENT_8,IDENT_9,IDENT_10,IDENT_11,IDENT_12,IDENT_13,IDENT_14,IDENT_15,IDENT_16,IDENT_17,IDENT_18,IDENT_19,IDENT_20,







"x","y","z","(2*x/3 + y/4 + z)^3 + 1/5","(x - 3*y/7 - z)^3 + 1/2","-343/2460375 - (24545*y^3)/197568 - (253125*y^6)/68841472 - (38443359375*y^9)/10578455953408 - (24545*y^2*z)/21168 - (84375*y^5*z)/1229312 - (38443359375*y^8*z)/377801998336 - (24545*y*z^2)/6804 - (46875*y^4*z^2)/87808 - (4271484375*y^7*z^2)/3373232128 - (24545*z^3)/6561 - (15625*y^3*z^3)/7056 - (158203125*y^6*z^3)/17210368 - (15625*y^2*z^4)/3024 - (52734375*y^5*z^4)/1229312 - (3125*y*z^5)/486 - (5859375*y^4*z^5)/43904 - (21875*z^6)/6561 - (1953125*y^3*z^6)/7056 - (1953125*y^2*z^7)/5292 - (1953125*y*z^8)/6804 - (1953125*z^9)/19683",
STRING_0,STRING_1,STRING_2,STRING_3,STRING_4,STRING_5,

























