testZippel7,IntegersZp,nextPrime,clone,multiply,getRandom,setSeed,createInterpolation,
METHOD_0,METHOD_1,METHOD_2,METHOD_3,METHOD_4,METHOD_5,METHOD_6,METHOD_7,

poly,multivar,MultivariateGCD,ALWAYS_LINZIP,vars,IntegersZp,primes,BigPrimes,MultivariatePolynomial,bigint,MonomialOrder,DEFAULT,gcd,RandomGenerator,rnd,variable,nVariables,seed,skeleton,expEvals,SparseInterpolation,sparseInterpolation,point,ring,
IDENT_0,IDENT_1,IDENT_2,IDENT_3,IDENT_4,IDENT_5,IDENT_6,IDENT_7,IDENT_8,IDENT_9,IDENT_10,IDENT_11,IDENT_12,IDENT_13,IDENT_14,IDENT_15,IDENT_16,IDENT_17,IDENT_18,IDENT_19,IDENT_20,IDENT_21,IDENT_22,IDENT_23,

31579447,123,7893482,1324,
INT_0,INT_1,INT_2,INT_3,




"c","d","29322275*b+5*b*c+6*a^2*b^3*c^2+29322274*a^2*b^3*c^2*d^3+5*a^3*b*c^2*d^2+a^11","7*a^3*b^3*c^3*d^4+9*a^3*b^4*c+29322274*a^3*b^4*c^5*d^2+29322277*a^5*b*c*d+a^5*b^4+a^15","4*d^2+8*c^2*d+4*b*c+6*b^3*c^2*d^2+2*a^3*b^2*c^3*d+a^10",
STRING_0,STRING_1,STRING_2,STRING_3,STRING_4,

























