testParse1,IntegersZp,mapToObj,joining,
METHOD_0,METHOD_1,METHOD_2,METHOD_3,

vars,IntegersZp,poly,multivar,MultivariatePolynomial,bigint,MonomialOrder,LEX,parsed,Collectors,
IDENT_0,IDENT_1,IDENT_2,IDENT_3,IDENT_4,IDENT_5,IDENT_6,IDENT_7,IDENT_8,IDENT_9,

17,
INT_0,




"5+6*b+7*b^2+3*a^2+15*a^2*b^2+a^3+11*a^3*b+6*a^3*b^2","{",",","}",
STRING_0,STRING_1,STRING_2,STRING_3,

























