test2,PrimitivePRS,gcd,negate,
METHOD_0,METHOD_1,METHOD_2,METHOD_3,

poly,univar,UnivariatePolynomial,bigint,dividend,divider,gcd,mag,signum,
IDENT_0,IDENT_1,IDENT_2,IDENT_3,IDENT_4,IDENT_5,IDENT_6,IDENT_7,IDENT_8,

14,93,108,130,70,63,92,143,245,146,120,90,
INT_0,INT_1,INT_2,INT_3,INT_4,INT_5,INT_6,INT_7,INT_8,INT_9,INT_10,INT_11,































