testPrint,setupMockData,BufferedRows,TableOutputFormat,print,getLastPrintedLine,
METHOD_0,METHOD_1,METHOD_2,METHOD_3,METHOD_4,METHOD_5,

beeline,BufferedRows,bfRows,mockBeeline,mockResultSet,TableOutputFormat,outPutResults,lastPrintedLine,
IDENT_0,IDENT_1,IDENT_2,IDENT_3,IDENT_4,IDENT_5,IDENT_6,IDENT_7,







"+-------+------------------------------+",
STRING_0,

























