testReset,StrongReferenceCacheEntry,resetTime,
METHOD_0,METHOD_1,METHOD_2,

lru,StrongReferenceCacheEntry,strongReferenceCacheEntry0,boolean0,expirationTime,ttl,
IDENT_0,IDENT_1,IDENT_2,IDENT_3,IDENT_4,IDENT_5,

4176L,2357L,
INT_0,INT_1,




"ttl must be positive",
STRING_0,

























