domainCodeValidation,
METHOD_0,

DomainName,CodeTest,ERROR_DOMAIN,MESSAGE_CODE_LENGTH,MESSAGE_CODE_RANGE,
IDENT_0,IDENT_1,IDENT_2,IDENT_3,IDENT_4,

48,57,65,90,
INT_0,INT_1,INT_2,INT_3,































