shouldUseProvidedChallengeMessage,getChallengeMessage,
METHOD_0,METHOD_1,

stanford,bmir,protege,ChapSession,salt,challengeMessage,
IDENT_0,IDENT_1,IDENT_2,IDENT_3,IDENT_4,IDENT_5,


































