testUnknownScalarFields,Baz,mergeFrom,ser,cachedSchema,
METHOD_0,METHOD_1,METHOD_2,METHOD_3,METHOD_4,

regularMessages,protostuff,Baz,XmlIOUtil,StringSerializer,STRING,
IDENT_0,IDENT_1,IDENT_2,IDENT_3,IDENT_4,IDENT_5,







"<?xml version='1.0' encoding='UTF-8'?>","<Baz><int>1</int><string>string</string>","<double>555.444</double><id>1</id></Baz>","<id>2</id><double>555.444</double></Baz>","<Baz><id>3</id><int>1</int>","<string>string</string><double>555.444</double>","<bytes><![CDATA[b2]]></bytes></Baz>",
STRING_0,STRING_1,STRING_2,STRING_3,STRING_4,STRING_5,STRING_6,

























