


psjava,algo,sequence,BinarySearchFirstFalse,ds,numbersystrem,IntegerNumberSystem,Function,
IDENT_0,IDENT_1,IDENT_2,IDENT_3,IDENT_4,IDENT_5,IDENT_6,IDENT_7,

400,10000,
INT_0,INT_1,































