preferenceFileIsPresent_Test_Success,preferenceFileIsPresent,
METHOD_0,METHOD_1,

drexel,psal,jstylo,generics,Preferences,preferenceFilePath,
IDENT_0,IDENT_1,IDENT_2,IDENT_3,IDENT_4,IDENT_5,


































