toHashSet,
METHOD_0,

Iterable,superSet,psjava,VarargsIterable,sub,SubSetIterable,TestUtil,iter,
IDENT_0,IDENT_1,IDENT_2,IDENT_3,IDENT_4,IDENT_5,IDENT_6,IDENT_7,


































