whenNotFound,TxnVoidCallable,getThreadLocalTxn,
METHOD_0,METHOD_1,METHOD_2,

multiverse,StmUtils,callables,Txn,NaiveTxnLinkedList,
IDENT_0,IDENT_1,IDENT_2,IDENT_3,IDENT_4,







"3","c","4","d","banana",
STRING_0,STRING_1,STRING_2,STRING_3,STRING_4,

























