whenTxnLongCallableUsed,TxnLongCallable,await,
METHOD_0,METHOD_1,METHOD_2,

multiverse,callables,stms,gamma,Txn,predicate,
IDENT_0,IDENT_1,IDENT_2,IDENT_3,IDENT_4,IDENT_5,







"Starting wait and ref.value found: ","Finished wait and ref.value found: ",
STRING_0,STRING_1,

























