whenAborted_thenIgnored,CountDownCommitBarrier,abort,isAborted,
METHOD_0,METHOD_1,METHOD_2,METHOD_3,

barrier,multiverse,commitbarriers,CommitBarrier,Aborted,
IDENT_0,IDENT_1,IDENT_2,IDENT_3,IDENT_4,


































