testPaginationPage3,CommandPagination,getPaginationHeader,getPaginationFooter,sendPage,
METHOD_0,METHOD_1,METHOD_2,METHOD_3,METHOD_4,

hm,achievement,CommandPagination,toPaginate,langConfig,bukkit,CommandSender,sendMessage,
IDENT_0,IDENT_1,IDENT_2,IDENT_3,IDENT_4,IDENT_5,IDENT_6,IDENT_7,

18,
INT_0,




"7","8","9","10","3","4","5","6",
STRING_0,STRING_1,STRING_2,STRING_3,STRING_4,STRING_5,STRING_6,STRING_7,

























