testGetTaskId,lock,unlock,
METHOD_0,METHOD_1,METHOD_2,

ids,expectedIds,actualIds,KafkaUtils,getTaskId,lock,
IDENT_0,IDENT_1,IDENT_2,IDENT_3,IDENT_4,IDENT_5,







"attempt_200707121733_0003_m_000005_0","attempt_local_0001_m_000005_0","task_200709221812_0001_m_000005_0","task_local_0001_r_000005_0","task_local_0001_r_000005_2","attempt_200707121733_0003_m_000005","attempt_local_0001_m_000005","task_200709221812_0001_m_000005","task_local_0001_r_000005","mapred.task.id",
STRING_0,STRING_1,STRING_2,STRING_3,STRING_4,STRING_5,STRING_6,STRING_7,STRING_8,STRING_9,

























