shouldBeEmptyIfEntitiesIsEmpty,DetachedEntityTreeImpl,loadEntities,
METHOD_0,METHOD_1,METHOD_2,

qcadoo,EntityTree,
IDENT_0,IDENT_1,


































