shouldFormatDateReturnEmptyStringForNull,toDateString,formatDate,
METHOD_0,METHOD_1,METHOD_2,

qcadoo,localization,DateUtils,L_DATE_FORMAT,
IDENT_0,IDENT_1,IDENT_2,IDENT_3,


































