shouldIsEmptyReturnFalseForLongValue,setFieldValue,hasSelectedEntity,
METHOD_0,METHOD_1,METHOD_2,

dataDefinition,lookup,autocompleteCode,
IDENT_0,IDENT_1,IDENT_2,


































