full,FileReader,Parser,parseAndPopulate,E,
METHOD_0,METHOD_1,METHOD_2,METHOD_3,METHOD_4,

FileReader,qos,cal10n,CAL10NTestConstants,TEST_CLASSES,Parser,witness,
IDENT_0,IDENT_1,IDENT_2,IDENT_3,IDENT_4,IDENT_5,IDENT_6,







"/parser/full.properties","K0","V0 X","K1","V1","K2","V2 l1l2 l3","K3","V3 \t a",
STRING_0,STRING_1,STRING_2,STRING_3,STRING_4,STRING_5,STRING_6,STRING_7,STRING_8,

























