contextProperty,setPattern,putProperty,doLayout,getEventObject,makeLoggingEvent,
METHOD_0,METHOD_1,METHOD_2,METHOD_3,METHOD_4,METHOD_5,

pl,lc,
IDENT_0,IDENT_1,







"%property{a}","Some message",
STRING_0,STRING_1,

























