testRequestProtocolConverter,RequestProtocolConverter,getProtocol,
METHOD_0,METHOD_1,METHOD_2,

qos,logback,access,RequestProtocolConverter,SSL,DEFAULT_PROTOCOL,
IDENT_0,IDENT_1,IDENT_2,IDENT_3,IDENT_4,IDENT_5,


































