literalWithTwoAccolades,Tokenizer,Parser,tokenize,dump,print,
METHOD_0,METHOD_1,METHOD_2,METHOD_3,METHOD_4,METHOD_5,

qos,logback,subst,Tokenizer,tokenizer,Parser,witness,LITERAL,
IDENT_0,IDENT_1,IDENT_2,IDENT_3,IDENT_4,IDENT_5,IDENT_6,IDENT_7,







"%x{y} %a{b} c","%x","{","y","}"," %a"," c"," -> "," null",
STRING_0,STRING_1,STRING_2,STRING_3,STRING_4,STRING_5,STRING_6,STRING_7,STRING_8,

























