smoke,CaseCombinator,combinations,
METHOD_0,METHOD_1,METHOD_2,

qos,logback,joran,CaseCombinator,witness,E,ea,last,maxSize,numElems,
IDENT_0,IDENT_1,IDENT_2,IDENT_3,IDENT_4,IDENT_5,IDENT_6,IDENT_7,IDENT_8,IDENT_9,







"a-B=","a-b=","A-b=","A-B=",
STRING_0,STRING_1,STRING_2,STRING_3,

























