keywordGluedToLitteral,Parser,SimpleKeywordNode,setOptions,
METHOD_0,METHOD_1,METHOD_2,METHOD_3,

qos,logback,Parser,SimpleKeywordNode,witness,LITERAL,optionList,
IDENT_0,IDENT_1,IDENT_2,IDENT_3,IDENT_4,IDENT_5,IDENT_6,







"%x{}a","x",
STRING_0,STRING_1,

























