literal,Tokenizer,Parser,tokenize,E,
METHOD_0,METHOD_1,METHOD_2,METHOD_3,METHOD_4,

qos,logback,subst,Tokenizer,tokenizer,Parser,witness,LITERAL,
IDENT_0,IDENT_1,IDENT_2,IDENT_3,IDENT_4,IDENT_5,IDENT_6,IDENT_7,







"abc",
STRING_0,

























