testVaryingNumberOfHourlyPeriods,RollingCalendar,getEndOfNextNthPeriod,innerGetEndOfNextNthPeriod,
METHOD_0,METHOD_1,METHOD_2,METHOD_3,

qos,logback,rolling,RollingCalendar,rc,MILLIS_IN_HOUR,periodicityType,periods,
IDENT_0,IDENT_1,IDENT_2,IDENT_3,IDENT_4,IDENT_5,IDENT_6,IDENT_7,

3600,1223325293589L,
INT_0,INT_1,




"yyyy-MM-dd_HH",
STRING_0,




--,%,
OP_0,OP_1,



















