testLiteral,substVars,
METHOD_0,METHOD_1,

noSubst,qos,logback,OptionHelper,PropertyContainer,pc1,
IDENT_0,IDENT_1,IDENT_2,IDENT_3,IDENT_4,IDENT_5,







"hello world",
STRING_0,

























