testRemoveMatchingWithMatchingPattern,stringToList,removeMatching,
METHOD_0,METHOD_1,METHOD_2,

qos,logback,StringCollectionUtil,objectStack,
IDENT_0,IDENT_1,IDENT_2,IDENT_3,







"A",
STRING_0,

























