insertTest,TagDO,setTagName,setBkCreate,setBkModified,setDr,getIndex,
METHOD_0,METHOD_1,METHOD_2,METHOD_3,METHOD_4,METHOD_5,METHOD_6,

bugkillers,TagDO,tagDO,DataValidEnum,VALID,tagDOMapper,
IDENT_0,IDENT_1,IDENT_2,IDENT_3,IDENT_4,IDENT_5,







"Java",
STRING_0,

























