testSimpleSelectQuery,rewrite,setTableMapping,
METHOD_0,METHOD_1,METHOD_2,

rewriter,tableMappings,
IDENT_0,IDENT_1,







"SELECT * FROM users","SELECT * FROM users_v2",
STRING_0,STRING_1,

























