various,stringPath,where,fetch,isNotEmpty,
METHOD_0,METHOD_1,METHOD_2,METHOD_3,METHOD_4,

dsl,StringPath,Expressions,Tuple,strs,CollQueryFactory,cat,cats,mate,kittens,RelationalPath,
IDENT_0,IDENT_1,IDENT_2,IDENT_3,IDENT_4,IDENT_5,IDENT_6,IDENT_7,IDENT_8,IDENT_9,IDENT_10,







"aa","bb","cc","fri.*",
STRING_0,STRING_1,STRING_2,STRING_3,

























