rawField,getDeclaredField,getGenericType,getParameters,
METHOD_0,METHOD_1,METHOD_2,METHOD_3,

codegen,
IDENT_0,







"field3",
STRING_0,

























