OpenWriter,MemSourceFileObject,openWriter,getCharContent,
METHOD_0,METHOD_1,METHOD_2,METHOD_3,

mysema,codegen,MemSourceFileObject,contents,
IDENT_0,IDENT_1,IDENT_2,IDENT_3,







"Test","Hello World",
STRING_0,STRING_1,

























