findById,selectFrom,where,fetchOne,
METHOD_0,METHOD_1,METHOD_2,METHOD_3,

Customer,customer,customerDao,
IDENT_0,IDENT_1,IDENT_2,


































