detachedResults,detachedQuery,fetch,innerList,
METHOD_0,METHOD_1,METHOD_2,METHOD_3,

jdo,Product,product,
IDENT_0,IDENT_1,IDENT_2,


































