createQuery2,createQuery,gt,
METHOD_0,METHOD_1,METHOD_2,

Tuple,rows,HibernateBase,cat,Expression,products,
IDENT_0,IDENT_1,IDENT_2,IDENT_3,IDENT_4,IDENT_5,


































