readPreference,setReadPreference,primary,fetchCount,innerCount,
METHOD_0,METHOD_1,METHOD_2,METHOD_3,METHOD_4,

morphia,MorphiaQuery,ReadPreference,
IDENT_0,IDENT_1,IDENT_2,


































