quote,newLineToSingleSpace,StatementOptions,
METHOD_0,METHOD_1,METHOD_2,

SQLTemplates,templates,H2Templates,maxFieldSize,maxRows,queryTimeout,fetchSize,
IDENT_0,IDENT_1,IDENT_2,IDENT_3,IDENT_4,IDENT_5,IDENT_6,


































