listResults_factoryExpression,limit,orderBy,asc,fetchResults,getTotal,
METHOD_0,METHOD_1,METHOD_2,METHOD_3,METHOD_4,METHOD_5,

QueryResults,Employee,employee,total,
IDENT_0,IDENT_1,IDENT_2,IDENT_3,


































