executeWithBeans3,setTargetFolder,setExportBeans,setBeanInterfaces,where,fetchCount,
METHOD_0,METHOD_1,METHOD_2,METHOD_3,METHOD_4,METHOD_5,

mojo,Serializable,title,
IDENT_0,IDENT_1,IDENT_2,







"target/export10","Jurassic Park","Jurassic Park X",
STRING_0,STRING_1,STRING_2,

























