union3,union,fetch,
METHOD_0,METHOD_1,METHOD_2,

SubQueryExpression,Tuple,sq3,employee,Expression,sq4,list2,batches,
IDENT_0,IDENT_1,IDENT_2,IDENT_3,IDENT_4,IDENT_5,IDENT_6,IDENT_7,


































