shouldRejectIpv4CidrAddress,passedValidation,
METHOD_0,METHOD_1,

openstack,ValidatorResult,validators,POST,expectationResultList,
IDENT_0,IDENT_1,IDENT_2,IDENT_3,IDENT_4,


































