shouldAcceptName,LoadBalancer,passedValidation,
METHOD_0,METHOD_1,METHOD_2,

lb,openstack,validators,ValidatorResult,PUT,expectationResultList,
IDENT_0,IDENT_1,IDENT_2,IDENT_3,IDENT_4,IDENT_5,







"Biased load BALANCER. Ha!",
STRING_0,

























