shouldRejectId,passedValidation,
METHOD_0,METHOD_1,

lb,openstack,ValidatorResult,validators,PUT,expectationResultList,
IDENT_0,IDENT_1,IDENT_2,IDENT_3,IDENT_4,IDENT_5,

32,
INT_0,































