testWatchClose,watch,setupWatch,
METHOD_0,METHOD_1,METHOD_2,

jcifs,SmbWatchHandle,w,FileNotifyInformation,FILE_NOTIFY_CHANGE_ATTRIBUTES,Future,SECONDS,
IDENT_0,IDENT_1,IDENT_2,IDENT_3,IDENT_4,IDENT_5,IDENT_6,


































