case3,processExistingEvents,hasValues,
METHOD_0,METHOD_1,METHOD_2,

openstack,usagerefactor,usage,LoadBalancerMergedHostUsage,mergedRecords,usagePollerHelper,lbHostMap,AssertLoadBalancerMergedHostUsage,UsageEvent,SSL_MIXED_ON,SSL_ONLY_ON,
IDENT_0,IDENT_1,IDENT_2,IDENT_3,IDENT_4,IDENT_5,IDENT_6,IDENT_7,IDENT_8,IDENT_9,IDENT_10,

1234,123,
INT_0,INT_1,




"2013-04-10 20:03:00","2013-04-10 20:04:00",
STRING_0,STRING_1,

























