testGetListOfPersistences,getPersistences,
METHOD_0,METHOD_1,

rackspace,stingray,Child,children,
IDENT_0,IDENT_1,IDENT_2,IDENT_3,


































