shouldReturnABandwidth,getBandwidth,getItem,
METHOD_0,METHOD_1,METHOD_2,

vsName,rackspace,stingray,bandwidth,Bandwidth,stingrayRestClient,ClientConstants,BANDWIDTH_PATH,
IDENT_0,IDENT_1,IDENT_2,IDENT_3,IDENT_4,IDENT_5,IDENT_6,IDENT_7,







"12345_1234",
STRING_0,

























