edgeCasesCase007,setEventType,setStartTime,stringToCalendar,setEndTime,processRecords,hasValues,
METHOD_0,METHOD_1,METHOD_2,METHOD_3,METHOD_4,METHOD_5,METHOD_6,

mostRecentUsage,openstack,usagerefactor,SUSPENDED_LOADBALANCER,CalendarUtils,processedUsages,usageRollupProcessor,allUsageRecordsInOrder,hourToRollup,lbsActiveDuringHour,Usage,actualUsage,AssertUsage,
IDENT_0,IDENT_1,IDENT_2,IDENT_3,IDENT_4,IDENT_5,IDENT_6,IDENT_7,IDENT_8,IDENT_9,IDENT_10,IDENT_11,IDENT_12,

1234,
INT_0,




"2013-04-10 18:00:00","2013-04-10 19:00:00","2013-04-10 20:00:00","2013-04-10 21:00:00",
STRING_0,STRING_1,STRING_2,STRING_3,

























