getScheduledSlotCheckCountGetsCount,getScheduledCount,getScheduledSlotCheckCount,verifyNoMoreInteractions,
METHOD_0,METHOD_1,METHOD_2,METHOD_3,





































