newlyCreatedObjectIsNotFloatingPoint,SimpleStat,isFloatingPoint,
METHOD_0,METHOD_1,METHOD_2,

rackspacecloud,blueflood,AbstractRollupStatTest,SimpleStat,stat,
IDENT_0,IDENT_1,IDENT_2,IDENT_3,IDENT_4,


































