equalsBothUninitializedReturnsTrue,Locator,
METHOD_0,METHOD_1,

rackspacecloud,blueflood,Locator,locator,SlotState,
IDENT_0,IDENT_1,IDENT_2,IDENT_3,IDENT_4,


































