testEmptyGlob,GlobPattern,compiled,
METHOD_0,METHOD_1,METHOD_2,

glob,expectedRegex,rackspacecloud,blueflood,GlobPattern,
IDENT_0,IDENT_1,IDENT_2,IDENT_3,IDENT_4,


































