specialRankingShouldNotHaveMinPass10ShouldForceToZero,Ranking,setTitle,setSpecial,setMin,notNull,getMin,
METHOD_0,METHOD_1,METHOD_2,METHOD_3,METHOD_4,METHOD_5,METHOD_6,

jforum,Ranking,
IDENT_0,IDENT_1,







"r1",
STRING_0,

























