hashIndexTable_copyConstructor,HashIndexTable,hashSlotFor,
METHOD_0,METHOD_1,METHOD_2,

JsonObject,HashIndexTable,copy,slot,hashTable,
IDENT_0,IDENT_1,IDENT_2,IDENT_3,IDENT_4,

23,
INT_0,































