canBeSerializedAndDeserialized,JsonArray,serializeAndDeserialize,deserialize,
METHOD_0,METHOD_1,METHOD_2,METHOD_3,

TestUtil,
IDENT_0,

23,
INT_0,







3.14,
FLOAT_0,






















