suiteerror,executeTarget,countPattern,getLog,
METHOD_0,METHOD_1,METHOD_2,METHOD_3,

FailInAfterClass,MESSAGE,
IDENT_0,IDENT_1,







"suiteerror","UTF-8",
STRING_0,STRING_1,

























