getValue_unknownErrorCode,RPCException,getErrorCode,
METHOD_0,METHOD_1,METHOD_2,

rapid7,dcerpc,RPCException,rpcException,errorCode,
IDENT_0,IDENT_1,IDENT_2,IDENT_3,IDENT_4,


































