setPDUType,Header,getPDUType,
METHOD_0,METHOD_1,METHOD_2,

rapid7,dcerpc,Header,PDUType,BIND,pduType,
IDENT_0,IDENT_1,IDENT_2,IDENT_3,IDENT_4,IDENT_5,


































