canBeSerializedAndDeserialized,JsonString,serializeAndDeserialize,deserialize,
METHOD_0,METHOD_1,METHOD_2,METHOD_3,

JsonString,TestUtil,
IDENT_0,IDENT_1,


































