REG_DWORD_getData,RegistryValue,getData,
METHOD_0,METHOD_1,METHOD_2,

originalData,modifiedData,rapid7,dcerpc,msrrp,RegistryValue,RegistryValueType,REG_DWORD,
IDENT_0,IDENT_1,IDENT_2,IDENT_3,IDENT_4,IDENT_5,IDENT_6,IDENT_7,

120,86,52,18,
INT_0,INT_1,INT_2,INT_3,































