getMaxXmitFrag,TestRPCTransport,
METHOD_0,METHOD_1,

rapid7,dcerpc,RPCTransport,Test_RPCTransport,DEFAULT_MAX_XMIT_FRAG,
IDENT_0,IDENT_1,IDENT_2,IDENT_3,IDENT_4,


































