lsar_SingleLsarEnumerateAccountsWithUserRightResponse,LsarEnumerateAccountsWithUserRightResponse,unmarshal,getPacketInput,RPCSID,setRevision,setIdentifierAuthority,setSubAuthority,getSids,
METHOD_0,METHOD_1,METHOD_2,METHOD_3,METHOD_4,METHOD_5,METHOD_6,METHOD_7,METHOD_8,

rapid7,dcerpc,mslsad,LsarEnumerateAccountsWithUserRightResponse,hexString,objects,RPCSID,expectedSid,sids,
IDENT_0,IDENT_1,IDENT_2,IDENT_3,IDENT_4,IDENT_5,IDENT_6,IDENT_7,IDENT_8,

501,
INT_0,




"0100000000000200010000000400020005000000010500000000000500000000000000000000000000000000f501000000000000",
STRING_0,

























