getMaxClassLen,RegistryKeyInfo,
METHOD_0,METHOD_1,

rapid7,dcerpc,msrrp,RegistryKeyInfo,keyInfo,maxClassLen,
IDENT_0,IDENT_1,IDENT_2,IDENT_3,IDENT_4,IDENT_5,


































