MockMailer,MailToUserImpl,sendMail,getMailBody,
METHOD_0,METHOD_1,METHOD_2,METHOD_3,

rapla,MockMailer,mailMock,facade,RaplaFacade,Logger,MailToUserImpl,mailBody,
IDENT_0,IDENT_1,IDENT_2,IDENT_3,IDENT_4,IDENT_5,IDENT_6,IDENT_7,







"homer","Subject","MyBody",
STRING_0,STRING_1,STRING_2,

























