testSorting,sort,
METHOD_0,METHOD_1,

igormaznitsa,mvngolang,StringComparatorABC,
IDENT_0,IDENT_1,IDENT_2,







"c","hello","ABC","A",
STRING_0,STRING_1,STRING_2,STRING_3,

























