getFunctionsNoSuchCatalog,getFunctions,
METHOD_0,METHOD_1,

functionNames,metastore,Warehouse,DEFAULT_DATABASE_NAME,
IDENT_0,IDENT_1,IDENT_2,IDENT_3,







"nosuch","*",
STRING_0,STRING_1,

























