testLastIndexOf,getList,lastIndexOf,
METHOD_0,METHOD_1,METHOD_2,

redisson,RListReactive,responses,
IDENT_0,IDENT_1,IDENT_2,







"list",
STRING_0,

























