testSize,getScoredSortedSet,getNativeCache,
METHOD_0,METHOD_1,METHOD_2,

redisson,RScoredSortedSet,
IDENT_0,IDENT_1,







"simple",
STRING_0,

























