testValueIterator,getMapCache,toIterator,valueIterator,getNativeCache,
METHOD_0,METHOD_1,METHOD_2,METHOD_3,METHOD_4,

redisson,RMapReactive,
IDENT_0,IDENT_1,







"simple",
STRING_0,

























