testAddLong,getSet,toIterable,
METHOD_0,METHOD_1,METHOD_2,

redisson,RSetReactive,RScoredSortedSetReactive,BaseReactiveTest,
IDENT_0,IDENT_1,IDENT_2,IDENT_3,







"simple_longs",
STRING_0,

























