testHashCodesM3_32_double,Random,murmur3_32,nextDouble,allocate,putDouble,hashBytes,asInt,hash32,reverseBytes,mix32,fmix32,
METHOD_0,METHOD_1,METHOD_2,METHOD_3,METHOD_4,METHOD_5,METHOD_6,METHOD_7,METHOD_8,METHOD_9,METHOD_10,METHOD_11,

seed,Random,rand,HashFunction,hf,Hashing,hc1,hc2,Murmur3,r0,l0,r1,l1,BYTES,
IDENT_0,IDENT_1,IDENT_2,IDENT_3,IDENT_4,IDENT_5,IDENT_6,IDENT_7,IDENT_8,IDENT_9,IDENT_10,IDENT_11,IDENT_12,IDENT_13,

123,32,
INT_0,INT_1,































