testTwoLongOrdered,allocate,putLong,hash32,
METHOD_0,METHOD_1,METHOD_2,METHOD_3,

BYTES,Murmur3,l0,DEFAULT_SEED,
IDENT_0,IDENT_1,IDENT_2,IDENT_3,


































