testIteratorExhausted,wrap,emptyIterator,
METHOD_0,METHOD_1,METHOD_2,

emptyIterator,rtr,alchemy,mongo,ExceptionSafeIterator,
IDENT_0,IDENT_1,IDENT_2,IDENT_3,IDENT_4,


































