testAskConstraintOnValidDataset,WonSparqlValidator,
METHOD_0,METHOD_1,

won,WonSparqlValidator,askConstraint,valid,createMessageDataset,
IDENT_0,IDENT_1,IDENT_2,IDENT_3,IDENT_4,


































