testAngleAxis,Matrix3,fromAngleAxis,cos,sin,
METHOD_0,METHOD_1,METHOD_2,METHOD_3,METHOD_4,

ardor3d,Matrix3,mat3A,angle,MathUtils,HALF_PI,Vector3,UNIT_X,dValue,
IDENT_0,IDENT_1,IDENT_2,IDENT_3,IDENT_4,IDENT_5,IDENT_6,IDENT_7,IDENT_8,


































