testSetStart,createState,setStart,setEnd,getState,
METHOD_0,METHOD_1,METHOD_2,METHOD_3,METHOD_4,

fsm,
IDENT_0,







"start","state1","end",
STRING_0,STRING_1,STRING_2,

























