testNoTests,getFile,TestCheckPhase,
METHOD_0,METHOD_1,METHOD_2,

patchFile,addedTests,phase,ptest,execution,hostExecutors,localCommandFactory,templateDefaults,
IDENT_0,IDENT_1,IDENT_2,IDENT_3,IDENT_4,IDENT_5,IDENT_6,IDENT_7,







"/HIVE-9377.1.patch",
STRING_0,

























