testPut,generateURL,readEntity,notSupported,
METHOD_0,METHOD_1,METHOD_2,METHOD_3,

Invocation,resteasy,rx,RxCompletionStageServerAsyncTest,aEntity,GenericType,
IDENT_0,IDENT_1,IDENT_2,IDENT_3,IDENT_4,IDENT_5,







"/put/string",
STRING_0,

























