testGet,buildObservableString,
METHOD_0,METHOD_1,

resteasy,rx,rxjava2,Rx2SingleProxyServerAsyncTest,Rx2ObservableResourceNoStreamImpl,
IDENT_0,IDENT_1,IDENT_2,IDENT_3,IDENT_4,







"x",
STRING_0,

























