testMissingDateHeaderIsIgnored,HttpCacheEntry,getDate,
METHOD_0,METHOD_1,METHOD_2,

Header,client5,HttpStatus,SC_OK,mockResource,
IDENT_0,IDENT_1,IDENT_2,IDENT_3,IDENT_4,


































