add_boolean_enablesChaining,NullPointerException,
METHOD_0,METHOD_1,

restfb,JsonValue,JsonObject,NAME_IS_NULL,VALUE_IS_NULL,names,
IDENT_0,IDENT_1,IDENT_2,IDENT_3,IDENT_4,IDENT_5,


































