copyConstructor_worksOnSafeCopy,JsonArray,
METHOD_0,METHOD_1,

restfb,JsonArray,copy,names,
IDENT_0,IDENT_1,IDENT_2,IDENT_3,

23,
INT_0,































