testNewCookie1,verifyNewCookie,QualityValue,parseAsInteger,
METHOD_0,METHOD_1,METHOD_2,METHOD_3,

pass,NewCookie_toParse,NewCookie,nck26,qvalue,resteasy,QualityValue,DEFAULT,
IDENT_0,IDENT_1,IDENT_2,IDENT_3,IDENT_4,IDENT_5,IDENT_6,IDENT_7,







"NAME_1=Value_1;","name_1","value_1",
STRING_0,STRING_1,STRING_2,

























