equals_falseForSubclass,JsonObject,
METHOD_0,METHOD_1,

restfb,JsonObject,jsonObject,ReflectionUtils,
IDENT_0,IDENT_1,IDENT_2,IDENT_3,


































