listChildrenGlobUnmodifiableTest,newFile,toPath,listChildren,getRoot,
METHOD_0,METHOD_1,METHOD_2,METHOD_3,METHOD_4,

folder,children,restnext,FileUtils,
IDENT_0,IDENT_1,IDENT_2,IDENT_3,







"file.txt","*.txt",
STRING_0,STRING_1,

























