builderBuildsSuccessfully,ByteBufHttpEntity,getContentType,
METHOD_0,METHOD_1,METHOD_2,

appenders,log4j2,jest,ExtendedBulk,bulk,byteByf,contentLength,
IDENT_0,IDENT_1,IDENT_2,IDENT_3,IDENT_4,IDENT_5,IDENT_6,


































