testNN,prepare,tagStem,fullSpan,annotationsOfType,getFeatureList,
METHOD_0,METHOD_1,METHOD_2,METHOD_3,METHOD_4,METHOD_5,

nyu,jet,tipster,lex,StemmerTest,stemmer,Vector,Annotation,ann,anns,
IDENT_0,IDENT_1,IDENT_2,IDENT_3,IDENT_4,IDENT_5,IDENT_6,IDENT_7,IDENT_8,IDENT_9,







"He has BMW.","token","he","have","stem",
STRING_0,STRING_1,STRING_2,STRING_3,STRING_4,

























