testLoadWithNullBundleContext,DevPropertiesLoader,toUrl,
METHOD_0,METHOD_1,METHOD_2,

codeaffine,testuite,DevPropertiesLoader,bundleContext,osgiDevProperty,
IDENT_0,IDENT_1,IDENT_2,IDENT_3,IDENT_4,







"osgi.dev",
STRING_0,

























