mapExample,reduce,
METHOD_0,METHOD_1,

Stream,insightfullogic,java8,chapter3,StreamExercises,Function,acc,R,left,right,
IDENT_0,IDENT_1,IDENT_2,IDENT_3,IDENT_4,IDENT_5,IDENT_6,IDENT_7,IDENT_8,IDENT_9,


































