testGet2,FaultTestSupplier2,FaultySupplier,
METHOD_0,METHOD_1,METHOD_2,

breakInterval,Supplier,supplier,rhythm,louie,LoadingSupplierTest,testValue,
IDENT_0,IDENT_1,IDENT_2,IDENT_3,IDENT_4,IDENT_5,IDENT_6,







": ",
STRING_0,




%,--,
OP_0,OP_1,



















