testGet_skipTestsIsTrue_returnsNoEnsurersLogs1Message,isSkipTests,isOnWindows,
METHOD_0,METHOD_1,METHOD_2,

pp,winKCB,unixKCB,
IDENT_0,IDENT_1,IDENT_2,


































