testAsArray3,asArray,byIndex,
METHOD_0,METHOD_1,METHOD_2,

richfaces,renderkit,RenderKitUtils,etalon,fragment,picker,ChoicePickerHelper,
IDENT_0,IDENT_1,IDENT_2,IDENT_3,IDENT_4,IDENT_5,IDENT_6,

22,42,
INT_0,INT_1,




"12","22","42",
STRING_0,STRING_1,STRING_2,

























