testGetHeader,UIOutput,getFacets,getHeader,getStateHelper,eval,
METHOD_0,METHOD_1,METHOD_2,METHOD_3,METHOD_4,METHOD_5,

faces,UIOutput,richfaces,AbstractAccordionItem,
IDENT_0,IDENT_1,IDENT_2,IDENT_3,







"header",
STRING_0,

























