should_fetch_all,fetchAll,fetch,
METHOD_0,METHOD_1,METHOD_2,

learntechnology,genericcrud,Employee,employees,employeeService,emp,EmployeeIntegrationIT,
IDENT_0,IDENT_1,IDENT_2,IDENT_3,IDENT_4,IDENT_5,IDENT_6,







"EMP: {}",
STRING_0,

























