testDifferenceNegative,Point,diff,
METHOD_0,METHOD_1,METHOD_2,

rinde,rinsim,Point,p1,p2,
IDENT_0,IDENT_1,IDENT_2,IDENT_3,IDENT_4,


































