shouldValidateValidObject,withLocation,hasFailures,
METHOD_0,METHOD_1,METHOD_2,

rpki,ValidationResult,validationResult,ValidationStatus,ValidationCheck,checks,ERROR,
IDENT_0,IDENT_1,IDENT_2,IDENT_3,IDENT_4,IDENT_5,IDENT_6,







"n/a",
STRING_0,

























