find_msb_index_inet6num_matches,addObject,findInIndex,
METHOD_0,METHOD_1,METHOD_2,

databaseHelper,RpslObjectInfo,whoisTemplate,
IDENT_0,IDENT_1,IDENT_2,







"inet6num: 2001:db8:60::/48\nnetname: testnet","2001:db8:60::/48",
STRING_0,STRING_1,

























