test_proxy_specified,IpResourceEntry,asIpInterval,loadIpProxy,reload,isProxy,
METHOD_0,METHOD_1,METHOD_2,METHOD_3,METHOD_4,METHOD_5,

IpResourceEntry,ip,IpInterval,inetAddress,
IDENT_0,IDENT_1,IDENT_2,IDENT_3,


































