with_marker_long,
METHOD_0,

Messages,ERROR,
IDENT_0,IDENT_1,







"% http://www.ripe.net/data-tools/db/faq/faq-db/why-did-you-receive-the-error-201-access-denied\n",
STRING_0,

























