getById,addObject,getSerialEntry,
METHOD_0,METHOD_1,METHOD_2,

rpsl,RpslObject,rpslObject,databaseHelper,JdbcRpslObjectOperations,jdbcTemplate,serialId,
IDENT_0,IDENT_1,IDENT_2,IDENT_3,IDENT_4,IDENT_5,IDENT_6,







"person: Test\n","nic-hdl: TEST-PN\n","source: RIPE\n",
STRING_0,STRING_1,STRING_2,

























