tagNotFound,getTags,getNrAutNums,getNrInetnums,getNrInet6nums,
METHOD_0,METHOD_1,METHOD_2,METHOD_3,METHOD_4,

Tag,tags,
IDENT_0,IDENT_1,


































