find_msb_index_inet6num_must_not_match,addObject,findInIndex,
METHOD_0,METHOD_1,METHOD_2,

databaseHelper,RpslObjectInfo,whoisTemplate,
IDENT_0,IDENT_1,IDENT_2,







"inet6num: 2001:600:0:100::/56\nnetname: testnet","2001:600::/56",
STRING_0,STRING_1,

























