needsAllocMaintainerAuthorization,requiresAllocMaintainer,
METHOD_0,METHOD_1,

rpsl,attrs,InetnumStatus,inetnumStatus,Inet6numStatus,ALLOC_MNTNER_STATUSES,
IDENT_0,IDENT_1,IDENT_2,IDENT_3,IDENT_4,IDENT_5,


































