non_grouping,isGrouping,isKeysOnly,hasOption,isBriefAbuseContact,
METHOD_0,METHOD_1,METHOD_2,METHOD_3,METHOD_4,

queryParser,QueryFlag,NO_GROUPING,
IDENT_0,IDENT_1,IDENT_2,







"-G foo",
STRING_0,

























