checkDirs,getRoot,setBaseDir,
METHOD_0,METHOD_1,METHOD_2,

folder,FilterConfig,
IDENT_0,IDENT_1,







"test/","folder",
STRING_0,STRING_1,

























