perf,executeScript,
METHOD_0,METHOD_1,

browser,agileware,SharedWebDriver,elapsed,
IDENT_0,IDENT_1,IDENT_2,IDENT_3,







"http://www.google.com","return (performance.timing.loadEventEnd - performance.timing.connectStart)",
STRING_0,STRING_1,

























