testNullReturn,DocumentConverter,settings,getDefaultSettings,
METHOD_0,METHOD_1,METHOD_2,METHOD_3,

rnewson,couchdb,DocumentConverter,ViewSettings,
IDENT_0,IDENT_1,IDENT_2,IDENT_3,







"function(doc) {return null;}","{_id:\"hello\"}",
STRING_0,STRING_1,

























