xor4,ArrayContainer,RunContainer,xor,UnsupportedOperationException,
METHOD_0,METHOD_1,METHOD_2,METHOD_3,METHOD_4,

roaringbitmap,Container,bc,rc,answer,realdata,wrapper,Bitmap,
IDENT_0,IDENT_1,IDENT_2,IDENT_3,IDENT_4,IDENT_5,IDENT_6,IDENT_7,

28203,28214,17739,17740,17945,19077,19278,19407,
INT_0,INT_1,INT_2,INT_3,INT_4,INT_5,INT_6,INT_7,




"Not implemented in ImmutableConciseSet",
STRING_0,

























