or,bitmapOf,
METHOD_0,METHOD_1,

roaringbitmap,RoaringBitmap,rb1,rb2,rb3,FastAggregation,ImmutableRoaringBitmap,bitmaps,rangeStart,rangeEnd,
IDENT_0,IDENT_1,IDENT_2,IDENT_3,IDENT_4,IDENT_5,IDENT_6,IDENT_7,IDENT_8,IDENT_9,


































