equalTest2,ArrayContainer,RunContainer,addLong,
METHOD_0,METHOD_1,METHOD_2,METHOD_3,

roaringbitmap,Container,ar,oneLong,dat,
IDENT_0,IDENT_1,IDENT_2,IDENT_3,IDENT_4,

10000,
INT_0,































