testPriorityQueueXorMapped,toMapped,bitmapOf,priorityqueue_xor,MutableRoaringBitmap,
METHOD_0,METHOD_1,METHOD_2,METHOD_3,METHOD_4,

array1,array2,array3,roaringbitmap,ImmutableRoaringBitmap,data1,TestFastAggregation,MutableRoaringBitmap,data2,data3,BufferFastAggregation,ans,dat,
IDENT_0,IDENT_1,IDENT_2,IDENT_3,IDENT_4,IDENT_5,IDENT_6,IDENT_7,IDENT_8,IDENT_9,IDENT_10,IDENT_11,IDENT_12,

1232,3324,123,43243,1322,7897,8767,39173,39174,39175,39176,39177,39178,39179,
INT_0,INT_1,INT_2,INT_3,INT_4,INT_5,INT_6,INT_7,INT_8,INT_9,INT_10,INT_11,INT_12,INT_13,































