iremove7,MappeableRunContainer,iadd,iremove,getCardinality,getLongCardinality,
METHOD_0,METHOD_1,METHOD_2,METHOD_3,METHOD_4,METHOD_5,

roaringbitmap,MappeableContainer,rc,
IDENT_0,IDENT_1,IDENT_2,


































