whenUpdateView_thenViewShouldReflectChanges,updateView,getRating,
METHOD_0,METHOD_1,METHOD_2,

attribute,newRating,rating,
IDENT_0,IDENT_1,IDENT_2,


































