getImei,shadowOf,setImei,
METHOD_0,METHOD_1,METHOD_2,

testImei,robolectric,Shadows,telephonyManager,
IDENT_0,IDENT_1,IDENT_2,IDENT_3,







"4test imei",
STRING_0,

























