shouldGivePhoneCount,shadowOf,setPhoneCount,getPhoneCount,
METHOD_0,METHOD_1,METHOD_2,METHOD_3,

robolectric,Shadows,telephonyManager,phoneCount,
IDENT_0,IDENT_1,IDENT_2,IDENT_3,

42,
INT_0,































