testValidate_no_exception_found,addFile,checkFile,
METHOD_0,METHOD_1,METHOD_2,

retVal,fileAgeValidator,
IDENT_0,IDENT_1,







"This is okay",
STRING_0,

























