autoComplete,autocompleteStations,print,
METHOD_0,METHOD_1,METHOD_2,

schildbach,pte,Location,autocompletes,elementCount,
IDENT_0,IDENT_1,IDENT_2,IDENT_3,IDENT_4,







"haupt",
STRING_0,

























