testGetSetDateTime,BarData,setDateTime,getDateTime,
METHOD_0,METHOD_1,METHOD_2,METHOD_3,

LocalDateTime,cal,sumzerotrading,BarData,dateTime,
IDENT_0,IDENT_1,IDENT_2,IDENT_3,IDENT_4,







"getDateTime",
STRING_0,

























