testEquals_NullBar,BarData,
METHOD_0,METHOD_1,

sumzerotrading,BarData,bar,realtime,RealtimeBarRequest,requestId,timeInterval,Objects,ticker,timeUnit,showProperty,
IDENT_0,IDENT_1,IDENT_2,IDENT_3,IDENT_4,IDENT_5,IDENT_6,IDENT_7,IDENT_8,IDENT_9,IDENT_10,


































