createInstance,hexStringToByteArray,Gost2814789EncryptedKey,GostR3410TransportParameters,GostR3410KeyTransport,TLSGostKeyTransportBlob,getEncoded,UnsupportedOperationException,
METHOD_0,METHOD_1,METHOD_2,METHOD_3,METHOD_4,METHOD_5,METHOD_6,METHOD_7,

rub,nds,modifiablevariable,ArrayConverter,mac,ukm,bouncycastle,asn1,cryptopro,Gost2814789EncryptedKey,encryptedKey,GostR3410TransportParameters,rosstandart,RosstandartObjectIdentifiers,id_tc26_gost_28147_param_Z,GostR3410KeyTransport,keyTransport,tlsattacker,gost,TLSGostKeyTransportBlob,blob,
IDENT_0,IDENT_1,IDENT_2,IDENT_3,IDENT_4,IDENT_5,IDENT_6,IDENT_7,IDENT_8,IDENT_9,IDENT_10,IDENT_11,IDENT_12,IDENT_13,IDENT_14,IDENT_15,IDENT_16,IDENT_17,IDENT_18,IDENT_19,IDENT_20,







"83BE410A078B313050F47E89124DE9DCEC591B770D0AB638712E6F8412A874BA","6EE7685F","50D55A4BB4D33355","304330413028042083BE410A078B313050F47E89124DE9DCEC591B770D0AB638712E6F8412A874BA04046EE7685FA01506092A8503070102050101040850D55A4BB4D33355","Not supported yet.",
STRING_0,STRING_1,STRING_2,STRING_3,STRING_4,

























