testSetSessionID,setSessionId,getSessionId,
METHOD_0,METHOD_1,METHOD_2,

sessionId,
IDENT_0,

17,34,51,68,85,102,119,136,153,170,187,204,221,238,
INT_0,INT_1,INT_2,INT_3,INT_4,INT_5,INT_6,INT_7,INT_8,INT_9,INT_10,INT_11,INT_12,INT_13,































