testExecute,executedAsPlanned,isExecuted,
METHOD_0,METHOD_1,METHOD_2,

executed,rub,nds,tlsattacker,workflow,TlsAction,EXECUTED_DEFAULT,
IDENT_0,IDENT_1,IDENT_2,IDENT_3,IDENT_4,IDENT_5,IDENT_6,


































