testGetId,Activity,
METHOD_0,METHOD_1,

rusticisoftware,tincan,Activity,act,
IDENT_0,IDENT_1,IDENT_2,IDENT_3,







"http://example.com/activity",
STRING_0,

























