testGetCollisionString,CollisionDJBX31A,getCollisionString,
METHOD_0,METHOD_1,METHOD_2,

wsattacker,dos,dosExtension,attackClasses,hashDos,CollisionDJBX31A,
IDENT_0,IDENT_1,IDENT_2,IDENT_3,IDENT_4,IDENT_5,







"v6v6",
STRING_0,

























