testGetImageUrl_1,ImageData,setImageHeight,setImageUrl,setImageWidth,getImageUrl,
METHOD_0,METHOD_1,METHOD_2,METHOD_3,METHOD_4,METHOD_5,

jinstagram,ImageData,imageUrl,
IDENT_0,IDENT_1,IDENT_2,


































