testGetCount,Likes,setCount,setLikesUserList,getCount,
METHOD_0,METHOD_1,METHOD_2,METHOD_3,METHOD_4,

jinstagram,Likes,
IDENT_0,IDENT_1,


































