testGetFullName,FromTagData,setProfilePicture,setUsername,setFullName,getFullName,
METHOD_0,METHOD_1,METHOD_2,METHOD_3,METHOD_4,METHOD_5,

jinstagram,FromTagData,fromTagData,fullName,
IDENT_0,IDENT_1,IDENT_2,IDENT_3,


































