testGetUrl,VideoData,setWidth,setUrl,setHeight,getUrl,
METHOD_0,METHOD_1,METHOD_2,METHOD_3,METHOD_4,METHOD_5,

jinstagram,VideoData,
IDENT_0,IDENT_1,


































