testGetFragmentExcludeNodeIdsEmpty,getFragmentExcludeNodeIds,
METHOD_0,METHOD_1,

toExclude,dbo,NodeDAOImpl,childIdsToExclude,SQL_ID_NOT_IN_SET,
IDENT_0,IDENT_1,IDENT_2,IDENT_3,IDENT_4,


































