testCreateTruncatedTextWithHTML,createTruncatedText,
METHOD_0,METHOD_1,

javadoc,velocity,ControllerUtils,Jsoup,maxChars,ELLIPSES,
IDENT_0,IDENT_1,IDENT_2,IDENT_3,IDENT_4,IDENT_5,







"This is <a href=\"some.link\">Dispaly</a>","This is Dispaly&#8230",
STRING_0,STRING_1,

























