testGetViewTypeMaskBothNotNull,getMask,getViewTypeMask,
METHOD_0,METHOD_1,METHOD_2,

ViewType,viewType,file_and_table,viewTypeMask,ViewTypeMask,bitMask,
IDENT_0,IDENT_1,IDENT_2,IDENT_3,IDENT_4,IDENT_5,


































