testParseLink,parseValueForDatabaseWrite,
METHOD_0,METHOD_1,

dbValue,ColumnTypeInfo,LINK,
IDENT_0,IDENT_1,IDENT_2,







"http://google.com",
STRING_0,

























