testBuildSelectRowIdsEmptyRefs,createColumn,buildSelectRowIds,
METHOD_0,METHOD_1,METHOD_2,

ColumnModel,c1,dbo,TableModelTestUtils,c2,SQLUtils,LinkedList,RowReference,ColumnType,STRING,
IDENT_0,IDENT_1,IDENT_2,IDENT_3,IDENT_4,IDENT_5,IDENT_6,IDENT_7,IDENT_8,IDENT_9,

2L,
INT_0,




"syn123","SELECT col_1, col_2 FROM syn123 WHERE ROW_ID IN (222, 333)","col_",
STRING_0,STRING_1,STRING_2,

























