testStripLeadingAndTailingQuotesJustQuotes,stripLeadingAndTailingQuotes,toCharArray,
METHOD_0,METHOD_1,METHOD_2,

DerivedColumn,chars,thisChar,
IDENT_0,IDENT_1,IDENT_2,







"''",'"','`','\'',
STRING_0,STRING_1,STRING_2,STRING_3,

























