testDefaultQuiz,getDefaultQuizGenerator,validateQuizGenerator,
METHOD_0,METHOD_1,METHOD_2,

quiz,QuizGenerator,quizGenerator,CertifiedUserManagerImplTest,CertifiedUserManagerImpl,percent,currentIndex,totalCount,
IDENT_0,IDENT_1,IDENT_2,IDENT_3,IDENT_4,IDENT_5,IDENT_6,IDENT_7,







"%1$-30s %2$10d/%3$-10d %4$8.2f %%",
STRING_0,

100.0,
FLOAT_0,






















