testIsBefore,fromUnixMillis,isBefore,
METHOD_0,METHOD_1,METHOD_2,

nowPlusOneMin,Deadline,deadline,millis,
IDENT_0,IDENT_1,IDENT_2,IDENT_3,

60000,
INT_0,































