testAppendNullCharArrayBuffer,ByteArrayBuffer,
METHOD_0,METHOD_1,

ByteArrayBuffer,CharArrayBuffer,staticTable,
IDENT_0,IDENT_1,IDENT_2,


































