testInsertStringField_Null,StringField,
METHOD_0,METHOD_1,

jmethods,catatumbo,StringField,EntityManagerTest,
IDENT_0,IDENT_1,IDENT_2,IDENT_3,


































