testUpdateCharObject_Null,CharObject,setSex,getSex,
METHOD_0,METHOD_1,METHOD_2,METHOD_3,

jmethods,catatumbo,CharObject,EntityManagerTest,sex,
IDENT_0,IDENT_1,IDENT_2,IDENT_3,IDENT_4,







'M',
STRING_0,

























