testSetMaxCapacity_Good,LRUCache,setMaxCapacity,getMaxCapacity,
METHOD_0,METHOD_1,METHOD_2,METHOD_3,

jmethods,catatumbo,LRUCache,maxCapacity,
IDENT_0,IDENT_1,IDENT_2,IDENT_3,


































