testToModel_3,FloatMapper,toModel,printf,toUpperCase,
METHOD_0,METHOD_1,METHOD_2,METHOD_3,METHOD_4,

Float,DoubleValue,jmethods,catatumbo,mappers,FloatMapper,Value,NullValue,StringValue,Enum,DeviceType,
IDENT_0,IDENT_1,IDENT_2,IDENT_3,IDENT_4,IDENT_5,IDENT_6,IDENT_7,IDENT_8,IDENT_9,IDENT_10,







"%s ---> %s%n",
STRING_0,

























