testGetEnrolledEnrollmentSets,findCurrentlyEnrolledEnrollmentSets,
METHOD_0,METHOD_1,

enrSets,cm,m_wrapper,
IDENT_0,IDENT_1,IDENT_2,







"josh",
STRING_0,

























