getCurrentSiteTitle,
METHOD_0,

sakaiproject,mailsender,logic,ExternalLogicImplTest,LOCATION_TITLE,
IDENT_0,IDENT_1,IDENT_2,IDENT_3,IDENT_4,


































