testHoltWintersForecast,HoltWintersAnalysis,_performHoltWintersAnalysis,getForecastedDatapoints,
METHOD_0,METHOD_1,METHOD_2,METHOD_3,

salesforce,dva,argus,metric,HoltWintersAnalysis,holtWinters,dp,alpha,beta,gamma,seasonLength,forecastedDatapoints,_forecastedDatapoints,
IDENT_0,IDENT_1,IDENT_2,IDENT_3,IDENT_4,IDENT_5,IDENT_6,IDENT_7,IDENT_8,IDENT_9,IDENT_10,IDENT_11,IDENT_12,

2L,3L,4L,5L,6L,7L,8L,9L,10L,
INT_0,INT_1,INT_2,INT_3,INT_4,INT_5,INT_6,INT_7,INT_8,







3.0,4.0,5.0,8.0,13.0,6.0,2.5,0.1,0.0035,3.10035,3.2823,3.73133,4.59829,4.60102,4.40302,4.14214,
FLOAT_0,FLOAT_1,FLOAT_2,FLOAT_3,FLOAT_4,FLOAT_5,FLOAT_6,FLOAT_7,FLOAT_8,FLOAT_9,FLOAT_10,FLOAT_11,FLOAT_12,FLOAT_13,FLOAT_14,FLOAT_15,






















