testSimpleQuoted,DefaultMessageConverter,formatMsg,
METHOD_0,METHOD_1,METHOD_2,

sap,hcp,cf,DefaultMessageConverter,jmc,quotedMsg,TEST_MSG_NO_ARGS,mc,
IDENT_0,IDENT_1,IDENT_2,IDENT_3,IDENT_4,IDENT_5,IDENT_6,IDENT_7,







" with a \"quote\"",
STRING_0,

























