testLabels,LabeledVectorSet,labels,label,
METHOD_0,METHOD_1,METHOD_2,METHOD_3,

mtx,lbs,ignite,ml,structures,LabeledVectorSet,labels,
IDENT_0,IDENT_1,IDENT_2,IDENT_3,IDENT_4,IDENT_5,IDENT_6,


































