debugMode,setDebugMode,isInDebugMode,getParameter,
METHOD_0,METHOD_1,METHOD_2,METHOD_3,

sap,odata,ODataContextImpl,DEBUG_MODE,
IDENT_0,IDENT_1,IDENT_2,IDENT_3,


































