findSubstring2,getOrDefault,clear,
METHOD_0,METHOD_1,METHOD_2,

words,clz,nums,windowLen,sLen,word,cur,prevWord,
IDENT_0,IDENT_1,IDENT_2,IDENT_3,IDENT_4,IDENT_5,IDENT_6,IDENT_7,







"word","good","best","wordgoodgoodgoodbestword",
STRING_0,STRING_1,STRING_2,STRING_3,




--,
OP_0,



















