testLcm,BigRational,lcm,
METHOD_0,METHOD_1,METHOD_2,

jbasics,BigRational,test2,lcm,SimpleExpression,
IDENT_0,IDENT_1,IDENT_2,IDENT_3,IDENT_4,

2L,3L,4L,
INT_0,INT_1,INT_2,




"BigRational.lcm(BigRational) accepts null values",
STRING_0,

























