testIdentityMatrix,createIdentityMatrix,withRowFromLongs,TestPair,
METHOD_0,METHOD_1,METHOD_2,METHOD_3,

jbasics,BigDecimalMatrix,i3,ReflectionBuilderFactoryTest,left,right,
IDENT_0,IDENT_1,IDENT_2,IDENT_3,IDENT_4,IDENT_5,


































