testDelByToken,createRelationship,delRelationshipByToken,
METHOD_0,METHOD_1,METHOD_2,

tokenManager,scienjus,RedisTokenManagerTest,KEY,TOKEN,tokenColumnName,
IDENT_0,IDENT_1,IDENT_2,IDENT_3,IDENT_4,IDENT_5,







"delete from %s where %s = ?",
STRING_0,

























