testSetArray,BoolArray,setArray,getArray,
METHOD_0,METHOD_1,METHOD_2,METHOD_3,

scijava,BoolArray,raw,
IDENT_0,IDENT_1,IDENT_2,


































