padStartLengthNegative,padStart,
METHOD_0,METHOD_1,

padded,scijava,padding,padChar,
IDENT_0,IDENT_1,IDENT_2,IDENT_3,







"Norman the pike",'~',
STRING_0,STRING_1,

























