testMissingDirect,
METHOD_0,

scijava,ContextCreationTest,MissingService,exc,expectedMessage,
IDENT_0,IDENT_1,IDENT_2,IDENT_3,IDENT_4,







"Expected IllegalArgumentException","No compatible service: ",
STRING_0,STRING_1,

























