testLogListenerIsNotifiedOnce,TestableLogService,addLogListener,
METHOD_0,METHOD_1,METHOD_2,

scijava,LogMessage,LogService,logService,LogServiceTest,objects,
IDENT_0,IDENT_1,IDENT_2,IDENT_3,IDENT_4,IDENT_5,







"dummy",
STRING_0,

























