testFindMagicLinks,findMagicLinks,createQuery,getResultList,
METHOD_0,METHOD_1,METHOD_2,METHOD_3,

entityManager,
IDENT_0,







"FROM Demographic demo, Hl7Pid pid, Hl7Link link ","WHERE pid.id = link.id ","AND demo.Hin = pid.externalId ","AND link.id IS NULL",
STRING_0,STRING_1,STRING_2,STRING_3,

























