testGetBlurConfig,getBlurConfig,
METHOD_0,METHOD_1,

blur,BlurConfiguration,blurConfig,console,Config,
IDENT_0,IDENT_1,IDENT_2,IDENT_3,IDENT_4,


































