shouldReturnSignatureMethodString,getSignatureMethod,
METHOD_0,METHOD_1,

agorava,oauth,signatures,HMACSha1SignatureService,METHOD,
IDENT_0,IDENT_1,IDENT_2,IDENT_3,IDENT_4,







"HMAC-SHA1",
STRING_0,

























