testCreate,CtlRelationships,setLabel,persist,
METHOD_0,METHOD_1,METHOD_2,METHOD_3,

CtlRelationships,
IDENT_0,







"label",
STRING_0,

























