testCreate,ConsultationRequest,generateTestDataForModelClass,persist,
METHOD_0,METHOD_1,METHOD_2,METHOD_3,

ConsultationRequest,EntityDataGenerator,consultDao,
IDENT_0,IDENT_1,IDENT_2,


































