testEOF,RAMDirectory,createFile,fileLength,testEof,fileExists,FileNotFoundException,
METHOD_0,METHOD_1,METHOD_2,METHOD_3,METHOD_4,METHOD_5,METHOD_6,

Directory,fsDir,fsLength,hdfsLength,_files,
IDENT_0,IDENT_1,IDENT_2,IDENT_3,IDENT_4,







"test.eof",
STRING_0,

























