testCreate,MyGroup,generateTestDataForModelClass,MyGroupPrimaryKey,setMyGroupNo,setProviderNo,persist,
METHOD_0,METHOD_1,METHOD_2,METHOD_3,METHOD_4,METHOD_5,METHOD_6,

MyGroup,EntityDataGenerator,
IDENT_0,IDENT_1,







"999998",
STRING_0,

























