nameNullTest,
METHOD_0,

marc,everest,datatypes,ON,on,e2e,export,CustodianModelTest,nullCustodianModel,
IDENT_0,IDENT_1,IDENT_2,IDENT_3,IDENT_4,IDENT_5,IDENT_6,IDENT_7,IDENT_8,


































