testInstruction,setInstruction,getInstruction,
METHOD_0,METHOD_1,METHOD_2,

oscar,form,pharmaForms,formBPMH,BpmhDrugTest,drug,instruction,
IDENT_0,IDENT_1,IDENT_2,IDENT_3,IDENT_4,IDENT_5,IDENT_6,







"this is a temporary drug",
STRING_0,

























