shouldReturnNonce,getNonce,getTs,getRandomInteger,
METHOD_0,METHOD_1,METHOD_2,METHOD_3,

ts,timer,
IDENT_0,IDENT_1,







"1042",
STRING_0,

























