testGetPostsWithGreatComments,getPostsWithGreatComments,getServiceContext,
METHOD_0,METHOD_1,METHOD_2,

blog,BlogPost,postService,sculptor,AppEngineTestHelper,
IDENT_0,IDENT_1,IDENT_2,IDENT_3,IDENT_4,


































