testScoreExceptionNull,prepareRequestContextHeader,score,
METHOD_0,METHOD_1,METHOD_2,

sdl,odata,XML,ODataRequestContext,QueryResult,
IDENT_0,IDENT_1,IDENT_2,IDENT_3,IDENT_4,


































