testCat,CatCommandRequest,setPath,setRevision,App,flush,
METHOD_0,METHOD_1,METHOD_2,METHOD_3,METHOD_4,METHOD_5,

sonia,scm,CatCommandRequest,inputStream,outputStream,App,cmd,Closeables,
IDENT_0,IDENT_1,IDENT_2,IDENT_3,IDENT_4,IDENT_5,IDENT_6,IDENT_7,







"a.txt",
STRING_0,

























