testTimingsNull,HarEntry,setTimings,getTimings,HarTiming,
METHOD_0,METHOD_1,METHOD_2,METHOD_3,METHOD_4,

sstoehr,harreader,HarEntry,timings,
IDENT_0,IDENT_1,IDENT_2,IDENT_3,


































