testGetAttributeClass_date,getColumnType,getAttributeClass,
METHOD_0,METHOD_1,METHOD_2,

seasar,dialect,GenDialect,ColumnType,columnType,Types,OTHER,attributeClass,
IDENT_0,IDENT_1,IDENT_2,IDENT_3,IDENT_4,IDENT_5,IDENT_6,IDENT_7,







"date",
STRING_0,

























