getTaskManager,getTested,
METHOD_0,METHOD_1,

searchisko,TaskService,tested,taskManager,tasker,TaskManager,
IDENT_0,IDENT_1,IDENT_2,IDENT_3,IDENT_4,IDENT_5,


































