testGenerate,GenerationContextImpl,MyModel,getSimpleName,generate,getResult,
METHOD_0,METHOD_1,METHOD_2,METHOD_3,METHOD_4,METHOD_5,

seasar,GenerationContext,GeneratorImplTest,
IDENT_0,IDENT_1,IDENT_2,







"hoge","file","_Generate.ftl","UTF-8",
STRING_0,STRING_1,STRING_2,STRING_3,

























