testRandomReadWrite,nextInt,getBlockCount,getBlockSize,
METHOD_0,METHOD_1,METHOD_2,METHOD_3,

jscsi,initiator,devices,JSCSIDeviceTest,randomGenerator,testData,TEST_DATA_SIZE,
IDENT_0,IDENT_1,IDENT_2,IDENT_3,IDENT_4,IDENT_5,IDENT_6,


































