testSerPredict,fill,LOOCV,slice,RegressionTree,matrix,deserialize,predict,getFeature,getValueAsFloat,getWeight,
METHOD_0,METHOD_1,METHOD_2,METHOD_3,METHOD_4,METHOD_5,METHOD_6,METHOD_7,METHOD_8,METHOD_9,METHOD_10,

longley,hivemall,smile,AttributeType,attrs,NUMERIC,LOOCV,loocv,trainx,train,trainy,maxLeafs,regression,RegressionTree,RegressionTreeTest,FeatureValue,score,features,old_w,
IDENT_0,IDENT_1,IDENT_2,IDENT_3,IDENT_4,IDENT_5,IDENT_6,IDENT_7,IDENT_8,IDENT_9,IDENT_10,IDENT_11,IDENT_12,IDENT_13,IDENT_14,IDENT_15,IDENT_16,IDENT_17,IDENT_18,

1947,1948,1949,1950,1951,1952,1953,1954,1955,1956,1957,1958,1959,1960,1961,1962,
INT_0,INT_1,INT_2,INT_3,INT_4,INT_5,INT_6,INT_7,INT_8,INT_9,INT_10,INT_11,INT_12,INT_13,INT_14,INT_15,







234.289,235.6,159.0,107.608,60.323,259.426,232.5,145.6,108.632,61.122,258.054,368.2,161.6,109.773,60.171,284.599,335.1,165.0,110.929,61.187,328.975,209.9,309.9,112.075,63.221,346.999,193.2,359.4,113.27,63.639,365.385,187.0,354.7,115.094,64.989,363.112,357.8,335.0,116.219,63.761,397.469,290.4,304.8,117.388,66.019,419.18,282.2,285.7,118.734,67.857,442.769,293.6,279.8,120.445,68.169,444.546,468.1,263.7,121.95,66.513,482.704,381.3,255.2,123.366,68.655,502.601,393.1,251.4,125.368,69.564,518.173,480.6,257.2,127.852,69.331,554.894,400.7,282.7,130.081,70.551,83.0,88.5,88.2,89.5,96.2,98.1,99.0,100.0,101.2,104.6,108.4,110.8,112.6,114.2,115.7,116.9,0.0F,
FLOAT_0,FLOAT_1,FLOAT_2,FLOAT_3,FLOAT_4,FLOAT_5,FLOAT_6,FLOAT_7,FLOAT_8,FLOAT_9,FLOAT_10,FLOAT_11,FLOAT_12,FLOAT_13,FLOAT_14,FLOAT_15,FLOAT_16,FLOAT_17,FLOAT_18,FLOAT_19,FLOAT_20,FLOAT_21,FLOAT_22,FLOAT_23,FLOAT_24,FLOAT_25,FLOAT_26,FLOAT_27,FLOAT_28,FLOAT_29,FLOAT_30,FLOAT_31,FLOAT_32,FLOAT_33,FLOAT_34,FLOAT_35,FLOAT_36,FLOAT_37,FLOAT_38,FLOAT_39,FLOAT_40,FLOAT_41,FLOAT_42,FLOAT_43,FLOAT_44,FLOAT_45,FLOAT_46,FLOAT_47,FLOAT_48,FLOAT_49,FLOAT_50,FLOAT_51,FLOAT_52,FLOAT_53,FLOAT_54,FLOAT_55,FLOAT_56,FLOAT_57,FLOAT_58,FLOAT_59,FLOAT_60,FLOAT_61,FLOAT_62,FLOAT_63,FLOAT_64,FLOAT_65,FLOAT_66,FLOAT_67,FLOAT_68,FLOAT_69,FLOAT_70,FLOAT_71,FLOAT_72,FLOAT_73,FLOAT_74,FLOAT_75,FLOAT_76,FLOAT_77,FLOAT_78,FLOAT_79,FLOAT_80,FLOAT_81,FLOAT_82,FLOAT_83,FLOAT_84,FLOAT_85,FLOAT_86,FLOAT_87,FLOAT_88,FLOAT_89,FLOAT_90,FLOAT_91,FLOAT_92,FLOAT_93,FLOAT_94,FLOAT_95,FLOAT_96,






















