testCSRMatrixNullRow,CSRMatrixBuilder,nextColumn,nextRow,buildMatrix,numRows,
METHOD_0,METHOD_1,METHOD_2,METHOD_3,METHOD_4,METHOD_5,

hivemall,matrix,builders,CSRMatrixBuilder,Matrix,
IDENT_0,IDENT_1,IDENT_2,IDENT_3,IDENT_4,

1024,11,13,14,22,23,66,
INT_0,INT_1,INT_2,INT_3,INT_4,INT_5,INT_6,































