runTestStringToOutputStream1,analyzeAPKFile,
METHOD_0,METHOD_1,

soot,jimple,infoflow,InfoflowResults,
IDENT_0,IDENT_1,IDENT_2,IDENT_3,







"GeneralJava/StringToOutputStream1.apk",
STRING_0,

























