runTestReflection2,analyzeAPKFile,
METHOD_0,METHOD_1,

soot,jimple,infoflow,InfoflowResults,enableReflectionCallback,
IDENT_0,IDENT_1,IDENT_2,IDENT_3,IDENT_4,







"Reflection/Reflection2.apk",
STRING_0,

























