testSparse,Random,SparseIntArray,nextInt,keyAt,
METHOD_0,METHOD_1,METHOD_2,METHOD_3,METHOD_4,

Random,rand,hivemall,arrays,SparseIntArray,col,defaultValue,
IDENT_0,IDENT_1,IDENT_2,IDENT_3,IDENT_4,IDENT_5,IDENT_6,

31,
INT_0,































