attr_function__setting,$,attr,PseudoTestDoubleException,
METHOD_0,METHOD_1,METHOD_2,METHOD_3,

seleniumquery,SeleniumQuery,testinfrastructure,testdouble,
IDENT_0,IDENT_1,IDENT_2,IDENT_3,







"#chk1","data-ball","abc",
STRING_0,STRING_1,STRING_2,

























