multiTableChapterDelete,Chapter,setChapterId,setBookId,querySingleResult,where,
METHOD_0,METHOD_1,METHOD_2,METHOD_3,METHOD_4,METHOD_5,

dexcoder,Chapter,chapter,jdbcDao,tmp,Criteria,fieldName,
IDENT_0,IDENT_1,IDENT_2,IDENT_3,IDENT_4,IDENT_5,IDENT_6,

23L,5L,
INT_0,INT_1,




"chapterId","bookId","=",
STRING_0,STRING_1,STRING_2,

























