shouldBeAbleToInvalidateASession,ActiveSessions,SessionId,invalidate,
METHOD_0,METHOD_1,METHOD_2,METHOD_3,

ActiveSessions,sessions,MINUTES,ActiveSession,SessionId,
IDENT_0,IDENT_1,IDENT_2,IDENT_3,IDENT_4,







"1234567890",
STRING_0,

























