testLoadMappings1,loadMappings,
METHOD_0,METHOD_1,

netbeans,modules,gradle,ActionMapping,actions,ActionMappingPropertyReader,dataLock,curSize,
IDENT_0,IDENT_1,IDENT_2,IDENT_3,IDENT_4,IDENT_5,IDENT_6,IDENT_7,




synchronized,
MOD_0,




























