testRateLimitSleep,SendGrid,setRateLimitSleep,getRateLimitSleep,
METHOD_0,METHOD_1,METHOD_2,METHOD_3,

sendgrid,SendGrid,sg,SENDGRID_API_KEY,rateLimitSleep,
IDENT_0,IDENT_1,IDENT_2,IDENT_3,IDENT_4,

999,
INT_0,































