testAddAlias,addAlias,getAliasNames,TreeSet,keySet,
METHOD_0,METHOD_1,METHOD_2,METHOD_3,METHOD_4,

axisMapping,names,insituMap,rasterMap,
IDENT_0,IDENT_1,IDENT_2,IDENT_3,







"chl",
STRING_0,

























