doGracefulShutdown,doNothing,flush,stop,isRunning,
METHOD_0,METHOD_1,METHOD_2,METHOD_3,METHOD_4,

listenerContainer,hook,running,
IDENT_0,IDENT_1,IDENT_2,


































