complexLocation,LngLat,Location,getNumberOfCoordinates,
METHOD_0,METHOD_1,METHOD_2,METHOD_3,

sentilo,LngLat,point1,point2,point3,coordinates,Location,
IDENT_0,IDENT_1,IDENT_2,IDENT_3,IDENT_4,IDENT_5,IDENT_6,










6.0,12.0,
FLOAT_0,FLOAT_1,






















