getUserConfigContextNullTest,clearContext,getContext,
METHOD_0,METHOD_1,METHOD_2,

sentilo,UserConfigContextHolder,UserConfigContext,contextHolder,
IDENT_0,IDENT_1,IDENT_2,IDENT_3,


































