enumGetNames,getEnumConstants,
METHOD_0,METHOD_1,

names,sentilo,CatalogUtils,CatalogUtilsTest,MockValuesEnum,enumClass,
IDENT_0,IDENT_1,IDENT_2,IDENT_3,IDENT_4,IDENT_5,







"CaA","BHM","_1234","CASA","BORROW","BeAn","^.|.$",", ",
STRING_0,STRING_1,STRING_2,STRING_3,STRING_4,STRING_5,STRING_6,STRING_7,

























