toMillis,toStringTimestamp,stringToDate,
METHOD_0,METHOD_1,METHOD_2,

currentDate,formatDate,sentilo,DateUtils,timestamp,
IDENT_0,IDENT_1,IDENT_2,IDENT_3,IDENT_4,


































