parseNullTimestamp,parseTimestamp,stringToDate,
METHOD_0,METHOD_1,METHOD_2,

sentilo,DateUtils,timestamp,
IDENT_0,IDENT_1,IDENT_2,


































