testColorToRGBA1,Color,colorToRGBA,check,getRed,getGreen,getBlue,getAlpha,
METHOD_0,METHOD_1,METHOD_2,METHOD_3,METHOD_4,METHOD_5,METHOD_6,METHOD_7,

red,green,blue,Color,color,netbeans,modules,webkit,debugging,HighlightConfig,HighlightConfigTest,
IDENT_0,IDENT_1,IDENT_2,IDENT_3,IDENT_4,IDENT_5,IDENT_6,IDENT_7,IDENT_8,IDENT_9,IDENT_10,

23,37,211,
INT_0,INT_1,INT_2,




"r","g",
STRING_0,STRING_1,

255.0,
FLOAT_0,






















