getRegexpArrayForExclusion_A$,TestingTarget,getRegexpArrayForExclusion,
METHOD_0,METHOD_1,METHOD_2,

junithelper,TestingTarget,regexpCsvForExclusion,
IDENT_0,IDENT_1,IDENT_2,







"\r",",",
STRING_0,STRING_1,

























