trimAll_A$String_StringIsEmpty,TrimInsideOfBraceFilter,trimAll,replaceFirst,
METHOD_0,METHOD_1,METHOD_2,METHOD_3,

junithelper,TrimInsideOfBraceFilter,src,
IDENT_0,IDENT_1,IDENT_2,







"@interface","interface","@[^\\s\r\n\\(]+(\\([^\\)]*\\))*","@[^\\s\r\n]+",
STRING_0,STRING_1,STRING_2,STRING_3,

























