doTrimAll_A$String_StringIsNull,TrimFilterManager,doTrimAll,trimAll,
METHOD_0,METHOD_1,METHOD_2,METHOD_3,

junithelper,TrimFilterManager,src,dest,TrimFilter,
IDENT_0,IDENT_1,IDENT_2,IDENT_3,IDENT_4,


































