isNotWildcard_A$_false,CrontabElement,isNotWildcard,
METHOD_0,METHOD_1,METHOD_2,

seratch,taskun,scheduler,crond,CrontabElement,
IDENT_0,IDENT_1,IDENT_2,IDENT_3,IDENT_4,







"*",
STRING_0,

























