getMonth_A$Calendar,getMonth,
METHOD_0,METHOD_1,

arg0,MONTH,seratch,taskun,CalendarUtil,month,calendar,
IDENT_0,IDENT_1,IDENT_2,IDENT_3,IDENT_4,IDENT_5,IDENT_6,


































