testCreateSampler,createSampler,createInternalSampler,
METHOD_0,METHOD_1,METHOD_2,

netbeans,modules,sampler,Sampler,InternalSampler,
IDENT_0,IDENT_1,IDENT_2,IDENT_3,IDENT_4,







"createSampler",
STRING_0,

























