whenDivideTwoNumberShouldBeResultCalculation,Calculator,div,getResult,
METHOD_0,METHOD_1,METHOD_2,METHOD_3,

chapter1,typedata,Calculator,calc,testResult,
IDENT_0,IDENT_1,IDENT_2,IDENT_3,IDENT_4,


































