whenAddInBinaryTreeWeGetValueByKey,BinaryTree,addValueInCache,
METHOD_0,METHOD_1,METHOD_2,

ru,szhernovoy,BinaryTree,phoneBook,one,name1,
IDENT_0,IDENT_1,IDENT_2,IDENT_3,IDENT_4,IDENT_5,

14,43,32,
INT_0,INT_1,INT_2,




"Sergey","Nick","Petr","Rame","Julia","Dasha","Lera","Dima","Sasha",
STRING_0,STRING_1,STRING_2,STRING_3,STRING_4,STRING_5,STRING_6,STRING_7,STRING_8,

























