whenAddQueueThatWeCanGetItbyIndex,QueueLinkedList,push,addValueInCache,
METHOD_0,METHOD_1,METHOD_2,METHOD_3,

ru,szhernovoy,linkedlist,QueueLinkedList,dlink,
IDENT_0,IDENT_1,IDENT_2,IDENT_3,IDENT_4,


































