whenWeWantHowOwnerNumberPhoneWeFindByNumber,PhoneBook,addValueInCache,
METHOD_0,METHOD_1,METHOD_2,

ru,szhernovoy,PhoneBook,tinyBook,
IDENT_0,IDENT_1,IDENT_2,IDENT_3,







"89053758569","Julia","89053758565","Sergey","89053758566","Petr",
STRING_0,STRING_1,STRING_2,STRING_3,STRING_4,STRING_5,

























