testListMatchingCategories,listCategories,
METHOD_0,METHOD_1,

dataLock,curSize,
IDENT_0,IDENT_1,




synchronized,
MOD_0,

"listMatchingCategories","Sam.*",
STRING_0,STRING_1,

























