testGetOperation,Setting,PropertyHandler,getOperation,
METHOD_0,METHOD_1,METHOD_2,METHOD_3,

PropertyHandler,OPERATION,v2_0,EC2_ACTIVATION,propertyHandler,aws,settings,
IDENT_0,IDENT_1,IDENT_2,IDENT_3,IDENT_4,IDENT_5,IDENT_6,


































