testSaveWithTokensNotMatch,getTestBean,setToken,
METHOD_0,METHOD_1,METHOD_2,

ConfigurationBean,voTriggerProcess,
IDENT_0,IDENT_1,







"notValid",
STRING_0,

























