testGetVDiskId,Setting,PropertyHandler,getVDiskId,getValidatedProperty,
METHOD_0,METHOD_1,METHOD_2,METHOD_3,METHOD_4,

PropertyHandler,VDISK_ID,v2_0,propertyHandler,iaas,settings,
IDENT_0,IDENT_1,IDENT_2,IDENT_3,IDENT_4,IDENT_5,







"vdiskid",
STRING_0,

























