createRequest,PrepareXMLConfiguration,
METHOD_0,METHOD_1,

ror,LPlatformClientTest,LPLATFORMSTATUS,lPlatformClient,voTriggerProcess,
IDENT_0,IDENT_1,IDENT_2,IDENT_3,IDENT_4,







"GetLPlatformStatus",
STRING_0,

























