getReadyTimeout,Setting,PropertyHandler,
METHOD_0,METHOD_1,METHOD_2,

configSettings,PropertyHandler,READY_TIMEOUT,v2_0,propertyHandler,openstack,settings,
IDENT_0,IDENT_1,IDENT_2,IDENT_3,IDENT_4,IDENT_5,IDENT_6,

300000,
INT_0,




"300000",
STRING_0,

























