testIterator,prepareLogSegment,addSegment,
METHOD_0,METHOD_1,METHOD_2,

ratis,LogSegment,startIndex,TermIndex,
IDENT_0,IDENT_1,IDENT_2,IDENT_3,

99,300,299,
INT_0,INT_1,INT_2,































