getPortSuffix_SAML_SP,getSettingsForMode,getPortSuffix,isSsoMode,
METHOD_0,METHOD_1,METHOD_2,METHOD_3,

v2_0,Setting,settings,besDAO,
IDENT_0,IDENT_1,IDENT_2,IDENT_3,







"SAML_SP","PortSTS","PortBASIC",
STRING_0,STRING_1,STRING_2,

























