passwordAuth_notEqual_user,PasswordAuthentication,
METHOD_0,METHOD_1,

v2_0,PasswordAuthentication,obj1,obj2,Pair,pair,second,
IDENT_0,IDENT_1,IDENT_2,IDENT_3,IDENT_4,IDENT_5,IDENT_6,







"user1","passwd","user2",
STRING_0,STRING_1,STRING_2,

























