marshal_nullValue,marshal,printBigDecimal,
METHOD_0,METHOD_1,METHOD_2,

billingservice,BigDecimalJaxbCustomBinder,
IDENT_0,IDENT_1,


































