isUserAssignmentInPeriod_BeforePeriodStart,createUserAssignment,calculateMillis,isUserAssignmentInPeriod,parseToCalendar,getTimeInMillis,
METHOD_0,METHOD_1,METHOD_2,METHOD_3,METHOD_4,METHOD_5,

billingservice,calculation,revenue,UserAssignment,userAssignment,DateTimeHandling,calculator,dateSource,
IDENT_0,IDENT_1,IDENT_2,IDENT_3,IDENT_4,IDENT_5,IDENT_6,IDENT_7,







"2013-04-04 23:59:58","2013-04-04 23:59:59","2013-04-05 00:00:00","2013-04-10 00:00:00",
STRING_0,STRING_1,STRING_2,STRING_3,

























