testGetCompilePathNoDependencies,ProjectStub,createBuilder,getCompilePath,
METHOD_0,METHOD_1,METHOD_2,METHOD_3,

ant,PathBuilderTest,ProjectStub,projectA,
IDENT_0,IDENT_1,IDENT_2,IDENT_3,







"project-a",
STRING_0,

























