unionAndSimplify_firstIsEmpty,VisibilitySimplifier,unionAndSimplify,requireNonNull,simplify,
METHOD_0,METHOD_1,METHOD_2,METHOD_3,METHOD_4,

simplified,vis1,vis2,
IDENT_0,IDENT_1,IDENT_2,







"u","(",")&(",")",
STRING_0,STRING_1,STRING_2,STRING_3,

























