getDate_byColumnIndex,addRow,getDate,getObject,
METHOD_0,METHOD_1,METHOD_2,METHOD_3,

currentRow,columnIndex,
IDENT_0,IDENT_1,


































