testValidationException_ParamsToString3,ValidationException,
METHOD_0,METHOD_1,

ValidationException,ReasonEnum,BOOLEAN,
IDENT_0,IDENT_1,IDENT_2,







"EXCEPTIONID ",": Validation failed with reason BOOLEAN.",
STRING_0,STRING_1,

























