validate_properCVS,BulkUserImportReader,
METHOD_0,METHOD_1,

csv,identityservice,BulkUserImportReader,Streams,
IDENT_0,IDENT_1,IDENT_2,IDENT_3,







"user1,user1@org.com,en,MR,John,Doe,ORGANIZATION_ADMIN",
STRING_0,

























