isSendMail_Reset,setSendMail,isSendMail,booleanValue,
METHOD_0,METHOD_1,METHOD_2,METHOD_3,

identityservice,SendMailControl,FALSE,SEND_MAIL,
IDENT_0,IDENT_1,IDENT_2,IDENT_3,


































