mergeSettings_OnlyPlatformProps,mergeSettings,
METHOD_0,METHOD_1,

platformSettings,usermanagement,POLdapSetting,umsBean,
IDENT_0,IDENT_1,IDENT_2,IDENT_3,







"setting2","value2",
STRING_0,STRING_1,

























