jsonParameterOption_null,givenJsonParameterOption,JsonParameterOption,setDescription,
METHOD_0,METHOD_1,METHOD_2,METHOD_3,

JsonParameterOption,jsonParamOpt,
IDENT_0,IDENT_1,







"id1","descr1",
STRING_0,STRING_1,

























