jsonParameterOption_notEqual_id,givenJsonParameterOption,setDescription,
METHOD_0,METHOD_1,METHOD_2,

JsonParameterOption,jsonParamOpt1,jsonParamOpt2,Pair,pair,second,
IDENT_0,IDENT_1,IDENT_2,IDENT_3,IDENT_4,IDENT_5,







"changed",
STRING_0,

























