jsonObject_notEqual_messageType,givenJsonObject,setMessageType,
METHOD_0,METHOD_1,METHOD_2,

JsonObject,jsonObject1,jsonObject2,MessageType,INIT_MESSAGE,Pair,pair,second,
IDENT_0,IDENT_1,IDENT_2,IDENT_3,IDENT_4,IDENT_5,IDENT_6,IDENT_7,


































