jsonParameter_notEqual_min,givenJsonParameter,setMinValue,
METHOD_0,METHOD_1,METHOD_2,

JsonParameter,jsonParam1,jsonParam2,Pair,pair,second,
IDENT_0,IDENT_1,IDENT_2,IDENT_3,IDENT_4,IDENT_5,







"100000",
STRING_0,

























