setSelectedMarketplace_null,setSelectedMarketplace,isButtonEnabled,getSelectedMarketplace,
METHOD_0,METHOD_1,METHOD_2,METHOD_3,

marketplaceGotoBean,isEnabled,
IDENT_0,IDENT_1,


































