getCellValue_NullValue,getCellValue,prepareRow,getStringCellValue,getCell,anyInt,
METHOD_0,METHOD_1,METHOD_2,METHOD_3,METHOD_4,METHOD_5,

ExcelHandler,ss,usermodel,Row,returnCell,Cell,cell,
IDENT_0,IDENT_1,IDENT_2,IDENT_3,IDENT_4,IDENT_5,IDENT_6,


































