testConvertAllWhiteSpacesSpaceAndThreeByteSpaceMixture,isWhitespace,concat,
METHOD_0,METHOD_1,METHOD_2,

WhiteSpaceConverter,Character,
IDENT_0,IDENT_1,







"　",
STRING_0,

























