getChangedAndSelectedCategories,getVOCategoryList,VOCategory,
METHOD_0,METHOD_1,METHOD_2,

VOCategory,categories1,categories2,ms,categoriesForMarketplace,
IDENT_0,IDENT_1,IDENT_2,IDENT_3,IDENT_4,


































