getIdFirstCategory,givenModelWithCategories,getCategory,getCategoryId,
METHOD_0,METHOD_1,METHOD_2,METHOD_3,










"cat1","cat2","cat3",
STRING_0,STRING_1,STRING_2,

























