testGenerateArtificialIdentifier_Length,generateArtificialIdentifier,toHexString,nextInt,
METHOD_0,METHOD_1,METHOD_2,METHOD_3,

IdGenerator,RANDOM,
IDENT_0,IDENT_1,


































