testGetTenantByKey,Tenant,setKey,getReference,getTenantByKey,
METHOD_0,METHOD_1,METHOD_2,METHOD_3,METHOD_4,

domobjects,Tenant,dataService,tenantServiceLocalBean,
IDENT_0,IDENT_1,IDENT_2,IDENT_3,


































