getUserGroupsForOrganization,login,runTX,
METHOD_0,METHOD_1,METHOD_2,

usergroupservice,ROLE_ORGANIZATION_ADMIN,UserGroup,Callable,categoriesForMarketplace,
IDENT_0,IDENT_1,IDENT_2,IDENT_3,IDENT_4,


































