getTagsByPattern_emptyPattern,getTagsByPattern,
METHOD_0,METHOD_1,

tags,TagServiceWSTest,tagService,categoriesForMarketplace,
IDENT_0,IDENT_1,IDENT_2,IDENT_3,







"en",
STRING_0,

























