assertEvaluateForExpressionIsNull,InlineExpressionParser,splitAndEvaluate,flatten,
METHOD_0,METHOD_1,METHOD_2,METHOD_3,

inlineExpression,
IDENT_0,


































