assertGetValueByColumnIndex,SimpleDateFormat,UnsupportedOperationException,
METHOD_0,METHOD_1,METHOD_2,

distinctQueryResult,
IDENT_0,







"varchar","char","String","json","int","numeric","//.","datetime","yyyy-MM-dd","Cannot support type: '%s'",
STRING_0,STRING_1,STRING_2,STRING_3,STRING_4,STRING_5,STRING_6,STRING_7,STRING_8,STRING_9,

























