assertGetCalendarValueByColumnIndex,getCalendarValue,SQLFeatureNotSupportedException,
METHOD_0,METHOD_1,METHOD_2,

aggregationDistinctQueryResult,
IDENT_0,


































