assertGetTimeColumnLabelWithCalendar,
METHOD_0,

each,resultSets,columnName,tables,
IDENT_0,IDENT_1,IDENT_2,IDENT_3,







"Expected an SQLException to be thrown",
STRING_0,

























