conversion,baseString,reverse,
METHOD_0,METHOD_1,METHOD_2,

cn,codepub,algorithms,ConversionOfNumberSystems,number,
IDENT_0,IDENT_1,IDENT_2,IDENT_3,IDENT_4,

1024,11,13,14,
INT_0,INT_1,INT_2,INT_3,




"A","B","C","D","E",
STRING_0,STRING_1,STRING_2,STRING_3,STRING_4,




%,/=,
OP_0,OP_1,



















