assertRegister,register,unregister,
METHOD_0,METHOD_1,METHOD_2,

ChannelId,channelId,shardingproxy,frontend,ChannelThreadExecutorGroup,
IDENT_0,IDENT_1,IDENT_2,IDENT_3,IDENT_4,


































