test_leaves_count,getAllNbReachableLeaves,getV,
METHOD_0,METHOD_1,METHOD_2,

openrdf,reachableLeaves,leavesURIsExpected,leaves,
IDENT_0,IDENT_1,IDENT_2,IDENT_3,


































