delete_shouldDeleteSingleFile,createTempFile,clear,
METHOD_0,METHOD_1,METHOD_2,

silentcircle,silenttext,IOUtils,pendingRemoval,
IDENT_0,IDENT_1,IDENT_2,IDENT_3,







"delete_shouldDeleteSingleFile",".test",
STRING_0,STRING_1,

























