find_shouldFindMessageBody,compile,groupCount,
METHOD_0,METHOD_1,METHOD_2,

silentcircle,silenttext,Pattern,MULTILINE,DOTALL,Matcher,
IDENT_0,IDENT_1,IDENT_2,IDENT_3,IDENT_4,IDENT_5,







"<body>edtest\n</body><subject/><time xmlns=\'http://silentcircle.com/timestamp\' stamp=\'2014-07-18T03:22:22.575Z\'/><delay xmlns=\'urn:xmpp:delay\' from=\'xmpp-dev.silentcircle.net\' stamp=\'2014-07-18T03:22:22Z\'>Offline Storage</delay><x xmlns=\'jabber:x:delay\' stamp=\'20140718T03:22:22\'/>","edtest\n","<body>([^<]+)</body>",
STRING_0,STRING_1,STRING_2,

























