testFiveImageTargetsAreFound,ImageTarget,setLimit,findAll,doFindAll,
METHOD_0,METHOD_1,METHOD_2,METHOD_3,METHOD_4,

sikuli,Target,ScreenRegion,testScreenRegion,
IDENT_0,IDENT_1,IDENT_2,IDENT_3,







"fileIcon.png",
STRING_0,

























