getParentOfNodeTest,Label,HBox,getParent,
METHOD_0,METHOD_1,METHOD_2,METHOD_3,

javafx,scene,Label,label,HBox,hbox,Parent,hboxRef,leakDetector,saxsys,leakscanner,WeakRef,
IDENT_0,IDENT_1,IDENT_2,IDENT_3,IDENT_4,IDENT_5,IDENT_6,IDENT_7,IDENT_8,IDENT_9,IDENT_10,IDENT_11,


































