saveAnAlreadyExistingAxisValue,findPdcAxisValue,savePdcAxisValue,
METHOD_0,METHOD_1,METHOD_2,

silverpeas,pdc,PdcAxisValue,theExistingValue,theSavedValue,Objects,
IDENT_0,IDENT_1,IDENT_2,IDENT_3,IDENT_4,IDENT_5,







"3",
STRING_0,

























