testSetIsRun,TypeStatistics,setIsRun,isRun,
METHOD_0,METHOD_1,METHOD_2,METHOD_3,

stratelia,silverpeas,silverstatistics,TypeStatistics,
IDENT_0,IDENT_1,IDENT_2,IDENT_3,


































