testGetLayerSync,getLayer,fromJSONString,
METHOD_0,METHOD_1,METHOD_2,

jsonString,simplegeo,SimpleGeoStorageClientTest,Layer,layer,JSONException,
IDENT_0,IDENT_1,IDENT_2,IDENT_3,IDENT_4,IDENT_5,







"casey.testing.layer",
STRING_0,

























