testNonExisting,getDatabase,getFile,
METHOD_0,METHOD_1,METHOD_2,

sirix,access,var,XdmTestHelper,PATHS,PATH1,database2,
IDENT_0,IDENT_1,IDENT_2,IDENT_3,IDENT_4,IDENT_5,IDENT_6,


































