minTest,mapToDouble,getAsDouble,
METHOD_0,METHOD_1,METHOD_2,

sing_group,gc4s,utilities,MatrixUtils,MatrixUtilsTest,MATRIX,Stream,matrix,
IDENT_0,IDENT_1,IDENT_2,IDENT_3,IDENT_4,IDENT_5,IDENT_6,IDENT_7,


































