notEqualsNull,OSData,
METHOD_0,METHOD_1,

lightboxtechnologies,nsrl,OSData,osd,OSDataTest,mfg_code,
IDENT_0,IDENT_1,IDENT_2,IDENT_3,IDENT_4,IDENT_5,


































