hashCodeDifferent,HashData,HashCodeBuilder,toHashCode,
METHOD_0,METHOD_1,METHOD_2,METHOD_3,

sha1alt,lightboxtechnologies,nsrl,HashDataTest,hex,HashData,sha1,md5,crc32,prod_code,os_code,special_code,mfg_code,
IDENT_0,IDENT_1,IDENT_2,IDENT_3,IDENT_4,IDENT_5,IDENT_6,IDENT_7,IDENT_8,IDENT_9,IDENT_10,IDENT_11,IDENT_12,







"0000000000000000000000000000000000000000",
STRING_0,

























