testTextMessage,createSession,createTextMessage,setText,
METHOD_0,METHOD_1,METHOD_2,METHOD_3,

skyscreamer,nevado,TextMessage,textMsg,_body,
IDENT_0,IDENT_1,IDENT_2,IDENT_3,IDENT_4,


































