setParameter,NullPointerException,getParameter,
METHOD_0,METHOD_1,METHOD_2,

tester,CharSequence,
IDENT_0,IDENT_1,







"aaa","111","The name parameter must not be null.",
STRING_0,STRING_1,STRING_2,

























