copyBB,SrcBB,DestBB,copy,
METHOD_0,METHOD_1,METHOD_2,METHOD_3,

slim3,BeanUtilTest,SrcBB,src,aaa,DestBB,dest,BeanUtil,DEFAULT_OPTIONS,
IDENT_0,IDENT_1,IDENT_2,IDENT_3,IDENT_4,IDENT_5,IDENT_6,IDENT_7,IDENT_8,







"111",
STRING_0,

























