copyBMForEmptyString,SrcBM,copy,JSONException,opt,quote,
METHOD_0,METHOD_1,METHOD_2,METHOD_3,METHOD_4,METHOD_5,

slim3,BeanUtilTest,SrcBM,src,aaa,dest,BeanUtil,repackaged,
IDENT_0,IDENT_1,IDENT_2,IDENT_3,IDENT_4,IDENT_5,IDENT_6,IDENT_7,







"aaa","111","Null key.","JSONObject[","] not found.",
STRING_0,STRING_1,STRING_2,STRING_3,STRING_4,

























