toDateForCalendar,setTime,toDate,
METHOD_0,METHOD_1,METHOD_2,

cal,slim3,DateUtil,ISO_DATE_PATTERN,
IDENT_0,IDENT_1,IDENT_2,IDENT_3,


































