getBigInteger,BigIntegerModulus,
METHOD_0,METHOD_1,

modulus,dk,alexandra,fresco,numeric,
IDENT_0,IDENT_1,IDENT_2,IDENT_3,IDENT_4,







"13",
STRING_0,

























