toPrimitiveByteForNull,toPrimitiveByte,toByte,byteValue,
METHOD_0,METHOD_1,METHOD_2,METHOD_3,

Byte,slim3,ByteUtil,
IDENT_0,IDENT_1,IDENT_2,


































