toPrimitiveBooleanForNull,toPrimitiveBoolean,toBoolean,booleanValue,
METHOD_0,METHOD_1,METHOD_2,METHOD_3,

slim3,BooleanUtil,
IDENT_0,IDENT_1,


































