capitalizeForEmptyString,capitalize,toCharArray,toUpperCase,
METHOD_0,METHOD_1,METHOD_2,METHOD_3,

slim3,StringUtil,chars,Character,
IDENT_0,IDENT_1,IDENT_2,IDENT_3,


































