checkToString,FieldName,
METHOD_0,METHOD_1,

smart_tools,smartactors,iobject,ifield_name,IFieldName,fieldName,field_name,
IDENT_0,IDENT_1,IDENT_2,IDENT_3,IDENT_4,IDENT_5,IDENT_6,


































