test_setBaseURI,URIResourceLocator,setBaseURI,findResource,
METHOD_0,METHOD_1,METHOD_2,METHOD_3,

milyn,URIResourceLocator,locator,classLoader,
IDENT_0,IDENT_1,IDENT_2,IDENT_3,







"classpath:/","/org/milyn/resource/somefile.txt",
STRING_0,STRING_1,

























