testPutAndGetObject,putObject,getObject,shutdown,
METHOD_0,METHOD_1,METHOD_2,METHOD_3,

myObj,ObjectInputStream,ois,oiss,ObjectOutputStream,oos,ooss,
IDENT_0,IDENT_1,IDENT_2,IDENT_3,IDENT_4,IDENT_5,IDENT_6,







"This is a test","test-obj","test-key",
STRING_0,STRING_1,STRING_2,

























