testVerifyValidSig,sign,w,str2bytes,
METHOD_0,METHOD_1,METHOD_2,METHOD_3,

signature,digSig,dataToSign,privateKey,publicKey,PublicKey,dataBytes,Log,societies,digsig,DigSig,TAG,
IDENT_0,IDENT_1,IDENT_2,IDENT_3,IDENT_4,IDENT_5,IDENT_6,IDENT_7,IDENT_8,IDENT_9,IDENT_10,IDENT_11,







"verify(): All parameters must be non-null: ",", ",
STRING_0,STRING_1,

























