testSetType,createTrace,Trace,setType,
METHOD_0,METHOD_1,METHOD_2,METHOD_3,

inria,soctrace,Trace,IModelFactory,
IDENT_0,IDENT_1,IDENT_2,IDENT_3,


































