testSetOrderBy,setOrderBy,getList,getNumberOfCpus,
METHOD_0,METHOD_1,METHOD_2,METHOD_3,

OrderBy,DESC,inria,soctrace,Trace,tlist,last,numberOfCpus,
IDENT_0,IDENT_1,IDENT_2,IDENT_3,IDENT_4,IDENT_5,IDENT_6,IDENT_7,







"NUMBER_OF_CPUS",
STRING_0,

























