testLocalTime,ofLocalTime,fromString,
METHOD_0,METHOD_1,METHOD_2,

datakernel,LocalTime,Config,EMPTY,THIS,SimpleConfigConverter,
IDENT_0,IDENT_1,IDENT_2,IDENT_3,IDENT_4,IDENT_5,

30,28,228,
INT_0,INT_1,INT_2,

protected,
MOD_0,




























