testGenerateUniqueInt,generateUniqueInt,nextInt,
METHOD_0,METHOD_1,METHOD_2,

societies,policynegotiator,ValueGenerator,
IDENT_0,IDENT_1,IDENT_2,


































