testBetweenTransformation,newSophisticatedCube,DataItemResult3,await,consume,DataItem3,DataItem4,queryRawStream,between,whenResult,
METHOD_0,METHOD_1,METHOD_2,METHOD_3,METHOD_4,METHOD_5,METHOD_6,METHOD_7,METHOD_8,METHOD_9,

cube,datakernel,CubeTest,classLoader,chunkStorage,DataItemResult3,async,Promises,Promise,
IDENT_0,IDENT_1,IDENT_2,IDENT_3,IDENT_4,IDENT_5,IDENT_6,IDENT_7,IDENT_8,

77,56,88,98,14,42,25,53,30,13,49,40,59,17,79,23,48,63,18,33,21,69,22,39,29,65,57,26,11,99,35,27,76,36,41,38,68,55,52,47,60,58,19,24,80,31,73,28,46,75,
INT_0,INT_1,INT_2,INT_3,INT_4,INT_5,INT_6,INT_7,INT_8,INT_9,INT_10,INT_11,INT_12,INT_13,INT_14,INT_15,INT_16,INT_17,INT_18,INT_19,INT_20,INT_21,INT_22,INT_23,INT_24,INT_25,INT_26,INT_27,INT_28,INT_29,INT_30,INT_31,INT_32,INT_33,INT_34,INT_35,INT_36,INT_37,INT_38,INT_39,INT_40,INT_41,INT_42,INT_43,INT_44,INT_45,INT_46,INT_47,INT_48,INT_49,




"key1","key2","key3","key4","key5","metric1","metric2","metric3","Collecting group of Promises to list of Promises' results:","Size of collected list: ","\nList: ",
STRING_0,STRING_1,STRING_2,STRING_3,STRING_4,STRING_5,STRING_6,STRING_7,STRING_8,STRING_9,STRING_10,

























