formatQueries,newHashSet,StreamsQuery,fromString,requireNonNull,SPARQLParser,parseQuery,getSparql,SPARQLQueryRenderer,getQueryId,isActive,isInsert,
METHOD_0,METHOD_1,METHOD_2,METHOD_3,METHOD_4,METHOD_5,METHOD_6,METHOD_7,METHOD_8,METHOD_9,METHOD_10,METHOD_11,

StreamsQuery,queries,Sets,formatted,StreamsQueryFormatter,rdf4j,ParsedQuery,parsedQuery,sparql,prettySparql,queryrender,lines,
IDENT_0,IDENT_1,IDENT_2,IDENT_3,IDENT_4,IDENT_5,IDENT_6,IDENT_7,IDENT_8,IDENT_9,IDENT_10,IDENT_11,







"Is Insert: false\n","SELECT * WHERE { ?person <urn:worksAt> ?business . }","11111111-1111-1111-1111-111111111111","SELECT * WHERE { ?a ?b ?c . }"," Query ID: 11111111-1111-1111-1111-111111111111\n","Is Active: true\n"," where {\n"," Query ID: 22222222-2222-2222-2222-222222222222\n"," SPARQL: select ?d ?e ?f\n"," ?person <urn:worksAt> ?business.\n"," QueryId: %s"," Query ID: ","Is Active: ","Is Insert: "," SPARQL: ",
STRING_0,STRING_1,STRING_2,STRING_3,STRING_4,STRING_5,STRING_6,STRING_7,STRING_8,STRING_9,STRING_10,STRING_11,STRING_12,STRING_13,STRING_14,

























