testParseToBsonArrayOfObjectets,toJson,minify,Minify,isWhitespace,
METHOD_0,METHOD_1,METHOD_2,METHOD_3,METHOD_4,

arrayOfObjs,BsonValue,restheart,JsonUtils,Minify,minifier,jsonString,in_string,in_multiline_comment,in_singleline_comment,string_opener,Character,
IDENT_0,IDENT_1,IDENT_2,IDENT_3,IDENT_4,IDENT_5,IDENT_6,IDENT_7,IDENT_8,IDENT_9,IDENT_10,IDENT_11,







"[{\"a\" :1 },{\"b\" :2 }]",'x','\\','\r','\n',"*/","/*","//",'"','\'',
STRING_0,STRING_1,STRING_2,STRING_3,STRING_4,STRING_5,STRING_6,STRING_7,STRING_8,STRING_9,

























