testConverters,toJavaCharset,encodeAscii,
METHOD_0,METHOD_1,METHOD_2,

datakernel,HttpCharset,US_ASCII,charset,Charset,hCharset,java2http,
IDENT_0,IDENT_1,IDENT_2,IDENT_3,IDENT_4,IDENT_5,IDENT_6,


































