testCompare,Rabbit,RabbitNameComparator,getLabel,
METHOD_0,METHOD_1,METHOD_2,METHOD_3,

mintcode,errabbit,Rabbit,r1,r2,rabbit,RabbitNameComparator,comparator,o1,o2,
IDENT_0,IDENT_1,IDENT_2,IDENT_3,IDENT_4,IDENT_5,IDENT_6,IDENT_7,IDENT_8,IDENT_9,







"A","B",
STRING_0,STRING_1,

























