entityEquality_same_Transaction,createEntityManager,getTransaction,begin,
METHOD_0,METHOD_1,METHOD_2,METHOD_3,

EntityManager,meri,simplest,LoadEntityTest,person1,SIMON_SLASH_ID,person2,
IDENT_0,IDENT_1,IDENT_2,IDENT_3,IDENT_4,IDENT_5,IDENT_6,


































