testJPA,createEntityManager,createQuery,getResultList,
METHOD_0,METHOD_1,METHOD_2,METHOD_3,

EntityManager,meri,DemoJPATest,simplest,allUsers,
IDENT_0,IDENT_1,IDENT_2,IDENT_3,IDENT_4,







"SELECT x FROM Person x",
STRING_0,

























