shouldConsumeEofCharacter,isFalse,consume,pop,CodeReader,
METHOD_0,METHOD_1,METHOD_2,METHOD_3,METHOD_4,

sonar,sslr,CodeReader,
IDENT_0,IDENT_1,IDENT_2,


































