testUndelete_CheckerNull,undelete,BlobId,
METHOD_0,METHOD_1,METHOD_2,

underTest,sonatype,nexus,blobstore,rapture,PasswordPlaceholder,VALUE,
IDENT_0,IDENT_1,IDENT_2,IDENT_3,IDENT_4,IDENT_5,IDENT_6,







"fakeid",
STRING_0,

























