testPeriodConstantsCount,getPeriodsAsList,
METHOD_0,METHOD_1,

sonar,scmstats,ScmStatsConstants,PERIOD_1,PERIOD_2,PERIOD_3,
IDENT_0,IDENT_1,IDENT_2,IDENT_3,IDENT_4,IDENT_5,


































