MyPhpRules,define,
METHOD_0,METHOD_1,

sonar,samples,php,MyPhpRules,rulesDefinition,RulesDefinition,Repository,
IDENT_0,IDENT_1,IDENT_2,IDENT_3,IDENT_4,IDENT_5,IDENT_6,







"custom",
STRING_0,

























