select_withWritePolicyAllow,
METHOD_0,

sonatype,nexus,WritePolicy,writePolicy,underTest,asset,ALLOW,Asset,configured,
IDENT_0,IDENT_1,IDENT_2,IDENT_3,IDENT_4,IDENT_5,IDENT_6,IDENT_7,IDENT_8,


































