testGetNameAndEmail,Account,setEmail,getNameAndEmail,
METHOD_0,METHOD_1,METHOD_2,METHOD_3,

sonymobile,gerrit,gerritevents,attr,Account,account,email,
IDENT_0,IDENT_1,IDENT_2,IDENT_3,IDENT_4,IDENT_5,IDENT_6,







"someone@somewhere.com","someone","\"someone\" <someone@somewhere.com>","\"","\" <",">",
STRING_0,STRING_1,STRING_2,STRING_3,STRING_4,STRING_5,

























