testExpired,SparkSession,isExpired,
METHOD_0,METHOD_1,METHOD_2,

sparkplatform,SparkSession,accessToken,refreshToken,expiresIn,startTime,refreshTimeout,
IDENT_0,IDENT_1,IDENT_2,IDENT_3,IDENT_4,IDENT_5,IDENT_6,


































