testPut,mockAuth,stubPut,isSuccess,
METHOD_0,METHOD_1,METHOD_2,METHOD_3,

sparkplatform,sample,success,
IDENT_0,IDENT_1,IDENT_2,

201,
INT_0,




"/v1/test/1234?ApiSig=2649baff1e76ae996fa1b76a6cbff86b&AuthToken=c729d695fc1613af58de764fa44881cb&Soundwave=walkman&Starscream=F-15+Eagle&Megatron=Walther+P-38&Optimus=semi","foo=Test&bar=10","success.json","/test/1234",
STRING_0,STRING_1,STRING_2,STRING_3,

























