testReadMultipleValuesForName,getBoolean,
METHOD_0,METHOD_1,

Config,ConfigTest,section,defaultValue,
IDENT_0,IDENT_1,IDENT_2,IDENT_3,







"[foo]\nbar=false\nbar=true\n",
STRING_0,

























