testGetAll,EntityLargeList,getAll,scan,getResultCode,fromProperty,
METHOD_0,METHOD_1,METHOD_2,METHOD_3,METHOD_4,METHOD_5,

spikeify,EntityLargeList,userId,userKey1,sfy,allList,inner,aerospike,AerospikeException,ae,
IDENT_0,IDENT_1,IDENT_2,IDENT_3,IDENT_4,IDENT_5,IDENT_6,IDENT_7,IDENT_8,IDENT_9,

10000,1000000L,1417,
INT_0,INT_1,INT_2,































