testDifferentAlgorithm,HmacDrbg,nextBytes,
METHOD_0,METHOD_1,METHOD_2,

dk,alexandra,fresco,HmacDrbg,rand1,rand2,Supplier,Mac,NoSuchAlgorithmException,randBytes1,randBytes2,DRes,eqCount,
IDENT_0,IDENT_1,IDENT_2,IDENT_3,IDENT_4,IDENT_5,IDENT_6,IDENT_7,IDENT_8,IDENT_9,IDENT_10,IDENT_11,IDENT_12,







"HmacSHA512",
STRING_0,

























