getArrayFirstDate,getJsonManager,createArray,
METHOD_0,METHOD_1,METHOD_2,

spincast,JsonArray,JsonObject,jsonObj,arrayFirst,
IDENT_0,IDENT_1,IDENT_2,IDENT_3,IDENT_4,







"titi","arr",
STRING_0,STRING_1,

























