testGetValueNormalDate,Expectations,getParameter,createProcessor,
METHOD_0,METHOD_1,METHOD_2,METHOD_3,

strDate,ISO8601Utils,mockit,servicecomb,ParamValueProcessor,paramIndex,
IDENT_0,IDENT_1,IDENT_2,IDENT_3,IDENT_4,IDENT_5,


































