testGroupedMultipleAggregateViaSparkPath,executeQuery,toStringUnsorted,
METHOD_0,METHOD_1,METHOD_2,

sqlText,methodWatcher,resultString,FormattedResult,ResultFactory,homeless,
IDENT_0,IDENT_1,IDENT_2,IDENT_3,IDENT_4,IDENT_5,







"select b2, count(distinct c2), sum(distinct a2), count(*) from t2 --splice-properties useSpark=true\n group by b2 order by b2","4096 | 1 |ddd | 1 | 2 |\n"," 4 | 2 | 1 | 2 |\n","group by 1, b2 order by b2","4096 | 1 |eee | 1 | 3 |\n","select c2, count(distinct a2), count(distinct d2), sum(b2), max(d2) from t2 --splice-properties useSpark=true\n","4096 | 2 |jjj | 2 | 5 |",
STRING_0,STRING_1,STRING_2,STRING_3,STRING_4,STRING_5,STRING_6,

























