testExplainTwice,executeQuery,getTableReference,stepNext,
METHOD_0,METHOD_1,METHOD_2,METHOD_3,

derby,methodWatcher,ExplainPlanIT,TABLE_NAME,count1,count2,
IDENT_0,IDENT_1,IDENT_2,IDENT_3,IDENT_4,IDENT_5,







"-- some comments \n explain\nupdate %s set i = 0 where i = 1",
STRING_0,

























