testCreateIndex,executeQuery,
METHOD_0,METHOD_1,

useSparkString,methodWatcher,homeless,FormattedResult,ResultFactory,
IDENT_0,IDENT_1,IDENT_2,IDENT_3,IDENT_4,







" 4 |14 | 4 |","D1 |A1 |B1 |\n"," 3 |13 | 3 |\n",
STRING_0,STRING_1,STRING_2,

























