testValuesUnion,createStatement,executeQuery,resultSetSize,
METHOD_0,METHOD_1,METHOD_2,METHOD_3,

Statement,derby,
IDENT_0,IDENT_1,







"SELECT TTABBREV, TABLE_TYPE from (VALUES ('T','TABLE'), ('S','SYSTEM TABLE'), ('V', 'VIEW'), ('A', 'SYNONYM')) T (TTABBREV,TABLE_TYPE)",
STRING_0,

























