testRangeCurrentRowUnboundedFollowing,getTableReference,executeQuery,toStringUnsorted,
METHOD_0,METHOD_1,METHOD_2,METHOD_3,

sqlText,derby,WindowFunctionIT,EMPTAB,useSpark,methodWatcher,homeless,FormattedResult,ResultFactory,
IDENT_0,IDENT_1,IDENT_2,IDENT_3,IDENT_4,IDENT_5,IDENT_6,IDENT_7,IDENT_8,







" 100 | 3 | 55000 |293000 |\n","sum(salary) over (Partition by dept ORDER BY salary range between current row and unbounded following) ","from %s --SPLICE-PROPERTIES useSpark = %s \n order by dept, empnum","EMPNUM |DEPT |SALARY | 4 |\n","------------------------------\n"," 10 | 1 | 50000 |436000 |\n"," 40 | 2 | 52000 |157000 |\n"," 44 | 2 | 52000 |157000 |\n"," 49 | 2 | 53000 | 53000 |\n"," 120 | 3 | 75000 |238000 |",
STRING_0,STRING_1,STRING_2,STRING_3,STRING_4,STRING_5,STRING_6,STRING_7,STRING_8,STRING_9,

























