testRightTableScanStartKey,executeQuery,stepNext,
METHOD_0,METHOD_1,METHOD_2,

derby,joins,methodWatcher,
IDENT_0,IDENT_1,IDENT_2,







"select *\n","from --splice-properties joinOrder=fixed\n","tab1 --splice-properties index=tabi\n",", tab2 --splice-properties joinStrategy=MERGE\n","where tab1.a=1 and tab1.b=1 and tab1.c=tab2.b and tab2.a=1",
STRING_0,STRING_1,STRING_2,STRING_3,STRING_4,

























