testLeftOuterJoinBug976Compare,executeQuery,
METHOD_0,METHOD_1,

expectedColumns,expectedRows,methodWatcher,homeless,FormattedResult,ResultFactory,locale,messageFileName,resourceKey,enableLocalized,dateSize,timeSize,timestampSize,
IDENT_0,IDENT_1,IDENT_2,IDENT_3,IDENT_4,IDENT_5,IDENT_6,IDENT_7,IDENT_8,IDENT_9,IDENT_10,IDENT_11,IDENT_12,







"select * from JoinIT.A left outer join (JoinIT.B join JoinIT.C on b2=c2) on a1=b1","A1 A2 A3 A4 A5 A6 B1 B2 B3 B4 B5 B6 C1 C2 C3 C4 C5 C6","3 4 2 (null) (null) (null) 3 2 3 3 1 4 2 2 5 3 2 4","7 1 4 2 3 4 7 3 3 3 3 3 8 3 9 1 3 2","1 1 3 6 (null) 2 1 4 2 (null) (null) (null) 1 4 1 (null) (null) (null)","6 7 3 2 3 4 6 7 2 3 (null) 1 3 7 7 3 (null) 1","6 7 3 2 3 4 6 7 2 3 (null) 1 1 7 2 3 1 1","2 3 2 4 2 2 (null) (null) (null) (null) (null) (null) (null) (null) (null) (null) (null) (null)","8 8 8 8 8 8 (null) (null) (null) (null) (null) (null) (null) (null) (null) (null) (null) (null)","\\s+","toString(){\n","enableLocalized=","null","encode="," \n","dateSize=","timeSize=","timestampSize=","\n}",
STRING_0,STRING_1,STRING_2,STRING_3,STRING_4,STRING_5,STRING_6,STRING_7,STRING_8,STRING_9,STRING_10,STRING_11,STRING_12,STRING_13,STRING_14,STRING_15,STRING_16,STRING_17,STRING_18,

























