testExtractWeekDayDate,executeQuery,toStringUnsorted,
METHOD_0,METHOD_1,METHOD_2,

sqlText,derby,SpliceDateFunctionsIT,tableWatcherI,methodWatcher,homeless,FormattedResult,ResultFactory,
IDENT_0,IDENT_1,IDENT_2,IDENT_3,IDENT_4,IDENT_5,IDENT_6,IDENT_7,







"select d, EXTRACT(WEEKDAY FROM d) as \"WEEKDAY\" from "," order by d","D | WEEKDAY |\n","----------------------\n","2009-01-02 | 5 |\n","2009-07-02 | 4 |\n","2012-12-31 | 1 |\n","2013-12-31 | 2 |",
STRING_0,STRING_1,STRING_2,STRING_3,STRING_4,STRING_5,STRING_6,STRING_7,

























