testMonthNameTimestamp,executeQuery,toStringUnsorted,
METHOD_0,METHOD_1,METHOD_2,

sqlText,derby,SpliceDateFunctionsIT,tableWatcherI,methodWatcher,homeless,FormattedResult,ResultFactory,
IDENT_0,IDENT_1,IDENT_2,IDENT_3,IDENT_4,IDENT_5,IDENT_6,IDENT_7,







"select ts, MONTHNAME(ts) as \"MONTHNAME\" from "," order by ts","TS | MONTHNAME |\n","------------------------------------\n","2009-01-02 11:22:33.04 | January |\n","2009-07-02 11:22:33.04 | July |\n"," from ","2012-12-31 00:00:00.03 | December |\n"," 2012-12-31 20:38:40.0 | December |\n",
STRING_0,STRING_1,STRING_2,STRING_3,STRING_4,STRING_5,STRING_6,STRING_7,STRING_8,

























