testNegativeReal,Complex,getDecimalCharacter,
METHOD_0,METHOD_1,METHOD_2,

complex,Complex,complexFormat,arguments,
IDENT_0,IDENT_1,IDENT_2,IDENT_3,







"-1","2323232323 + 1","43i",
STRING_0,STRING_1,STRING_2,

1.232323232323,1.43,
FLOAT_0,FLOAT_1,






















