testNegativeX,Vector1D,getDecimalCharacter,
METHOD_0,METHOD_1,METHOD_2,

euclidean,oned,Vector1D,vector1DFormat,arguments,
IDENT_0,IDENT_1,IDENT_2,IDENT_3,IDENT_4,







"{-1","2323232323}",
STRING_0,STRING_1,

1.232323232323,
FLOAT_0,






















