testNoPoints,DiskGenerator,enclose,getRadius,
METHOD_0,METHOD_1,METHOD_2,METHOD_3,

euclidean,twod,DiskGenerator,enclosing,WelzlEncloser,Euclidean2D,Vector2D,encloser,EnclosingBall,ball,radius,
IDENT_0,IDENT_1,IDENT_2,IDENT_3,IDENT_4,IDENT_5,IDENT_6,IDENT_7,IDENT_8,IDENT_9,IDENT_10,










1.0E-10,
FLOAT_0,






















