testNan,Complex,
METHOD_0,METHOD_1,

complex,Complex,NaN,complexFormat,arguments,
IDENT_0,IDENT_1,IDENT_2,IDENT_3,IDENT_4,







"(NaN) + (NaN)i",
STRING_0,

























