testSubAndCheckErrorMessage,subAndCheck,
METHOD_0,METHOD_1,

big,ArithmeticUtils,MathArithmeticException,US,
IDENT_0,IDENT_1,IDENT_2,IDENT_3,







"Expecting MathArithmeticException",
STRING_0,

























