getIndexIdsShouldNotReturnNonNumericIds,getIndexIds,getIds,toInt32,
METHOD_0,METHOD_1,METHOD_2,METHOD_3,

ids,indices,int32Id,mozilla,ScriptRuntime,
IDENT_0,IDENT_1,IDENT_2,IDENT_3,IDENT_4,







"x",
STRING_0,

























