testIsTrue4,isTrue,
METHOD_0,METHOD_1,

Validate,US,
IDENT_0,IDENT_1,







"MSG","Expecting IllegalArgumentException",
STRING_0,STRING_1,

























