testArrayCreationWithGeneralReturnType,arraycopy,
METHOD_0,METHOD_1,

ArrayUtils,N,mozilla,ObjArray,FIELDS_STORE_SIZE,f4,f3,f2,f1,f0,
IDENT_0,IDENT_1,IDENT_2,IDENT_3,IDENT_4,IDENT_5,IDENT_6,IDENT_7,IDENT_8,IDENT_9,


































