testBasicQuoted6,StrTokenizer,setQuoteMatcher,quoteMatcher,
METHOD_0,METHOD_1,METHOD_2,METHOD_3,

StrTokenizer,tok,StrMatcher,edgeIterator,
IDENT_0,IDENT_1,IDENT_2,IDENT_3,







"a:\'b\'\"c\':d",':',"b\"c:d",
STRING_0,STRING_1,STRING_2,

























