testSetBitLittleEndian,StrictBitVector,setBit,
METHOD_0,METHOD_1,METHOD_2,

bitLen,bits,dk,alexandra,fresco,StrictBitVector,bv,ByteAndBitConverter,
IDENT_0,IDENT_1,IDENT_2,IDENT_3,IDENT_4,IDENT_5,IDENT_6,IDENT_7,

11,32,
INT_0,INT_1,































