setPath,HttpServerRequestWrapper,
METHOD_0,METHOD_1,

HttpServerRequest,HttpServerRequestWrapper,wrapper,HttpServerRequestUtils,
IDENT_0,IDENT_1,IDENT_2,IDENT_3,







"abc",
STRING_0,

























