testCreateSocketException,createSocket,wrapSocket,
METHOD_0,METHOD_1,METHOD_2,

validAssert,InetAddress,ssl,SSLSocket,sslSocketFactory,
IDENT_0,IDENT_1,IDENT_2,IDENT_3,IDENT_4,

8080,
INT_0,




"host",
STRING_0,

























