getBodyBytesLength,appendString,setBodyBuffer,
METHOD_0,METHOD_1,METHOD_2,

Buffer,bodyBuffer,responseEx,
IDENT_0,IDENT_1,IDENT_2,







"abc",
STRING_0,

























