on_exist,AtomicInteger,TcpRequest,incrementAndGet,onReply,
METHOD_0,METHOD_1,METHOD_2,METHOD_3,METHOD_4,

msgId,AtomicInteger,requestMap,servicecomb,foundation,tcp,ar,tcpClientConnection,
IDENT_0,IDENT_1,IDENT_2,IDENT_3,IDENT_4,IDENT_5,IDENT_6,IDENT_7,


































