getSubmittedFileName,Expectations,fileName,setSubmittedFileName,
METHOD_0,METHOD_1,METHOD_2,METHOD_3,

clientName,mockit,fileUpload,part,submittedFileName,
IDENT_0,IDENT_1,IDENT_2,IDENT_3,IDENT_4,







"clientName","abc",
STRING_0,STRING_1,

























