getHeaderNames,caseInsensitiveMultiMap,Expectations,enumeration,names,
METHOD_0,METHOD_1,METHOD_2,METHOD_3,METHOD_4,

MultiMap,mockit,clientResponse,vertxRequest,
IDENT_0,IDENT_1,IDENT_2,IDENT_3,







"n1","v1","n2","v2",
STRING_0,STRING_1,STRING_2,STRING_3,

























