testEqualsRealDifference,Complex,
METHOD_0,METHOD_1,

complex,Complex,MIN_VALUE,category,MinMaxCategoryRenderer,plotLines,PaintUtilities,groupPaint,groupStroke,
IDENT_0,IDENT_1,IDENT_2,IDENT_3,IDENT_4,IDENT_5,IDENT_6,IDENT_7,IDENT_8,


































