testScalarSubtract,Complex,subtract,uint64_gte,
METHOD_0,METHOD_1,METHOD_2,METHOD_3,

complex,Complex,yDouble,yComplex,mozilla,v8dtoa,DiyFp,
IDENT_0,IDENT_1,IDENT_2,IDENT_3,IDENT_4,IDENT_5,IDENT_6,










3.0,4.0,
FLOAT_0,FLOAT_1,

-=,
OP_0,



















