testDefaultFormatVector3D,getDefault,setDefault,getLocale,Vector3D,getDecimalCharacter,Vector3DFormat,FieldPosition,
METHOD_0,METHOD_1,METHOD_2,METHOD_3,METHOD_4,METHOD_5,METHOD_6,METHOD_7,

defaultLocal,euclidean,threed,Vector3D,
IDENT_0,IDENT_1,IDENT_2,IDENT_3,







"{232","22; -342","33; 432","44}",
STRING_0,STRING_1,STRING_2,STRING_3,

232.222,342.33,432.444,
FLOAT_0,FLOAT_1,FLOAT_2,






















