testScalarMultiply,Complex,multiply,
METHOD_0,METHOD_1,METHOD_2,

complex,Complex,yDouble,yComplex,mozilla,v8dtoa,DiyFp,kM32,bc,ad,bd,tmp,result_f,
IDENT_0,IDENT_1,IDENT_2,IDENT_3,IDENT_4,IDENT_5,IDENT_6,IDENT_7,IDENT_8,IDENT_9,IDENT_10,IDENT_11,IDENT_12,

4294967295L,32,31,64,
INT_0,INT_1,INT_2,INT_3,







3.0,4.0,
FLOAT_0,FLOAT_1,






















