testLinearCombination2,Well1024a,nextDouble,linearCombination,
METHOD_0,METHOD_1,METHOD_2,METHOD_3,

Well1024a,ux,uy,uz,vx,vy,vz,sInline,MathUtils,sArray,inria,astor,setup,RandomManager,randomNumberGenerator,
IDENT_0,IDENT_1,IDENT_2,IDENT_3,IDENT_4,IDENT_5,IDENT_6,IDENT_7,IDENT_8,IDENT_9,IDENT_10,IDENT_11,IDENT_12,IDENT_13,IDENT_14,

553267312521321234L,10000,
INT_0,INT_1,







1.0E17,
FLOAT_0,






















