testNegativeY,Vector3D,getDecimalCharacter,
METHOD_0,METHOD_1,METHOD_2,

Vector3D,vector3DFormat,arguments,
IDENT_0,IDENT_1,IDENT_2,







"{1","23; -1","43; 1","63}",
STRING_0,STRING_1,STRING_2,STRING_3,

1.2323,1.4343,1.6333,
FLOAT_0,FLOAT_1,FLOAT_2,






















