testToStringMethod,calcMsLatency,
METHOD_0,METHOD_1,

tps,msTotalTime,msMaxLatency,
IDENT_0,IDENT_1,IDENT_2,







"PerfInfo [tps=",", msTotalTime=",", msLatency=",", msMaxLatency=",
STRING_0,STRING_1,STRING_2,STRING_3,

























