keyword,smtlib,isSuccessful,
METHOD_0,METHOD_1,METHOD_2,

smtlib,IExpr,IKeyword,testCase,
IDENT_0,IDENT_1,IDENT_2,IDENT_3,







":asnfoain901f1_>","PASS","FAIL",
STRING_0,STRING_1,STRING_2,

























