test3_h_passing,NopolExample,h,
METHOD_0,METHOD_1,METHOD_2,

symbolic_examples,symbolic_example_11,NopolExample,resh,
IDENT_0,IDENT_1,IDENT_2,IDENT_3,













%,
OP_0,



















