_4,Tcas,is_upward_preferred,
METHOD_0,METHOD_1,METHOD_2,

inria,lille,tcas,bias,inhibit,down_sep,up_sep,
IDENT_0,IDENT_1,IDENT_2,IDENT_3,IDENT_4,IDENT_5,IDENT_6,

60,
INT_0,































