testInsert,getIndexUpdates,
METHOD_0,METHOD_1,

asyncdatastoreclient,Insert,QueryBuilder,MutationResult,indexUpdates,
IDENT_0,IDENT_1,IDENT_2,IDENT_3,IDENT_4,

1234567L,40,
INT_0,INT_1,




"employee","fullname","Fred Blinge","age",
STRING_0,STRING_1,STRING_2,STRING_3,

























