hasUri_shouldMatchPath,hasUri,RouteHasUri,
METHOD_0,METHOD_1,METHOD_2,

apollo,RouteMatchers,RouteMatchersTest,TEST_ROUTE,
IDENT_0,IDENT_1,IDENT_2,IDENT_3,







"/path",
STRING_0,

























