test1,NopolExample,abs,
METHOD_0,METHOD_1,METHOD_2,

symbolic_examples,symbolic_example_6,NopolExample,program,
IDENT_0,IDENT_1,IDENT_2,IDENT_3,


































