test2_f,NopolExample,
METHOD_0,METHOD_1,

symbolic_examples,symbolic_example_9,NopolExample,resf,
IDENT_0,IDENT_1,IDENT_2,IDENT_3,


































