testTimeout,LinkedBlockingQueue,publish,take,TimeoutException,succeed,complete,
METHOD_0,METHOD_1,METHOD_2,METHOD_3,METHOD_4,METHOD_5,METHOD_6,

LinkedBlockingQueue,pubsub,PubsubFuture,t1,t2,topics,m1,m2,CompletableFuture,f1,publisher,r1,f2,r2,id2,
IDENT_0,IDENT_1,IDENT_2,IDENT_3,IDENT_4,IDENT_5,IDENT_6,IDENT_7,IDENT_8,IDENT_9,IDENT_10,IDENT_11,IDENT_12,IDENT_13,IDENT_14,







"t1","t2","id2",
STRING_0,STRING_1,STRING_2,

























