testInsufficientPortsFail1,PortAllocator,allocate,allocate0,newHashSet,
METHOD_0,METHOD_1,METHOD_2,METHOD_3,METHOD_4,

helios,agent,PortAllocator,sut,descriptors,PortMapping,used,ImmutableSet,allocation,ports,Sets,
IDENT_0,IDENT_1,IDENT_2,IDENT_3,IDENT_4,IDENT_5,IDENT_6,IDENT_7,IDENT_8,IDENT_9,IDENT_10,

11,17,18,
INT_0,INT_1,INT_2,




"p1","p2",
STRING_0,STRING_1,

























