testGetInstance,setInstance,
METHOD_0,METHOD_1,

lObject,lPojoSchemaMeta,servicecomb,ParseConfigUtils,
IDENT_0,IDENT_1,IDENT_2,IDENT_3,


































