notReadyExitsTwenty,named,ofType,NotReady,AtomicInteger,runTask,waitAndExit,
METHOD_0,METHOD_1,METHOD_2,METHOD_3,METHOD_4,METHOD_5,METHOD_6,

flo,Task,AtomicInteger,FloRunner,supplier,
IDENT_0,IDENT_1,IDENT_2,IDENT_3,IDENT_4,




synchronized,
MOD_0,

"task",
STRING_0,

























