listHosts,mockResponse,hasPath,
METHOD_0,METHOD_1,METHOD_2,

hosts,helios,HeliosClientTest,
IDENT_0,IDENT_1,IDENT_2,







"foo1","foo2","foo3","GET","/hosts/",
STRING_0,STRING_1,STRING_2,STRING_3,STRING_4,

























