testLiteral,jsonArray,arrayNode,IsJsonArray,
METHOD_0,METHOD_1,METHOD_2,METHOD_3,

Matcher,JsonNode,sut,IsJsonArray,IsJsonArrayTest,NF,elementsMatcher,
IDENT_0,IDENT_1,IDENT_2,IDENT_3,IDENT_4,IDENT_5,IDENT_6,


































