testJobCreateCommandFailsWithInvalidJobId,runCommand,
METHOD_0,METHOD_1,

helios,JobCreateCommandTest,JOB_NAME,
IDENT_0,IDENT_1,IDENT_2,







"id","image","spotify/busybox:latest",
STRING_0,STRING_1,STRING_2,

























