shouldGetDerivingMetrics,getMetrics,getDerivingMeters,
METHOD_0,METHOD_1,METHOD_2,

SemanticMetricFilter,SortedMap,MetricId,DerivingMeter,
IDENT_0,IDENT_1,IDENT_2,IDENT_3,


































