testListJobExecutions,getJobExecutions,createJobExecution,listJobExecutions,
METHOD_0,METHOD_1,METHOD_2,METHOD_3,

jobExecutionDao,MetaDataInstanceFactory,
IDENT_0,IDENT_1,

123L,1234L,
INT_0,INT_1,































