testDeleteQuery,Party,removeByDescriptionOrName,
METHOD_0,METHOD_1,METHOD_2,

partyRepository,partyList,
IDENT_0,IDENT_1,







"testDeleteQuery","delete",
STRING_0,STRING_1,

























