testFinderFindByIdNonexistent,persistedPerson,findOne,createEntity,getById,
METHOD_0,METHOD_1,METHOD_2,METHOD_3,METHOD_4,

p2,personRepository,graphdb,NotFoundException,
IDENT_0,IDENT_1,IDENT_2,IDENT_3,

35,589736218L,
INT_0,INT_1,




"Michael",
STRING_0,

























