discoveryNotExist,emptyMap,discovery,getSize,
METHOD_0,METHOD_1,METHOD_2,METHOD_3,

transportName,part,
IDENT_0,IDENT_1,







"notExist",
STRING_0,

























