createsRole,Role,
METHOD_0,METHOD_1,

sample,Role,cdi,unqualifiedRepo,qualifiedRepo,
IDENT_0,IDENT_1,IDENT_2,IDENT_3,IDENT_4,







"ADMIN",
STRING_0,

























