returnOneFromCustomImpl,returnOne,
METHOD_0,METHOD_1,

cdi,RepositoryConsumer,repositoryConsumer,CdiExtensionIntegrationTests,samplePersonRepository,
IDENT_0,IDENT_1,IDENT_2,IDENT_3,IDENT_4,


































