testTwoTxs,closePipeline,
METHOD_0,METHOD_1,

barBytes,fooBytes,nativeConnection,foo,bar,
IDENT_0,IDENT_1,IDENT_2,IDENT_3,IDENT_4,


































