testSRandMemberCountNegative,sAdd,sRandMember,getResults,closePipeline,
METHOD_0,METHOD_1,METHOD_2,METHOD_3,METHOD_4,

txResults,
IDENT_0,







"myset",
STRING_0,

























