geoAddSingleGeoLocation,randomUUID,geoAdd,getResults,
METHOD_0,METHOD_1,METHOD_2,METHOD_3,

AbstractConnectionIntegrationTests,PALERMO,
IDENT_0,IDENT_1,







"geo-",
STRING_0,

























