wrongKeyspace,resolveIndexesFor,
METHOD_0,METHOD_1,

typeInformation,ClassTypeInformation,IndexedData,indexes,
IDENT_0,IDENT_1,IDENT_2,IDENT_3,


































