testGeoRemove,
METHOD_0,

K,keyFactory,M,member1,valueFactory,geoOperations,DefaultGeoOperationsTests,POINT_PALERMO,
IDENT_0,IDENT_1,IDENT_2,IDENT_3,IDENT_4,IDENT_5,IDENT_6,IDENT_7,


































