testGeoAdd,concat,
METHOD_0,METHOD_1,

numAdded,geoOperations,keyFactory,DefaultGeoOperationsTests,POINT_PALERMO,valueFactory,prefix,
IDENT_0,IDENT_1,IDENT_2,IDENT_3,IDENT_4,IDENT_5,IDENT_6,


































