normalReturnPassthrough,serviceMessage,
METHOD_0,METHOD_1,

endpoint,inMessage,outMessage,flex,messaging,advisedEndpoint,
IDENT_0,IDENT_1,IDENT_2,IDENT_3,IDENT_4,IDENT_5,


































