testClassifyNullIsDefault,classify,
METHOD_0,METHOD_1,

classify,ClassifierSupport,classifier,C,defaultValue,
IDENT_0,IDENT_1,IDENT_2,IDENT_3,IDENT_4,


































