runTests,runTest,getDn,findByDn,
METHOD_0,METHOD_1,METHOD_2,METHOD_3,

odm,createTestData,TestLdap,odmManager,ExecuteRunnable,RunnableTest,testData,naming,Name,dn,personEntry,ldapTemplate,
IDENT_0,IDENT_1,IDENT_2,IDENT_3,IDENT_4,IDENT_5,IDENT_6,IDENT_7,IDENT_8,IDENT_9,IDENT_10,IDENT_11,







"creating - %1$s","Created all, reading back","reading - %1$s","read - %1$s",
STRING_0,STRING_1,STRING_2,STRING_3,

























