testContext,setContext,getContext,addContext,
METHOD_0,METHOD_1,METHOD_2,METHOD_3,

requestHeader,invocation,restInvocation,
IDENT_0,IDENT_1,IDENT_2,







"key",
STRING_0,

























