testValueOfNullCode,valueOfTypeCode,isBlank,toUpperCase,
METHOD_0,METHOD_1,METHOD_2,METHOD_3,

typeCode,roo,DependencyType,JAR,TESTJAR,invalidCode,OTHER,
IDENT_0,IDENT_1,IDENT_2,IDENT_3,IDENT_4,IDENT_5,IDENT_6,







"test-jar",
STRING_0,

























