moveListElementToBeginningOfList_usingTilde,Todo,MoveOperation,perform,popValueAtPath,
METHOD_0,METHOD_1,METHOD_2,METHOD_3,METHOD_4,

Todo,todos,MoveOperation,move,
IDENT_0,IDENT_1,IDENT_2,IDENT_3,

3L,4L,2L,
INT_0,INT_1,INT_2,




"A","C","E","G","/1","/~",
STRING_0,STRING_1,STRING_2,STRING_3,STRING_4,STRING_5,

























