bubbleSortTest,ChihoonBubbleSort,sort,
METHOD_0,METHOD_1,METHOD_2,

chapter3,bubblesort,BubbleSort,bubble,swap,
IDENT_0,IDENT_1,IDENT_2,IDENT_3,IDENT_4,

31,48,73,11,29,65,
INT_0,INT_1,INT_2,INT_3,INT_4,INT_5,










--,
OP_0,



















