normalize_slashes,normalize,getCanonicalFile,toURI,endsWith,
METHOD_0,METHOD_1,METHOD_2,METHOD_3,METHOD_4,

cases,previous,normalized,ide,vscode,UriUtil,uriVal,
IDENT_0,IDENT_1,IDENT_2,IDENT_3,IDENT_4,IDENT_5,IDENT_6,







"file:/foo/bar","file:/foo/bar/","file:///foo/bar/","file:///foo/bar","file:",
STRING_0,STRING_1,STRING_2,STRING_3,STRING_4,

























