testImprovedSort2,JaegyuBubbleSort,improvedSort,swap,
METHOD_0,METHOD_1,METHOD_2,METHOD_3,

chapter3,bubblesort,JaegyuBubbleSort,bubbleSort,sorted,
IDENT_0,IDENT_1,IDENT_2,IDENT_3,IDENT_4,













--,
OP_0,



















