testGetSession_withValid,getSession,
METHOD_0,METHOD_1,

springuni,Session,sessionService,validSession,
IDENT_0,IDENT_1,IDENT_2,IDENT_3,


































