testInvertedTimestamp,TimestampGenerator,getInvertedTimestamp,getTimestamp,
METHOD_0,METHOD_1,METHOD_2,METHOD_3,

avrobase,TimestampGenerator,last,startms,timestamp,
IDENT_0,IDENT_1,IDENT_2,IDENT_3,IDENT_4,

100000,
INT_0,































