sortTest,rank,
METHOD_0,METHOD_1,

rank,rankingService,loop,scores,tempScore,maxIndex,ranks,
IDENT_0,IDENT_1,IDENT_2,IDENT_3,IDENT_4,IDENT_5,IDENT_6,

31,48,73,65,29,11,
INT_0,INT_1,INT_2,INT_3,INT_4,INT_5,










--,
OP_0,



















