copyToOnSegmentBoundary,repeat,Buffer,writeUtf8,copyTo,readUtf8,
METHOD_0,METHOD_1,METHOD_2,METHOD_3,METHOD_4,METHOD_5,

okio,TestUtil,SEGMENT_SIZE,bs,ds,Buffer,
IDENT_0,IDENT_1,IDENT_2,IDENT_3,IDENT_4,IDENT_5,







'a','b','c','d',
STRING_0,STRING_1,STRING_2,STRING_3,

























