readFromSpanningSegments,Buffer,writeUtf8,repeat,readFrom,readUtf8,fill,
METHOD_0,METHOD_1,METHOD_2,METHOD_3,METHOD_4,METHOD_5,METHOD_6,

kotlin,Charsets,okio,Buffer,TestUtil,SEGMENT_SIZE,
IDENT_0,IDENT_1,IDENT_2,IDENT_3,IDENT_4,IDENT_5,







"hello, world!",'a',
STRING_0,STRING_1,

























