testSimpleUTF8ECI,EnumMap,
METHOD_0,METHOD_1,

zxing,EncodeHintType,hints,CHARACTER_SET,qrcode,encoder,QRCode,qrCode,Encoder,ErrorCorrectionLevel,H,label,
IDENT_0,IDENT_1,IDENT_2,IDENT_3,IDENT_4,IDENT_5,IDENT_6,IDENT_7,IDENT_8,IDENT_9,IDENT_10,IDENT_11,







"UTF8"," mode: BYTE\n"," version: 1\n"," 1 1 1 1 1 1 1 0 0 0 0 1 0 1 0 0 1 0 1 0 0\n"," matrix:\n"," 1 0 1 1 1 0 1 0 0 1 1 0 0 0 1 0 1 1 1 0 1\n"," 0 0 0 0 0 0 0 0 0 1 1 1 1 0 0 0 0 0 0 0 0\n"," 0 1 1 0 0 1 1 0 0 1 1 1 0 1 1 1 1 1 1 1 1\n"," 1 0 1 1 1 0 1 0 1 1 1 1 0 1 0 0 1 0 1 1 0\n",">>\n",
STRING_0,STRING_1,STRING_2,STRING_3,STRING_4,STRING_5,STRING_6,STRING_7,STRING_8,STRING_9,

























