anArrayContainsByteArray,JSONArray,forName,hasBinary,_hasBinary,
METHOD_0,METHOD_1,METHOD_2,METHOD_3,METHOD_4,

JSONArray,charset,Charset,nkzawa,hasbinary,HasBinary,
IDENT_0,IDENT_1,IDENT_2,IDENT_3,IDENT_4,IDENT_5,







"[1, null, 2]","asdfasdf","UTF-8",
STRING_0,STRING_1,STRING_2,

























