anArrayThatDoesNotContainByteArray,JSONArray,hasBinary,_hasBinary,
METHOD_0,METHOD_1,METHOD_2,METHOD_3,

JSONArray,nkzawa,hasbinary,HasBinary,
IDENT_0,IDENT_1,IDENT_2,IDENT_3,







"[1, \"cool\", 2]",
STRING_0,

























