testOrdering,setState,randomOrdering,
METHOD_0,METHOD_1,METHOD_2,

squidpony,RNGFeatureTest,tar,ord1,rng,ord2,LanguageGenTest,PRINTING,StringKit,CharSequence,delimiter,
IDENT_0,IDENT_1,IDENT_2,IDENT_3,IDENT_4,IDENT_5,IDENT_6,IDENT_7,IDENT_8,IDENT_9,IDENT_10,

111L,64,
INT_0,INT_1,




", ",
STRING_0,

























