testNextLongException,compatibleNextLong,nextLong,
METHOD_0,METHOD_1,METHOD_2,

bound,threshold,bits,
IDENT_0,IDENT_1,IDENT_2,

9223372036854775807L,
INT_0,










%,
OP_0,



















