testGetNextSet5,Random,BitArray,nextInt,getSize,getNextSet,numberOfTrailingZeros,
METHOD_0,METHOD_1,METHOD_2,METHOD_3,METHOD_4,METHOD_5,METHOD_6,

Random,zxing,BitArray,numSet,numQueries,bitsOffset,currentBits,bits,
IDENT_0,IDENT_1,IDENT_2,IDENT_3,IDENT_4,IDENT_5,IDENT_6,IDENT_7,

559038737,32,31,
INT_0,INT_1,INT_2,










&=,~,
OP_0,OP_1,



















