testName,newBuilder,buildState,done,
METHOD_0,METHOD_1,METHOD_2,METHOD_3,

fooStateFSM,FSM,FSMBuilder,statefulj,fsm,FSMBuilderTest,FooState,
IDENT_0,IDENT_1,IDENT_2,IDENT_3,IDENT_4,IDENT_5,IDENT_6,







"FOOFSM","FOO",
STRING_0,STRING_1,

























