dupTest,intIfy,FPGrowth,getItemsetsWithSupportCount,getItems,
METHOD_0,METHOD_1,METHOD_2,METHOD_3,METHOD_4,

macrobase,summary,itemset,txns,FPGrowth,fp,ItemsetWithCount,itemsets,apil,Collectors,dupdetector,FPGrowthTest,
IDENT_0,IDENT_1,IDENT_2,IDENT_3,IDENT_4,IDENT_5,IDENT_6,IDENT_7,IDENT_8,IDENT_9,IDENT_10,IDENT_11,







"a, c, d","a, c, d, e","c","a, b, d","a, b, e, c","DUPLICATE FPTREE SET {}",
STRING_0,STRING_1,STRING_2,STRING_3,STRING_4,STRING_5,

0.01,
FLOAT_0,






















