expectSystemExit,checkAssertionAfterwards,Assertion,checkAssertion,exit,
METHOD_0,METHOD_1,METHOD_2,METHOD_3,METHOD_4,

exit,contrib,system,AppWithExit,
IDENT_0,IDENT_1,IDENT_2,IDENT_3,







"exit ...",
STRING_0,

























