propertyToWidgetIsInitiallyUntouched,bind,isTouched,booleanProperty,getProperties,
METHOD_0,METHOD_1,METHOD_2,METHOD_3,METHOD_4,

binder,box,tessell,DerivedValue,Property,all,
IDENT_0,IDENT_1,IDENT_2,IDENT_3,IDENT_4,IDENT_5,







"isTouched",
STRING_0,

























