onPropertyChange,DummyUiCommand,onChange,getExecutions,
METHOD_0,METHOD_1,METHOD_2,METHOD_3,

tessell,DummyUiCommand,binder,executions,
IDENT_0,IDENT_1,IDENT_2,IDENT_3,







"asdf",
STRING_0,

























