whenAlreadyTrueSetAnotherProperty,booleanProperty,integerProperty,
METHOD_0,METHOD_1,METHOD_2,

tessell,dsl,BooleanProperty,IntegerProperty,binder,DummyModel,
IDENT_0,IDENT_1,IDENT_2,IDENT_3,IDENT_4,IDENT_5,







"i",
STRING_0,

























