testReduce14,$invoke,$get,$array,reduce,f4,
METHOD_0,METHOD_1,METHOD_2,METHOD_3,METHOD_4,METHOD_5,

initialValue,stjs,functions,Function4,Array,callbackfn,prevVal,curVal,idx,JSCollections,Function2,V,f4,Functions,
IDENT_0,IDENT_1,IDENT_2,IDENT_3,IDENT_4,IDENT_5,IDENT_6,IDENT_7,IDENT_8,IDENT_9,IDENT_10,IDENT_11,IDENT_12,IDENT_13,







"five",
STRING_0,

5.5,
FLOAT_0,






















