testDefaultValue01,SuppressWarnings,DefaultValue,
METHOD_0,METHOD_1,METHOD_2,

stjs,JSAbstractOperations,arg,
IDENT_0,IDENT_1,IDENT_2,







"unused",
STRING_0,

























