testRemoveAddressPort,removeAddressPort,
METHOD_0,METHOD_1,

stringList,deep,adresNoPort,
IDENT_0,IDENT_1,IDENT_2,







"stratio1","stratio2","stratio3","stratio4","stratio1:2010","stratio2:2030","stratio3:2040",":",
STRING_0,STRING_1,STRING_2,STRING_3,STRING_4,STRING_5,STRING_6,STRING_7,

























