checkUrlHandlerFailure,configure,
METHOD_0,METHOD_1,

contextSource,ingestion,RestSourceTest,URL_HANDLER,DEFAULT_URL_HANDLER,
IDENT_0,IDENT_1,IDENT_2,IDENT_3,IDENT_4,







"urlHandler",
STRING_0,

























