testAsByte,createChar,asByte,InvalidCastException,
METHOD_0,METHOD_1,METHOD_2,METHOD_3,

tajo,datum,Datum,DatumFactory,
IDENT_0,IDENT_1,IDENT_2,IDENT_3,







" cannot be casted to BYTE type",
STRING_0,

























