testToPrimitive01,SuppressWarnings,ToPrimitive,
METHOD_0,METHOD_1,METHOD_2,

stjs,JSAbstractOperations,arg,
IDENT_0,IDENT_1,IDENT_2,







"unused","0","Number",
STRING_0,STRING_1,STRING_2,

























