testAddingOfSchema,DefaultMetadataStore,addSchema,getSchemas,
METHOD_0,METHOD_1,METHOD_2,METHOD_3,

hpi,isg,mdms,MetadataStore,store1,targets,schema1,Location,
IDENT_0,IDENT_1,IDENT_2,IDENT_3,IDENT_4,IDENT_5,IDENT_6,IDENT_7,







"pdb",
STRING_0,

























