testNormalizeHashtagOnlyWhitespace,normalizeTag,isBlank,
METHOD_0,METHOD_1,METHOD_2,

orig,normalized,streamreduce,HashtagUtil,
IDENT_0,IDENT_1,IDENT_2,IDENT_3,







'#',"#",
STRING_0,STRING_1,

























