testRetrieveTokenNullKey,retrieveToken,getIfPresent,
METHOD_0,METHOD_1,METHOD_2,

scribe,Token,retrievedToken,oAuthTokenCacheService,oauthToken,tokenCache,
IDENT_0,IDENT_1,IDENT_2,IDENT_3,IDENT_4,IDENT_5,


































