testUpgradeV1ToV2,Config,RemoteDownloadSourceUpgrader,upgrade,
METHOD_0,METHOD_1,METHOD_2,METHOD_3,

Config,configs,stage,origin,
IDENT_0,IDENT_1,IDENT_2,IDENT_3,







"conf.pollInterval","v",
STRING_0,STRING_1,

























