testClearCredentialValue,ClearCredentialValue,
METHOD_0,METHOD_1,

datacollector,credential,ClearCredentialValue,cv,
IDENT_0,IDENT_1,IDENT_2,IDENT_3,







"x",
STRING_0,

























