test_generateRandomIndividual,generateRandomIndividual,
METHOD_0,METHOD_1,

aima,local,Individual,individual,environment,nqueens,NQueensGenAlgoUtil,representation,
IDENT_0,IDENT_1,IDENT_2,IDENT_3,IDENT_4,IDENT_5,IDENT_6,IDENT_7,

40,
INT_0,































