testCompareTo2,FileFragment,newTreeSet,
METHOD_0,METHOD_1,METHOD_2,

num,tajo,fragment,FileFragment,tablets,SortedSet,sortedSet,Sets,frag,datum,TimeDatum,SIZE,
IDENT_0,IDENT_1,IDENT_2,IDENT_3,IDENT_4,IDENT_5,IDENT_6,IDENT_7,IDENT_8,IDENT_9,IDENT_10,IDENT_11,

1860,6553500,
INT_0,INT_1,




"tablet1_","tablet0",
STRING_0,STRING_1,




--,
OP_0,



















