writeHalfFraction,SWFEncoder,writeHalf,flush,
METHOD_0,METHOD_1,METHOD_2,METHOD_3,

flagstone,coder,SWFEncoder,encoder,diff,
IDENT_0,IDENT_1,IDENT_2,IDENT_3,IDENT_4,

85,53,
INT_0,INT_1,







0.33325195F,
FLOAT_0,






















