readUI32DoesNotSignExtend,LittleDecoder,readInt,fill,ArrayIndexOutOfBoundsException,
METHOD_0,METHOD_1,METHOD_2,METHOD_3,METHOD_4,

flagstone,coder,LittleDecoder,SWFDecoder,BYTE_MASK,TO_BYTE1,TO_BYTE2,TO_BYTE3,
IDENT_0,IDENT_1,IDENT_2,IDENT_3,IDENT_4,IDENT_5,IDENT_6,IDENT_7,













|=,
OP_0,



















