testGetClusterStatusXML,createUnmarshaller,unmarshal,getBody,
METHOD_0,METHOD_1,METHOD_2,METHOD_3,

TestStatusResource,MIMETYPE_XML,StorageClusterStatusModel,
IDENT_0,IDENT_1,IDENT_2,







"/status/cluster",
STRING_0,

























