failedUrlTest,go,getURL,getCurrentUrl,
METHOD_0,METHOD_1,METHOD_2,METHOD_3,

iface,testPlaygroundPage,onOffScreenPage,wd,
IDENT_0,IDENT_1,IDENT_2,IDENT_3,







"Getting URL ",
STRING_0,

























