testFindSetterWithMethodOfSameName,findSetter,isPrimitiveBoolean,
METHOD_0,METHOD_1,METHOD_2,

supercsv,ReflectionUtils,primitiveBoolean,
IDENT_0,IDENT_1,IDENT_2,







"primitiveBoolean",
STRING_0,

























