testRemove,PlaceholderSet,
METHOD_0,METHOD_1,

supaham,placeholders,PlaceholderSet,Placeholder,SimplePlaceholderTest,SIMPLE_PLACEHOLDER,
IDENT_0,IDENT_1,IDENT_2,IDENT_3,IDENT_4,IDENT_5,


































