testExpiration,ExpiringSet,
METHOD_0,METHOD_1,

supaham,ExpiringSet,strings,SECONDS,
IDENT_0,IDENT_1,IDENT_2,IDENT_3,

1001,
INT_0,




"Hi! :)",
STRING_0,

























