testUNC,sanitize,
METHOD_0,METHOD_1,

logic,SanitizingLogicTest,SanitizingLogic,check,AssertionError,
IDENT_0,IDENT_1,IDENT_2,IDENT_3,IDENT_4,







"testUNC","<p><a href=\"\\\\hoge\\data\" title=\"UNCPathLink\">UNCPathLink</a></p>","<p><a href=\"\\\\hoge\\data\" title=\"UNCPathLink\" rel=\"nofollow\">UNCPathLink</a></p>","Sanitize","[Base] : ","[Result] : ",
STRING_0,STRING_1,STRING_2,STRING_3,STRING_4,STRING_5,

























