testGetProjectByIdUser1_1,getProjectById,
METHOD_0,METHOD_1,

sw360,datahandler,thrift,projects,Project,project1,ProjectHandlerTest,user1,
IDENT_0,IDENT_1,IDENT_2,IDENT_3,IDENT_4,IDENT_5,IDENT_6,IDENT_7,







"P1",
STRING_0,

























