testAmp,markdownToHtml,getHtml,indent,
METHOD_0,METHOD_1,METHOD_2,METHOD_3,

markdown,knowledge,logic,MarkdownLogic,ENGINE_MARKEDJ,AssertionError,MarkdownLogicTest,SanitizingLogic,
IDENT_0,IDENT_1,IDENT_2,IDENT_3,IDENT_4,IDENT_5,IDENT_6,IDENT_7,







"```\n&read_data\n```","<pre><code class=\"hljs\">&amp;read_data\n</code></pre>\n","testMarkdJDel","[Markdown] : ","[Html] : ","[Parsed] : ","[Indent] : ",
STRING_0,STRING_1,STRING_2,STRING_3,STRING_4,STRING_5,STRING_6,

























