testShortToByteConversion,shortToBytes,bytesToShort,
METHOD_0,METHOD_1,METHOD_2,

symcpe,wraith,val2,
IDENT_0,IDENT_1,IDENT_2,

553,
INT_0,































