testSelect,isUnix,pipe,isLinux,isBSD,isSolaris,
METHOD_0,METHOD_1,METHOD_2,METHOD_3,METHOD_4,METHOD_5,

pachler,UnixTest,pipefds,Unix,readfds,selectresult,LinuxTest,BSDTest,SolarisTest,
IDENT_0,IDENT_1,IDENT_2,IDENT_3,IDENT_4,IDENT_5,IDENT_6,IDENT_7,IDENT_8,


































