deleteAlias,findRoomById,getAlias,
METHOD_0,METHOD_1,METHOD_2,

roomService,swarmcom,jsynapse,Room,room,alias,
IDENT_0,IDENT_1,IDENT_2,IDENT_3,IDENT_4,IDENT_5,







"abcdef0123456789:swarmcom.org","Room alias",
STRING_0,STRING_1,

























