testCreateAndSetSourceWorks,setSource,getSource,getStringAttr,
METHOD_0,METHOD_1,METHOD_2,METHOD_3,










"Some Page","source",
STRING_0,STRING_1,

























