testExtractURIprefix1,extractURIprefix,
METHOD_0,METHOD_1,

extractedPrefix,sbolstandard,core2,URIcompliance,uri8,URIstr,objURI,Matcher,genericURIpattern1bPat,
IDENT_0,IDENT_1,IDENT_2,IDENT_3,IDENT_4,IDENT_5,IDENT_6,IDENT_7,IDENT_8,


































