allLegalIdsMayBeUsed,createAtomWithProperties,setTitle,getAtomById,getTitle,
METHOD_0,METHOD_1,METHOD_2,METHOD_3,METHOD_4,

ids,fortytwo,smsn,brain,Atom,atom,topicGraph,title,
IDENT_0,IDENT_1,IDENT_2,IDENT_3,IDENT_4,IDENT_5,IDENT_6,IDENT_7,







"aaaaaaa","0000000","a1b2c3d","-------","_______","-_0-ad_","atom #",
STRING_0,STRING_1,STRING_2,STRING_3,STRING_4,STRING_5,STRING_6,

























