testCompareVerticalOverlapRectangle,Rectangle,
METHOD_0,METHOD_1,

technology,tabula,Rectangle,lower,upper,ILL_DEFINED_ORDER,
IDENT_0,IDENT_1,IDENT_2,IDENT_3,IDENT_4,IDENT_5,










5.0F,0.0F,10.0F,
FLOAT_0,FLOAT_1,FLOAT_2,






















