loadSvg,getWidth,getSizeForCurrentOS,
METHOD_0,METHOD_1,METHOD_2,

Image,tray,ImageLoader,actualWidth,osName,
IDENT_0,IDENT_1,IDENT_2,IDENT_3,IDENT_4,

24,
INT_0,




"sample.svg","os.name","windows",
STRING_0,STRING_1,STRING_2,

























