test21,getByCode,canonicalize,getByEnumName,
METHOD_0,METHOD_1,METHOD_2,METHOD_3,

language,neovisionaries,i18n,LanguageCode,caseSensitive,country,CountryCode,LocaleCode,undefined,
IDENT_0,IDENT_1,IDENT_2,IDENT_3,IDENT_4,IDENT_5,IDENT_6,IDENT_7,IDENT_8,







"undefined","UNDEFINED","_",
STRING_0,STRING_1,STRING_2,

























