test_unset_2,FastBitSet,pow,unset,getTermId,
METHOD_0,METHOD_1,METHOD_2,METHOD_3,METHOD_4,

trie4j,FastBitSet,bs,trie,
IDENT_0,IDENT_1,IDENT_2,IDENT_3,


































