test_next0_4,append1,append0,next0,
METHOD_0,METHOD_1,METHOD_2,METHOD_3,

trie4j,bv,SuccinctBitVector,node3pos,node1pos,node2pos,UnsafeBytesSuccinctBitVector,BITPOS0,poss,
IDENT_0,IDENT_1,IDENT_2,IDENT_3,IDENT_4,IDENT_5,IDENT_6,IDENT_7,IDENT_8,

130,
INT_0,










%,
OP_0,



















