testGetEntitiesNoIssues,Search,getEntities,
METHOD_0,METHOD_1,METHOD_2,

noIssuesJson,jira,datum,Search,tokenName,
IDENT_0,IDENT_1,IDENT_2,IDENT_3,IDENT_4,







"{\"startAt\":0,\"maxResults\":2,\"total\":1,\"issues\":[]}",
STRING_0,

























