getRuntimeInfo,SimpleRuntimeInfo,getClassLoader,
METHOD_0,METHOD_1,METHOD_2,

daikon,RuntimeInfo,runtimeInfo,definition,MockDatastoreProperties,runtimeClass,
IDENT_0,IDENT_1,IDENT_2,IDENT_3,IDENT_4,IDENT_5,


































