testGetHttpStatus,MarkLogicErrorCode,getHttpStatus,
METHOD_0,METHOD_1,METHOD_2,

someHttpStatus,errorCode,marklogic,httpStatus,
IDENT_0,IDENT_1,IDENT_2,IDENT_3,







"some code","some entry",
STRING_0,STRING_1,

























