testToString,getDbmsTypes,
METHOD_0,METHOD_1,

st,product,label,defaultDbmsType,
IDENT_0,IDENT_1,IDENT_2,IDENT_3,







"SyncStatus{id=1, marketoGUID='null', seq=null, status='status', reasons=[], errorMessage='null'}","Dbms[","product = ",", id = ",", label = ",", defaultDbmsType = ",", dbmsTypes = ",
STRING_0,STRING_1,STRING_2,STRING_3,STRING_4,STRING_5,STRING_6,

























