testGetRuntimeClassName,JarRuntimeInfo,getRuntimeClassName,
METHOD_0,METHOD_1,METHOD_2,

JarRuntimeInfo,jarRuntimeInfo,salesforce,SalesforceSourceOrSink,
IDENT_0,IDENT_1,IDENT_2,IDENT_3,


































