shouldGetStepThatWasAdded,Step,getVersionId,
METHOD_0,METHOD_1,METHOD_2,

dataprep,preparation,Step,ROOT_STEP,versionService,
IDENT_0,IDENT_1,IDENT_2,IDENT_3,IDENT_4,







"684fdqs638",
STRING_0,

























