splitFolderTestEmptyFEmptyFL,splitFolder,
METHOD_0,METHOD_1,

dataprep,qa,Folder,folderUtil,emptyPathF,emptyFList,title,severity,
IDENT_0,IDENT_1,IDENT_2,IDENT_3,IDENT_4,IDENT_5,IDENT_6,IDENT_7,


































