sampleWithNegativeSize,createCSVDataSet,requestDataSetSample,getNumberOfRecords,readTree,
METHOD_0,METHOD_1,METHOD_2,METHOD_3,METHOD_4,

dataSetId,dataprep,T_SHIRT_100_CSV,sample,JsonNode,rootNode,
IDENT_0,IDENT_1,IDENT_2,IDENT_3,IDENT_4,IDENT_5,







"ds-4","-1","records",
STRING_0,STRING_1,STRING_2,

























