testConvertToAvroDouble,BigDecimalStringDoubleConverter,convertToAvro,
METHOD_0,METHOD_1,METHOD_2,

daikon,AvroConverter,codegen,
IDENT_0,IDENT_1,IDENT_2,







"123456.78901234",
STRING_0,

123456.78901234,
FLOAT_0,






















