testJaccardCompare2,JaccardCompare,
METHOD_0,METHOD_1,

EXPECT,inputStr,outputStr,Jaccard,left,right,res1,leftLength,rightLength,unionSet,unionFilled,intersection,leftIndex,rightIndex,wordLength,weight,
IDENT_0,IDENT_1,IDENT_2,IDENT_3,IDENT_4,IDENT_5,IDENT_6,IDENT_7,IDENT_8,IDENT_9,IDENT_10,IDENT_11,IDENT_12,IDENT_13,IDENT_14,IDENT_15,







"account","account status c","\\s+",
STRING_0,STRING_1,STRING_2,

0.9357849740192014,
FLOAT_0,






















