testConvertToAvro,ByteIntegerConverter,convertToAvro,
METHOD_0,METHOD_1,METHOD_2,

daikon,AvroConverter,Byte,codegen,
IDENT_0,IDENT_1,IDENT_2,IDENT_3,

123,
INT_0,































