testConvertToAvroZero,DateLogicalDateConverter,convertToAvro,
METHOD_0,METHOD_1,METHOD_2,

daikon,AvroConverter,codegen,
IDENT_0,IDENT_1,IDENT_2,

10L,
INT_0,































