testConvertToDatum,ShortIntegerConverter,convertToDatum,
METHOD_0,METHOD_1,METHOD_2,

daikon,AvroConverter,Short,codegen,
IDENT_0,IDENT_1,IDENT_2,IDENT_3,

12345,
INT_0,































