testConvertToDatum,CharStringConverter,convertToDatum,
METHOD_0,METHOD_1,METHOD_2,

daikon,AvroConverter,Character,codegen,
IDENT_0,IDENT_1,IDENT_2,IDENT_3,







's',"s",
STRING_0,STRING_1,

























