testConvertToDatumDouble,convertToDatum,
METHOD_0,METHOD_1,

daikon,AvroConverter,codegen,IdentityConverter,
IDENT_0,IDENT_1,IDENT_2,IDENT_3,










1234.5678,
FLOAT_0,






















