testGetDbmsName,getMysqlDbmsLanguage,getDbmsName,
METHOD_0,METHOD_1,METHOD_2,

dq,dbms,DbmsLanguage,dbmsName,
IDENT_0,IDENT_1,IDENT_2,IDENT_3,


































