testAppendObjectWhereDefaultUsedAsReferenceIsNull,getActionMemento,getNameParmsId,getNumber,
METHOD_0,METHOD_1,METHOD_2,METHOD_3,

t1,
IDENT_0,







"none","#",
STRING_0,STRING_1,

























