testGetAverageLengthWithNullRows,getMysqlDbmsLanguage,getAverageLengthWithNullRows,isNotBlank,
METHOD_0,METHOD_1,METHOD_2,METHOD_3,

dq,dbms,DbmsLanguage,whereExpress,
IDENT_0,IDENT_1,IDENT_2,IDENT_3,







"WHERE(<%=__COLUMN_NAMES__%> IS NULL OR ","<%=__COLUMN_NAMES__%>",")","SELECT t.* FROM(SELECT ","CAST(SUM(LENGTH(<%=__COLUMN_NAMES__%>)) / (COUNT(<%=__COLUMN_NAMES__%> )*1.00)+0.99 as int) c,","CAST(SUM(LENGTH(<%=__COLUMN_NAMES__%>)) / (COUNT(<%=__COLUMN_NAMES__%>)*1.00) as int) f ","FROM <%=__TABLE_NAME__%> ",") e, <%=__TABLE_NAME__%> t "," AND LENGTH(<%=__COLUMN_NAMES__%>) BETWEEN f AND c",
STRING_0,STRING_1,STRING_2,STRING_3,STRING_4,STRING_5,STRING_6,STRING_7,STRING_8,

























