testNegative1,ContainerRequestContextTest,isAborted,
METHOD_0,METHOD_1,METHOD_2,

esb,oidc,OidcAccessTokenValidatorTest,ContainerRequestContextTest,aborted,
IDENT_0,IDENT_1,IDENT_2,IDENT_3,IDENT_4,


































