getVersion,nodeExists,getContent,getData,
METHOD_0,METHOD_1,METHOD_2,METHOD_3,

rootNode,esb,servicelocator,zk,RootNodeImplTest,V_5_2_0,
IDENT_0,IDENT_1,IDENT_2,IDENT_3,IDENT_4,IDENT_5,


































