testIsEqualTo,Money,isEqualTo,
METHOD_0,METHOD_1,METHOD_2,

isis,applib,Money,m1,m2,Color,number,color,
IDENT_0,IDENT_1,IDENT_2,IDENT_3,IDENT_4,IDENT_5,IDENT_6,IDENT_7,







"pds",
STRING_0,

























