testSetDescription,TestClass,setDescription,getDescription,
METHOD_0,METHOD_1,METHOD_2,METHOD_3,

world,bentobox,addons,AddonTest,TestClass,AddonDescription,desc,
IDENT_0,IDENT_1,IDENT_2,IDENT_3,IDENT_4,IDENT_5,IDENT_6,







"main","1.0",
STRING_0,STRING_1,

























