testName,PanelItemBuilder,
METHOD_0,METHOD_1,

world,bentobox,panels,builders,PanelItemBuilder,PanelItem,
IDENT_0,IDENT_1,IDENT_2,IDENT_3,IDENT_4,IDENT_5,


































