shouldFind,lastIndexOf,FileResourceStream,
METHOD_0,METHOD_1,METHOD_2,

rrm,ehour,importDao,propertyName,translationsDir,wicket,
IDENT_0,IDENT_1,IDENT_2,IDENT_3,IDENT_4,IDENT_5,


































