shouldFindAllActiveUsersWithEmailSet,findAllActiveUsersWithEmailSet,
METHOD_0,METHOD_1,

rrm,ehour,userDao,
IDENT_0,IDENT_1,IDENT_2,


































