shouldFindAllActive,findAllActive,
METHOD_0,METHOD_1,

rrm,ehour,Project,projectDAO,joinTables,
IDENT_0,IDENT_1,IDENT_2,IDENT_3,IDENT_4,


































