shouldProvideDdlFile,setDdlFileName,ddlFileName,
METHOD_0,METHOD_1,METHOD_2,

importer,designer,ddl,DdlImporterTest,TEST_DDL_FILE,
IDENT_0,IDENT_1,IDENT_2,IDENT_3,IDENT_4,


































