testNextElement,TeiidURL,getHostInfo,
METHOD_0,METHOD_1,METHOD_2,

TeiidURL,
IDENT_0,







"mm://localhost:31000,localhost:31001",
STRING_0,

























