testCloseArguments,AssertionError,byteLength,
METHOD_0,METHOD_1,METHOD_2,

baos,bais,ObjectConverterUtil,
IDENT_0,IDENT_1,IDENT_2,


































