testCaseSensitive,MyBean,setBeanProperties,getVal,
METHOD_0,METHOD_1,METHOD_2,METHOD_3,

TestPropertiesUtils,MyBean,PropertiesUtils,
IDENT_0,IDENT_1,IDENT_2,







"org.teiid.val","100","org.teiid",
STRING_0,STRING_1,STRING_2,

























