testNext1,getBatchResults,createEmptyBatch,checkClosed,
METHOD_0,METHOD_1,METHOD_2,METHOD_3,

BatchResults,batchResults,
IDENT_0,IDENT_1,


































