testExecutionWarning,helpExecuteUpdate,getWarnings,
METHOD_0,METHOD_1,METHOD_2,

dqp,AtomicResultsMessage,warnings,
IDENT_0,IDENT_1,IDENT_2,


































