testHasRole,helpExecute,getResultsList,
METHOD_0,METHOD_1,METHOD_2,

userName,ResultsMessage,rm,
IDENT_0,IDENT_1,IDENT_2,







"SELECT hasRole('foo')","logon",
STRING_0,STRING_1,

























