testEncodeDynamoDBUpperCase,getTestTraceHead,encodeDynamoDB,toHexString,
METHOD_0,METHOD_1,METHOD_2,METHOD_3,

telefonica,cygnus,CommonUtilsForTests,NGSICharsets,AssertionError,next4,hex,
IDENT_0,IDENT_1,IDENT_2,IDENT_3,IDENT_4,IDENT_5,IDENT_6,

65,90,97,119,121,122,48,57,
INT_0,INT_1,INT_2,INT_3,INT_4,INT_5,INT_6,INT_7,




"[NGSICharsets.encodeDynamoDB]","-------- Upper case not accented characters are not encoded","ABCDEFGHIJKLMNOPQRSTUVWXYZ","- OK - '","' has not been encoded","- FAIL - '","' has been encoded as '","'",'x',"WXYZ","^[0-9a-fA-F]{4}$","xx",'_','-','.','=',"xffff","x","0000",
STRING_0,STRING_1,STRING_2,STRING_3,STRING_4,STRING_5,STRING_6,STRING_7,STRING_8,STRING_9,STRING_10,STRING_11,STRING_12,STRING_13,STRING_14,STRING_15,STRING_16,STRING_17,STRING_18,

























