testEmptyClears,parseTextEntry,mustHaveEntry,InvalidEntryException,doParse,
METHOD_0,METHOD_1,METHOD_2,METHOD_3,METHOD_4,

isis,metamodel,facets,parseable,
IDENT_0,IDENT_1,IDENT_2,IDENT_3,







"An entry is required",
STRING_0,

























