uniFlowPingOutputTest,UniFlowPingOutput,pass,readValue,writeValueAsString,
METHOD_0,METHOD_1,METHOD_2,METHOD_3,METHOD_4,

openkilda,northbound,flows,UniFlowPingOutput,
IDENT_0,IDENT_1,IDENT_2,IDENT_3,







"err-test",
STRING_0,

























