testEquals_different_codepoints,CodePoints,
METHOD_0,METHOD_1,

terasoluna,gfw,codepoints,CodePoints,cp1,cp2,
IDENT_0,IDENT_1,IDENT_2,IDENT_3,IDENT_4,IDENT_5,







"abcd","ABCD",
STRING_0,STRING_1,

























