testH11,h,htmlEscape,
METHOD_0,METHOD_1,METHOD_2,

terasoluna,gfw,Functions,HtmlEscapeUtils,
IDENT_0,IDENT_1,IDENT_2,IDENT_3,







"ABC",
STRING_0,

1.1,
FLOAT_0,






















