testProcessAction02,processAction,
METHOD_0,METHOD_1,

requestDataValueProcessorAdaptor,HttpServletRequest,
IDENT_0,IDENT_1,







"action","method",
STRING_0,STRING_1,

























