testIsEmptyValueNotNull,
METHOD_0,

terasoluna,gfw,constraintvalidators,ConstraintValidatorsUtils,
IDENT_0,IDENT_1,IDENT_2,IDENT_3,


































