neverExpires,ReconnectionLease,isExpired,
METHOD_0,METHOD_1,METHOD_2,

terracotta,lease,ReconnectionLease,
IDENT_0,IDENT_1,IDENT_2,


































