testBytes2Boolean,boolean2Bytes,bytes2Boolean,
METHOD_0,METHOD_1,METHOD_2,

testBoolean,convertedBoolean,Conversion,
IDENT_0,IDENT_1,IDENT_2,


































