testBsonObjectEquality2,BsonObject,BsonArray,
METHOD_0,METHOD_1,METHOD_2,

mewbase,BsonObject,obj1,BsonValue,obj2,iter,
IDENT_0,IDENT_1,IDENT_2,IDENT_3,IDENT_4,IDENT_5,







"arr","x",
STRING_0,STRING_1,

























