testBlankLinesInMarkupTable_ShouldBeIgnoredDuringParsing,Tables,Doc,isBlank,addChild,firstChild,
METHOD_0,METHOD_1,METHOD_2,METHOD_3,METHOD_4,METHOD_5,

novatec,testit,livingdoc,Tables,blankLinesInMarkupTable,markup,Doc,tables,rows,Rows,
IDENT_0,IDENT_1,IDENT_2,IDENT_3,IDENT_4,IDENT_5,IDENT_6,IDENT_7,IDENT_8,IDENT_9,







"\n\n[ 1 ][ 2 ][ 3 ]\n\n[ 4 ][ 5 ][ 6 ]\n[ 7 ][ 8 ][ 9 ]\n\n****\n\n[ 1 ][ 2 ][ 3 ]\n[ 4 ][ 5 ][ 6 ]\n[ 7 ][ 8 ][ 9 ]\n\n","\\*{4}",
STRING_0,STRING_1,

























