setGetWorkDir,WorkDir,CliContext,getWorkDir,
METHOD_0,METHOD_1,METHOD_2,METHOD_3,

fi,helsinki,tmc,WorkDir,workDir,CliContext,
IDENT_0,IDENT_1,IDENT_2,IDENT_3,IDENT_4,IDENT_5,


































