getCourseInfo,mockStatic,getConfigFile,errorln,
METHOD_0,METHOD_1,METHOD_2,METHOD_3,

fi,helsinki,tmc,CourseInfoIo,WorkDir,workDir,courseInfo,
IDENT_0,IDENT_1,IDENT_2,IDENT_3,IDENT_4,IDENT_5,IDENT_6,







"Course configuration file ","is invalid.",
STRING_0,STRING_1,

























