testHashcode,CRBlacklistComposite,
METHOD_0,METHOD_1,

tech,embeddedIds,CRBlacklistComposite,CRB2,CRB,userid,tmstamp,
IDENT_0,IDENT_1,IDENT_2,IDENT_3,IDENT_4,IDENT_5,IDENT_6,

2L,32,31,
INT_0,INT_1,INT_2,










^,
OP_0,



















