testLogin,loginValidUser,submitCredentials,HomePage,getDriver,
METHOD_0,METHOD_1,METHOD_2,METHOD_3,METHOD_4,

bbsrc,tgac,miso,webapp,integrationtest,HomePage,homepage,username,password,
IDENT_0,IDENT_1,IDENT_2,IDENT_3,IDENT_4,IDENT_5,IDENT_6,IDENT_7,IDENT_8,







"admin",
STRING_0,

























