testGetSampleProjects,getSampleProjects,
METHOD_0,METHOD_1,

on,oicr,pinery,SampleProject,projects,sut,
IDENT_0,IDENT_1,IDENT_2,IDENT_3,IDENT_4,IDENT_5,


































