testSave,setAlias,getAlias,
METHOD_0,METHOD_1,METHOD_2,

testAlias,savedProjectId,projectDAO,bbsrc,tgac,miso,Project,savedProject,alias,
IDENT_0,IDENT_1,IDENT_2,IDENT_3,IDENT_4,IDENT_5,IDENT_6,IDENT_7,IDENT_8,







"test alias",
STRING_0,

























