testParseSeedHost,parseSeedHosts,newHashSet,parseSeedHost,toSet,
METHOD_0,METHOD_1,METHOD_2,METHOD_3,METHOD_4,

seedHostStringList,seedHostSet,cassandrareaper,ClusterResource,seedHostExpectedSet,Sets,seedHost,Collectors,
IDENT_0,IDENT_1,IDENT_2,IDENT_3,IDENT_4,IDENT_5,IDENT_6,IDENT_7,







"127.0.0.1 , 127.0.0.2, 127.0.0.3","127.0.0.2","127.0.0.1","127.0.0.3",",",
STRING_0,STRING_1,STRING_2,STRING_3,STRING_4,

























