testSendNoRetry_invalidHttpStatusCode,setResponseExpectations,sendNoRetry,getHttpStatusCode,
METHOD_0,METHOD_1,METHOD_2,METHOD_3,

sender,regId,gcm,InvalidRequestException,
IDENT_0,IDENT_1,IDENT_2,IDENT_3,

108,
INT_0,




"id=4815162342",
STRING_0,

























