testGetGroupColumnSizes,getGroupColumnSizes,getColumnSizes,
METHOD_0,METHOD_1,METHOD_2,

bbsrc,tgac,miso,sqlstore,DbUtils,HibernateSecurityDao,GROUP_TABLE_NAME,
IDENT_0,IDENT_1,IDENT_2,IDENT_3,IDENT_4,IDENT_5,IDENT_6,


































