test003_samePattern,compile,getOriginalGrokPattern,
METHOD_0,METHOD_1,METHOD_2,

krakens,grok,Grok,originalGrokPattern,
IDENT_0,IDENT_1,IDENT_2,IDENT_3,







"Hello World",
STRING_0,

























