testFindByTenantIdAndBundleAliasAndAlias,fromString,findByTenantIdBundleAliasAndAlias,
METHOD_0,METHOD_1,METHOD_2,

tenantId,thingsboard,widget,WidgetType,widgetType,widgetTypeDao,
IDENT_0,IDENT_1,IDENT_2,IDENT_3,IDENT_4,IDENT_5,







"2b7e4c90-2dfe-11e7-94aa-f7f6dbfb4833","BUNDLE_ALIAS_1","ALIAS3","2b7e4c93-2dfe-11e7-94aa-f7f6dbfb4833",
STRING_0,STRING_1,STRING_2,STRING_3,

























