testSetAndGetParallel,AtomicInteger,
METHOD_0,METHOD_1,

AtomicInteger,atomicInteger,threadA,threadB,
IDENT_0,IDENT_1,IDENT_2,IDENT_3,


































