executeOnceTest,TestRunnable,ExecuteOnGetFutureTask,ranOnce,
METHOD_0,METHOD_1,METHOD_2,METHOD_3,

threadly,TestRunnable,tr,ExecuteOnGetFutureTask,geft,runCount,
IDENT_0,IDENT_1,IDENT_2,IDENT_3,IDENT_4,IDENT_5,


































