startWithoutExecutorTest,blockForProfilerSample,isRunning,
METHOD_0,METHOD_1,METHOD_2,

profiler,pStore,collectorThread,
IDENT_0,IDENT_1,IDENT_2,


































