testSignalToSlot,emit,notifyEmit,
METHOD_0,METHOD_1,METHOD_2,

react,Signal,signal,SignalTest,AccSlot,slot,
IDENT_0,IDENT_1,IDENT_2,IDENT_3,IDENT_4,IDENT_5,


































