test_now_clock,atStartOfDay,toInstant,fixed,system,
METHOD_0,METHOD_1,METHOD_2,METHOD_3,METHOD_4,

Instant,instant,LocalDate,threeten,extra,TestDayOfMonth,PARIS,Clock,clock,ZoneId,DayOfMonth,zone,
IDENT_0,IDENT_1,IDENT_2,IDENT_3,IDENT_4,IDENT_5,IDENT_6,IDENT_7,IDENT_8,IDENT_9,IDENT_10,IDENT_11,

31,2008,
INT_0,INT_1,































