staticPerfomanceTest,PageModel,ButtonModel,getDomContent,
METHOD_0,METHOD_1,METHOD_2,METHOD_3,

j2html,PageModel,pageModel,stringBuilder,
IDENT_0,IDENT_1,IDENT_2,IDENT_3,







"Browsertitle","Hello World!","Action!",
STRING_0,STRING_1,STRING_2,

























