requestWhenValidShouldUpdateCompressionCount,enqueuShrink,compressionCount,
METHOD_0,METHOD_1,METHOD_2,

Client,POST,tinify,Tinify,
IDENT_0,IDENT_1,IDENT_2,IDENT_3,







"/shrink",
STRING_0,

























