testLookupCutOffTrue,DummySymbolNode,cons,branch,lookup,
METHOD_0,METHOD_1,METHOD_2,METHOD_3,METHOD_4,

tlc2,ContextTest,DummySymbolNode,ctx1,Empty,branch,ctx2,ctx3,tla2sany,semantic,SymbolNode,cur,var,cutoff,
IDENT_0,IDENT_1,IDENT_2,IDENT_3,IDENT_4,IDENT_5,IDENT_6,IDENT_7,IDENT_8,IDENT_9,IDENT_10,IDENT_11,IDENT_12,IDENT_13,







"ctx1","value1","ctx2","value2","ctx3","value3",
STRING_0,STRING_1,STRING_2,STRING_3,STRING_4,STRING_5,

























