testBasic1,LongArray,sort,getInRecursive,
METHOD_0,METHOD_1,METHOD_2,METHOD_3,

tlc2,tool,fp,LongArray,LongArrays,V,tla2sany,semantic,OpDefNode,odn,stack,
IDENT_0,IDENT_1,IDENT_2,IDENT_3,IDENT_4,IDENT_5,IDENT_6,IDENT_7,IDENT_8,IDENT_9,IDENT_10,

5L,8L,7L,3L,
INT_0,INT_1,INT_2,INT_3,































