testOneElement,subList,getLevel,getWhen,
METHOD_0,METHOD_1,METHOD_2,METHOD_3,

sep,
IDENT_0,







"value=",", level=",", when=",
STRING_0,STRING_1,STRING_2,

























