testUninstall,getUI,install,uninstall,
METHOD_0,METHOD_1,METHOD_2,METHOD_3,

defaultUiClass,txt,wrapper,jdesktop,swingx,plaf,MonthViewUI,
IDENT_0,IDENT_1,IDENT_2,IDENT_3,IDENT_4,IDENT_5,IDENT_6,


































