shouldInstrumentLoopWithContinueLabel,instrumentSource,
METHOD_0,METHOD_1,

instrumentedSource,sourceProcessor,expectedSource,
IDENT_0,IDENT_1,IDENT_2,







"labelmark:\n","for( x=0; x<5; x++) {\n"," if (x)\n"," continue labelmark;\n","}\n","_$jscoverage[\'test.js\'].lineData[1]++;\n","labelmark: for (x = 0; x < 5; x++) {\n"," _$jscoverage[\'test.js\'].lineData[3]++;\n"," if (x) {\n"," }\n",
STRING_0,STRING_1,STRING_2,STRING_3,STRING_4,STRING_5,STRING_6,STRING_7,STRING_8,STRING_9,

























