shouldInstrumentSwitchWithIfParent,instrumentSource,
METHOD_0,METHOD_1,

instrumentedSource,sourceProcessor,expectedSource,
IDENT_0,IDENT_1,IDENT_2,







"if ( i > 0 )\n"," case 1:\n"," case 1: break;\n","}\n","_$jscoverage[\'test.js\'].lineData[1]++;\n","if (i > 0) {\n"," _$jscoverage[\'test.js\'].lineData[2]++;\n"," _$jscoverage[\'test.js\'].lineData[3]++;\n"," break;\n"," }\n",
STRING_0,STRING_1,STRING_2,STRING_3,STRING_4,STRING_5,STRING_6,STRING_7,STRING_8,STRING_9,

























