shouldInstrumentES6ClassConstructor,instrumentSource,
METHOD_0,METHOD_1,

instrumentedSource,sourceProcessor,expectedSource,
IDENT_0,IDENT_1,IDENT_2,







"class Rectangle {\n"," this.height = height;\n"," this.width = width;\n"," }\n","}","_$jscoverage[\'test.js\'].lineData[1]++;\n"," _$jscoverage[\'test.js\'].functionData[0]++;\n"," _$jscoverage[\'test.js\'].lineData[3]++;\n"," _$jscoverage[\'test.js\'].lineData[4]++;\n","}\n",
STRING_0,STRING_1,STRING_2,STRING_3,STRING_4,STRING_5,STRING_6,STRING_7,STRING_8,STRING_9,

























