testModelRowCountAfterRemoveNotSorted,getModelRowCount,getModel,removeRows,
METHOD_0,METHOD_1,METHOD_2,METHOD_3,

rows,jdesktop,AncientSwingTeam,
IDENT_0,IDENT_1,IDENT_2,


































