shouldGetSourceFile,getSrcFile,
METHOD_0,METHOD_1,

jscover,stdout,ConfigurationForStdOut,srcFile,
IDENT_0,IDENT_1,IDENT_2,IDENT_3,







"-io","doc/example/script.js",
STRING_0,STRING_1,

























