testGetTokenParameterName,getTokenParameterName,
METHOD_0,METHOD_1,

togglz,spring,activation,SpringProfileActivationStrategy,PARAM_PROFILES,
IDENT_0,IDENT_1,IDENT_2,IDENT_3,IDENT_4,


































