testFoo,executeSelect,
METHOD_0,METHOD_1,

geso,tinyorm,ImmutableTest,Foo,foo,orm,
IDENT_0,IDENT_1,IDENT_2,IDENT_3,IDENT_4,IDENT_5,







"John",
STRING_0,

























