testDeleteDeletedProperty,getTree,removeProperty,getWrappedNodeBuilder,
METHOD_0,METHOD_1,METHOD_2,METHOD_3,

theirRoot,ourRoot,PropertyState,
IDENT_0,IDENT_1,IDENT_2,


































