testDivide,Divide,divideMethod,
METHOD_0,METHOD_1,METHOD_2,

practicalunittesting,chp11,mutation,Divide,divide,
IDENT_0,IDENT_1,IDENT_2,IDENT_3,IDENT_4,


































