testPrefixVerification,PhoneSearch,
METHOD_0,METHOD_1,

practicalunittesting,chp11,refactoring,PhoneSearch,ps,prefix,valid,
IDENT_0,IDENT_1,IDENT_2,IDENT_3,IDENT_4,IDENT_5,IDENT_6,


































