testCache,
METHOD_0,

tomp2p,ConcurrentCacheMap,
IDENT_0,IDENT_1,

1024,500,600,
INT_0,INT_1,INT_2,




"hallo1","test1","hallo2","test2","hallo3","test3",
STRING_0,STRING_1,STRING_2,STRING_3,STRING_4,STRING_5,

























