testOneBloomfilter2,Number160,
METHOD_0,METHOD_1,

tomp2p,rpc,SimpleBloomFilter,peers,Number160,bloomFilter,ByteBuf,Unpooled,bloomFilter2,Number640,dataMap,
IDENT_0,IDENT_1,IDENT_2,IDENT_3,IDENT_4,IDENT_5,IDENT_6,IDENT_7,IDENT_8,IDENT_9,IDENT_10,







"0x41844ffc9aeea30aefd1e0aff687dacdf1c6f36e",
STRING_0,

0.01,
FLOAT_0,






















