testSed_translateExotics,fromString,sed,toStringResult,
METHOD_0,METHOD_1,METHOD_2,METHOD_3,

src,dst,unix4j,Unix4j,Sed,Options,translate,invokedCommand,
IDENT_0,IDENT_1,IDENT_2,IDENT_3,IDENT_4,IDENT_5,IDENT_6,IDENT_7,

256,512,
INT_0,INT_1,




"_",":",
STRING_0,STRING_1,

























