testGetExtension,Draft_6455,getExtension,
METHOD_0,METHOD_1,METHOD_2,

java_websocket,drafts,Draft_6455,draft_6455,extensions,DefaultExtension,
IDENT_0,IDENT_1,IDENT_2,IDENT_3,IDENT_4,IDENT_5,


































