nonNullArg,StylesConfig,styles,
METHOD_0,METHOD_1,METHOD_2,

pdfsam,StylesConfig,victim,Theme,ROUNDISH,
IDENT_0,IDENT_1,IDENT_2,IDENT_3,IDENT_4,


































