notNullArg,ShowPdfDescriptorRequest,getDescriptor,
METHOD_0,METHOD_1,METHOD_2,

pdfsam,PdfDocumentDescriptor,arg,ShowPdfDescriptorRequest,victim,descriptor,
IDENT_0,IDENT_1,IDENT_2,IDENT_3,IDENT_4,IDENT_5,


































