lastSeenIsUpdated,fistUsage,inc,getLastSeen,setLastSeen,
METHOD_0,METHOD_1,METHOD_2,METHOD_3,METHOD_4,

pdfsam,ModuleUsage,victim,lastSeen,totalUsed,
IDENT_0,IDENT_1,IDENT_2,IDENT_3,IDENT_4,







"ChuckNorris",
STRING_0,

























