nonEncryptableString,parseLiteral,encryptable,withARC4Engine,getFontDescriptor,getFontFile3,createInputStream,
METHOD_0,METHOD_1,METHOD_2,METHOD_3,METHOD_4,METHOD_5,METHOD_6,

sejda,sambox,cos,COSString,encryption,Algorithm1,pdmodel,PDStream,ff3Stream,IOUtils,
IDENT_0,IDENT_1,IDENT_2,IDENT_3,IDENT_4,IDENT_5,IDENT_6,IDENT_7,IDENT_8,IDENT_9,

34,93,39,90,31,109,77,83,113,101,21,13,22,42,116,
INT_0,INT_1,INT_2,INT_3,INT_4,INT_5,INT_6,INT_7,INT_8,INT_9,INT_10,INT_11,INT_12,INT_13,INT_14,




"A String",
STRING_0,

























