nextName,COSParser,inMemorySeekableSourceFrom,
METHOD_0,METHOD_1,METHOD_2,

victim,sejda,sambox,COSName,CREATOR,
IDENT_0,IDENT_1,IDENT_2,IDENT_3,IDENT_4,

11,
INT_0,




"53 0 obj <</Creator me>>",
STRING_0,

























