skipExpected,SourceReader,inMemorySeekableSourceFrom,
METHOD_0,METHOD_1,METHOD_2,

victim,sejda,sambox,
IDENT_0,IDENT_1,IDENT_2,







"Chuck Norris","Chuck",
STRING_0,STRING_1,

























