step,PdfMixInput,newInstanceNoPassword,getClassLoader,getStep,
METHOD_0,METHOD_1,METHOD_2,METHOD_3,METHOD_4,

sejda,sambox,PdfMixFragment,victim,PdfStreamSource,
IDENT_0,IDENT_1,IDENT_2,IDENT_3,IDENT_4,







"pdf/2_pages.pdf","test.pdf",
STRING_0,STRING_1,

























