lookup,addLookupEntry,
METHOD_0,METHOD_1,

victim,I,oldToNew,
IDENT_0,IDENT_1,IDENT_2,







"this","that","this1","that1","this2","that2",
STRING_0,STRING_1,STRING_2,STRING_3,STRING_4,STRING_5,

























