constructorTest,GenerateCS,CTFCallsite,
METHOD_0,METHOD_1,METHOD_2,

tracecompass,ctf,CTFCallsite,CTFCallsiteTest,ip,
IDENT_0,IDENT_1,IDENT_2,IDENT_3,IDENT_4,







"event name","func name","file.java",
STRING_0,STRING_1,STRING_2,

























