testGetSetClock_1,addClock,CTFClock,getClock,
METHOD_0,METHOD_1,METHOD_2,METHOD_3,

tracecompass,ctf,fClocks,
IDENT_0,IDENT_1,IDENT_2,







"clockyClock",
STRING_0,

























