testLookupEnvironment_4,setEnvironment,getEnvironment,
METHOD_0,METHOD_1,METHOD_2,

fBuffer,fPosition,tracecompass,ctf,BitBuffer,BIT_CHAR,dst,
IDENT_0,IDENT_1,IDENT_2,IDENT_3,IDENT_4,IDENT_5,IDENT_6,







"bozo",
STRING_0,

























