testStreamIsSet_null,setStream,streamIsSet,
METHOD_0,METHOD_1,METHOD_2,

tracecompass,ctf,CTFStream,fStream,
IDENT_0,IDENT_1,IDENT_2,IDENT_3,


































