testGetDetectedByteOrder,setUp,getDetectedByteOrder,
METHOD_0,METHOD_1,METHOD_2,

ByteOrder,fDetectedByteOrder,
IDENT_0,IDENT_1,


































