testToString,TmfEventField,CtfTmfEventType,
METHOD_0,METHOD_1,METHOD_2,

tracecompass,tmf,ITmfEventField,emptyField,ctf,CtfTmfEventType,fName,
IDENT_0,IDENT_1,IDENT_2,IDENT_3,IDENT_4,IDENT_5,IDENT_6,


































