testHashCode,
METHOD_0,

result2,prime,fTrace,fCurLocation,fCurRank,
IDENT_0,IDENT_1,IDENT_2,IDENT_3,IDENT_4,

31,32,
INT_0,INT_1,










^,
OP_0,



















