testGetCPU,getCPU,
METHOD_0,METHOD_1,

tracecompass,tmf,ctf,CtfTmfEventTest,nullEvent,fSourceCpu,
IDENT_0,IDENT_1,IDENT_2,IDENT_3,IDENT_4,IDENT_5,


































