testLookupEnum,lookupEnum,
METHOD_0,METHOD_1,

tracecompass,ctf,StructDefinitionTest,ENUM_ID,EnumDefinition,fEnums,
IDENT_0,IDENT_1,IDENT_2,IDENT_3,IDENT_4,IDENT_5,


































