testNbChildren,newNode,getNbChildren,readLock,lock,unlock,
METHOD_0,METHOD_1,METHOD_2,METHOD_3,METHOD_4,METHOD_5,

tracecompass,provisional,historytree,HTNode,E,HTNodeTest,TREE_START,rwl,fNbChildren,
IDENT_0,IDENT_1,IDENT_2,IDENT_3,IDENT_4,IDENT_5,IDENT_6,IDENT_7,IDENT_8,


































