testGetEndTime,getEndTime,
METHOD_0,METHOD_1,

tracecompass,tmf,timestamp,ITmfTimestamp,fFixture,fEnd,
IDENT_0,IDENT_1,IDENT_2,IDENT_3,IDENT_4,IDENT_5,


































