testSetGetNbEvents,isPersistableCollection,setNbEvents,getNbEvents,
METHOD_0,METHOD_1,METHOD_2,METHOD_3,

fCheckpointCollection,fNbEvents,
IDENT_0,IDENT_1,

12345,
INT_0,































