skipProcessingWithWrongMessageTypeOnRequest,getRequest,handleRequest,
METHOD_0,METHOD_1,METHOD_2,

messageContext,WebServiceMessage,traceeKeys,
IDENT_0,IDENT_1,IDENT_2,


































