testGettingFirst,newArray,NoSuchElementException,
METHOD_0,METHOD_1,METHOD_2,

arrays,sizes,
IDENT_0,IDENT_1,







"Retrieving First element of empty array "," is not possible.",
STRING_0,STRING_1,

























