testParseNull,TimestampParser,isBlank,ProcessingException,
METHOD_0,METHOD_1,METHOD_2,METHOD_3,

parsed,eluder,coveralls,codehaus,plexus,timestamp,
IDENT_0,IDENT_1,IDENT_2,IDENT_3,IDENT_4,IDENT_5,







"Unable to parse timestamp \"","\"",
STRING_0,STRING_1,

























