test_validDomains,isValidDomainName,compile,
METHOD_0,METHOD_1,METHOD_2,

Pattern,treeptik,cloudunit,DomainUtils,DOMAIN_NAME_PATTERN,Matcher,domainName,
IDENT_0,IDENT_1,IDENT_2,IDENT_3,IDENT_4,IDENT_5,IDENT_6,


































