listSavedQuery,listSavedQueries,on,doGet,buildUrl,
METHOD_0,METHOD_1,METHOD_2,METHOD_3,METHOD_4,

treasuredata,TDSavedQuery,savedQueries,TestTDClient,Joiner,TDClient,TypeReference,
IDENT_0,IDENT_1,IDENT_2,IDENT_3,IDENT_4,IDENT_5,IDENT_6,







", ","/v3/schedule/list",
STRING_0,STRING_1,

























