cacheEnabled,isCache,getConfiguration,getBooleanPropertyValue,
METHOD_0,METHOD_1,METHOD_2,METHOD_3,

EngineConfigurationKey,TEMPLATE_CACHE_ENABLED,DEBUG_MODE,
IDENT_0,IDENT_1,IDENT_2,


































