testSetGet,setImpl,await,
METHOD_0,METHOD_1,METHOD_2,

tridentsdk,Impl,Provider,IMPL_LATCH,InterruptedException,
IDENT_0,IDENT_1,IDENT_2,IDENT_3,IDENT_4,


































