testCanRead2,getTreePermission,canRead,
METHOD_0,METHOD_1,METHOD_2,

permission,TreePermission,tp,noAccessSession,RepoPolicyTreePermissionTest,REPO_POLICY_PATH,
IDENT_0,IDENT_1,IDENT_2,IDENT_3,IDENT_4,IDENT_5,


































