testKeywordID,execLexer,
METHOD_0,METHOD_1,

grammar,expecting,grammarFileName,grammarStr,lexerName,
IDENT_0,IDENT_1,IDENT_2,IDENT_3,IDENT_4,







"lexer grammar L;\n","KEND : \'end\' ;\n","ID : \'a\'..\'z\'+ ;\n","L.g4","end eend ending a","[@0,0:2=\'end\',<1>,1:0]\n","[@2,4:7=\'eend\',<2>,1:4]\n","[@5,15:15=\' \',<3>,1:15]\n","[@6,16:16=\'a\',<2>,1:16]\n","[@7,17:16=\'<EOF>\',<-1>,1:17]\n",
STRING_0,STRING_1,STRING_2,STRING_3,STRING_4,STRING_5,STRING_6,STRING_7,STRING_8,STRING_9,

























