testIntersectionWithTwoContainedElementsReversed,
METHOD_0,

misc,IntervalSet,s2,expecting,
IDENT_0,IDENT_1,IDENT_2,IDENT_3,

18,
INT_0,




"{15, 18}","..",
STRING_0,STRING_1,

























