testNotRIntersectionNotT,
METHOD_0,

misc,IntervalSet,s2,expecting,
IDENT_0,IDENT_1,IDENT_2,IDENT_3,







's','u','q',"{0..113, 115, 117..200}","..",
STRING_0,STRING_1,STRING_2,STRING_3,STRING_4,

























