testMergeWhereAdditionMergesThreeExistingIntervals,IntervalSet,
METHOD_0,METHOD_1,

misc,IntervalSet,expecting,
IDENT_0,IDENT_1,IDENT_2,







"{0..7}","..",
STRING_0,STRING_1,

























