testParserLexerCombo,addEdge,sort,
METHOD_0,METHOD_1,METHOD_2,

misc,Graph,expecting,
IDENT_0,IDENT_1,IDENT_2,







"JavaLexer.tokens","JavaLexer.g4","JavaParser.g4","Def.g4","Ref.g4","[JavaLexer.g4, JavaLexer.tokens, JavaParser.g4, Def.g4, Ref.g4]",
STRING_0,STRING_1,STRING_2,STRING_3,STRING_4,STRING_5,

























