testRepeatedEdges,addEdge,sort,
METHOD_0,METHOD_1,METHOD_2,

misc,Graph,expecting,
IDENT_0,IDENT_1,IDENT_2,







"A","B","C","D","[D, C, B, A]",
STRING_0,STRING_1,STRING_2,STRING_3,STRING_4,

























