testPredicateDependentOnArg2,execParser,
METHOD_0,METHOD_1,

grammar,expecting,grammarFileName,grammarStr,parserName,lexerName,startRuleName,
IDENT_0,IDENT_1,IDENT_2,IDENT_3,IDENT_4,IDENT_5,IDENT_6,







"grammar T;\n","T.g4"," : {$i==1}? ID\n"," | {$i==2}? ID\n"," ;\n","ID : \'a\'..\'z\'+ ;\n","INT : \'0\'..\'9\'+;\n","TParser","a b",
STRING_0,STRING_1,STRING_2,STRING_3,STRING_4,STRING_5,STRING_6,STRING_7,STRING_8,

























