testNull,emptyMap,flatten,
METHOD_0,METHOD_1,METHOD_2,

twilio,PrefixedCollapsibleMap,flattened,prefix,
IDENT_0,IDENT_1,IDENT_2,IDENT_3,







"Prefix",".",
STRING_0,STRING_1,

























