copyWithOffsetLengthCapacityInvalidOffset,copy,
METHOD_0,METHOD_1,

cloudhopper,ByteBufferTest,TEST_BYTES1,copyBuffer,currentBufferSize,
IDENT_0,IDENT_1,IDENT_2,IDENT_3,IDENT_4,

11,
INT_0,































