test_contents,
METHOD_0,

tk_values,twitter,hraven,TestJobHistoryKeys,test_keys,tk,JobHistoryKeys,jhk,JobKey,jobKey,
IDENT_0,IDENT_1,IDENT_2,IDENT_3,IDENT_4,IDENT_5,IDENT_6,IDENT_7,IDENT_8,IDENT_9,


































