testConnected_NoPendingMessage,connected,verifyZeroInteractions,getEvents,
METHOD_0,METHOD_1,METHOD_2,METHOD_3,

subscription,xenqtt,mockbroker,BrokerEvent,
IDENT_0,IDENT_1,IDENT_2,IDENT_3,




synchronized,
MOD_0,




























