check_token,AgentToken,toJSONString,
METHOD_0,METHOD_1,METHOD_2,

li3huo,AgentToken,appid,channelId,ChannelCode,qihoo,channelData,fastjson,JSON,
IDENT_0,IDENT_1,IDENT_2,IDENT_3,IDENT_4,IDENT_5,IDENT_6,IDENT_7,IDENT_8,







"500006","data","access_token","2846383641ee9f7562b39ec3f998870bc1f6d8ac16dfc027cc","expires_in","36000","server_code","test_state111","token = ",
STRING_0,STRING_1,STRING_2,STRING_3,STRING_4,STRING_5,STRING_6,STRING_7,STRING_8,

























