testAlmostZeroDist,Random,newTreeSF,populate,nearestNeighbor1,nearestNeighbour,newDistFn,check,nearestNeighborK,
METHOD_0,METHOD_1,METHOD_2,METHOD_3,METHOD_4,METHOD_5,METHOD_6,METHOD_7,METHOD_8,

DIM,N,MAXV,Random,R,ethz,globis,phtree,PhTreeSolidF,ind,p1min,p1max,PhEntrySF,nnList,nn,exp10,nnList10,
IDENT_0,IDENT_1,IDENT_2,IDENT_3,IDENT_4,IDENT_5,IDENT_6,IDENT_7,IDENT_8,IDENT_9,IDENT_10,IDENT_11,IDENT_12,IDENT_13,IDENT_14,IDENT_15,IDENT_16,










0.21,0.25,0.09,0.22,0.26,0.1,0.215,0.255,0.095,
FLOAT_0,FLOAT_1,FLOAT_2,FLOAT_3,FLOAT_4,FLOAT_5,FLOAT_6,FLOAT_7,FLOAT_8,






















