testSplitMerge32,Random,abs,nextInt,merge,
METHOD_0,METHOD_1,METHOD_2,METHOD_3,METHOD_4,

Random,rnd,ethz,globis,phtree,BitTools,l2,maskTrg,s1,srcV,src1,s2,src2,nBits,
IDENT_0,IDENT_1,IDENT_2,IDENT_3,IDENT_4,IDENT_5,IDENT_6,IDENT_7,IDENT_8,IDENT_9,IDENT_10,IDENT_11,IDENT_12,IDENT_13,

32,
INT_0,










--,|=,>>>=,<<=,
OP_0,OP_1,OP_2,OP_3,



















