testSetNewPropertyWithRelPath,createValue,hasProperty,
METHOD_0,METHOD_1,METHOD_2,

vf,
IDENT_0,







"relPath/prop2","val",
STRING_0,STRING_1,

























