testClipboardCSVFactory,randn,exportTo,clipboard,asDenseCSV,importFrom,
METHOD_0,METHOD_1,METHOD_2,METHOD_3,METHOD_4,METHOD_5,

ujmp,Matrix,m1,Factory,m2,
IDENT_0,IDENT_1,IDENT_2,IDENT_3,IDENT_4,







'\t',
STRING_0,

























