addAttributes_handleNull,addAttributes,getAttributes,
METHOD_0,METHOD_1,METHOD_2,

cmd,m_attributes,
IDENT_0,IDENT_1,







"blah",
STRING_0,

























