shouldLeaveInternalModelAlone,getModel,
METHOD_0,METHOD_1,

cruise,umple,UmpleParser,UmpleParserFactory,
IDENT_0,IDENT_1,IDENT_2,IDENT_3,







"cruise.umple.compiler.UmpleInternalParser",
STRING_0,

























