test_asymmetric_key_file_encryption,encrypt,decrypt,
METHOD_0,METHOD_1,METHOD_2,

encrypted,keyFileEncryptor,decrypted,singleton,encryptedMessage,
IDENT_0,IDENT_1,IDENT_2,IDENT_3,IDENT_4,







"This is the secret message... BOOHOOO!",
STRING_0,

























