get_ElementsRetrievedInOrder,BlockingCollector,take,
METHOD_0,METHOD_1,METHOD_2,

umermansoor,trafficdistributor,collectors,BlockingCollector,blc,eventsQueue,
IDENT_0,IDENT_1,IDENT_2,IDENT_3,IDENT_4,IDENT_5,







"3","4","5","exception thrown",
STRING_0,STRING_1,STRING_2,STRING_3,

























