testEmptyBuffer,wrap,MemoryByteBufferConcatenation,getLength,
METHOD_0,METHOD_1,METHOD_2,METHOD_3,

b1,b2,b3,b4,b5,ujmp,AbstractByteBufferConcatenation,bb,totalLength,
IDENT_0,IDENT_1,IDENT_2,IDENT_3,IDENT_4,IDENT_5,IDENT_6,IDENT_7,IDENT_8,


































