setStudents_aLot,StudentF,MentorF,numberOfStudents,
METHOD_0,METHOD_1,METHOD_2,METHOD_3,

cruise,associations,StudentF,allStudents,MentorF,students,
IDENT_0,IDENT_1,IDENT_2,IDENT_3,IDENT_4,IDENT_5,


































