getValueSelf,Token,addSubToken,getTitle,
METHOD_0,METHOD_1,METHOD_2,METHOD_3,

cruise,umple,Token,Action,NAME,
IDENT_0,IDENT_1,IDENT_2,IDENT_3,IDENT_4,







"program","START","type","String","Student",
STRING_0,STRING_1,STRING_2,STRING_3,STRING_4,

























