testGetPort,AbstractIPSamplerImpl,getPort,
METHOD_0,METHOD_1,METHOD_2,

kg,apc,jmeter,samplers,AbstractIPSampler,AbstractIPSamplerTest,
IDENT_0,IDENT_1,IDENT_2,IDENT_3,IDENT_4,IDENT_5,







"getPort",
STRING_0,

























