testIsShowInLegend,AbstractGraphRowImpl,isShowInLegend,
METHOD_0,METHOD_1,METHOD_2,

kg,apc,charting,AbstractGraphRow,AbstractGraphRowTest,graphRow,
IDENT_0,IDENT_1,IDENT_2,IDENT_3,IDENT_4,IDENT_5,







"isShowInLegend",
STRING_0,

























