testNextWithOffset,incrementCount,
METHOD_0,METHOD_1,

ResultIterator,MAX_ALL,
IDENT_0,IDENT_1,







"str","str2",
STRING_0,STRING_1,

























