testGetGraphImage,getGraphImage,createImage,getWidth,getHeight,paintComponent,getGraphics,
METHOD_0,METHOD_1,METHOD_2,METHOD_3,METHOD_4,METHOD_5,METHOD_6,

Image,graphPanelObject,
IDENT_0,IDENT_1,







"getGraphImage",
STRING_0,

























