testAnonymousID,login,GuestCredentials,getAuthInfo,getUserID,
METHOD_0,METHOD_1,METHOD_2,METHOD_3,METHOD_4,

testSession,anonymousID,expectedID,sessionDelegate,
IDENT_0,IDENT_1,IDENT_2,IDENT_3,


































