testGetCredentials,getCredentials,
METHOD_0,METHOD_1,

Credentials,creds,systemUser,credentials,
IDENT_0,IDENT_1,IDENT_2,IDENT_3,


































