testArrayLatLon,arrayLatLonData,isStationary,
METHOD_0,METHOD_1,METHOD_2,

ucar,nc2,dt,RadialDatasetSweep,ds,
IDENT_0,IDENT_1,IDENT_2,IDENT_3,IDENT_4,


































