testGetMenuCategories,AggregateReportGui,getMenuCategories,
METHOD_0,METHOD_1,METHOD_2,

kg,apc,jmeter,vizualizers,AggregateReportGui,
IDENT_0,IDENT_1,IDENT_2,IDENT_3,IDENT_4,







"getMenuCategories",
STRING_0,

























