testEmptyAuthenticationMethodAttribute,getAttributes,getSatisfiedAuthenticationMethods,
METHOD_0,METHOD_1,METHOD_2,

unicon,cas,mfa,MultiFactorUtils,
IDENT_0,IDENT_1,IDENT_2,IDENT_3,


































