testLargeLongValue,Attribute,getNumericValue,longValue,
METHOD_0,METHOD_1,METHOD_2,METHOD_3,

ucar,nc2,Attribute,att,iosp,netcdf3,N3iosp,NC_FILL_INT64,
IDENT_0,IDENT_1,IDENT_2,IDENT_3,IDENT_4,IDENT_5,IDENT_6,IDENT_7,


































