ofTest,shortValue,
METHOD_0,METHOD_1,

tec,uom,se,AbstractQuantity,measure,quantity,Length,NumberQuantity,Short,Units,METRE,
IDENT_0,IDENT_1,IDENT_2,IDENT_3,IDENT_4,IDENT_5,IDENT_6,IDENT_7,IDENT_8,IDENT_9,IDENT_10,







"10",
STRING_0,

























