testHeaders,getRequestHeaders,
METHOD_0,METHOD_1,

HttpHeaders,CONTENT_TYPE,Request,CONTENT_TYPE_JSON,ACCEPT,UA_VERSION_JSON,urbanairship,reports,
IDENT_0,IDENT_1,IDENT_2,IDENT_3,IDENT_4,IDENT_5,IDENT_6,IDENT_7,


































