wordCount,countWords,
METHOD_0,METHOD_1,

uspto,WordUtil,lastWasGap,segment,isDelimiter,isize,wordDelimiters,
IDENT_0,IDENT_1,IDENT_2,IDENT_3,IDENT_4,IDENT_5,IDENT_6,







"Wireless LAN",' ',
STRING_0,STRING_1,

























