testIteration,LinkedHashMap,__insert,DummyValue,keySet,
METHOD_0,METHOD_1,METHOD_2,METHOD_3,METHOD_4,

usethesource,capsule,Immutable,SetSmokeTest,DummyValue,PersistentTrieSet,cachedSize,
IDENT_0,IDENT_1,IDENT_2,IDENT_3,IDENT_4,IDENT_5,IDENT_6,


































