whenMovePawnThenResultPawnInOtherCell,getChessBoard,getFigure,moveFigure,
METHOD_0,METHOD_1,METHOD_2,METHOD_3,

vkaretko,game,ChessFigure,figure,board,startCol,startRow,
IDENT_0,IDENT_1,IDENT_2,IDENT_3,IDENT_4,IDENT_5,IDENT_6,


































