whenInitConsoleMenuThenResultMenuWithDashes,setOut,PrintStream,
METHOD_0,METHOD_1,METHOD_2,

menuInLine,sep,menu,ioe,
IDENT_0,IDENT_1,IDENT_2,IDENT_3,







"File%s--New%s----Project... [opr]%s","%-17s%s%s","--Open","[open]","Help%s--About [ab]%s","User %s",
STRING_0,STRING_1,STRING_2,STRING_3,STRING_4,STRING_5,

























