whenAddTwoElementsThenSecondElementWithHigherHashCode,NoSuchElementException,
METHOD_0,METHOD_1,

linkedSet,itr,E,currentNode,cursor,
IDENT_0,IDENT_1,IDENT_2,IDENT_3,IDENT_4,


































