addStringToComponent,TestComponent,getElement,
METHOD_0,METHOD_1,METHOD_2,

HasComponentsTest,TestComponent,
IDENT_0,IDENT_1,







"Add text","getElement() must not be called before the element has been set",
STRING_0,STRING_1,

























