enabledComponent_isEnabledReturnsTrue,TestComponent,isEnabled,getElement,
METHOD_0,METHOD_1,METHOD_2,METHOD_3,

HasEnabledTest,TestComponent,
IDENT_0,IDENT_1,


































