testCoalescePutRemove,collectChanges,
METHOD_0,METHOD_1,

nodeMap,nodefeature,NodeMapTest,KEY,change,NodeChange,changes,themes,
IDENT_0,IDENT_1,IDENT_2,IDENT_3,IDENT_4,IDENT_5,IDENT_6,IDENT_7,


































