configuration_getPropertyDataSet,addProperty,getPropertyDataSet,
METHOD_0,METHOD_1,METHOD_2,

exporter,webcomponent,PropertyData,themes,
IDENT_0,IDENT_1,IDENT_2,IDENT_3,







"int","string","boolean","double",
STRING_0,STRING_1,STRING_2,STRING_3,

























