customPropertyStyle,createDiv,getStyle,isShadowRoot,ShadowRoot,
METHOD_0,METHOD_1,METHOD_2,METHOD_3,METHOD_4,

ElementFactory,Style,style,StateNode,ShadowRoot,
IDENT_0,IDENT_1,IDENT_2,IDENT_3,IDENT_4,







"--some-variable","Node is not valid as an element",
STRING_0,STRING_1,

























