equals_differentObjects_shouldBeFalse,Between,getSignature,
METHOD_0,METHOD_1,METHOD_2,

v7,Between,b1,Property,
IDENT_0,IDENT_1,IDENT_2,IDENT_3,


































