equals_propertyAndFirstAndSecondValueDiffers_shouldBeFalse,Between,getSignature,
METHOD_0,METHOD_1,METHOD_2,

v7,Between,b1,b2,Property,
IDENT_0,IDENT_1,IDENT_2,IDENT_3,IDENT_4,


































