testDifferentTypeEquals,Equal,Greater,getSignature,
METHOD_0,METHOD_1,METHOD_2,METHOD_3,

v7,Compare,c1,c2,Property,
IDENT_0,IDENT_1,IDENT_2,IDENT_3,IDENT_4,







"prop1","val1",
STRING_0,STRING_1,

























