equals_onePropertyIsNull_shouldBeFalse,Like,getSignature,
METHOD_0,METHOD_1,METHOD_2,

v7,Like,like1,like2,Property,
IDENT_0,IDENT_1,IDENT_2,IDENT_3,IDENT_4,







"baz",
STRING_0,

























