configLoading,getRoot,openOutputStream,loadConfig,
METHOD_0,METHOD_1,METHOD_2,METHOD_3,

temporaryFolder,OutputStream,os,FileUtils,p2,BlobStoreFixtureProvider,
IDENT_0,IDENT_1,IDENT_2,IDENT_3,IDENT_4,IDENT_5,







"test.cfg",
STRING_0,

























