removeHiddenFrozenColumn,setHidden,setFrozenColumnCount,removeColumn,getFrozenColumnCount,
METHOD_0,METHOD_1,METHOD_2,METHOD_3,METHOD_4,

lengthColumn,columnConfiguration,
IDENT_0,IDENT_1,


































