emptyTag,readDesign,
METHOD_0,METHOD_1,

Component,declarative,Design,design,
IDENT_0,IDENT_1,IDENT_2,IDENT_3,







"<>foo</>",
STRING_0,

























