testValueChanged,SimpleDateFormat,waitForVaadin,getInputField,getAttribute,
METHOD_0,METHOD_1,METHOD_2,METHOD_3,METHOD_4,

DateFieldPopupSetValue,changedDate,df,counter,
IDENT_0,IDENT_1,IDENT_2,IDENT_3,







"MM/dd/yy",
STRING_0,

























