testSuggestions,openTestURL,$,getPopupSuggestions,addHandlers,
METHOD_0,METHOD_1,METHOD_2,METHOD_3,METHOD_4,

testbench,ComboBoxElement,suggestions,expectedSuggestions,gwt,Widget,widget,
IDENT_0,IDENT_1,IDENT_2,IDENT_3,IDENT_4,IDENT_5,IDENT_6,

11,
INT_0,




"item",
STRING_0,

























