testGetWidth_ensureAllRowsAreOfEqualLength,getRow,getHeight,
METHOD_0,METHOD_1,METHOD_2,

StaticGrid,TILE_GRID,valkryst,VTerminal,Tile,tiles,TileGrid,EMPTY_ARRAY,
IDENT_0,IDENT_1,IDENT_2,IDENT_3,IDENT_4,IDENT_5,IDENT_6,IDENT_7,


































