constantSep,typeCheckExpr,Pi,singleParams,vars,Nat,DataCallExpression,
METHOD_0,METHOD_1,METHOD_2,METHOD_3,METHOD_4,METHOD_5,METHOD_6,

arend,typechecking,visitor,CheckTypeVisitor,ExpressionFactory,prelude,Prelude,NAT,sort,Sort,SET0,
IDENT_0,IDENT_1,IDENT_2,IDENT_3,IDENT_4,IDENT_5,IDENT_6,IDENT_7,IDENT_8,IDENT_9,IDENT_10,







"\\lam x => \\lam y => x","x","y",
STRING_0,STRING_1,STRING_2,

























