testGetSubMapNullKeys,newHashMap,getSubMap,isNullOrEmpty,toSet,
METHOD_0,METHOD_1,METHOD_2,METHOD_3,METHOD_4,

feilong,MapUtil,K,Validator,
IDENT_0,IDENT_1,IDENT_2,IDENT_3,

3007,3001,3003,
INT_0,INT_1,INT_2,




"c","d",
STRING_0,STRING_1,

























