testToStringsEmptyURLs,toStrings,
METHOD_0,METHOD_1,

urls1,feilong,ConvertUtil,toBeConvertedValue,
IDENT_0,IDENT_1,IDENT_2,IDENT_3,


































