testReturnVoid,runAllExcept,runAll,emptyMap,
METHOD_0,METHOD_1,METHOD_2,METHOD_3,

codetrans,scala,ScalaLang,ControlTest,Runnable,except,after,
IDENT_0,IDENT_1,IDENT_2,IDENT_3,IDENT_4,IDENT_5,IDENT_6,







"control/Return","returnVoid",
STRING_0,STRING_1,

























