testGetdefaultInstance,defaultInstance,
METHOD_0,METHOD_1,

verapdf,FileOutputMapper,defaultInstance,RelativeDirectoryMapper,
IDENT_0,IDENT_1,IDENT_2,IDENT_3,


































