testJsonArrayGetString,JsonArray,runAll,
METHOD_0,METHOD_1,METHOD_2,

codetrans,JsonTest,Runnable,globals,after,
IDENT_0,IDENT_1,IDENT_2,IDENT_3,IDENT_4,







"string_value","json/JsArray","getString",
STRING_0,STRING_1,STRING_2,

























