testUserInputToValue,userInputToValue,
METHOD_0,METHOD_1,

fieldUnderTest,itemId,propertyId,
IDENT_0,IDENT_1,IDENT_2,







"2.0",
STRING_0,

























