testSelect4,matrixA,CCSMatrix,
METHOD_0,METHOD_1,METHOD_2,

la4j,matrix,Matrix,rowInd,colInd,MatrixTest,newRows,rowIndices,newCols,columnIndices,newCardinality,newValues,newRowIndices,newColumnPointers,endPtr,sparse,
IDENT_0,IDENT_1,IDENT_2,IDENT_3,IDENT_4,IDENT_5,IDENT_6,IDENT_7,IDENT_8,IDENT_9,IDENT_10,IDENT_11,IDENT_12,IDENT_13,IDENT_14,IDENT_15,







"No rows or columns selected.",
STRING_0,

8.93,6.57,3.65,0.08,3.96,2.51,4.63,6.12,7.37,8.8,7.83,6.15,3.43,1.16,3.66,4.93,7.05,8.11,9.04,6.72,
FLOAT_0,FLOAT_1,FLOAT_2,FLOAT_3,FLOAT_4,FLOAT_5,FLOAT_6,FLOAT_7,FLOAT_8,FLOAT_9,FLOAT_10,FLOAT_11,FLOAT_12,FLOAT_13,FLOAT_14,FLOAT_15,FLOAT_16,FLOAT_17,FLOAT_18,FLOAT_19,






















