testVarAtEndOfString,subInNonBracketedURIS,quoteReplacement,
METHOD_0,METHOD_1,METHOD_2,

cornell,mannlib,vitro,webapp,edit,n3editing,VTwo,EditN3GeneratorVTwoTest,varRegex,var,replaceWith,Matcher,
IDENT_0,IDENT_1,IDENT_2,IDENT_3,IDENT_4,IDENT_5,IDENT_6,IDENT_7,IDENT_8,IDENT_9,IDENT_10,IDENT_11,







"newRes","<http://someuri.com/n23","?newRes","\\?","(?=\\p{Punct}|\\p{Space}|$)",">::"," was BLANK::< ",
STRING_0,STRING_1,STRING_2,STRING_3,STRING_4,STRING_5,STRING_6,

























