testRowAccess_2x4,setRow,getRow,arraycopy,BasicVector,
METHOD_0,METHOD_1,METHOD_2,METHOD_3,METHOD_4,

la4j,matrix,Matrix,MatrixTest,columns,self,vector,dense,
IDENT_0,IDENT_1,IDENT_2,IDENT_3,IDENT_4,IDENT_5,IDENT_6,IDENT_7,










4.0,5.0,7.0,
FLOAT_0,FLOAT_1,FLOAT_2,






















