shouldCorrectlyFormatDescription,Position,getQueryDescription,
METHOD_0,METHOD_1,METHOD_2,

rollingmetrics,top,Position,MILLISECONDS,
IDENT_0,IDENT_1,IDENT_2,IDENT_3,







"SELECT * FROM DUAL",
STRING_0,

























