testShuffle_5x3,shuffle,testWhetherMatricesContainSameElements,rows,columns,
METHOD_0,METHOD_1,METHOD_2,METHOD_3,METHOD_4,

la4j,matrix,Matrix,MatrixTest,matrix1,matrix2,
IDENT_0,IDENT_1,IDENT_2,IDENT_3,IDENT_4,IDENT_5,










3.0,4.0,5.0,6.0,7.0,8.0,9.0,10.0,11.0,12.0,13.0,14.0,15.0,
FLOAT_0,FLOAT_1,FLOAT_2,FLOAT_3,FLOAT_4,FLOAT_5,FLOAT_6,FLOAT_7,FLOAT_8,FLOAT_9,FLOAT_10,FLOAT_11,FLOAT_12,






















