testToString,fromString,
METHOD_0,METHOD_1,

admiral,docker,DockerPortMapping,portMapping,portBinding,factoryLink,documentKind,
IDENT_0,IDENT_1,IDENT_2,IDENT_3,IDENT_4,IDENT_5,IDENT_6,







"TableDescription{","factoryLink='",'\'',", documentKind='",", tableName='",'}',
STRING_0,STRING_1,STRING_2,STRING_3,STRING_4,STRING_5,

























