testStop,PKSRemoteClientService,stop,
METHOD_0,METHOD_1,METHOD_2,

admiral,pks,PKSRemoteClientService,
IDENT_0,IDENT_1,IDENT_2,







"should not reach here","PKS client is not initialized",
STRING_0,STRING_1,

























