testDetermineOsFamilyForWindows,determineOsFamily,
METHOD_0,METHOD_1,

osName,ENGLISH,xenon,SystemHostInfo,OsFamily,MACOS,WINDOWS,LINUX,OTHER,
IDENT_0,IDENT_1,IDENT_2,IDENT_3,IDENT_4,IDENT_5,IDENT_6,IDENT_7,IDENT_8,







"Windows NT","mac","win","nux",
STRING_0,STRING_1,STRING_2,STRING_3,

























