testBuildPasswordHashNoSaltNoIterations,assumeFalse,digest,isSame,
METHOD_0,METHOD_1,METHOD_2,METHOD_3,

Assume,PasswordUtil,DEFAULT_ALGORITHM,PBKDF2_PREFIX,jr2Hash,Text,hashedPassword,password,
IDENT_0,IDENT_1,IDENT_2,IDENT_3,IDENT_4,IDENT_5,IDENT_6,IDENT_7,







"{","}","pw","utf-8",
STRING_0,STRING_1,STRING_2,STRING_3,

























