testRequestMap,getRequest,getApiService,getRequestMap,getRequestId,getHref,
METHOD_0,METHOD_1,METHOD_2,METHOD_3,METHOD_4,METHOD_5,

victorsima,uber,Request,RequestMap,requestMap,href,
IDENT_0,IDENT_1,IDENT_2,IDENT_3,IDENT_4,IDENT_5,


































