test0,UAgent,getTechnique,
METHOD_0,METHOD_1,METHOD_2,

wai,accessdb,om,product,UAgent,u1,u2,GitHubTechniqueInfo,
IDENT_0,IDENT_1,IDENT_2,IDENT_3,IDENT_4,IDENT_5,IDENT_6,IDENT_7,







"Chrome","1.2.10","1.2.1",
STRING_0,STRING_1,STRING_2,

























