testMapRemoveNonExisting,writeBlock,newHashMap,MapRecord,fileStore,getReader,writeMap,
METHOD_0,METHOD_1,METHOD_2,METHOD_3,METHOD_4,METHOD_5,METHOD_6,

segment,RecordId,blockId,changes,MapRecord,zero,
IDENT_0,IDENT_1,IDENT_2,IDENT_3,IDENT_4,IDENT_5,







"one",
STRING_0,

























