primitiveArrays_oneline_no_desc,getPrimitiveArrayData,
METHOD_0,METHOD_1,










"[\n"," [3/9] [0, 1, 2, 3, 4, 5, 6, 7]\n"," [5/9] [0.0, 1.0, 2.0, 3.0, 4.0, 5.0, 6.0, 7.0]\n"," [6/9] [0, 1, 2, 3, 4, 5, 6, 7]\n"," [7/9] [0, 1, 2, 3, 4, 5, 6, 7]\n"," [8/9] [0, 1, 2, 3, 4, 5, 6, 7]\n"," [9/9] aaa\n"," bbb\n"," ccc\n","JspEngine[",
STRING_0,STRING_1,STRING_2,STRING_3,STRING_4,STRING_5,STRING_6,STRING_7,STRING_8,STRING_9,

























