getAllProductItems,getItemListByProductId,
METHOD_0,METHOD_1,

sample,petstore,dataobject,ProductItem,items,storeManager,productItemDao,productId,
IDENT_0,IDENT_1,IDENT_2,IDENT_3,IDENT_4,IDENT_5,IDENT_6,IDENT_7,







"FL-DSH-01",
STRING_0,

























