testCompareWith,newGCGeneration,compareWith,checkNotNull,
METHOD_0,METHOD_1,METHOD_2,METHOD_3,

segment,tar,GCGeneration,generation,gcGeneration,
IDENT_0,IDENT_1,IDENT_2,IDENT_3,IDENT_4,


































