primitiveArrays_multilines_no_desc,getPrimitiveArrayData,
METHOD_0,METHOD_1,




18,
INT_0,




" [1/9] [\n"," [01-10/18] true false true false true false true false true false\n"," [11-18/18] : ; < = > ? @ A\n"," [2/9] [\n"," [01-10/18] 00 01 02 03 04 05 06 07 08 09\n"," [3/9] [\n"," [01-10/18] 0.0 1.0 2.0 3.0 4.0 5.0 6.0 7.0 8.0 9.0\n"," [11-18/18] 10.0 11.0 12.0 13.0 14.0 15.0 16.0 17.0\n"," [5/9] [\n"," [8/9] [\n","JspEngine[",
STRING_0,STRING_1,STRING_2,STRING_3,STRING_4,STRING_5,STRING_6,STRING_7,STRING_8,STRING_9,STRING_10,

























