map_noCount,MapBuilder,setSortKeys,setPrintCount,
METHOD_0,METHOD_1,METHOD_2,METHOD_3,

citrus,ToStringBuilder,MapBuilder,mb,numberValue,stringValue,
IDENT_0,IDENT_1,IDENT_2,IDENT_3,IDENT_4,IDENT_5,







"dddd","ccc","444\n555\n","{\n"," a = 666\n"," ccc = 444\n"," 555\n"," dddd = 111\n"," 222\n",
STRING_0,STRING_1,STRING_2,STRING_3,STRING_4,STRING_5,STRING_6,STRING_7,STRING_8,

























