uncompress_only_2,getFormService,invokePost,getForm,getGroup,getField,
METHOD_0,METHOD_1,METHOD_2,METHOD_3,METHOD_4,METHOD_5,

form,formService,field1,field2,
IDENT_0,IDENT_1,IDENT_2,IDENT_3,







"form5","sumbit","_fm.grOup1._0.f","aaa","_fm.group1._0.field2","bbb","_fm.g._0.f","_fm.g._0.fi","group1","field1","field2",
STRING_0,STRING_1,STRING_2,STRING_3,STRING_4,STRING_5,STRING_6,STRING_7,STRING_8,STRING_9,STRING_10,

























