readWrite_anyType2,setAttribute,getAttribute,getRequest,
METHOD_0,METHOD_1,METHOD_2,METHOD_3,










"aaa","hello",
STRING_0,STRING_1,

























