getFileItems,createMock,addValue,createLinkedList,
METHOD_0,METHOD_1,METHOD_2,METHOD_3,

fileupload,FileItem,items,
IDENT_0,IDENT_1,IDENT_2,


































