check_defaultKey_succ,getParameter,check,trimToNull,
METHOD_0,METHOD_1,METHOD_2,METHOD_3,

HttpServletRequest,citrus,turbine,CsrfToken,fromRequest,
IDENT_0,IDENT_1,IDENT_2,IDENT_3,IDENT_4,







"_csrf_token","any",
STRING_0,STRING_1,

























