testInterfaceInheritedMethodRecognizedAsLocalBusinessMethod,fire,MyEvent,isFooObserved,
METHOD_0,METHOD_1,METHOD_2,METHOD_3,

fooEvent,weld,ejb,BaseClass,fooObserved,
IDENT_0,IDENT_1,IDENT_2,IDENT_3,IDENT_4,


































