testPack2fInput,nextFloat,pack,unpack,getIndex,
METHOD_0,METHOD_1,METHOD_2,METHOD_3,METHOD_4,

rows,columns,jtransforms,fft,RealFFTUtils_2DTest,DEFAULT_MESSAGE,numThreads,unpacker,packed,MIN_VALUE,RealFFTUtils_2D,ZERO,
IDENT_0,IDENT_1,IDENT_2,IDENT_3,IDENT_4,IDENT_5,IDENT_6,IDENT_7,IDENT_8,IDENT_9,IDENT_10,IDENT_11,







"[%d][%d]",
STRING_0,




%,
OP_0,



















