testTypedBeanDeployment,getBeans,
METHOD_0,METHOD_1,

enterprise,inject,Bean,weld,weld1192,StringFoo,
IDENT_0,IDENT_1,IDENT_2,IDENT_3,IDENT_4,IDENT_5,


































