itIsATransfer,setTransferTxaction,Txaction,isTransfer,
METHOD_0,METHOD_1,METHOD_2,METHOD_3,

txaction,wesabe,accounts,transferTxaction,
IDENT_0,IDENT_1,IDENT_2,IDENT_3,


































