shouldHaveEqualHashCodes,GUID,
METHOD_0,METHOD_1,

wesabe,guid,GUID,guid1,guid2,Objects,currencyCode,rate,
IDENT_0,IDENT_1,IDENT_2,IDENT_3,IDENT_4,IDENT_5,IDENT_6,IDENT_7,







"yay",
STRING_0,

























