itUsesTheSpecifiedName,present,
METHOD_0,METHOD_1,

wesabe,xmlson,XmlsonObject,representation,presenter,amount,GERMANY,
IDENT_0,IDENT_1,IDENT_2,IDENT_3,IDENT_4,IDENT_5,IDENT_6,







"amount",
STRING_0,

























