objectIdletime,addKey,dispatch,
METHOD_0,METHOD_1,METHOD_2,

K,lambdaworks,CommandArgs,V,IDLETIME,OBJECT,IntegerOutput,
IDENT_0,IDENT_1,IDENT_2,IDENT_3,IDENT_4,IDENT_5,IDENT_6,


































