testSimpleSerialization,setText,setTime,deserialize,out1,StringCharIterator,
METHOD_0,METHOD_1,METHOD_2,METHOD_3,METHOD_4,METHOD_5,

xapi,ModelText,X_Model,serialized,asModel,cls,
IDENT_0,IDENT_1,IDENT_2,IDENT_3,IDENT_4,IDENT_5,







"Hello World",
STRING_0,

























