smembers,sadd,dispatch,
METHOD_0,METHOD_1,METHOD_2,

K,V,lambdaworks,SET,StatusOutput,
IDENT_0,IDENT_1,IDENT_2,IDENT_3,IDENT_4,


































