testGetItemId,makeItemIdValue,getItemIdValue,ItemIdValueImpl,
METHOD_0,METHOD_1,METHOD_2,METHOD_3,

wikidata,wdtk,ItemIdValue,o1,Datamodel,o2,implementation,siteIri,
IDENT_0,IDENT_1,IDENT_2,IDENT_3,IDENT_4,IDENT_5,IDENT_6,IDENT_7,







"Q42",
STRING_0,

























