testGetReference,makeReference,getReference,ReferenceImpl,
METHOD_0,METHOD_1,METHOD_2,METHOD_3,

wikidata,wdtk,Reference,r1,Datamodel,r2,implementation,snakGroups,
IDENT_0,IDENT_1,IDENT_2,IDENT_3,IDENT_4,IDENT_5,IDENT_6,IDENT_7,


































