testGetDatatypeId,DatatypeIdImpl,getDatatypeIdValue,
METHOD_0,METHOD_1,METHOD_2,

wikidata,wdtk,implementation,DatatypeIdValue,o1,DT_TIME,o2,
IDENT_0,IDENT_1,IDENT_2,IDENT_3,IDENT_4,IDENT_5,IDENT_6,


































