testUnboundPortAnyAddr,getNextAvailable,
METHOD_0,METHOD_1,

portA,AvailablePortFinder,portB,MIN_PORT_NUMBER,
IDENT_0,IDENT_1,IDENT_2,IDENT_3,


































