newSiteLink,syncWithMode,
METHOD_0,METHOD_1,

rdfRepository,openrdf,Statement,TupleQueryResult,closed,blzgStmtIt,
IDENT_0,IDENT_1,IDENT_2,IDENT_3,IDENT_4,IDENT_5,







"Q23","SELECT * WHERE {?s ?p ?o}",
STRING_0,STRING_1,

























