testEncodeOctetString,DEREncoder,encodeOctetString,getEncoded,clone,
METHOD_0,METHOD_1,METHOD_2,METHOD_3,METHOD_4,

asn1,DEREncoder,encoder,encoded,
IDENT_0,IDENT_1,IDENT_2,IDENT_3,

35,69,103,119,85,51,17,
INT_0,INT_1,INT_2,INT_3,INT_4,INT_5,INT_6,































