testEncodeObjectIdentifier,DEREncoder,encodeObjectIdentifier,getEncoded,clone,
METHOD_0,METHOD_1,METHOD_2,METHOD_3,METHOD_4,

asn1,DEREncoder,encoder,encoded,
IDENT_0,IDENT_1,IDENT_2,IDENT_3,

23,105,126,89,33,76,24,97,72,57,75,94,46,64,128,86,82,41,118,27,127,
INT_0,INT_1,INT_2,INT_3,INT_4,INT_5,INT_6,INT_7,INT_8,INT_9,INT_10,INT_11,INT_12,INT_13,INT_14,INT_15,INT_16,INT_17,INT_18,INT_19,INT_20,




"2.25.196556539987194312349856245628873852187.1.128",
STRING_0,

























