testDecodeOctetString,DERDecoder,decodeOctetString,readTag,readLength,drain,asnUnexpectedEndOfInput,
METHOD_0,METHOD_1,METHOD_2,METHOD_3,METHOD_4,METHOD_5,METHOD_6,

asn1,DERDecoder,decoder,OCTET_STRING_TYPE,bi,ElytronMessages,
IDENT_0,IDENT_1,IDENT_2,IDENT_3,IDENT_4,IDENT_5,

13,97,98,99,33,35,69,70,71,72,32,94,
INT_0,INT_1,INT_2,INT_3,INT_4,INT_5,INT_6,INT_7,INT_8,INT_9,INT_10,INT_11,































