grandParentDelete,nodeExists,isAbsolute,DocumentStoreException,getHeadRevision,fromString,getNode,
METHOD_0,METHOD_1,METHOD_2,METHOD_3,METHOD_4,METHOD_5,METHOD_6,

mk,PathUtils,revisionId,nodeStore,RevisionVector,rev,DocumentNodeState,
IDENT_0,IDENT_1,IDENT_2,IDENT_3,IDENT_4,IDENT_5,IDENT_6,







"+\"a\" : { \"b\" : { \"c\" : { \"d\" : {} } } }","Add /a/b/c/d","/a","-\"b\"","Remove /b","/a/b/c/d","Path is not absolute: ",
STRING_0,STRING_1,STRING_2,STRING_3,STRING_4,STRING_5,STRING_6,

























