testStopEmbeddedServer,validateServerConnectivity,sendLine,validateRemoteConnection,isConnected,
METHOD_0,METHOD_1,METHOD_2,METHOD_3,METHOD_4,










"stop-embedded-server",
STRING_0,

























