DeploymentInfo,setContextPath,getDeploymentInfo,
METHOD_0,METHOD_1,METHOD_2,

undertow,DeploymentInfo,deployment,
IDENT_0,IDENT_1,IDENT_2,


































