acquire,getBean,tracef,
METHOD_0,METHOD_1,METHOD_2,

InfinispanEjbLogger,ROOT_LOGGER,
IDENT_0,IDENT_1,







"Acquiring reference to bean %s",
STRING_0,

























