testFlush,lookup,createCustomer,changeCustomer,findCustomerById,
METHOD_0,METHOD_1,METHOD_2,METHOD_3,METHOD_4,

EntityTest,Customer,c2,
IDENT_0,IDENT_1,IDENT_2,







"EntityTest","Thomas","George",
STRING_0,STRING_1,STRING_2,

























