sendAndRollbackIgnoreJTA,send,await,getCount,
METHOD_0,METHOD_1,METHOD_2,METHOD_3,

sender,latch,smoke,SendToQueueIgnoreJTATest,MAX_WAIT_IN_SECONDS,SECONDS,
IDENT_0,IDENT_1,IDENT_2,IDENT_3,IDENT_4,IDENT_5,


































