


inria,corese,kgram,Mappings,mappings,
IDENT_0,IDENT_1,IDENT_2,IDENT_3,IDENT_4,







"select distinct ?Concept where {[] a ?Concept} LIMIT 100","returned mappings = {}",
STRING_0,STRING_1,

























