testRender1,FlickerCode,FlickerRenderer,done,stop,setFrequency,waitFor,getProvider,getHashAlg,
METHOD_0,METHOD_1,METHOD_2,METHOD_3,METHOD_4,METHOD_5,METHOD_6,METHOD_7,METHOD_8,

kapott,hbci,FlickerCode,flicker,collected,FlickerRenderer,iterations,FREQUENCY_MAX,
IDENT_0,IDENT_1,IDENT_2,IDENT_3,IDENT_4,IDENT_5,IDENT_6,IDENT_7,







"0248A0120452019980812345678","11111 01111 10000 00000 11111 01111 11111 01111 11011 01011 10000 00000 11010 01010 10001 00001 11000 01000 10000 00000 10000 00000 10100 00100 11010 01010 10010 00010 10000 00000 10100 00100 11001 01001 11000 01000 10001 00001 11001 01001 10010 00010 10000 00000 10100 00100 11000 01000 10010 00010 11100 01100 10110 00110 11010 01010 10001 00001 11110 01110 11010 01010 11010 01010 ",":",
STRING_0,STRING_1,STRING_2,

























