testDatatypeValue11,createGraph,
METHOD_0,METHOD_1,

q2,q3,q4,inria,corese,Graph,QueryProcess,varList,
IDENT_0,IDENT_1,IDENT_2,IDENT_3,IDENT_4,IDENT_5,IDENT_6,IDENT_7,







"insert data {","graph us:g1 { <Jack> rdf:value 1, 1.0, 01, '1'^^xsd:long, '01'^^xsd:byte, 1e0, 2 }","graph us:g2 { <Jack> rdf:value 1, 1.0, 01, '1'^^xsd:long, '01'^^xsd:byte, 1e0, 2 }","} ","delete data { <Jack> rdf:value 01 }","delete where { <Jack> rdf:value 01 }","delete where { ?x rdf:value 01 }","select where { <Jack> rdf:value 01 }",
STRING_0,STRING_1,STRING_2,STRING_3,STRING_4,STRING_5,STRING_6,STRING_7,

























