testNG1,
METHOD_0,

inria,corese,GraphStore,QueryProcess,kgram,Mappings,
IDENT_0,IDENT_1,IDENT_2,IDENT_3,IDENT_4,IDENT_5,







"<John> foaf:knows <Jim>, <Jack> ","} ","<Jim> rdfs:label 'Jim' ","}","select * ","where {","?x foaf:knows ?y ","values ?g { us:g1 }","{select ?y ?l where { graph ?g { ?y rdfs:label ?l }}}",
STRING_0,STRING_1,STRING_2,STRING_3,STRING_4,STRING_5,STRING_6,STRING_7,STRING_8,

























