testQQS,createGraph,
METHOD_0,METHOD_1,

inria,corese,Graph,QueryProcess,kgram,Mappings,
IDENT_0,IDENT_1,IDENT_2,IDENT_3,IDENT_4,IDENT_5,







"insert data { ","<John> rdfs:label 'John' ","<James> rdfs:label 'James'","}","graph ?g {","{","?x rdfs:label 'John' ","filter exists { select * where {filter(?l = 'John') ?y rdfs:label ?l}} ","union {filter(?l = 'John') ?x rdfs:label ?l}",
STRING_0,STRING_1,STRING_2,STRING_3,STRING_4,STRING_5,STRING_6,STRING_7,STRING_8,

























