testUnnestNSM,
METHOD_0,

inria,corese,Graph,GraphStore,QueryProcess,kgram,Mappings,
IDENT_0,IDENT_1,IDENT_2,IDENT_3,IDENT_4,IDENT_5,IDENT_6,







"prefix ex: <htp://example.org/>","?p","}","function us:test(){","for ((?p, ?n) in st:prefix()){","xt:display(?p, ?n)",
STRING_0,STRING_1,STRING_2,STRING_3,STRING_4,STRING_5,

























