testGraphUnnest,
METHOD_0,

inria,corese,Graph,GraphStore,QueryProcess,g1,exec1,kgram,Mappings,
IDENT_0,IDENT_1,IDENT_2,IDENT_3,IDENT_4,IDENT_5,IDENT_6,IDENT_7,IDENT_8,







"insert data { us:prop1 rdfs:label 'prop' us:prop rdfs:label 'prop2' }","select * where {","values (?s ?p ?o) { unnest(us:define()) }","values (?s ?p ?o ?g) { unnest(us:define()) }","?s ?p ?o ","}","function us:define(){","let (?g = construct {us:prop1 rdfs:label 'prop' us:prop rdfs:label 'prop2'} where {})","{ ","?g }",
STRING_0,STRING_1,STRING_2,STRING_3,STRING_4,STRING_5,STRING_6,STRING_7,STRING_8,STRING_9,

























