testSystemStateSetFileName,setFileName,getFileName,
METHOD_0,METHOD_1,METHOD_2,

fileSeparator,testFileName,systemState,fileName,
IDENT_0,IDENT_1,IDENT_2,IDENT_3,







"file.separator","folder1","folder2","fileName.nc",
STRING_0,STRING_1,STRING_2,STRING_3,

























