testWriteOffset,fromString,Base64OutputStream,arraycopy,
METHOD_0,METHOD_1,METHOD_2,METHOD_3,

james,mime4j,Base64OutputStream,
IDENT_0,IDENT_1,IDENT_2,







"123456789012345678901234567890123456789012","3456789012345678901234567890123456789012345678901234567890","123456789012345","US-ASCII","MTIzNDU2Nzg5MDEyMzQ1Njc4OTAxMjM0NTY3ODkwMTIzNDU2Nz","g5MDEyMzQ1Njc4OTAxMjM0NTY3\r\nODkwMTIzNDU2Nzg5MDEyMzQ1Njc4","OTAxMjM0NTY3ODkwMTIzNDU2Nzg5MDEyMzQ1Njc4OTAxMjM0\r\nNQ==\r",
STRING_0,STRING_1,STRING_2,STRING_3,STRING_4,STRING_5,STRING_6,

























