testEncodeQRegular,encodeQ,hexDigit,
METHOD_0,METHOD_1,METHOD_2,

james,mime4j,EncoderUtil$Usage,BitSet,qChars,usage,EncoderUtil,Usage,TEXT_TOKEN,Q_REGULAR_CHARS,Q_RESTRICTED_CHARS,aByte,
IDENT_0,IDENT_1,IDENT_2,IDENT_3,IDENT_4,IDENT_5,IDENT_6,IDENT_7,IDENT_8,IDENT_9,IDENT_10,IDENT_11,

132,32,
INT_0,INT_1,




"=00=01=02=03=04=05=06=07=08=09=0A=0B=0C=0D=0E=0F","=10=11=12=13=14=15=16=17=18=19=1A=1B=1C=1D=1E=1F_!\"#$%&","'()*+,-./0123456789:;<=3D>=3F@ABCDEFGHIJKLMNOPQRSTUVWXYZ","[\\]^=5F`abcdefghijklmnopqrstuvwxyz{|}~=7F=80=81=82=83",'_','=',
STRING_0,STRING_1,STRING_2,STRING_3,STRING_4,STRING_5,

























