testFoldOverlyLongNonWhitespace,fold,indexOfWsp,
METHOD_0,METHOD_1,METHOD_2,

ninety,maxCharacters,usedCharacters,lastLineBreak,wspIdx,james,mime4j,MimeUtil,nextWspIdx,
IDENT_0,IDENT_1,IDENT_2,IDENT_3,IDENT_4,IDENT_5,IDENT_6,IDENT_7,IDENT_8,

76,
INT_0,




"1234567890123456789012345678901234567890","12345678901234567890123456789012345678901234567890","testing 1 2 %s testing %s","testing 1 2\r\n %s\r\n testing\r\n %s","\r\n",
STRING_0,STRING_1,STRING_2,STRING_3,STRING_4,

























