testSetMessageId,setMessageId,getMessageId,
METHOD_0,METHOD_1,METHOD_2,

james,mime4j,MessageBuilder,
IDENT_0,IDENT_1,IDENT_2,







"<msg17@localhost>",
STRING_0,

























