testSetter,MemoryStorageProvider,setInstance,
METHOD_0,METHOD_1,METHOD_2,

james,mime4j,StorageProvider,DefaultStorageProvider,
IDENT_0,IDENT_1,IDENT_2,IDENT_3,


































