jsonAPI_01,checkRead,getBaseItem,
METHOD_0,METHOD_1,METHOD_2,

JsonObject,JSON,holder,
IDENT_0,IDENT_1,IDENT_2,







"{ key1: 'str1' , key2: [ 1 , 2 ] }",
STRING_0,

























