loadEmptyRuleFile,loadModelWithFile,getRules,
METHOD_0,METHOD_1,METHOD_2,

objectstyle,wolips,ruleeditor,Rule,myBackingMap,
IDENT_0,IDENT_1,IDENT_2,IDENT_3,IDENT_4,







"empty-file.d2wmodel",
STRING_0,

























