test_param_string_constructor_2,ParameterizedSparqlString,getCommandText,
METHOD_0,METHOD_1,METHOD_2,

ParameterizedSparqlString,cmd,
IDENT_0,IDENT_1,


































