collectEmptyNSArrayWhenStreamReturnsNoElements,toNSArray,
METHOD_0,METHOD_1,

webobjects,foundation,NSArray,Stream,_width,_height,_metadataDirectories,
IDENT_0,IDENT_1,IDENT_2,IDENT_3,IDENT_4,IDENT_5,IDENT_6,


































