testBuildTriggerName,ERQSJobSupervisor,buildTriggerName,
METHOD_0,METHOD_1,METHOD_2,

er,quartzscheduler,foundation,ERQSJobSupervisor,js,TRIGGER_SUFFIX,
IDENT_0,IDENT_1,IDENT_2,IDENT_3,IDENT_4,IDENT_5,


































