testCacheByPage,findAll,toJSONString,
METHOD_0,METHOD_1,METHOD_2,

begin,xiaolyuh,persons,personService,ing,fastjson,JSON,ruleMapper,
IDENT_0,IDENT_1,IDENT_2,IDENT_3,IDENT_4,IDENT_5,IDENT_6,IDENT_7,







"ms",":",
STRING_0,STRING_1,

























