testEqualAndEmpty,EqualValueRange,EmptyRange,intersection,
METHOD_0,METHOD_1,METHOD_2,METHOD_3,

j_spaces,Range,range1,range2,intersect,RelationRange,
IDENT_0,IDENT_1,IDENT_2,IDENT_3,IDENT_4,IDENT_5,







"col",
STRING_0,

























