source_uri_force_lang,createGraphMem,forceLang,
METHOD_0,METHOD_1,METHOD_2,

Graph,sparql,GraphFactory,riot,RDFParser,TestRDFParser,DIR,Lang,TTL,pmap,
IDENT_0,IDENT_1,IDENT_2,IDENT_3,IDENT_4,IDENT_5,IDENT_6,IDENT_7,IDENT_8,IDENT_9,







"file:","data.rdf",
STRING_0,STRING_1,

























