dumpAndRestore,dump,restore,sendCommand,
METHOD_0,METHOD_1,METHOD_2,METHOD_3,

jedis,sv,clients,GET,
IDENT_0,IDENT_1,IDENT_2,IDENT_3,







"foo1","foo2",
STRING_0,STRING_1,

























