testGetHost,HostPort,getHost,
METHOD_0,METHOD_1,METHOD_2,

xiaomi,infra,chronos,zookeeper,HostPort,hostPort,
IDENT_0,IDENT_1,IDENT_2,IDENT_3,IDENT_4,IDENT_5,

2181,
INT_0,




"127.0.0.1",
STRING_0,

























