selectAllUser,isNotEmpty,
METHOD_0,METHOD_1,

xkcoding,orm,mybatis,userList,userMapper,cn,hutool,CollUtil,
IDENT_0,IDENT_1,IDENT_2,IDENT_3,IDENT_4,IDENT_5,IDENT_6,IDENT_7,







"userList= {}",
STRING_0,

























