findUAll,getSQLValue,getSql,
METHOD_0,METHOD_1,METHOD_2,

fastjson,JSONArray,jsonArray,fastquery,struct,SQLValue,sqlValue,
IDENT_0,IDENT_1,IDENT_2,IDENT_3,IDENT_4,IDENT_5,IDENT_6,







"select id,name,age from UserInfo limit 3",
STRING_0,

























