attributeMapNoAttributes,createElement,getAttributes,
METHOD_0,METHOD_1,METHOD_2,

xmlunit,NodesTest,FOO,namespace,QName,Nodes,calls,
IDENT_0,IDENT_1,IDENT_2,IDENT_3,IDENT_4,IDENT_5,IDENT_6,


































