testAddUuidCollection,UUIDIterator,addUUIDs,
METHOD_0,METHOD_1,METHOD_2,

uuidList,LinkedList,xtreemfs,libxtreemfs,UUIDIterator,
IDENT_0,IDENT_1,IDENT_2,IDENT_3,IDENT_4,







"uuidstring1","uuidstring2","uuidstring3",
STRING_0,STRING_1,STRING_2,

























