testBuildLong_03,parseItem,buildLong,buildInteger,longValue,
METHOD_0,METHOD_1,METHOD_2,METHOD_3,METHOD_4,

sparql,sse,Item,SSE,builders,BuilderNode,dft,
IDENT_0,IDENT_1,IDENT_2,IDENT_3,IDENT_4,IDENT_5,IDENT_6,

23,
INT_0,




"_",
STRING_0,

























