testNum_01,getInt,checkRead,getBaseItem,
METHOD_0,METHOD_1,METHOD_2,METHOD_3,

sparql,sse,Item,SSE,holder,
IDENT_0,IDENT_1,IDENT_2,IDENT_3,IDENT_4,


































