getRepositories,getComponentUnderTest,addRepository,
METHOD_0,METHOD_1,METHOD_2,

mocker,descriptor,ExtensionRepository,repositorties,testRepository,
IDENT_0,IDENT_1,IDENT_2,IDENT_3,IDENT_4,


































