eventType,DefaultUntypedRecordableEvent,getEventType,
METHOD_0,METHOD_1,METHOD_2,

eventstream,DefaultUntypedRecordableEvent,descriptor,
IDENT_0,IDENT_1,IDENT_2,







"unitTestEvent","eventType",
STRING_0,STRING_1,

























