ext_1,filenameNoCompression,isExtension,removeExtension,
METHOD_0,METHOD_1,METHOD_2,METHOD_3,

fn1,fn2,IO,FilenameUtils,filename,extensions,
IDENT_0,IDENT_1,IDENT_2,IDENT_3,IDENT_4,IDENT_5,







"file.txt",
STRING_0,

























