getLinkLabelFormat,getComponentUnderTest,
METHOD_0,METHOD_1,

ConfigurationSource,mocker,
IDENT_0,IDENT_1,







"rendering.linkLabelFormat","%np",
STRING_0,STRING_1,

























