testTransformWithInvalidSheet,StreamSource,StringReader,
METHOD_0,METHOD_1,METHOD_2,

xslt,
IDENT_0,







"<a b='c'>d</a>","<xsl:stylesheet xmlns:xsl='http://www.w3.org/1999/XSL/Transform' version='1.0'>","<xsl:output method='xml'/><xsl:template match='node()'><xsl:copy/></xsl:template></xsl:stylesheet>",
STRING_0,STRING_1,STRING_2,

























