convertToSyntaxObjectWhenNull,getComponentUnderTest,
METHOD_0,METHOD_1,

rendering,syntax,Syntax,mocker,targetType,sourceValue,
IDENT_0,IDENT_1,IDENT_2,IDENT_3,IDENT_4,IDENT_5,


































