testCopyReaderWriter,StringReader,copy,
METHOD_0,METHOD_1,METHOD_2,

StringReader,dest,yacy,kelondro,FileUtils,red,green,blue,
IDENT_0,IDENT_1,IDENT_2,IDENT_3,IDENT_4,IDENT_5,IDENT_6,IDENT_7,







"A test string","RGB(",",",")",
STRING_0,STRING_1,STRING_2,STRING_3,

























