testTotalCount,totalCount,
METHOD_0,METHOD_1,

yacy,cora,sorting,ConcurrentScoreMap,csm,sum,gcount,
IDENT_0,IDENT_1,IDENT_2,IDENT_3,IDENT_4,IDENT_5,IDENT_6,

13,
INT_0,




"first","second","third",
STRING_0,STRING_1,STRING_2,

























