testReplaceQuotes,replaceQuotes,
METHOD_0,METHOD_1,

moviejukebox,StringToolsTest,StringTools,QUOTE_PATTERN,QUOTE_SINGLE,
IDENT_0,IDENT_1,IDENT_2,IDENT_3,IDENT_4,







"replaceQuotes","Quote’s, Quote\"s, Quote`s, Quote\'s","Quote's, Quote's, Quote's, Quote's",
STRING_0,STRING_1,STRING_2,

























