testStartsEmpty,getSpanSinks,
METHOD_0,METHOD_1,

yammer,telemetry,tracing,SpanSinkRegistry,spanSinks,
IDENT_0,IDENT_1,IDENT_2,IDENT_3,IDENT_4,


































