testLongestIncreasingSubsequence_emptyList,longestIncreasingSubsequence,
METHOD_0,METHOD_1,

sublist,pengyifan,ListUtils,E,
IDENT_0,IDENT_1,IDENT_2,IDENT_3,


































