thereAre2LitsWoLang,listStatements,
METHOD_0,METHOD_1,

rdf,StmtIterator,TestListStatements,NiceIterator,
IDENT_0,IDENT_1,IDENT_2,IDENT_3,


































