testCandy2,candy,fill,
METHOD_0,METHOD_1,METHOD_2,

ratings,sum,scanLeft,scanRight,
IDENT_0,IDENT_1,IDENT_2,IDENT_3,

20000,
INT_0,










--,
OP_0,



















