Customer,setAge,
METHOD_0,METHOD_1,

iyihua,sample,customer,Customer,cust,customerRepository,
IDENT_0,IDENT_1,IDENT_2,IDENT_3,IDENT_4,IDENT_5,

30,
INT_0,




"test-name",
STRING_0,

























