testSolve,solve,offer,Pair,poll,
METHOD_0,METHOD_1,METHOD_2,METHOD_3,METHOD_4,

board,Queue,pengyifan,leetcode,SurroundedRegions,Pair,LinkedList,
IDENT_0,IDENT_1,IDENT_2,IDENT_3,IDENT_4,IDENT_5,IDENT_6,







'X','O','L',
STRING_0,STRING_1,STRING_2,

























