testReverseWords_null,reverseWords,push,pop,
METHOD_0,METHOD_1,METHOD_2,METHOD_3,

Stack,stack,word,
IDENT_0,IDENT_1,IDENT_2,







' ',
STRING_0,

























