testScan,scan,
METHOD_0,METHOD_1,

ssdbClient,hyd,ssdb,KeyValue,keyValues,keyValue,Processor,prefix,batchSize,keyConsumer,
IDENT_0,IDENT_1,IDENT_2,IDENT_3,IDENT_4,IDENT_5,IDENT_6,IDENT_7,IDENT_8,IDENT_9,







"_key0","_key1","_key2","_key3","_key4","_key9",
STRING_0,STRING_1,STRING_2,STRING_3,STRING_4,STRING_5,

























