remove_listener_while_backing_array_is_full,processEvents,
METHOD_0,METHOD_1,

number,Runnable,last,itdelatrisu,opsu,beatmap,BeatmapWatchService,
IDENT_0,IDENT_1,IDENT_2,IDENT_3,IDENT_4,IDENT_5,IDENT_6,


































