tree_iter_2_03,makeRangeIndex,toIntList,intToRecord,
METHOD_0,METHOD_1,METHOD_2,METHOD_3,

dboe,RangeIndex,rIndex,IndexTestLib,tdb,RecordLib,TestRecordLength,
IDENT_0,IDENT_1,IDENT_2,IDENT_3,IDENT_4,IDENT_5,IDENT_6,


































