getServletMappingsTest,print,AppInitializer,getServletMappings,
METHOD_0,METHOD_1,METHOD_2,METHOD_3,

ua,alexcoffee,AppInitializer,appInitializer,
IDENT_0,IDENT_1,IDENT_2,IDENT_3,







"-> getServletMappings() - ","OK!",
STRING_0,STRING_1,

























