shouldBuildVersionFromNormalVersion,parseValidSemVer,
METHOD_0,METHOD_1,

zafarkhaja,semver,Version,VersionParser,
IDENT_0,IDENT_1,IDENT_2,IDENT_3,







"1.0.0",
STRING_0,

























