testSearchA2DMatrix,Solution,searchMatrix,
METHOD_0,METHOD_1,METHOD_2,

lc,SearchA2DMatrix,Solution,mat1,target1,matrix,
IDENT_0,IDENT_1,IDENT_2,IDENT_3,IDENT_4,IDENT_5,













--,
OP_0,



















