illegalCompatibilityMode,h2,withMode,
METHOD_0,METHOD_1,METHOD_2,

zapodot,EmbeddedDatabaseRule,
IDENT_0,IDENT_1,







"something",
STRING_0,

























