testGetBytes,initMsg,duplicate,arraycopy,
METHOD_0,METHOD_1,METHOD_2,METHOD_3,

zmq,Msg,dst,dup,off,
IDENT_0,IDENT_1,IDENT_2,IDENT_3,IDENT_4,


































