testSetIntervalNonExistentTimer,setInterval,
METHOD_0,METHOD_1,

rc,timers,zmq,TimersTest,NON_EXISTENT,
IDENT_0,IDENT_1,IDENT_2,IDENT_3,IDENT_4,


































