testCreateSchema,
METHOD_0,

zendesk,maxwell,ddl,SchemaChange,changes,DatabaseCreate,columns,
IDENT_0,IDENT_1,IDENT_2,IDENT_3,IDENT_4,IDENT_5,IDENT_6,







"CREATE SCHEMA if not exists `foo`",
STRING_0,

























