testJavaVersionFuture,ProcessExecutor,getFuture,getExitValue,
METHOD_0,METHOD_1,METHOD_2,METHOD_3,

exit,zeroturnaround,
IDENT_0,IDENT_1,







"java","-version",
STRING_0,STRING_1,

























