TupleIndexRecordFindNot_2,
METHOD_0,

tdb2,tupletable,TupleIndex,AbstractTestTupleIndex,n1,n2,n3,Tuple,NodeId,tuple2,n5,n6,iter,has,closed,
IDENT_0,IDENT_1,IDENT_2,IDENT_3,IDENT_4,IDENT_5,IDENT_6,IDENT_7,IDENT_8,IDENT_9,IDENT_10,IDENT_11,IDENT_12,IDENT_13,IDENT_14,







"SPO",
STRING_0,

























