testTimer,buildReactor,withTimer,LoopHandler,incrementAndGet,
METHOD_0,METHOD_1,METHOD_2,METHOD_3,METHOD_4,

zeromq,Reactor,reactor,Pollable,pollable,safe,thread,
IDENT_0,IDENT_1,IDENT_2,IDENT_3,IDENT_4,IDENT_5,IDENT_6,

25,500,
INT_0,INT_1,































