insertTest,getUser,Random,nextInt,Users,
METHOD_0,METHOD_1,METHOD_2,METHOD_3,METHOD_4,

user1Mapper,zhyd,springboot,multi,User1DatasourceTests,ii,username,
IDENT_0,IDENT_1,IDENT_2,IDENT_3,IDENT_4,IDENT_5,IDENT_6,







"username","password",
STRING_0,STRING_1,

























