testZSS861,getTo,click,jq,waitUntilProcessEnd,getTimeoutL0,offsetLeft,offsetTop,round,parseDouble,
METHOD_0,METHOD_1,METHOD_2,METHOD_3,METHOD_4,METHOD_5,METHOD_6,METHOD_7,METHOD_8,METHOD_9,

zkoss,zss,Setup,sleft,stop,fleft,ftop,
IDENT_0,IDENT_1,IDENT_2,IDENT_3,IDENT_4,IDENT_5,IDENT_6,







"issue3/861-merge-focus.zul",".zscell",".zsselect",".zsfocmark","offset().top",
STRING_0,STRING_1,STRING_2,STRING_3,STRING_4,

























