testOtherFilter,setupThresholder,getThreshold,parseThreshold,
METHOD_0,METHOD_1,METHOD_2,METHOD_3,

calc,cz,cuni,lf1,lge,ThunderSTORM,thresholding,Thresholder,thresholds,formula,
IDENT_0,IDENT_1,IDENT_2,IDENT_3,IDENT_4,IDENT_5,IDENT_6,IDENT_7,IDENT_8,IDENT_9,







"min(Box.F)",
STRING_0,

























