zeroCodeReturnsNull,getCharsetByByte,forName,
METHOD_0,METHOD_1,METHOD_2,

linuxense,javadbf,DBFCharsetHelper,charset,Charset,
IDENT_0,IDENT_1,IDENT_2,IDENT_3,IDENT_4,

87,89,101,102,103,106,107,120,121,122,123,124,125,126,150,151,152,201,202,203,
INT_0,INT_1,INT_2,INT_3,INT_4,INT_5,INT_6,INT_7,INT_8,INT_9,INT_10,INT_11,INT_12,INT_13,INT_14,INT_15,INT_16,INT_17,INT_18,INT_19,




"IBM437","windows-932","IBM852","MacRoman","IBM866","windows-950","windows-1251","windows-1253",
STRING_0,STRING_1,STRING_2,STRING_3,STRING_4,STRING_5,STRING_6,STRING_7,

























