queryAll,click,
METHOD_0,METHOD_1,

zkoss,zats,mimic,DesktopAgent,desktop,ComponentAgent,buttons,_map,
IDENT_0,IDENT_1,IDENT_2,IDENT_3,IDENT_4,IDENT_5,IDENT_6,IDENT_7,







"button","Cannot run into this line!",
STRING_0,STRING_1,

























