testLogAttribute,writeJsonTo,fromJson,
METHOD_0,METHOD_1,METHOD_2,

spf4j,LogAttribute,LogAttributeTest,fromJson,wrapped,
IDENT_0,IDENT_1,IDENT_2,IDENT_3,IDENT_4,







"text","nested","nextsed val","Json",
STRING_0,STRING_1,STRING_2,STRING_3,

























