testProfileId,getEndpoint,setProfileId,getProfileId,
METHOD_0,METHOD_1,METHOD_2,METHOD_3,

zsmartsystems,zigbee,ZigBeeEndpoint,endpoint,profileId,
IDENT_0,IDENT_1,IDENT_2,IDENT_3,IDENT_4,

260,
INT_0,































