testDeweyVersionToNewRun,DeweyVersion,addRun,
METHOD_0,METHOD_1,METHOD_2,

fhuss,cep,nfa,DeweyVersion,timestamp,topic,partition,
IDENT_0,IDENT_1,IDENT_2,IDENT_3,IDENT_4,IDENT_5,IDENT_6,







"Event{","key=",", value=",", timestamp=",", topic='",'\'',", partition=",", offset=",'}',
STRING_0,STRING_1,STRING_2,STRING_3,STRING_4,STRING_5,STRING_6,STRING_7,STRING_8,

























