testisEmpty_NoNodes,addValueVar,alloc,
METHOD_0,METHOD_1,METHOD_2,

sparql,Var,valuesTable,
IDENT_0,IDENT_1,IDENT_2,







"v",
STRING_0,

























