customSelectWithIndexedParams_should_return_a_list_of,customSelectWithIndexedParams,
METHOD_0,METHOD_1,

simpledb,SimpleDbUser,
IDENT_0,IDENT_1,







"tes_string$",
STRING_0,

0.01F,
FLOAT_0,






















