fetchingExistingResource,
METHOD_0,

shouldNotExist,airhacks,afterburner,views,FXMLView,
IDENT_0,IDENT_1,IDENT_2,IDENT_3,IDENT_4,







"existing.xml",
STRING_0,

























