shouldRaiseConstraintsViolation,Book,
METHOD_0,METHOD_1,

agoncal,training,javaee,Book,book,ConstraintViolation,constraints,BookTest,
IDENT_0,IDENT_1,IDENT_2,IDENT_3,IDENT_4,IDENT_5,IDENT_6,IDENT_7,


































