fetchStatistics,
METHOD_0,

JsonObject,statistics,mainTarget,MediaType,APPLICATION_JSON,
IDENT_0,IDENT_1,IDENT_2,IDENT_3,IDENT_4,


































