shouldRaiseNoConstraintViolation,CD,
METHOD_0,METHOD_1,

agoncal,training,javaee,CD,cd,ConstraintViolation,constraints,CDTest,
IDENT_0,IDENT_1,IDENT_2,IDENT_3,IDENT_4,IDENT_5,IDENT_6,IDENT_7,







"title","Beatles master piece","Apple","Pop",
STRING_0,STRING_1,STRING_2,STRING_3,

12.8F,53.32F,
FLOAT_0,FLOAT_1,






















