shouldCheckGetCustomerByZipCodeWithParamURI,queryParam,
METHOD_0,METHOD_1,

agoncal,sample,CustomerCRUDRestServiceIT,
IDENT_0,IDENT_1,IDENT_2,

75011L,
INT_0,




"http://localhost:8282/customer","zip",
STRING_0,STRING_1,

























