testCharTypeIllegalParameters,CharTypeInfo,
METHOD_0,METHOD_1,

illegalLength,CharTypeInfo,MAX_CHAR_LENGTH,aliyun,odps,
IDENT_0,IDENT_1,IDENT_2,IDENT_3,IDENT_4,


































