constructorInvalidSK,BasicSessionCredentials,
METHOD_0,METHOD_1,

thrown,aliyuncs,durationSecond,BasicSessionCredentials,credentials,
IDENT_0,IDENT_1,IDENT_2,IDENT_3,IDENT_4,

86400,
INT_0,




"token","ak",
STRING_0,STRING_1,

























