testPairWiseSum,MockAddable,sumRows,
METHOD_0,METHOD_1,METHOD_2,

dk,alexandra,fresco,numeric,TestAddable,MockAddable,rowOne,rowTwo,Addable,
IDENT_0,IDENT_1,IDENT_2,IDENT_3,IDENT_4,IDENT_5,IDENT_6,IDENT_7,IDENT_8,


































