constructorInvalidAK,KeyPairCredentials,
METHOD_0,METHOD_1,

thrown,aliyuncs,ak,sk,KeyPairCredentials,credentials,
IDENT_0,IDENT_1,IDENT_2,IDENT_3,IDENT_4,IDENT_5,







"sk",
STRING_0,

























