testMissingArgument,fromArgs,
METHOD_0,METHOD_1,

PipelineOptionsFactoryTest,Objects,PipelineOptionsFactory,
IDENT_0,IDENT_1,IDENT_2,


































