execCommand,
METHOD_0,

testString,ShellUtils,
IDENT_0,IDENT_1,







"alluxio","bash","-c","echo ",
STRING_0,STRING_1,STRING_2,STRING_3,

























