testConstructZip64RequiredException,Zip64RequiredException,
METHOD_0,METHOD_1,

compress,archivers,zip,Zip64RequiredException,
IDENT_0,IDENT_1,IDENT_2,IDENT_3,







"critique of pure",
STRING_0,

























