testGetContainerName,getContainerName,
METHOD_0,METHOD_1,

inputType,inputId,SwiftUtil,
IDENT_0,IDENT_1,IDENT_2,

45,
INT_0,




"Template","T-45",
STRING_0,STRING_1,

























