testDeleteQuietlyNonExistent,deleteQuietly,
METHOD_0,METHOD_1,

testFile,FileUtils,
IDENT_0,IDENT_1,







"testDeleteQuietlyNonExistent",
STRING_0,

























