testODataApplicationException1,ODataApplicationException,
METHOD_0,METHOD_1,

ODataApplicationException,ENGLISH,
IDENT_0,IDENT_1,

500,
INT_0,




"Exception","Error",
STRING_0,STRING_1,

























