listFiles,endsWith,SystemOutLogger,testOneFile,
METHOD_0,METHOD_1,METHOD_2,METHOD_3,

stress,files,dir,POILogger,WARN,
IDENT_0,IDENT_1,IDENT_2,IDENT_3,IDENT_4,







"test-data/slideshow/",".ppt","Testing "," files","Failed to handle file ",
STRING_0,STRING_1,STRING_2,STRING_3,STRING_4,

























