testEqualityMethods,fromConstantByteArray,fromConstantByteBuffer,wrap,
METHOD_0,METHOD_1,METHOD_2,METHOD_3,

parquet,Binary,bin1,bin2,
IDENT_0,IDENT_1,IDENT_2,IDENT_3,







"alice",
STRING_0,

























