deleteQuietlyNonExistent,getRoot,deleteDirectory,
METHOD_0,METHOD_1,METHOD_2,

testFile,tempFolder,FileUtils,
IDENT_0,IDENT_1,IDENT_2,







"testDeleteQuietlyNonExistent",
STRING_0,

























