testExercise21zip,zip,forEach,
METHOD_0,METHOD_1,METHOD_2,

learnrxjava,ComposableList,slr,ComposableListExercises,
IDENT_0,IDENT_1,IDENT_2,IDENT_3,







"----------- testExercise21 zip ----------------",
STRING_0,

























