shouldReturnFalseForNullString,containsAny,
METHOD_0,METHOD_1,

xephi,authme,
IDENT_0,IDENT_1,







"some","words","to","check",
STRING_0,STRING_1,STRING_2,STRING_3,

























