testConcurrentConfigurationContext_1,ConcurrentConfigurationContext,
METHOD_0,METHOD_1,

audit4j,ConcurrentConfigurationContext,
IDENT_0,IDENT_1,


































