simpleQuery,getTable,RangeKeyCondition,between,
METHOD_0,METHOD_1,METHOD_2,METHOD_3,

dynamodbv2,Table,dynamo,quickstart,TABLE_NAME,ItemCollection,col,HASH_KEY_NAME,RANGE_KEY_NAME,Item,
IDENT_0,IDENT_1,IDENT_2,IDENT_3,IDENT_4,IDENT_5,IDENT_6,IDENT_7,IDENT_8,IDENT_9,


































