whenMapIdToEmployees_thenGetEmployeeStream,
METHOD_0,

empIds,stackify,Employee,employees,Stream,EmployeeTest,employeeRepository,findById,Collectors,
IDENT_0,IDENT_1,IDENT_2,IDENT_3,IDENT_4,IDENT_5,IDENT_6,IDENT_7,IDENT_8,


































