should_not_validate_invalid_string,
METHOD_0,

no,bekk,bekkopen,ConstraintViolation,violations,FodselsnummerAnnotationTest,
IDENT_0,IDENT_1,IDENT_2,IDENT_3,IDENT_4,IDENT_5,







"1234",
STRING_0,

























