givenTraceDisabled_whenIsEnabled_thenReturnsFalse,isTraceEnabled,isEnabled,only,
METHOD_0,METHOD_1,METHOD_2,METHOD_3,

brandwatch,robots,LogLevel,level,TRACE,mockLogger,
IDENT_0,IDENT_1,IDENT_2,IDENT_3,IDENT_4,IDENT_5,


































