defaultOptionsException,getHeader,toResponse,DefaultOptionsMethodException,
METHOD_0,METHOD_1,METHOD_2,METHOD_3,

forex,HttpHeaderNames,ACCEPT,rem,resteasy,
IDENT_0,IDENT_1,IDENT_2,IDENT_3,IDENT_4,







"application/json",
STRING_0,

























