a02_basic_onClass,noValidate,isRequired,
METHOD_0,METHOD_1,METHOD_2,

juneau,httppart,HttpPartSchema,Body,HttpPartSchemaTest_Body,A02,required,
IDENT_0,IDENT_1,IDENT_2,IDENT_3,IDENT_4,IDENT_5,IDENT_6,


































