testSearchTrack,searchTrack,
METHOD_0,METHOD_1,

SpotifySearchArtists,searchResults,
IDENT_0,IDENT_1,







"tania%20bowra","artist",
STRING_0,STRING_1,

























