testIDNNotExceeds255CharsLimit,SocksCmdRequest,
METHOD_0,METHOD_1,

socks,SocksMessage,CmdType,BIND,AddressType,DOMAIN,
IDENT_0,IDENT_1,IDENT_2,IDENT_3,IDENT_4,IDENT_5,







"....",
STRING_0,

























