areEqual,ErrorResponseDTO,
METHOD_0,METHOD_1,

clouway,oauth2,exampleapp,ErrorResponseDTO,errorResponse1,errorResponse2,
IDENT_0,IDENT_1,IDENT_2,IDENT_3,IDENT_4,IDENT_5,







"code","description",
STRING_0,STRING_1,

























