shouldIllegalArgumentOnEmptyTermsDuringExport,phrase,SearchQuery,verifyException,export,
METHOD_0,METHOD_1,METHOD_2,METHOD_3,METHOD_4,

queries,PhraseQuery,fts,SearchQuery,
IDENT_0,IDENT_1,IDENT_2,IDENT_3,


































