testGetIndicesToBeRemoved,SyncSampleIntersectFinderImpl,getCommonIndices,
METHOD_0,METHOD_1,METHOD_2,

mp4parser,authoring,SyncSampleIntersectFinderImpl,syncSampleIntersectFinder,a_sample,a_times,b_1,b_2,a_2,
IDENT_0,IDENT_1,IDENT_2,IDENT_3,IDENT_4,IDENT_5,IDENT_6,IDENT_7,IDENT_8,

40,48,60,80,82,24,30,41,26,25,
INT_0,INT_1,INT_2,INT_3,INT_4,INT_5,INT_6,INT_7,INT_8,INT_9,































