testUnindexed,copyOf,TermsForField,
METHOD_0,METHOD_1,METHOD_2,

Term,terms,greplin,
IDENT_0,IDENT_1,IDENT_2,







"noIndex",
STRING_0,

























