testConstruct_emptyServiceUr1_assertIllegalArgumentException,MockService,
METHOD_0,METHOD_1,

HttpClient,exceptionOccured,
IDENT_0,IDENT_1,


































