ttestUpdatePolicyAttributes_noEntityManager_assertException,CertPolicyDaoImpl,updatePolicyAttributes,
METHOD_0,METHOD_1,METHOD_2,

CertPolicyDaoImpl,exceptionOccured,
IDENT_0,IDENT_1,

12345,
INT_0,































