testMultipleARecords,testCleanDatabase,createARecord,
METHOD_0,METHOD_1,METHOD_2,

DNSRecord,record1,DNSRecordUtils,record2,record3,dnsDao,SRV,
IDENT_0,IDENT_1,IDENT_2,IDENT_3,IDENT_4,IDENT_5,IDENT_6,

86400L,
INT_0,




"example.domain.com","127.0.0.1","example2.domain.com","74.22.43.123","sample.domain.com","81.142.48.20",
STRING_0,STRING_1,STRING_2,STRING_3,STRING_4,STRING_5,

























