testConstruct_parameterizedConstructor_nullDetails,Tx,
METHOD_0,METHOD_1,

exceptionOccured,TxMessageType,DSN,
IDENT_0,IDENT_1,IDENT_2,


































