testContrust_parameterizedConstructor_invaludURL,SMTPClientFactory,DSNMailSender,
METHOD_0,METHOD_1,METHOD_2,

SMTPClientFactory,exceptionOccured,
IDENT_0,IDENT_1,







"smtpewdf://localhost\\:10026",
STRING_0,

























