testSessionTimeoutExpired,sentHeartbeat,milliseconds,sessionTimeoutExpired,isExpired,
METHOD_0,METHOD_1,METHOD_2,METHOD_3,METHOD_4,

heartbeat,sessionTimeoutMs,sessionTimer,
IDENT_0,IDENT_1,IDENT_2,


































