testEquality,copyOf,allocate,sizeInBytes,rewind,LegacyRecord,
METHOD_0,METHOD_1,METHOD_2,METHOD_3,METHOD_4,METHOD_5,

LegacyRecord,
IDENT_0,


































