writeToBuffer,wrap,doTestWriteToByteBuffer,allocate,allocateDirect,getIndex,
METHOD_0,METHOD_1,METHOD_2,METHOD_3,METHOD_4,METHOD_5,

iter,
IDENT_0,


































