bytesToConnect,wrap,toConnectData,
METHOD_0,METHOD_1,METHOD_2,

SchemaAndValue,schemaAndValue,JsonConverterTest,TOPIC,converted,
IDENT_0,IDENT_1,IDENT_2,IDENT_3,IDENT_4,







"test-string","UTF-8","{ \"schema\": { \"type\": \"bytes\" }, \"payload\": \"dGVzdC1zdHJpbmc=\" }",
STRING_0,STRING_1,STRING_2,

























