shouldReadBytesFromInputStream,readBytes,
METHOD_0,METHOD_1,

randomBytes,RandomStringUtils,inputStream,threewks,thundr,Streams,Environment,environment,
IDENT_0,IDENT_1,IDENT_2,IDENT_3,IDENT_4,IDENT_5,IDENT_6,IDENT_7,

8001,
INT_0,































