ngramTest_size2,SkipNgramStringListIterable,
METHOD_0,METHOD_1,

ngram,dkpro,features,
IDENT_0,IDENT_1,IDENT_2,







"This is a simple example sentence .",
STRING_0,

























