testFindSpecial,getDeclaredMethod,findSpecial,methodType,
METHOD_0,METHOD_1,METHOD_2,METHOD_3,

MethodHandles,Lookup,lookup,SpecialStatic,t3,MethodHandle,mh,t1,MethodType,
IDENT_0,IDENT_1,IDENT_2,IDENT_3,IDENT_4,IDENT_5,IDENT_6,IDENT_7,IDENT_8,







"getLookup","m",
STRING_0,STRING_1,

























