testTemplate,queryForObject,
METHOD_0,METHOD_1,

simpleJdbcTemplate,springsource,open,foo,
IDENT_0,IDENT_1,IDENT_2,IDENT_3,







"delete from T_FOOS","select count(*) from T_FOOS","INSERT into T_FOOS (id,name,foo_date) values (?,?,null)",
STRING_0,STRING_1,STRING_2,

























