test_getConvexHull3,getConvexHull,Point,
METHOD_0,METHOD_1,METHOD_2,

gef,planar,Point,convexHull,
IDENT_0,IDENT_1,IDENT_2,IDENT_3,










1.8277675577160887E-4,0.3333333333333333,1.1294769632887472E-4,0.6666666666666666,4.311817922240293E-5,2.671179560675793E-5,
FLOAT_0,FLOAT_1,FLOAT_2,FLOAT_3,FLOAT_4,FLOAT_5,






















