testOffline,loadToolModel,bindArguments,getMainTool,
METHOD_0,METHOD_1,METHOD_2,METHOD_3,

ceylon,tool,ToolModel,CeylonInfoTool,pluginLoader,pluginFactory,
IDENT_0,IDENT_1,IDENT_2,IDENT_3,IDENT_4,IDENT_5,







"info","--offline","ceylon.language",
STRING_0,STRING_1,STRING_2,

























