testLoad,loadToolModel,bindArguments,getMainTool,
METHOD_0,METHOD_1,METHOD_2,METHOD_3,

ceylon,js,ToolModel,CeylonCompileJsTool,tool,pluginLoader,pluginFactory,
IDENT_0,IDENT_1,IDENT_2,IDENT_3,IDENT_4,IDENT_5,IDENT_6,







"compile-js",
STRING_0,

























