testHybridMobileEngineEquals,HybridMobileEngine,
METHOD_0,METHOD_1,

thym,HybridMobileEngine,engine_0,engine_1,
IDENT_0,IDENT_1,IDENT_2,IDENT_3,







"platform_0","0.0.0",
STRING_0,STRING_1,

























