testComputeSizeIsNeverNull,ScrollingComposite,computeSize,
METHOD_0,METHOD_1,METHOD_2,

tabris,ScrollingComposite,composite,SWT,NONE,graphics,Point,DEFAULT,
IDENT_0,IDENT_1,IDENT_2,IDENT_3,IDENT_4,IDENT_5,IDENT_6,IDENT_7,


































