whenValidateInputUsingScanner_thenValidated,setIn,Scanner,hasNextInt,
METHOD_0,METHOD_1,METHOD_2,METHOD_3,

stdin,Scanner,scanner,isIntInput,
IDENT_0,IDENT_1,IDENT_2,IDENT_3,







"2000",
STRING_0,

























