whenCreateCarUsingDiamondOperator_thenSuccess,Car,
METHOD_0,METHOD_1,

diamond,Car,Diesel,myCar,
IDENT_0,IDENT_1,IDENT_2,IDENT_3,


































