givenPath_whenChecksIfOther_thenCorrect,isOther,
METHOD_0,METHOD_1,

isOther,nio2,BasicAttribsIntegrationTest,basicAttribs,
IDENT_0,IDENT_1,IDENT_2,IDENT_3,


































