whenUpcast_thenInstanceUnchanged,Cat,
METHOD_0,METHOD_1,

casting,Cat,cat,Animal,animal,
IDENT_0,IDENT_1,IDENT_2,IDENT_3,IDENT_4,


































