ExportFilter,EntryType,
METHOD_0,METHOD_1,

exportFilter,greenbuttonalliance,espi,atom,EntryType,
IDENT_0,IDENT_1,IDENT_2,IDENT_3,IDENT_4,


































