givenCharArray_whenCallingStringCopyValueOfWithOffsetAndLength_shouldConvertToString,copyValueOf,
METHOD_0,METHOD_1,

charArray,expectedValue,
IDENT_0,IDENT_1,







'c','h','a','r','t','e',"char",
STRING_0,STRING_1,STRING_2,STRING_3,STRING_4,STRING_5,STRING_6,

























