getBean_returnsInstance,getBean,
METHOD_0,METHOD_1,

spring,IndexApp,indexApp,applicationContext,
IDENT_0,IDENT_1,IDENT_2,IDENT_3,







"indexApp",
STRING_0,

























