testRunningAway,lookupIndexWord,
METHOD_0,METHOD_1,

extjwnl,dictionary,IndexWord,iw,DictionaryReadTester,POS,VERB,
IDENT_0,IDENT_1,IDENT_2,IDENT_3,IDENT_4,IDENT_5,IDENT_6,







"running-away",
STRING_0,

























