testEqualsSameName,MPDSavedPlaylist,
METHOD_0,METHOD_1,

bff,javampd,playlist,MPDSavedPlaylist,playlist1,playlist2,
IDENT_0,IDENT_1,IDENT_2,IDENT_3,IDENT_4,IDENT_5,







"playlist1",
STRING_0,

























