getLock,release,
METHOD_0,METHOD_1,

lock,Lock,lock2,lockName,LockManager,CATEGORY_ODATA,DcCoreException,
IDENT_0,IDENT_1,IDENT_2,IDENT_3,IDENT_4,IDENT_5,IDENT_6,







"lk",
STRING_0,

























