shouldHaveReachedCapacityWhenAssignedTasksGreaterThanOrEqualToCapacity,assign,TaskId,reachedCapacity,
METHOD_0,METHOD_1,METHOD_2,METHOD_3,

assignedTasks,capacity,
IDENT_0,IDENT_1,


































