shouldCompareEqualArrayWithString,ComparableOrToStringComparator,
METHOD_0,METHOD_1,

comparison,ComparableOrToStringComparator,comparator,
IDENT_0,IDENT_1,IDENT_2,







"[1, 1]",
STRING_0,

























