Cell,getReferenceCount,
METHOD_0,METHOD_1,

lock,CellLockManager,DcCoreException,
IDENT_0,IDENT_1,IDENT_2,







"TestingCellId",
STRING_0,

























