testDownloadRequestSerdeNull,readValue,
METHOD_0,METHOD_1,

gbif,occurrence,DownloadRequest,DownloadRequestTest,MAPPER,
IDENT_0,IDENT_1,IDENT_2,IDENT_3,IDENT_4,







"{}",
STRING_0,

























