testShouldProvideExpectedExtensions,provide,
METHOD_0,METHOD_1,

sonar,squidbridge,commonrules,CommonRulesRepository,repositories,
IDENT_0,IDENT_1,IDENT_2,IDENT_3,IDENT_4,


































