shouldGetResourceAsInputStream,readString,
METHOD_0,METHOD_1,

fileContents,threewks,thundr,Streams,Environment,environment,
IDENT_0,IDENT_1,IDENT_2,IDENT_3,IDENT_4,IDENT_5,







"Test data","streams.txt",
STRING_0,STRING_1,

























