


geosdi,geoplatform,gui,GeoPlatformInfoTest,geoPlatformInfo,
IDENT_0,IDENT_1,IDENT_2,IDENT_3,IDENT_4,







"GeoPlatformInfo ********************************* {}",
STRING_0,

























