testCompareTo_less,
METHOD_0,

appengine,users,user1,user2,
IDENT_0,IDENT_1,IDENT_2,IDENT_3,







"aa","dd","bb","cc",
STRING_0,STRING_1,STRING_2,STRING_3,

























