testAddHotel,perform,post,andExpect,is3xxRedirection,redirectedUrl,findByName,
METHOD_0,METHOD_1,METHOD_2,METHOD_3,METHOD_4,METHOD_5,METHOD_6,

hotelName,mvc,booking,Hotel,hotel,hotels,
IDENT_0,IDENT_1,IDENT_2,IDENT_3,IDENT_4,IDENT_5,







"Salgados","/hotels","id",
STRING_0,STRING_1,STRING_2,

























