shouldGiveVideoDetailsById,getDetails,
METHOD_0,METHOD_1,

actualDetails,expectedDetails,
IDENT_0,IDENT_1,







"{\"id\": 1,\"title\": \"Avatar\",\"length\": 178,\"description\": ","\"epic science fiction film\",\"director\": \"James Cameron\",\"language\": \"English\",}",
STRING_0,STRING_1,

























