testGPX10,buildPost,
METHOD_0,METHOD_1,

matching,MapMatchingResourceTest,
IDENT_0,IDENT_1,







"http://localhost:8080/match","gpxv1_0.gpx",
STRING_0,STRING_1,

























