shouldRecommendSomethingWithProcedure,getDatabase,beginTx,success,
METHOD_0,METHOD_1,METHOD_2,METHOD_3,

graphdb,recommendations,Transaction,napoleon,score,
IDENT_0,IDENT_1,IDENT_2,IDENT_3,IDENT_4,







"Napoleon","CALL ga.demo.reco({name})","node","score",
STRING_0,STRING_1,STRING_2,STRING_3,

























