getPlugins_stay_the_same,loadPlugin,getPlugins,
METHOD_0,METHOD_1,METHOD_2,

graceland,Plugin,plugins1,plugins2,
IDENT_0,IDENT_1,IDENT_2,IDENT_3,


































