integerIncrement,createLambdaUnchecked,
METHOD_0,METHOD_1,

Function,lambda,pl,joegreen,lambdaFromString,TypeReference,
IDENT_0,IDENT_1,IDENT_2,IDENT_3,IDENT_4,IDENT_5,







"i -> i+1",
STRING_0,

























