returnsNullIfNothingFound,findByEmailAddress,
METHOD_0,METHOD_1,

mybatis,sample,userRepository,
IDENT_0,IDENT_1,IDENT_2,







"foobar",
STRING_0,

























