shouldSortByPackageName,PackageSummaryData,sort,
METHOD_0,METHOD_1,METHOD_2,

pitest,mutationtest,PackageSummaryData,aa,ab,
IDENT_0,IDENT_1,IDENT_2,IDENT_3,IDENT_4,







"aa","ab","c",
STRING_0,STRING_1,STRING_2,

























