testX12Simple,X12Simple,
METHOD_0,METHOD_1,

pb,x12,X12Simple,
IDENT_0,IDENT_1,IDENT_2,







'~','*',':',
STRING_0,STRING_1,STRING_2,

























