getForObject,
METHOD_0,

syncope,ConfigurationTO,configurationTO,restTemplate,BASE_URL,
IDENT_0,IDENT_1,IDENT_2,IDENT_3,IDENT_4,







"configuration/read/{key}.json","token.expireTime",
STRING_0,STRING_1,

























