testParseAuthParamA,StringReader,parseAuthorizationDigest,
METHOD_0,METHOD_1,METHOD_2,

StringReader,HttpParser,
IDENT_0,IDENT_1,







"Digest a=b",
STRING_0,

























