shouldDisposeTheDialogWhenTheUserClicksOffTheViewer,getListeners,
METHOD_0,METHOD_1,

Listener,listeners,dialog,infinitest,resolution,Deactivate,
IDENT_0,IDENT_1,IDENT_2,IDENT_3,IDENT_4,IDENT_5,


































