testMonetaryConversionsECB,getConversion,
METHOD_0,METHOD_1,

money,MonetaryAmount,amt,javamoney,moneta,Money,CurrencyConversion,conv,MonetaryConversions,converted,
IDENT_0,IDENT_1,IDENT_2,IDENT_3,IDENT_4,IDENT_5,IDENT_6,IDENT_7,IDENT_8,IDENT_9,

2000,
INT_0,




"EUR","CHF","ECB",
STRING_0,STRING_1,STRING_2,

























