shouldGetFirstEntry,Headers,withEntry,getFirstValue,
METHOD_0,METHOD_1,METHOD_2,METHOD_3,

Headers,Header,
IDENT_0,IDENT_1,







"name_one","value_one_one","value_one_two","name_two","value_two_one","value_two_two","name_three","value_three_one","value_three_two",
STRING_0,STRING_1,STRING_2,STRING_3,STRING_4,STRING_5,STRING_6,STRING_7,STRING_8,

























