testNewFormatterNonNullNullNull,CollectorFormatter,
METHOD_0,METHOD_1,

CollectorFormatter,Formatter,Comparator,LogRecord,
IDENT_0,IDENT_1,IDENT_2,IDENT_3,







"Test {0}",
STRING_0,

























