shouldContainsAllGivenDoesNotContainAny,containsAll,
METHOD_0,METHOD_1,

webamoeba,OrderedSet,containsAll,
IDENT_0,IDENT_1,IDENT_2,










3.2,1.2,0.01,6.5,1.3,3.1,
FLOAT_0,FLOAT_1,FLOAT_2,FLOAT_3,FLOAT_4,FLOAT_5,






















