testGetDescriptor_WellFormed,getDescriptor,
METHOD_0,METHOD_1,

Descriptor,descriptor,underTest,tasks,Shell,
IDENT_0,IDENT_1,IDENT_2,IDENT_3,IDENT_4,


































