canFindUserByLogin,persist,findByPropertyValue,
METHOD_0,METHOD_1,METHOD_2,

cineasts,foundUser,userRepository,
IDENT_0,IDENT_1,IDENT_2,







"ich","Micha","password","login",
STRING_0,STRING_1,STRING_2,STRING_3,

























