switch_on_strings,eval,
METHOD_0,METHOD_1,

bsh,TestUtil,
IDENT_0,IDENT_1,







"switch(\"hurz\") {\n","\tcase \"bla\": return 1;","\tcase \"foo\": return 2;","\tcase \"hurz\": return 3;","\tcase \"igss\": return 4;"," default: return 5;","}\n",
STRING_0,STRING_1,STRING_2,STRING_3,STRING_4,STRING_5,STRING_6,

























