failToResolve,setFailOnMissingFile,resolveViewName,getDefault,
METHOD_0,METHOD_1,METHOD_2,METHOD_3,

viewResolver,
IDENT_0,







"invalidView",
STRING_0,

























