testMapping,
METHOD_0,

jmkgreen,morphia,BasicDAO,issue241,TestMapping,ObjectId,messageDAO,
IDENT_0,IDENT_1,IDENT_2,IDENT_3,IDENT_4,IDENT_5,IDENT_6,


































