useFullyInitializedSUTClassExtendingGenericBaseClass,
METHOD_0,

mockit,TestedClassWithGenericsTest,AnotherDep,anotherDep,sut2,dep,
IDENT_0,IDENT_1,IDENT_2,IDENT_3,IDENT_4,IDENT_5,


































