testCheckedRunnableRethrowAll,runnable,
METHOD_0,METHOD_1,

Runnable,jooq,lambda,Unchecked,RETHROW_ALL,
IDENT_0,IDENT_1,IDENT_2,IDENT_3,IDENT_4,







"runnable",
STRING_0,

























