verifyScopeMethod,getMethod,
METHOD_0,METHOD_1,

getScopedByKeyMethod,androidtransfuse,scope,Scope,GET_SCOPED_OBJECT,ScopeKey,inject,Provider,
IDENT_0,IDENT_1,IDENT_2,IDENT_3,IDENT_4,IDENT_5,IDENT_6,IDENT_7,


































