testCreateAndRetrieve,createAndRetrieve,
METHOD_0,METHOD_1,

jverstry,Item,MilliTimeItem,retr,myService,
IDENT_0,IDENT_1,IDENT_2,IDENT_3,IDENT_4,


































