testGenericData,
METHOD_0,

jsonzou,jmockdata,GenericData,BasicBean,genericData,JMockData,TypeReference,
IDENT_0,IDENT_1,IDENT_2,IDENT_3,IDENT_4,IDENT_5,IDENT_6,


































