testTimestamp,
METHOD_0,

nowDate,nowString,LoadIO,DATE_FORMAT_SAVE,parsed,nowParsed,
IDENT_0,IDENT_1,IDENT_2,IDENT_3,IDENT_4,IDENT_5,


































