testKieStore,getComponentInstance,
METHOD_0,METHOD_1,

KieStoreServices,sampleKstore,aries,blueprint,KieBlueprintBasicTest,
IDENT_0,IDENT_1,IDENT_2,IDENT_3,IDENT_4,







"sampleKstore",
STRING_0,

























