testStatelessKieSession,getBean,
METHOD_0,METHOD_1,

StatelessKieSession,ksession,spring,KieSpringBasics2Test,
IDENT_0,IDENT_1,IDENT_2,IDENT_3,







"ksession1",
STRING_0,

























