testStringData3,ObjectHashMap,
METHOD_0,METHOD_1,

ObjectHashMap,idx,strval,
IDENT_0,IDENT_1,IDENT_2,

100000,
INT_0,




"key","Custom ObjectHashMap get(key) ET - ",
STRING_0,STRING_1,

























