listCommand,executeCommand,
METHOD_0,METHOD_1,

listOutput,karaf,itests,BundleTest,ADMIN_ROLES,Principal,KarafTestSupport,COMMAND_TIMEOUT,principals,
IDENT_0,IDENT_1,IDENT_2,IDENT_3,IDENT_4,IDENT_5,IDENT_6,IDENT_7,IDENT_8,







"bundle:list -t 0",
STRING_0,

























