testByteArrayTransfer,capacity,nextBytes,setBytes,nextInt,setSeed,
METHOD_0,METHOD_1,METHOD_2,METHOD_3,METHOD_4,METHOD_5,

AbstractByteBufTest,BLOCK_SIZE,seed,expectedValue,valueOffset,
IDENT_0,IDENT_1,IDENT_2,IDENT_3,IDENT_4,


































