testReadAfterBytes,readAfterBytes,
METHOD_0,METHOD_1,

nx42,maps4cim,HeaderParser,HeaderParserTest,inputString,
IDENT_0,IDENT_1,IDENT_2,IDENT_3,IDENT_4,

23,97,116,
INT_0,INT_1,INT_2,































