join_two_object_arrays_in_java8,concat,
METHOD_0,METHOD_1,

Stream,sa,firstHalfStateCapital,secondHalfStateCapital,allStateCapitals,
IDENT_0,IDENT_1,IDENT_2,IDENT_3,IDENT_4,


































