switch_statement_enumerated_type,
METHOD_0,

levelup,SwitchStatement,Day,day,MONDAY,SUNDAY,SATURDAY,TUESDAY,WEDNESDAY,THURSDAY,FRIDAY,
IDENT_0,IDENT_1,IDENT_2,IDENT_3,IDENT_4,IDENT_5,IDENT_6,IDENT_7,IDENT_8,IDENT_9,IDENT_10,







"This is a weekend day","This is a weekday",
STRING_0,STRING_1,

























