testCalcNewTopicsEmpty,PoissonPolyaUrnHDPLDA,SimpleLDAConfiguration,calcNewTopics,
METHOD_0,METHOD_1,METHOD_2,METHOD_3,

mallet,topics,PoissonPolyaUrnHDPLDA,nt,
IDENT_0,IDENT_1,IDENT_2,IDENT_3,


































