lockShouldReturnFalseIfAnotherRowIsLocked,createLock,executeStatement,lock,acquireLock,
METHOD_0,METHOD_1,METHOD_2,METHOD_3,METHOD_4,

Connection,lock,clustername,
IDENT_0,IDENT_1,IDENT_2,







"INSERT INTO "," (MOMENT, NODE) VALUES (1, '","_2')","_2",
STRING_0,STRING_1,STRING_2,STRING_3,

























