element_index_of_int_array_java_with_apache_commons,
METHOD_0,

twoQuarters,lastMonthInFirstQuarter,ArrayUtils,
IDENT_0,IDENT_1,IDENT_2,


































