testCardDataEncrypt,getLocalPort,post,
METHOD_0,METHOD_1,METHOD_2,

kunai,keyvault,IntegrationTest,RULE,
IDENT_0,IDENT_1,IDENT_2,IDENT_3,







"4012888888881881","http://localhost:","/encrypt?type=card_data",
STRING_0,STRING_1,STRING_2,

























