convert_array_to_set_guava,newConcurrentHashSet,
METHOD_0,METHOD_1,

abcs,abcSet,Sets,
IDENT_0,IDENT_1,IDENT_2,







"c","d",
STRING_0,STRING_1,

























