initialize_list_java_with_double_brace_initialziation,SuppressWarnings,
METHOD_0,METHOD_1,

levelup,cheeses,
IDENT_0,IDENT_1,







"serial","Munster","Swiss","Sharp cheddar",
STRING_0,STRING_1,STRING_2,STRING_3,

























