during_daylight_savings,DaylightSavingQuery,
METHOD_0,METHOD_1,

LocalDate,Month,JULY,daylightSavings,levelup,
IDENT_0,IDENT_1,IDENT_2,IDENT_3,IDENT_4,

2014,
INT_0,































