filter_transform_list,
METHOD_0,

levelup,guava,FluentIterableExample,stateMessages,FluentIterable,states,byExpandedMedicade,
IDENT_0,IDENT_1,IDENT_2,IDENT_3,IDENT_4,IDENT_5,IDENT_6,


































