count_upper_case_letters_java8,chars,
METHOD_0,METHOD_1,

danielTigerLyrics,Character,isUpperCase,
IDENT_0,IDENT_1,IDENT_2,







"Its a beautiful day in the neighborhood, a beautiful day for a neighbor.","Would you be Mine, could you be mine, would you be my neighbor.",
STRING_0,STRING_1,

























