split_string_using_string_split_java,
METHOD_0,

delims,levelup,SplitStrings,CONSTANT_STRING,
IDENT_0,IDENT_1,IDENT_2,IDENT_3,







"[ ]+",
STRING_0,

























