generate_even_numbers_in_range_java8,rangeClosed,boxed,toSet,
METHOD_0,METHOD_1,METHOD_2,METHOD_3,

evenNumbers,IntStream,Collectors,levelup,number,GenerateEvenNumbers,
IDENT_0,IDENT_1,IDENT_2,IDENT_3,IDENT_4,IDENT_5,













%,
OP_0,



















