testRemove,addFoo,fetchByPrimaryKey,getPrimaryKey,
METHOD_0,METHOD_1,METHOD_2,METHOD_3,

blade,samples,servicebuilder,Foo,newFoo,_persistence,existingFoo,
IDENT_0,IDENT_1,IDENT_2,IDENT_3,IDENT_4,IDENT_5,IDENT_6,


































