returnPendingIfNullIsPassedIntoParseLineMulti,parseLineMulti,isPending,
METHOD_0,METHOD_1,METHOD_2,

nextLine,csvParser,
IDENT_0,IDENT_1,







"This,\"is a \"goo\\d\" line\\\\ to parse\\","This","is a \"good\" line\\ to parse\n",
STRING_0,STRING_1,STRING_2,

























