shouldReturnFalseWhenEntryIsNull,isAuditViewEntryRelevant,emptyMap,
METHOD_0,METHOD_1,METHOD_2,

relevant,auditService,auditview,AuditViewEntry,
IDENT_0,IDENT_1,IDENT_2,IDENT_3,


































