StrategyManagerInAction_strategyIsNull_throwsException,SearchStrategyManager,addStrategy,
METHOD_0,METHOD_1,METHOD_2,

SearchStrategyManager,
IDENT_0,


































