shouldNotReturnNull,
METHOD_0,

aeonbits,owner,ConfigTest,SampleConfig,ConfigFactory,
IDENT_0,IDENT_1,IDENT_2,IDENT_3,IDENT_4,


































