StrategyManagerInAction_addingStrategy_IsSuccessful,SearchStrategyManager,addStrategy,
METHOD_0,METHOD_1,METHOD_2,

SearchStrategyManager,SearchStrategy,strat1,strat2,
IDENT_0,IDENT_1,IDENT_2,IDENT_3,







"strat1","strat2",
STRING_0,STRING_1,

0.5,
FLOAT_0,






















