container_null,readValue,
METHOD_0,METHOD_1,

ezvcard,JCardDeserializerTest,Container,VCard,contact,
IDENT_0,IDENT_1,IDENT_2,IDENT_3,IDENT_4,







"{","\"contact\": null","}",
STRING_0,STRING_1,STRING_2,

























