testBasicArrowFunctionsWork,arrowFilterStatement,
METHOD_0,METHOD_1,

manifold,js,demo,ArrowFunctionClass,
IDENT_0,IDENT_1,IDENT_2,IDENT_3,


































