testCalc,writeValueAsBytes,given,all,then,extract,asByteArray,
METHOD_0,METHOD_1,METHOD_2,METHOD_3,METHOD_4,METHOD_5,METHOD_6,

objectMapper,Calc,
IDENT_0,IDENT_1,

300,
INT_0,




"Accept","application/json","left","right","/calc",
STRING_0,STRING_1,STRING_2,STRING_3,STRING_4,

























