shouldCreateReply,POST,httpURI,
METHOD_0,METHOD_1,METHOD_2,

HTTP,maxdemarzi,posts,CreateReplyTest,
IDENT_0,IDENT_1,IDENT_2,IDENT_3,







"/v1/schema/create","/v1/users/maxdemarzi/posts/jexp/1490140299/reply","time",
STRING_0,STRING_1,STRING_2,

























