testValidateArgs,validateArgs,checkState,
METHOD_0,METHOD_1,METHOD_2,

validateUtil,PROJECT,arg,Preconditions,
IDENT_0,IDENT_1,IDENT_2,IDENT_3,


































