testAltTypeIsIndel,
METHOD_0,

vtc,utilitybelt,UtilityBeltTest,GREEN,RESET,
IDENT_0,IDENT_1,IDENT_2,IDENT_3,IDENT_4,







"\nTest Alt Type Is Indel",
STRING_0,

























