testConstructorZeroLength,SuppressWarnings,Validator,
METHOD_0,METHOD_1,METHOD_2,

success,mozilla,bagheera,Validator,
IDENT_0,IDENT_1,IDENT_2,IDENT_3,







"unused",
STRING_0,

























