testDeleteCustomer,runFlowAndGetPayload,getStackTrace,
METHOD_0,METHOD_1,METHOD_2,

deleted,modules,ConnectorTestUtils,
IDENT_0,IDENT_1,IDENT_2,







"delete-customer",
STRING_0,

























