testUpdateProductSpecialPrice,runFlowAndGetPayload,getStackTrace,
METHOD_0,METHOD_1,METHOD_2,

modules,ConnectorTestUtils,
IDENT_0,IDENT_1,







"update-product-special-price",
STRING_0,

























