should_test_equaliy_on_key_same_case,SonarQualityMetric,
METHOD_0,METHOD_1,

norad,visuwall,providers,sonar,SonarQualityMetric,metric1,metric2,
IDENT_0,IDENT_1,IDENT_2,IDENT_3,IDENT_4,IDENT_5,IDENT_6,







"key1",
STRING_0,

























