testUpdateProductLink,upsertOnTestRunMessage,runFlowAndGetPayload,getStackTrace,
METHOD_0,METHOD_1,METHOD_2,METHOD_3,

modules,ConnectorTestUtils,
IDENT_0,IDENT_1,







"qty","update-product-link",
STRING_0,STRING_1,

























