testMessages,pointerToCString,someCFunction,SomeClass,someMethod,
METHOD_0,METHOD_1,METHOD_2,METHOD_3,METHOD_4,

nativelibs4java,bridj,Pointer,Byte,SomeClass,
IDENT_0,IDENT_1,IDENT_2,IDENT_3,IDENT_4,

1234,
INT_0,




"Message from Java",
STRING_0,

























