base58Test,
METHOD_0,

ipfs,multibase,Base58,encoded,
IDENT_0,IDENT_1,IDENT_2,IDENT_3,







"QmPZ9gcCEpqKTo6aq61g2nXGUhM4iCL3ewB6LDXZCtioEB","QmatmE9msSfkKxoffpHwNLNKgwZG8eT9Bud6YoPab52vpy",
STRING_0,STRING_1,

























