getEmployeeTest,getEmployee,
METHOD_0,METHOD_1,

mockDao,employee,spring,Employee,emp1,employeeController,
IDENT_0,IDENT_1,IDENT_2,IDENT_3,IDENT_4,IDENT_5,


































