testOutOfMemory,generateArray,
METHOD_0,METHOD_1,

OutOfMemoryError,nom,tam,TestArrayFuncs,error2,
IDENT_0,IDENT_1,IDENT_2,IDENT_3,IDENT_4,


































