shouldReturnFalseIfZero,evaluateBoolean,Author,
METHOD_0,METHOD_1,METHOD_2,

evaluator,blog,Section,NEWS,
IDENT_0,IDENT_1,IDENT_2,IDENT_3,







"id","cbegin","cbegin@apache.org","N/A",
STRING_0,STRING_1,STRING_2,STRING_3,

























