getNearbyDistrictsTest,getNearbyDistricts,Point,
METHOD_0,METHOD_1,METHOD_2,

nysenate,sage,district,DistrictMap,neighbors,dsDao,DistrictType,SENATE,geo,
IDENT_0,IDENT_1,IDENT_2,IDENT_3,IDENT_4,IDENT_5,IDENT_6,IDENT_7,IDENT_8,

500,
INT_0,







40.707619,73.713386,
FLOAT_0,FLOAT_1,






















