test_permutation_length_is_zero,permutation,
METHOD_0,METHOD_1,

slist,nutz,Maths,
IDENT_0,IDENT_1,IDENT_2,







'1','2','3',
STRING_0,STRING_1,STRING_2,

























