testEquals_componentClassWithSamePackages,ComponentTypeArrayOpenClass,JavaOpenClass,
METHOD_0,METHOD_1,METHOD_2,

openl,generated,packA,MyType,
IDENT_0,IDENT_1,IDENT_2,IDENT_3,


































