schemaSourceTransformerTest,SchemaSourceTransformer,
METHOD_0,METHOD_1,

SchemaSourceTransformerTest,SRC_CLASS,DST_CLASS,
IDENT_0,IDENT_1,IDENT_2,


































