testDefaultConstructor,RecodedPoint,
METHOD_0,METHOD_1,

orbisgis,legend,thematic,recode,RecodedPoint,rp,
IDENT_0,IDENT_1,IDENT_2,IDENT_3,IDENT_4,IDENT_5,


































