testServerRunning,SolrQuery,setQuery,
METHOD_0,METHOD_1,METHOD_2,

solrj,SolrQuery,solrQuery,QueryResponse,solrServer,
IDENT_0,IDENT_1,IDENT_2,IDENT_3,IDENT_4,







"carberry",
STRING_0,

























