testHashCodeEqual,ServiceErrorContext,
METHOD_0,METHOD_1,

oregami,ServiceErrorContext,c1,c2,
IDENT_0,IDENT_1,IDENT_2,IDENT_3,


































