testScheduled,await,finishedSpans,
METHOD_0,METHOD_1,METHOD_2,

opentracing,contrib,spring,scheduled,ScheduledSkipPatternTest,countDownLatch,MockSpan,mockSpans,tracer,
IDENT_0,IDENT_1,IDENT_2,IDENT_3,IDENT_4,IDENT_5,IDENT_6,IDENT_7,IDENT_8,


































