testDrillDownUiPlugin,DrillDownUiPlugin,
METHOD_0,METHOD_1,

reporting,designer,extensions,drilldown,DrillDownUiPlugin,
IDENT_0,IDENT_1,IDENT_2,IDENT_3,IDENT_4,


































