testForEachTriConsumer,SortedArrayStringMap,putValue,State,forEach,
METHOD_0,METHOD_1,METHOD_2,METHOD_3,METHOD_4,

SortedArrayStringMap,SortedArrayStringMapTest,State,COUNTER,
IDENT_0,IDENT_1,IDENT_2,IDENT_3,







"avalue","B","Bvalue","3","3value",
STRING_0,STRING_1,STRING_2,STRING_3,STRING_4,

























