parse_params_multivalue,ComparisonPredicate,
METHOD_0,METHOD_1,

psddev,dari,Predicate,pred,PredicateParser,EQUALS_ANY_OPERATOR,
IDENT_0,IDENT_1,IDENT_2,IDENT_3,IDENT_4,IDENT_5,







"a in ?",
STRING_0,

























