testInitFail,PartitionReader,
METHOD_0,METHOD_1,

ebay,jetstream,PartitionReader,PartitionReaderInitTest,topic,consumerConfig,zkConnector,
IDENT_0,IDENT_1,IDENT_2,IDENT_3,IDENT_4,IDENT_5,IDENT_6,


































