testConst,ArrayContainer,
METHOD_0,METHOD_1,

roaringbitmap,ArrayContainer,ac1,ac2,
IDENT_0,IDENT_1,IDENT_2,IDENT_3,

11,13,14,
INT_0,INT_1,INT_2,































