testAsArray4,asArray,
METHOD_0,METHOD_1,

strings,richfaces,renderkit,RenderKitUtils,etalon,
IDENT_0,IDENT_1,IDENT_2,IDENT_3,IDENT_4,







" a , \t\n b \n , c ","c",
STRING_0,STRING_1,

























