testGeneratedFile_invalidNumberOfArguments,newFile,GeneratePreferencesFile,
METHOD_0,METHOD_1,METHOD_2,

targetFile,folder,roboconf,karaf,prepare,
IDENT_0,IDENT_1,IDENT_2,IDENT_3,IDENT_4,


































