testNullValueIsConvertedToEmptyString,createProperty,Property,
METHOD_0,METHOD_1,METHOD_2,

Property,
IDENT_0,







"Property name cannot be null",
STRING_0,

























