instantiation,TestMethodGeneratorImpl,
METHOD_0,METHOD_1,

junithelper,TestMethodGeneratorImpl,lineBreakProvider,
IDENT_0,IDENT_1,IDENT_2,


































