instantiation,RawCrontabLine,
METHOD_0,METHOD_1,

seratch,taskun,scheduler,crond,RawCrontabLine,
IDENT_0,IDENT_1,IDENT_2,IDENT_3,IDENT_4,


































