constructor,InMemoryContainsCriterion,
METHOD_0,METHOD_1,

slim3,InMemoryContainsCriterion,myString,
IDENT_0,IDENT_1,IDENT_2,







"aaa",
STRING_0,

























