processJustRightCols,OSData,OSRecordProcessor,
METHOD_0,METHOD_1,METHOD_2,

mfg_code,lightboxtechnologies,nsrl,OSData,osd,RecordProcessor,proc,
IDENT_0,IDENT_1,IDENT_2,IDENT_3,IDENT_4,IDENT_5,IDENT_6,







"TuringOS","0.1","AT",
STRING_0,STRING_1,STRING_2,

























