testUnnecessaryPredicates_areRemoved_whenSimplified,not,notEq,simplify,
METHOD_0,METHOD_1,METHOD_2,METHOD_3,

datakernel,aggregation,AggregationPredicate,predicate,
IDENT_0,IDENT_1,IDENT_2,IDENT_3,







"x",
STRING_0,

























