testDateLookupInMessage,getLogger,getListAppender,getMessages,
METHOD_0,METHOD_1,METHOD_2,METHOD_3,

PatternLayoutLookupDateTest,appender,ListAppender,listAppender,
IDENT_0,IDENT_1,IDENT_2,IDENT_3,







"${date:YYYY-MM-dd}","List",
STRING_0,STRING_1,

























