testMulAndCheck,mulAndCheck,
METHOD_0,METHOD_1,

big,bigNeg,MIN_VALUE,ArithmeticUtils,MathArithmeticException,
IDENT_0,IDENT_1,IDENT_2,IDENT_3,IDENT_4,







"Expecting MathArithmeticException",
STRING_0,

























