canBeInsensitive,
METHOD_0,

Tag,script1,ParseSettings,htmlDefault,script2,
IDENT_0,IDENT_1,IDENT_2,IDENT_3,IDENT_4,







"script","SCRIPT",
STRING_0,STRING_1,

























