test3,breadth_first_search,
METHOD_0,METHOD_1,

java_programs,nodef,nodee,noded,nodec,nodeb,nodea,BREADTH_FIRST_SEARCH,resultStr,
IDENT_0,IDENT_1,IDENT_2,IDENT_3,IDENT_4,IDENT_5,IDENT_6,IDENT_7,IDENT_8,







"F","E","D","C","B","A","Path found!","Path not found!",
STRING_0,STRING_1,STRING_2,STRING_3,STRING_4,STRING_5,STRING_6,STRING_7,

























