test1,detect_cycle,
METHOD_0,METHOD_1,

java_programs,node1,node2,node3,node4,node5,DETECT_CYCLE,resultStr,
IDENT_0,IDENT_1,IDENT_2,IDENT_3,IDENT_4,IDENT_5,IDENT_6,IDENT_7,







"3","4","5","Cycle detected!","Cycle not detected!",
STRING_0,STRING_1,STRING_2,STRING_3,STRING_4,

























