shouldDeriveViewParametersAndReduce,countByUsernameGreaterThanEqualAndUsernameLessThan,
METHOD_0,METHOD_1,










"uname-8","uname-9",
STRING_0,STRING_1,

























