extractPathWithinPattern_SPR_10515_test,AntPathMatcher,extractPathWithinPattern,
METHOD_0,METHOD_1,METHOD_2,

pathWithinPattern,
IDENT_0,







"**/something","/one/two/three/something",
STRING_0,STRING_1,

























