SqlMapRepository__,SuppressWarnings,getBeansOfType,
METHOD_0,METHOD_1,METHOD_2,

egov,SqlMapRepository,repositories,applicationContext,
IDENT_0,IDENT_1,IDENT_2,IDENT_3,







"rawtypes",
STRING_0,

























