testDisconnectedClient,DisconnectedClient,
METHOD_0,METHOD_1,

polimi,deib,provaFinale2014,andrea,celli_stefano1,cereda,DisconnectedClient,
IDENT_0,IDENT_1,IDENT_2,IDENT_3,IDENT_4,IDENT_5,IDENT_6,


































