testFormatStringBuilderObjectArrayIso8601,
METHOD_0,

DatePatternConverter,DatePatternConverterTest,ISO8601_FORMAT_OPTIONS,
IDENT_0,IDENT_1,IDENT_2,

2001,2002,2003,
INT_0,INT_1,INT_2,




"2001-02-01T14:15:16,123",
STRING_0,

























