testAddMemberToGroup,addUserToGroup,getUsername,findUsersInGroup,
METHOD_0,METHOD_1,METHOD_2,METHOD_3,

jdbcUserDetailsManager,SecurityGroupsTest,TEST_GROUP,foundUsers,
IDENT_0,IDENT_1,IDENT_2,IDENT_3,


































