testKit,KitImpl,
METHOD_0,METHOD_1,

bbsrc,tgac,miso,KitImpl,kit,serialVersionUID,
IDENT_0,IDENT_1,IDENT_2,IDENT_3,IDENT_4,IDENT_5,




private,static,
MOD_0,MOD_1,




























