testComplainsWhenInterpreterCannotBeFound,getInterpreter,
METHOD_0,METHOD_1,

novatec,testit,livingdoc,LivingDoc,
IDENT_0,IDENT_1,IDENT_2,IDENT_3,







"MissingInterpreter",
STRING_0,

























