testUnderMaxLength,SimpleMessage,newBuilder,setLoggerName,setLevel,setMessage,
METHOD_0,METHOD_1,METHOD_2,METHOD_3,METHOD_4,METHOD_5,

LogEvent,Log4jLogEvent,Level,DEBUG,MaxLengthConverterTest,
IDENT_0,IDENT_1,IDENT_2,IDENT_3,IDENT_4,







"0123456789","MyLogger",
STRING_0,STRING_1,

























