testGetOauthTokenEnpoint,getOAuth2Tokens,print,
METHOD_0,METHOD_1,METHOD_2,

kongOAuth2TokenEndpoint,t1t,apim,KongClientIntegrationTest,kongClient,
IDENT_0,IDENT_1,IDENT_2,IDENT_3,IDENT_4,


































