testTimeRangeException2DDiscrete,query2D,singleton,
METHOD_0,METHOD_1,METHOD_2,

tracecompass,statesystem,ITmfStateSystem,ss,fStateSystem,MIN_VALUE,
IDENT_0,IDENT_1,IDENT_2,IDENT_3,IDENT_4,IDENT_5,


































