isEntityPathHelperConstructorWorking,getDeclaredConstructor,setAccessible,
METHOD_0,METHOD_1,METHOD_2,

Constructor,uaihebert,EntityPathHelper,constructor,
IDENT_0,IDENT_1,IDENT_2,IDENT_3,


































