testStrangeRetainAllCase,wrap,IntLinkedOpenHashSet,IntRBTreeSet,retainAll,
METHOD_0,METHOD_1,METHOD_2,METHOD_3,METHOD_4,

unimi,dsi,fastutil,ints,IntArrayList,initialElements,retainElements,IntLinkedOpenHashSet,IntRBTreeSet,referenceInstance,
IDENT_0,IDENT_1,IDENT_2,IDENT_3,IDENT_4,IDENT_5,IDENT_6,IDENT_7,IDENT_8,IDENT_9,

586,940,1086,1110,1168,1184,1185,1191,1196,1229,1237,1241,1277,1282,1284,1299,1308,1309,1310,1314,1328,1360,1366,1370,1378,1388,1392,1402,1406,1411,1426,1437,1455,1476,1489,1513,1533,1538,1540,1541,1543,1547,1548,1551,1557,1568,1575,1577,1582,1583,1584,1588,1591,1592,1601,1610,1618,1620,1633,1635,1653,1654,1655,1660,1661,1665,1674,1686,1688,1693,1700,1705,1717,1720,1732,1739,1740,1745,1746,1752,1754,1756,1765,1766,1767,1771,1772,1781,1789,1790,1793,1801,1806,1823,1825,1827,1828,1829,1831,1832,1837,1839,1844,2962,2969,2974,2990,3019,3023,3029,3030,3052,3072,3074,3075,3093,3109,3110,3115,3116,3125,3137,3142,3156,3160,3176,3180,3188,3193,3198,3207,3209,3210,3213,3214,3221,3225,3230,3231,3236,3240,3247,3261,4824,4825,4834,4845,4852,4858,4859,4867,4871,4883,4886,4887,4905,4907,4911,4920,4923,4924,4925,4934,4942,4953,4957,4965,4973,4976,4980,4982,4990,4993,6938,6949,6953,7010,7012,7034,7037,7049,7076,7094,7379,7384,7388,7394,7414,7419,7458,7459,7466,7467,
INT_0,INT_1,INT_2,INT_3,INT_4,INT_5,INT_6,INT_7,INT_8,INT_9,INT_10,INT_11,INT_12,INT_13,INT_14,INT_15,INT_16,INT_17,INT_18,INT_19,INT_20,INT_21,INT_22,INT_23,INT_24,INT_25,INT_26,INT_27,INT_28,INT_29,INT_30,INT_31,INT_32,INT_33,INT_34,INT_35,INT_36,INT_37,INT_38,INT_39,INT_40,INT_41,INT_42,INT_43,INT_44,INT_45,INT_46,INT_47,INT_48,INT_49,INT_50,INT_51,INT_52,INT_53,INT_54,INT_55,INT_56,INT_57,INT_58,INT_59,INT_60,INT_61,INT_62,INT_63,INT_64,INT_65,INT_66,INT_67,INT_68,INT_69,INT_70,INT_71,INT_72,INT_73,INT_74,INT_75,INT_76,INT_77,INT_78,INT_79,INT_80,INT_81,INT_82,INT_83,INT_84,INT_85,INT_86,INT_87,INT_88,INT_89,INT_90,INT_91,INT_92,INT_93,INT_94,INT_95,INT_96,INT_97,INT_98,INT_99,INT_100,INT_101,INT_102,INT_103,INT_104,INT_105,INT_106,INT_107,INT_108,INT_109,INT_110,INT_111,INT_112,INT_113,INT_114,INT_115,INT_116,INT_117,INT_118,INT_119,INT_120,INT_121,INT_122,INT_123,INT_124,INT_125,INT_126,INT_127,INT_128,INT_129,INT_130,INT_131,INT_132,INT_133,INT_134,INT_135,INT_136,INT_137,INT_138,INT_139,INT_140,INT_141,INT_142,INT_143,INT_144,INT_145,INT_146,INT_147,INT_148,INT_149,INT_150,INT_151,INT_152,INT_153,INT_154,INT_155,INT_156,INT_157,INT_158,INT_159,INT_160,INT_161,INT_162,INT_163,INT_164,INT_165,INT_166,INT_167,INT_168,INT_169,INT_170,INT_171,INT_172,INT_173,INT_174,INT_175,INT_176,INT_177,INT_178,INT_179,INT_180,INT_181,INT_182,INT_183,INT_184,INT_185,INT_186,INT_187,INT_188,INT_189,INT_190,INT_191,INT_192,































