should_return_null_when_no_queue_exsited,findConfigsByQueue,
METHOD_0,METHOD_1,

vip,saturn,console,mybatis,JobConfig4DB,jobConfigs,currentJobConfigRepository,
IDENT_0,IDENT_1,IDENT_2,IDENT_3,IDENT_4,IDENT_5,IDENT_6,







"QueueA",
STRING_0,

























