test_constructor,CmsBase64Utility,
METHOD_0,METHOD_1,

webpagebytes,cms,utility,CmsBase64Utility,u,
IDENT_0,IDENT_1,IDENT_2,IDENT_3,IDENT_4,


































