test_constructor,ContentTypeDetector,
METHOD_0,METHOD_1,

webpagebytes,cms,utility,ContentTypeDetector,
IDENT_0,IDENT_1,IDENT_2,IDENT_3,


































