checkEquals,TolkienCharacter,
METHOD_0,METHOD_1,

jake,vogella,juntexamples,HOBBIT,sameJake,jakeClone,
IDENT_0,IDENT_1,IDENT_2,IDENT_3,IDENT_4,IDENT_5,

43,
INT_0,




"Jake",
STRING_0,

























