testDifferentDirectories,getCanonicalFile,getCanonicalPath,
METHOD_0,METHOD_1,METHOD_2,

tmp,producedOutput,userDir,
IDENT_0,IDENT_1,IDENT_2,







"src/test/resources/different-folders","src/main/java-out/Foo.java","user.dir","apply","-e",
STRING_0,STRING_1,STRING_2,STRING_3,STRING_4,

























