testReadFileWithVar,readAsStringWith,
METHOD_0,METHOD_1,

onetwo,FileUtils,
IDENT_0,IDENT_1,







"test.txt","startDate","2012-12-25","userName","way","test:","2012-12-25wayway",
STRING_0,STRING_1,STRING_2,STRING_3,STRING_4,STRING_5,STRING_6,

























