executeBatch1,executeBatch,
METHOD_0,METHOD_1,

ints,fastquery,MethodQueryTest,studentDBService,
IDENT_0,IDENT_1,IDENT_2,IDENT_3,







"update.sql",
STRING_0,

























