testUpdateCourse1,expectMessage,containsString,updateCourse,
METHOD_0,METHOD_1,METHOD_2,METHOD_3,

thrown,fastquery,RepositoryException,effect,no,
IDENT_0,IDENT_1,IDENT_2,IDENT_3,IDENT_4,







"@Set ",
STRING_0,

























