testSetWDFunctions,eval,voidEval,
METHOD_0,METHOD_1,METHOD_2,

initialWD,otherWD,
IDENT_0,IDENT_1,







"getwd()","setwd('","/test')","')",
STRING_0,STRING_1,STRING_2,STRING_3,

























