findByUsernameIn,
METHOD_0,

usernameList,assertj,xkcoding,rbac,userList,userDao,
IDENT_0,IDENT_1,IDENT_2,IDENT_3,IDENT_4,IDENT_5,







"admin","user","userList= {}",
STRING_0,STRING_1,STRING_2,

























