testOnTransferChecksumFailure,onTransferChecksumFailure,
METHOD_0,METHOD_1,

aether,transfer,ChecksumFailureException,
IDENT_0,IDENT_1,IDENT_2,


































