testDoNotRefineOtherContext,parseLiteral,setRequestContext,
METHOD_0,METHOD_1,METHOD_2,

aether,DependencyNode,refinedNode,
IDENT_0,IDENT_1,IDENT_2,







"gid:aid:cls:ver","otherContext",
STRING_0,STRING_1,

























