copyByteArrayValidWriterJunkEncodingZeroBufSz,DontCloseStringWriter,copy,
METHOD_0,METHOD_1,METHOD_2,

probe,IOUtilTest,IOUtil,reports,
IDENT_0,IDENT_1,IDENT_2,IDENT_3,







"A string ⍅ï","junk","ReportSet{id='","', reports=","}",
STRING_0,STRING_1,STRING_2,STRING_3,STRING_4,

























