testToRegex,toRegex,isEqualTo,
METHOD_0,METHOD_1,METHOD_2,

surefire,its,JUnitPlatformEnginesIT,
IDENT_0,IDENT_1,IDENT_2,







".[]()*","\\.\\[\\]\\(\\).*","\\.","\\\\(","\\\\[","\\\\]","\\(","\\)","\\\\)","\\*",".*",
STRING_0,STRING_1,STRING_2,STRING_3,STRING_4,STRING_5,STRING_6,STRING_7,STRING_8,STRING_9,STRING_10,

























