testGetModel,ToolchainModel,newDefaultToolchain,getModel,
METHOD_0,METHOD_1,METHOD_2,METHOD_3,

toolchain,ToolchainModel,DefaultToolchain,
IDENT_0,IDENT_1,IDENT_2,


































