testToJSONWithOnlyIfDefault,fromJSON,toJSON,
METHOD_0,METHOD_1,METHOD_2,

metron,profiler,ProfileConfig,onlyIfDefault,asJson,JSONUtils,
IDENT_0,IDENT_1,IDENT_2,IDENT_3,IDENT_4,IDENT_5,


































