testBase64RoundTrip,randomUUID,encodeBytes,
METHOD_0,METHOD_1,METHOD_2,

bytesIn,base64,gorillalogic,monkeytalk,Base64,bytesOut,decoded,NO_OPTIONS,
IDENT_0,IDENT_1,IDENT_2,IDENT_3,IDENT_4,IDENT_5,IDENT_6,IDENT_7,


































