testVariety,allocate,clear,parseEvent,
METHOD_0,METHOD_1,METHOD_2,METHOD_3,

syslog,TestSyslogParser,CHARSET,SyslogEvent,valid,
IDENT_0,IDENT_1,IDENT_2,IDENT_3,IDENT_4,







"<34>Oct 11 22:14:15 mymachine su: 'su root' failed for ","<13>2012-08-16T14:34:03-08:00 127.0.0.1 test shnap!","It's time to make the do-nuts. %% Ingredients: Mix=OK, Jelly=OK # ","Conveyer1=OK, Conveyer2=OK # %%","<0>Oct 22 10:52:12 scapegoat 1990 Oct 22 10:52:01 TZ-6 ","scapegoat.dmz.example.org 10.1.2.3 sched[0]: That's All Folks!","<34>1 2003-10-11T22:14:15.003Z mymachine.example.com su - ","ID47 - BOM'su root' failed for lonvick on /dev/pts/8","<165>1 2003-08-24T05:14:15.000003-07:00 192.0.2.1 myproc ","8710 - - %% It's time to make the do-nuts.",
STRING_0,STRING_1,STRING_2,STRING_3,STRING_4,STRING_5,STRING_6,STRING_7,STRING_8,STRING_9,

























