parseSetProperty,findTableNames,printf,
METHOD_0,METHOD_1,METHOD_2,

processors,TableName,tableNames,
IDENT_0,IDENT_1,IDENT_2,







" set 'hive.exec.dynamic.partition.mode'=nonstrict","tableNames=%s\n",
STRING_0,STRING_1,

























