testWriteEmptyTable,toFrame,
METHOD_0,METHOD_1,

tableWriter,printStream,outputStream,charset,StandardCharsets,processors,beats,frame,BeatsFrame,encoder,
IDENT_0,IDENT_1,IDENT_2,IDENT_3,IDENT_4,IDENT_5,IDENT_6,IDENT_7,IDENT_8,IDENT_9,







"# Name Id Description \n","--- -------------------- ------------------------------------ ----------- \n",
STRING_0,STRING_1,

























