testGetBuilderIdempotent,setUp,getBuilder,
METHOD_0,METHOD_1,METHOD_2,

access,JPAEdmBuilder,builder1,objJPAEdmProperty,builder2,prime,
IDENT_0,IDENT_1,IDENT_2,IDENT_3,IDENT_4,IDENT_5,

31,
INT_0,































