shouldAuthorizeAddedResource,isAuthorized,removeQueryString,
METHOD_0,METHOD_1,METHOD_2,

victim,patterns,ro,isdc,wro,WroUtil,
IDENT_0,IDENT_1,IDENT_2,IDENT_3,IDENT_4,IDENT_5,







"/resource.js",
STRING_0,

























