testStartAddedAsParentWhenItHasNoChild,ExplicitNode,addParent,getChild,
METHOD_0,METHOD_1,METHOD_2,METHOD_3,

oozie,fluentjob,dag,Start,NodeBase,
IDENT_0,IDENT_1,IDENT_2,IDENT_3,IDENT_4,







"start","child",
STRING_0,STRING_1,

























