testAddName,WorkflowBuilder,withName,
METHOD_0,METHOD_1,METHOD_2,

oozie,fluentjob,workflow,WorkflowBuilder,TestWorkflowBuilder,NAME,Workflow,
IDENT_0,IDENT_1,IDENT_2,IDENT_3,IDENT_4,IDENT_5,IDENT_6,


































