testEquals,getDict,asSL,asStringSet,getTokenSpans,
METHOD_0,METHOD_1,METHOD_2,METHOD_3,METHOD_4,

entry1,entry2,opennlp,dictionary,Dictionary,dictA,setA,dictB,setB,tokenize,TokenSample,
IDENT_0,IDENT_1,IDENT_2,IDENT_3,IDENT_4,IDENT_5,IDENT_6,IDENT_7,IDENT_8,IDENT_9,IDENT_10,







"1a","1b",
STRING_0,STRING_1,

























