testDecodeEmpty,endsWith,Span,extractNameType,
METHOD_0,METHOD_1,METHOD_2,METHOD_3,

opennlp,Span,namefind,BilouCodecTest,spans,li,chunkTag,BioCodec,START,CONTINUE,OTHER,
IDENT_0,IDENT_1,IDENT_2,IDENT_3,IDENT_4,IDENT_5,IDENT_6,IDENT_7,IDENT_8,IDENT_9,IDENT_10,


































