testCutoff2,NGramModel,StringList,cutoff,
METHOD_0,METHOD_1,METHOD_2,METHOD_3,

opennlp,ngram,NGramModel,ngramModel,StringList,mNGrams,
IDENT_0,IDENT_1,IDENT_2,IDENT_3,IDENT_4,IDENT_5,







"the","brown","fox","jumped",
STRING_0,STRING_1,STRING_2,STRING_3,

























