testMemberArraysBoolean,BeanCacheKey,
METHOD_0,METHOD_1,

webbeans,BeanCacheKey,BeanCacheKeyUnitTest,ab,
IDENT_0,IDENT_1,IDENT_2,IDENT_3,


































