testDependent,startContainer,getDependent,
METHOD_0,METHOD_1,METHOD_2,

webbeans,dependent,DependentComponent,DependentOwnerComponent,comp,dependentComponent,
IDENT_0,IDENT_1,IDENT_2,IDENT_3,IDENT_4,IDENT_5,


































