testIsCycleAllowedForBulkAllocation,isCycleAllowed,isBulkAllocation,
METHOD_0,METHOD_1,METHOD_2,

SequenceUtil,numToAllocate,
IDENT_0,IDENT_1,


































