test1,VoteResult,tally,
METHOD_0,METHOD_1,METHOD_2,

pivot,Vote,votes,APPROVE,DEFER,DENY,VoteResult,resultIter,vote,
IDENT_0,IDENT_1,IDENT_2,IDENT_3,IDENT_4,IDENT_5,IDENT_6,IDENT_7,IDENT_8,


































