should_return_this,isNotEqualByComparingTo,
METHOD_0,METHOD_1,

fest,assertions,ConcreteUnevenComparableAssert,returned,
IDENT_0,IDENT_1,IDENT_2,IDENT_3,


































