bug60293,openSampleDocument,getHeaderList,unmodifiableList,
METHOD_0,METHOD_1,METHOD_2,METHOD_3,

xwpf,usermodel,XWPFDocument,XWPFTestDataSamples,
IDENT_0,IDENT_1,IDENT_2,IDENT_3,







"60293.docx",
STRING_0,

























