should_return_this,isNotNull,
METHOD_0,METHOD_1,

fest,assertions,BigDecimalAssert,returned,objects,myself,
IDENT_0,IDENT_1,IDENT_2,IDENT_3,IDENT_4,IDENT_5,


































