bug35565,openSample,getSheetAt,writeOutAndReadBack,validateSheetIndex,
METHOD_0,METHOD_1,METHOD_2,METHOD_3,METHOD_4,

hssf,usermodel,HSSFWorkbook,wb,TestBugs,HSSFSheet,sheet,sheets,
IDENT_0,IDENT_1,IDENT_2,IDENT_3,IDENT_4,IDENT_5,IDENT_6,IDENT_7,







"35565.xls",
STRING_0,

























