test53109a,openSample,writeOutAndReadBack,
METHOD_0,METHOD_1,METHOD_2,

hssf,usermodel,HSSFWorkbook,wb1,TestBugs,ss,Workbook,wb2,HSSFITestDataProvider,
IDENT_0,IDENT_1,IDENT_2,IDENT_3,IDENT_4,IDENT_5,IDENT_6,IDENT_7,IDENT_8,







"com.aida-tour.www_SPO_files_maldives%20august%20october.xls",
STRING_0,

























