testSetFont,Font,setFont,getFont,
METHOD_0,METHOD_1,METHOD_2,METHOD_3,

Font,PLAIN,graphics,g2D,
IDENT_0,IDENT_1,IDENT_2,IDENT_3,







"Helvetica","getFont():",
STRING_0,STRING_1,

























