bug54557,isADateFormat,isInternalDateFormat,isCached,
METHOD_0,METHOD_1,METHOD_2,METHOD_3,

isDateFormat,hssf,usermodel,HSSFDateUtil,ss,DateUtil,formatIndex,formatString,lastCachedResult,nc,date_ptrn4,date_ptrn5,date_ptrn1,date_ptrn2,separatorIndex,date_ptrn3a,date_ptrn3b,
IDENT_0,IDENT_1,IDENT_2,IDENT_3,IDENT_4,IDENT_5,IDENT_6,IDENT_7,IDENT_8,IDENT_9,IDENT_10,IDENT_11,IDENT_12,IDENT_13,IDENT_14,IDENT_15,IDENT_16,

165,
INT_0,




".0000",'\\','-',',','.',' ',';','@',
STRING_0,STRING_1,STRING_2,STRING_3,STRING_4,STRING_5,STRING_6,STRING_7,

























