testGetColumn,CellAddress,getColumn,UnsupportedOperationException,
METHOD_0,METHOD_1,METHOD_2,METHOD_3,

ss,CellAddress,addr,
IDENT_0,IDENT_1,IDENT_2,


































