testGetMeataData,getMetaData,createRuntimeException,
METHOD_0,METHOD_1,METHOD_2,

JMSException,jmse,qpid,JmsExceptionSupport,
IDENT_0,IDENT_1,IDENT_2,IDENT_3,


































