testCreateFillsMessageFromMCauseessageParamMessage,
METHOD_0,

JMSException,qpid,JmsExceptionSupport,CAUSE_MESSAGE,
IDENT_0,IDENT_1,IDENT_2,IDENT_3,


































