testNullText,createTextMessage,setText,
METHOD_0,METHOD_1,METHOD_2,

qpid,JmsTextMessage,nullMessage,facade,
IDENT_0,IDENT_1,IDENT_2,IDENT_3,


































