testGetNext,getNext,
METHOD_0,METHOD_1,

qpid,Provider,mockProvider,ProviderWrapper,wrapper,
IDENT_0,IDENT_1,IDENT_2,IDENT_3,IDENT_4,


































