testAddFirstHandlesNulls,FailoverUriPool,setRandomize,addFirst,
METHOD_0,METHOD_1,METHOD_2,METHOD_3,

qpid,failover,FailoverUriPool,uris,
IDENT_0,IDENT_1,IDENT_2,IDENT_3,




synchronized,
MOD_0,




























