should_return_this_if_actual_is_not_same_as_expected,isNotSameAs,assertNotSame,
METHOD_0,METHOD_1,METHOD_2,

fest,assertions,ObjectAssert,returned,A,objects,myself,
IDENT_0,IDENT_1,IDENT_2,IDENT_3,IDENT_4,IDENT_5,IDENT_6,


































