testExpandEnvironmentVariablesNoVars,expandEnvironmentVariables,getenv,
METHOD_0,METHOD_1,METHOD_2,

reef,local,RunnableProcess,Matcher,ENV_REGEX,var,
IDENT_0,IDENT_1,IDENT_2,IDENT_3,IDENT_4,IDENT_5,







"foo*bar",
STRING_0,

























