testStringInjectDefault,getTang,newInjector,getStrings,
METHOD_0,METHOD_1,METHOD_2,METHOD_3,

Tang,Factory,reef,tang,Box,wake,RemoteEvent,
IDENT_0,IDENT_1,IDENT_2,IDENT_3,IDENT_4,IDENT_5,IDENT_6,







"one","two","three",
STRING_0,STRING_1,STRING_2,

























