testReturnSubclass,ParameterParser,addParser,getS,
METHOD_0,METHOD_1,METHOD_2,METHOD_3,

reef,tang,formats,ParameterParser,implementation,TestParameterParser,BarParser,Bar,Foo,
IDENT_0,IDENT_1,IDENT_2,IDENT_3,IDENT_4,IDENT_5,IDENT_6,IDENT_7,IDENT_8,







"woot",
STRING_0,

























