testGetBodyLength,JmsBytesMessage,getBodyLength,getData,
METHOD_0,METHOD_1,METHOD_2,METHOD_3,

rocketmq,JmsBytesMessage,bytesMessage,receiveData,
IDENT_0,IDENT_1,IDENT_2,IDENT_3,


































