testBigInt,BigIntColumnParser,toCharset,
METHOD_0,METHOD_1,METHOD_2,

rocketmq,mysql,BigIntColumnParser,MIN_VALUE,ONE,charset,Charsets,ISO_8859_1,UTF_16,
IDENT_0,IDENT_1,IDENT_2,IDENT_3,IDENT_4,IDENT_5,IDENT_6,IDENT_7,IDENT_8,







"bigint(20) unsigned","utf8","utf8mb4","latin1","ascii","ucs2",
STRING_0,STRING_1,STRING_2,STRING_3,STRING_4,STRING_5,

























