testHmacSha1,hmacSha,
METHOD_0,METHOD_1,

hmac,Crypto,HMACType,HMACSHA1,
IDENT_0,IDENT_1,IDENT_2,IDENT_3,

21,47,101,40,18,43,76,117,51,115,122,91,39,26,30,90,
INT_0,INT_1,INT_2,INT_3,INT_4,INT_5,INT_6,INT_7,INT_8,INT_9,INT_10,INT_11,INT_12,INT_13,INT_14,INT_15,




"abcd1234","your mother is a hedgehog",
STRING_0,STRING_1,

























