testParseJsonNull,newXPath,
METHOD_0,METHOD_1,

ValueExpression,testUrlEncode,xpath,XPath,xPath,gadgets,rewrite,XPathWrapper,FACTORY,pathExpr,
IDENT_0,IDENT_1,IDENT_2,IDENT_3,IDENT_4,IDENT_5,IDENT_6,IDENT_7,IDENT_8,IDENT_9,







"${osx:parseJson(null)}",
STRING_0,

























