setResponseNoCopy,HttpResponseBuilder,getResponseAsBytes,
METHOD_0,METHOD_1,METHOD_2,

someData,gadgets,HttpResponse,resp,responseBytes,
IDENT_0,IDENT_1,IDENT_2,IDENT_3,IDENT_4,







"some data",
STRING_0,

























