toStringIsSane,MessageBundle,getMessages,
METHOD_0,METHOD_1,METHOD_2,

gadgets,MessageBundle,b0,locale,MessageBundleTest,XML,b1,
IDENT_0,IDENT_1,IDENT_2,IDENT_3,IDENT_4,IDENT_5,IDENT_6,


































