testConcatenation,View,getContent,
METHOD_0,METHOD_1,METHOD_2,

body1,body2,content1,content2,gadgets,View,XmlUtil,ViewTest,SPEC_URL,
IDENT_0,IDENT_1,IDENT_2,IDENT_3,IDENT_4,IDENT_5,IDENT_6,IDENT_7,IDENT_8,







"Hello, ","World!","<Content type=\"html\">","</Content>",
STRING_0,STRING_1,STRING_2,STRING_3,

























