testQuirksCascadeReverse,View,getQuirks,
METHOD_0,METHOD_1,METHOD_2,

content1,content2,gadgets,View,XmlUtil,ViewTest,SPEC_URL,quirks,
IDENT_0,IDENT_1,IDENT_2,IDENT_3,IDENT_4,IDENT_5,IDENT_6,IDENT_7,







"<Content type=\"html\" quirks=\"false\"/>","<Content type=\"html\" quirks=\"true\"/>",
STRING_0,STRING_1,

























