should_return_true_if_array_has_only_null_elements,hasOnlyNullElements,checkNotNull,hasElements,
METHOD_0,METHOD_1,METHOD_2,METHOD_3,

fest,Preconditions,
IDENT_0,IDENT_1,


































