should_return_false_if_array_is_empty,hasOnlyNullElements,checkNotNull,hasElements,
METHOD_0,METHOD_1,METHOD_2,METHOD_3,

fest,Preconditions,
IDENT_0,IDENT_1,


































