testOverride,getMethod,getDeclaringClass,
METHOD_0,METHOD_1,METHOD_2,

sis,ChannelDataInput,TYPE,geotiff,readLong,readDouble,
IDENT_0,IDENT_1,IDENT_2,IDENT_3,IDENT_4,IDENT_5,







"readLong","readDouble",
STRING_0,STRING_1,

























