should_return_a_Collection_without_null_elements,nonNullElementsIn,checkNotNull,
METHOD_0,METHOD_1,METHOD_2,

nonNull,fest,Preconditions,nonNullElements,
IDENT_0,IDENT_1,IDENT_2,IDENT_3,







"Frodo","Sam",
STRING_0,STRING_1,

























