testAccumuloPresent,isAccumuloJarPresent,forName,
METHOD_0,METHOD_1,METHOD_2,

sqoop,AccumuloUtil,testingMode,INSTANCE_CLASS,ClassNotFoundException,cnfe,
IDENT_0,IDENT_1,IDENT_2,IDENT_3,IDENT_4,IDENT_5,


































