testAsInt,createInt4,asInt4,TajoRuntimeException,InvalidValueForCastException,
METHOD_0,METHOD_1,METHOD_2,METHOD_3,METHOD_4,

tajo,datum,Datum,DatumFactory,INT4,
IDENT_0,IDENT_1,IDENT_2,IDENT_3,IDENT_4,


































