testGetEvents,getEvents,getCount,
METHOD_0,METHOD_1,METHOD_2,

numOutputs,startIndex,tez,CompositeDataMovementEvent,cdme2,userPayload,DataMovementEvent,dme,
IDENT_0,IDENT_1,IDENT_2,IDENT_3,IDENT_4,IDENT_5,IDENT_6,IDENT_7,


































