normalizeWithReservedChar,normalize,toCharArray,toHexString,toUpperCase,
METHOD_0,METHOD_1,METHOD_2,METHOD_3,METHOD_4,

TEST_NAMES,EXPECTED_NAMES,tika,FilenameUtils,RESERVED,ROOT,
IDENT_0,IDENT_1,IDENT_2,IDENT_3,IDENT_4,IDENT_5,







"test?.txt","?test.txt","test.txt?","?test?txt?","test%3F.txt","%3Ftest.txt","test.txt%3F","%3Ftest%3Ftxt%3F","name cannot be null",'%',"0",
STRING_0,STRING_1,STRING_2,STRING_3,STRING_4,STRING_5,STRING_6,STRING_7,STRING_8,STRING_9,STRING_10,

























