normalizeWithReservedChars,normalize,toCharArray,toHexString,toUpperCase,
METHOD_0,METHOD_1,METHOD_2,METHOD_3,METHOD_4,

TEST_NAME,EXPECTED_NAME,tika,FilenameUtils,RESERVED,ROOT,
IDENT_0,IDENT_1,IDENT_2,IDENT_3,IDENT_4,IDENT_5,







"?a/b\nc\td\re*f\\g:h<i>j.txt|","%3Fa/b%0Ac%09d%0De%2Af\\g%3Ah%3Ci%3Ej.txt%7C","name cannot be null",'%',"0",
STRING_0,STRING_1,STRING_2,STRING_3,STRING_4,

























