isConverterAvailable_nullInput_false,isConverterAvailable,getConverterMap,
METHOD_0,METHOD_1,METHOD_2,

tika,mime,MediaType,mimetype,xmp,TikaToXMP,
IDENT_0,IDENT_1,IDENT_2,IDENT_3,IDENT_4,IDENT_5,


































