testIsResolveable,isTarget,isResolveable,isNextResolveable,
METHOD_0,METHOD_1,METHOD_2,METHOD_3,

applicationContext,
IDENT_0,







"whatever",
STRING_0,

























