shouldGetNoTraversals,Parameters,getTraversals,
METHOD_0,METHOD_1,METHOD_2,

gremlin,traversal,step,Parameters,Traversal,Admin,S,E,traversals,
IDENT_0,IDENT_1,IDENT_2,IDENT_3,IDENT_4,IDENT_5,IDENT_6,IDENT_7,IDENT_8,







"axe","ant","bat","ball","c","cat",
STRING_0,STRING_1,STRING_2,STRING_3,STRING_4,STRING_5,

























