shouldHaveLocalBeOppositeOfGlobal,opposite,
METHOD_0,METHOD_1,

gremlin,traversal,Scope,global,local,
IDENT_0,IDENT_1,IDENT_2,IDENT_3,IDENT_4,


































