shouldHandleBigInteger,assumeThat,either,or,serializeDeserialize,writeValue,readValue,
METHOD_0,METHOD_1,METHOD_2,METHOD_3,METHOD_4,METHOD_5,METHOD_6,

Assume,StringStartsWith,shaded,ObjectMapper,inputStream,
IDENT_0,IDENT_1,IDENT_2,IDENT_3,IDENT_4,







"v2","v3","123456789987654321123456789987654321",
STRING_0,STRING_1,STRING_2,

























