shouldGenerateCorrectSqlForMathOperations2,getSqlFrom,divideBy,plus,literal,expectedSqlForMathOperations2,
METHOD_0,METHOD_1,METHOD_2,METHOD_3,METHOD_4,METHOD_5,

testDialect,alfasoftware,morf,SqlUtils,
IDENT_0,IDENT_1,IDENT_2,IDENT_3,







"a / b + 100",
STRING_0,

























