testCastToString,getSqlFrom,Cast,FieldReference,expectedStringCast,
METHOD_0,METHOD_1,METHOD_2,METHOD_3,METHOD_4,

testDialect,alfasoftware,morf,DataType,STRING,
IDENT_0,IDENT_1,IDENT_2,IDENT_3,IDENT_4,







"CAST(value AS VARCHAR(10))",
STRING_0,

























