testCastToDecimal,getSqlFrom,Cast,FieldReference,expectedDecimalCast,
METHOD_0,METHOD_1,METHOD_2,METHOD_3,METHOD_4,

testDialect,alfasoftware,morf,DataType,DECIMAL,
IDENT_0,IDENT_1,IDENT_2,IDENT_3,IDENT_4,







"CAST(value AS DECIMAL(10,2))",
STRING_0,

























