testBug53469a,TesterRequest,setRequest,encodeURL,
METHOD_0,METHOD_1,METHOD_2,METHOD_3,

catalina,connector,Request,unittest,resp,
IDENT_0,IDENT_1,IDENT_2,IDENT_3,IDENT_4,







"../bar.html","UTF-8",
STRING_0,STRING_1,

























