testSetCommentInitPhase,setState,setComment,getComment,
METHOD_0,METHOD_1,METHOD_2,METHOD_3,

LifecycleState,STARTING_PREP,applicationSessionCookieConfig,comment,
IDENT_0,IDENT_1,IDENT_2,IDENT_3,


































