testSpec06,ELProcessor,
METHOD_0,METHOD_1,

ELProcessor,jsse,openssl,Cipher,idMap,cipherId,
IDENT_0,IDENT_1,IDENT_2,IDENT_3,IDENT_4,IDENT_5,







"(x->y->x-y)(2)(1)",
STRING_0,

























