testAverage04,ELProcessor,
METHOD_0,METHOD_1,

ELProcessor,jsse,openssl,Cipher,idMap,cipherId,
IDENT_0,IDENT_1,IDENT_2,IDENT_3,IDENT_4,IDENT_5,







"[].stream().average().orElseGet(()->10)",
STRING_0,

























