testCreateIntent,createIntent,QName,
METHOD_0,METHOD_1,METHOD_2,

tuscany,sca,Intent,intent,namespace,
IDENT_0,IDENT_1,IDENT_2,IDENT_3,IDENT_4,







"http://test","reliability","jetty",
STRING_0,STRING_1,STRING_2,

























