testSetStrataSamples,RFBuilder,setStrataSamples,keySet,
METHOD_0,METHOD_1,METHOD_2,METHOD_3,

oswego,csc480_hci521_2013,h2o,urlbuilders,RFBuilder,encoder,UrlEncoder,
IDENT_0,IDENT_1,IDENT_2,IDENT_3,IDENT_4,IDENT_5,IDENT_6,







"testSetStrata","test.hex","http://localhost:54321/RF.json?strata_samples=3%3D3%2C2%3D2","%2C10%3D10%2C1%3D1%2C0%3D0%2C7%3D7%2C6%3D6%2C5%3D5%2C4%","3D4%2C9%3D9%2C8%3D8&data_key=test.hex",'=','&',"://",":","?",
STRING_0,STRING_1,STRING_2,STRING_3,STRING_4,STRING_5,STRING_6,STRING_7,STRING_8,STRING_9,

























