testChecked,getService,throwChecked,getJavaFieldName,getJavaType,
METHOD_0,METHOD_1,METHOD_2,METHOD_3,METHOD_4,

tuscany,sca,ExceptionService,ExceptionsTestCase,CheckedExcpetion,
IDENT_0,IDENT_1,IDENT_2,IDENT_3,IDENT_4,







"ExceptionServiceClient"," <","> "," in <",">",
STRING_0,STRING_1,STRING_2,STRING_3,STRING_4,

























