getCAS,getJCas,
METHOD_0,METHOD_1,

uima,cas,CAS,ruta,RutaTestUtils,Ruta,jcas,JCas,Statistics,statistics,fit,JCasUtil,
IDENT_0,IDENT_1,IDENT_2,IDENT_3,IDENT_4,IDENT_5,IDENT_6,IDENT_7,IDENT_8,IDENT_9,IDENT_10,IDENT_11,







"ENGINE org.apache.uima.ruta.engine.CWEngine;","CONFIGURE(CWEngine, \"profile\"= true, \"statistics\"=true);","EXEC(CWEngine);","Some test.",
STRING_0,STRING_1,STRING_2,STRING_3,

























