testEquals,Span,
METHOD_0,METHOD_1,

uima,caseditor,editor,Span,vinci,vns,ServiceRegistry,PortRange,minPort,maxPort,
IDENT_0,IDENT_1,IDENT_2,IDENT_3,IDENT_4,IDENT_5,IDENT_6,IDENT_7,IDENT_8,IDENT_9,


































