testDecrement,decrement,staticCompare,getUuid,
METHOD_0,METHOD_1,METHOD_2,METHOD_3,

testSize,current,UUIDUtils,MAX_TIME_UUID,previous,usergrid,UUIDUtilsTest,Id,uuid,UUIDComparator,
IDENT_0,IDENT_1,IDENT_2,IDENT_3,IDENT_4,IDENT_5,IDENT_6,IDENT_7,IDENT_8,IDENT_9,

100000,
INT_0,




"testDecrement processed ",
STRING_0,




%,
OP_0,



















