testHashCode,SimpleId,newTimeUUID,MvccLogEntryImpl,
METHOD_0,METHOD_1,METHOD_2,METHOD_3,

usergrid,SimpleId,entityId,UUIDGenerator,mvcc,Stage,stage,COMPLETE,MvccLogEntry,State,second,
IDENT_0,IDENT_1,IDENT_2,IDENT_3,IDENT_4,IDENT_5,IDENT_6,IDENT_7,IDENT_8,IDENT_9,IDENT_10,


































