getApiRoot,httpGet,releaseConnection,isAllowed,responsesWith,
METHOD_0,METHOD_1,METHOD_2,METHOD_3,METHOD_4,

httpclient,GetMethod,httpGetRoot,
IDENT_0,IDENT_1,IDENT_2,


































