isValidAnonymous,
METHOD_0,

ok,principal,ticket,zeppelin,TicketContainer,sessions,
IDENT_0,IDENT_1,IDENT_2,IDENT_3,IDENT_4,IDENT_5,







"anonymous",
STRING_0,

























