testBytesToHexEmpty,bytesToHex,
METHOD_0,METHOD_1,

jalg,hawkj,Util,hexArray,hexChars,
IDENT_0,IDENT_1,IDENT_2,IDENT_3,IDENT_4,







'0','1','2','3','4','5','6','7','8','9','A','B','C','D','E','F',
STRING_0,STRING_1,STRING_2,STRING_3,STRING_4,STRING_5,STRING_6,STRING_7,STRING_8,STRING_9,STRING_10,STRING_11,STRING_12,STRING_13,STRING_14,STRING_15,

























