testMainKeyRangeNoDups_GetLast,open,startInserts,checkRange,stopInserts,interrupt,isAlive,
METHOD_0,METHOD_1,METHOD_2,METHOD_3,METHOD_4,METHOD_5,METHOD_6,

insertThread,
IDENT_0,


































