cleanUp,retrieve,decrypt,retrieveInternal,
METHOD_0,METHOD_1,METHOD_2,METHOD_3,

proxyGrantingTicketIou,timeout,
IDENT_0,IDENT_1,

250,
INT_0,




"proxyGrantingTicketIou","proxyGrantingTicket",
STRING_0,STRING_1,

























