testEditProfile,login,editProfile,getVersion,setPhoneNumber,
METHOD_0,METHOD_1,METHOD_2,METHOD_3,METHOD_4,

appfuse,userRequestService,
IDENT_0,IDENT_1,







"admin","555555",
STRING_0,STRING_1,

























