testGetUserPassword,getUserPassword,getUsername,
METHOD_0,METHOD_1,METHOD_2,

appfuse,password,username,
IDENT_0,IDENT_1,IDENT_2,


































