getMessageWithMockUser,getContext,getAuthentication,
METHOD_0,METHOD_1,METHOD_2,

messageService,Authentication,SecurityContextHolder,
IDENT_0,IDENT_1,IDENT_2,







"  :","Hello ",
STRING_0,STRING_1,

























