deleteIndex,ensureHashIndex,getIndex,
METHOD_0,METHOD_1,METHOD_2,

arangodb,IndexEntity,createResult,ArangoCollectionTest,COLLECTION_NAME,ArangoDBException,
IDENT_0,IDENT_1,IDENT_2,IDENT_3,IDENT_4,IDENT_5,


































