requireVersion,createView,ArangoViewImpl,
METHOD_0,METHOD_1,METHOD_2,

arangodb,ArangoViewTest,VIEW_NAME,ViewType,ARANGO_SEARCH,
IDENT_0,IDENT_1,IDENT_2,IDENT_3,IDENT_4,


































