testFindBraket,findBraket,
METHOD_0,METHOD_1,

patternString,araqne,logparser,syslog,juniper,attack,JuniperAttackLogPattern,braket,
IDENT_0,IDENT_1,IDENT_2,IDENT_3,IDENT_4,IDENT_5,IDENT_6,IDENT_7,







"SYN flood! From <src-ip>:<src-port> to <dst-ip>:<dst-port>, proto TCP (zone <zone-name>, int <interface-name>). Occurred <none> times.","SYN flood! From ","SYN flood! From <src-ip>",'{','<',
STRING_0,STRING_1,STRING_2,STRING_3,STRING_4,

























