builderFromPlaceRequestShouldNotShareParams,nameToken,getParameter,
METHOD_0,METHOD_1,METHOD_2,

gwtplatform,mvp,PlaceRequest,copyBuilder,defaultValue,
IDENT_0,IDENT_1,IDENT_2,IDENT_3,IDENT_4,







"nameToken","name1","value1","name2","value2","name3","value3",
STRING_0,STRING_1,STRING_2,STRING_3,STRING_4,STRING_5,STRING_6,

























