isValidID1,isValidID,isSet,
METHOD_0,METHOD_1,METHOD_2,

archimatetool,editor,
IDENT_0,IDENT_1,







"Hello*","[a-zA-Z_][\\w-_.]*",
STRING_0,STRING_1,

























