testGetArchimateModel,getArchimateModel,eContainer,
METHOD_0,METHOD_1,METHOD_2,

archimatetool,IArchimateModelObject,
IDENT_0,IDENT_1,


































