testEqualsOnSameSourceAndTargetValues,
METHOD_0,

simpleflatmapper,asm,InstantiatorKey,k1,DbObject,k2,TypeHelper,MapEntryTypes,keyType,valueType,
IDENT_0,IDENT_1,IDENT_2,IDENT_3,IDENT_4,IDENT_5,IDENT_6,IDENT_7,IDENT_8,IDENT_9,


































