testIsLeftArrowOK,getArrowIndex,isLeftArrow,
METHOD_0,METHOD_1,METHOD_2,

arrowable,arrow,owner,
IDENT_0,IDENT_1,IDENT_2,













%,
OP_0,



















