testHasStyleKO,setArrowStyle,hasStyle,
METHOD_0,METHOD_1,METHOD_2,

arrow,ArrowStyle,NONE,style,latexdraw,shape,
IDENT_0,IDENT_1,IDENT_2,IDENT_3,IDENT_4,IDENT_5,


































