testNull,AJsonSerHelper,writeNullLiteral,checkAcceptsValueAndPrefixComma,afterValueWritten,
METHOD_0,METHOD_1,METHOD_2,METHOD_3,METHOD_4,

baos,ajjpj,afoundation,AJsonSerHelper,ser,
IDENT_0,IDENT_1,IDENT_2,IDENT_3,IDENT_4,







"utf-8","null",
STRING_0,STRING_1,

























