testSplitLeft,ABTreeSpec,updated,
METHOD_0,METHOD_1,METHOD_2,

ajjpj,afoundation,immutable,ABTreeMap,AbstractBTreeTest,naturalOrder,
IDENT_0,IDENT_1,IDENT_2,IDENT_3,IDENT_4,IDENT_5,







"4","6","8","3","5","7",
STRING_0,STRING_1,STRING_2,STRING_3,STRING_4,STRING_5,

























