shouldBeGreaterEqual,extract,isGraterThenOrEqual,
METHOD_0,METHOD_1,METHOD_2,

arquillian,jetty,embedded_7,VersionUtil,Version,greater,then,
IDENT_0,IDENT_1,IDENT_2,IDENT_3,IDENT_4,IDENT_5,IDENT_6,







"7.1",
STRING_0,

























