shouldReturnCreatedDate,createInstance,forceCreated,getCreated,clone,
METHOD_0,METHOD_1,METHOD_2,METHOD_3,METHOD_4,

ENTITY,created,
IDENT_0,IDENT_1,


































