ibanShouldReturnValidCountryCode,countryCode,bankCode,accountNumber,getCountryCode,getByCode,
METHOD_0,METHOD_1,METHOD_2,METHOD_3,METHOD_4,METHOD_5,

iban4j,Iban,iban,CountryCode,AT,IbanUtil,
IDENT_0,IDENT_1,IDENT_2,IDENT_3,IDENT_4,IDENT_5,







"19043","00234573201",
STRING_0,STRING_1,

























