ibanShouldReturnValidOwnerAccountType,countryCode,bankCode,branchCode,accountNumber,accountType,ownerAccountType,getOwnerAccountType,
METHOD_0,METHOD_1,METHOD_2,METHOD_3,METHOD_4,METHOD_5,METHOD_6,METHOD_7,

iban4j,Iban,iban,CountryCode,BR,IbanUtil,
IDENT_0,IDENT_1,IDENT_2,IDENT_3,IDENT_4,IDENT_5,







"00360305","00001","0009795493","P",
STRING_0,STRING_1,STRING_2,STRING_3,

























