apply_mode_invalid,AstSimpleName,addFirst,toMemberName,
METHOD_0,METHOD_1,METHOD_2,METHOD_3,

RuntimeContext,KEY_EXECUTION_MODE,applied,DEFAULT,dmdl,JavaName,jn,
IDENT_0,IDENT_1,IDENT_2,IDENT_3,IDENT_4,IDENT_5,IDENT_6,







"==INVALID==","is",
STRING_0,STRING_1,

























