search_wildcard,touch,getTempFileSystem,getBase,compile,normalize,endsWith,
METHOD_0,METHOD_1,METHOD_2,METHOD_3,METHOD_4,METHOD_5,METHOD_6,

FileSystem,FileStatus,directio,HadoopDataSourceUtil,FilePattern,
IDENT_0,IDENT_1,IDENT_2,IDENT_3,IDENT_4,







"a.csv","b.tsv","c.csv","*.csv",
STRING_0,STRING_1,STRING_2,STRING_3,

























