escape_unknown,AstSimpleName,addFirst,toMemberName,
METHOD_0,METHOD_1,METHOD_2,METHOD_3,

escape,tabular,EscapeSequence,dmdl,JavaName,jn,
IDENT_0,IDENT_1,IDENT_2,IDENT_3,IDENT_4,IDENT_5,







'\\',"Hello\\nworld!","is",
STRING_0,STRING_1,STRING_2,

























