testRandomGet,RandomDataSourceSelector,parseInt,
METHOD_0,METHOD_1,METHOD_2,

ha,selector,RandomDataSourceSelector,dataSource,MockDataSource,
IDENT_0,IDENT_1,IDENT_2,IDENT_3,IDENT_4,


































