testPath,setPath,
METHOD_0,METHOD_1,

ServiceConfig,spring,DemoService,
IDENT_0,IDENT_1,IDENT_2,







"a/b$c","a?b",
STRING_0,STRING_1,

























