stress_restore,DecimalOption,toBytes,restore,AstSimpleName,addFirst,toMemberName,
METHOD_0,METHOD_1,METHOD_2,METHOD_3,METHOD_4,METHOD_5,METHOD_6,

DecimalOption,dmdl,JavaName,jn,
IDENT_0,IDENT_1,IDENT_2,IDENT_3,

10000000,
INT_0,




"3.14","is",
STRING_0,STRING_1,

























