v_int_string,readInt,writeString,
METHOD_0,METHOD_1,METHOD_2,

JsonFormat,JsonFormatTest,Data,w,stringValue,written,
IDENT_0,IDENT_1,IDENT_2,IDENT_3,IDENT_4,IDENT_5,







"100",
STRING_0,

























