v_float,readFloat,writeFloat,
METHOD_0,METHOD_1,METHOD_2,

JsonFormat,JsonFormatTest,Data,w,floatValue,written,
IDENT_0,IDENT_1,IDENT_2,IDENT_3,IDENT_4,IDENT_5,










1.25F,
FLOAT_0,






















