timezone_null,generateJavaFromLines,restore,newModel,setOption,DateTimeOption,DateTime,
METHOD_0,METHOD_1,METHOD_2,METHOD_3,METHOD_4,METHOD_5,METHOD_6,

dmdl,directio,tabular,ModelLoader,loaded,contents,
IDENT_0,IDENT_1,IDENT_2,IDENT_3,IDENT_4,IDENT_5,

2017,34,56,
INT_0,INT_1,INT_2,




"@directio.text.tabular("," timezone = 'UTC',",")","simple = {"," @directio.text.field(timezone = null)"," a : DATETIME;","};","Simple",
STRING_0,STRING_1,STRING_2,STRING_3,STRING_4,STRING_5,STRING_6,STRING_7,

























