with_provider_conf,withProvider,withProject,withProperty,
METHOD_0,METHOD_1,METHOD_2,METHOD_3,

AsakusaProject,directio,serde,PropertyDescriptor,descriptor,
IDENT_0,IDENT_1,IDENT_2,IDENT_3,IDENT_4,







"action.provider","true","testing",
STRING_0,STRING_1,STRING_2,

























