symlink_self,touch,link,assumeThat,renameTo,createService,getDescription,
METHOD_0,METHOD_1,METHOD_2,METHOD_3,METHOD_4,METHOD_5,METHOD_6,

f1,f2,f3,Assume,Clean,MessageFormat,
IDENT_0,IDENT_1,IDENT_2,IDENT_3,IDENT_4,IDENT_5,







"a/file1","b/file2","c/link","-r","*","[{0}] {1}",
STRING_0,STRING_1,STRING_2,STRING_3,STRING_4,STRING_5,

























