assumeNotNull,
METHOD_0,

Assume,AsakusaProject,directio,serde,PropertyDescriptor,descriptor,
IDENT_0,IDENT_1,IDENT_2,IDENT_3,IDENT_4,IDENT_5,







"java.version","testing",
STRING_0,STRING_1,

























