subgraph_empty,addPath,subgraph,
METHOD_0,METHOD_1,METHOD_2,

Graph,Graphs,GraphsTest,sub,counters,
IDENT_0,IDENT_1,IDENT_2,IDENT_3,IDENT_4,


































