testCollectHeads_multi,addPath,collectHeads,getNodeSet,removeAll,getConnected,
METHOD_0,METHOD_1,METHOD_2,METHOD_3,METHOD_4,METHOD_5,

Graph,Graphs,GraphsTest,V,Vertex,vertex,
IDENT_0,IDENT_1,IDENT_2,IDENT_3,IDENT_4,IDENT_5,







"graph must not be null",
STRING_0,

























