testSetTreeNumber,RFTreeViewBuilder,ServerUrlEncoder,setTreeNumber,keySet,
METHOD_0,METHOD_1,METHOD_2,METHOD_3,METHOD_4,

oswego,csc480_hci521_2013,h2o,urlbuilders,encoder,UrlEncoder,
IDENT_0,IDENT_1,IDENT_2,IDENT_3,IDENT_4,IDENT_5,







"setTreeNumber","http://localhost:54321null?tree_number=1",'=','&',"://",":","?",
STRING_0,STRING_1,STRING_2,STRING_3,STRING_4,STRING_5,STRING_6,

























