execute_dual,newFile,profile,GateTask,ParameterList,
METHOD_0,METHOD_1,METHOD_2,METHOD_3,METHOD_4,

folder,temp,windgate,GateProfile,profile,GateScript,importer,GateTask,exporter,CharSequence,
IDENT_0,IDENT_1,IDENT_2,IDENT_3,IDENT_4,IDENT_5,IDENT_6,IDENT_7,IDENT_8,IDENT_9,







"in","temp","out","aaa","bbb","ccc","testing","fs1","fs2",
STRING_0,STRING_1,STRING_2,STRING_3,STRING_4,STRING_5,STRING_6,STRING_7,STRING_8,

























