parseArguments,getPairs,AstSimpleName,addFirst,toMemberName,
METHOD_0,METHOD_1,METHOD_2,METHOD_3,METHOD_4,

parsed,windgate,CommandLineUtil,answer,dmdl,JavaName,jn,
IDENT_0,IDENT_1,IDENT_2,IDENT_3,IDENT_4,IDENT_5,IDENT_6,







"hello=world!","hello","world!","is",
STRING_0,STRING_1,STRING_2,STRING_3,

























