testItemIteratorEmpty,registerResponse,findByProject,option,
METHOD_0,METHOD_1,METHOD_2,METHOD_3,

dispatcher,asana,Task,iter,tasks,current,pages,
IDENT_0,IDENT_1,IDENT_2,IDENT_3,IDENT_4,IDENT_5,IDENT_6,







"GET","http://app/projects/1/tasks?limit=2","{\"data\": []}","item_limit","page_size",
STRING_0,STRING_1,STRING_2,STRING_3,STRING_4,

























