testSimplePropertyExpression,createExpression,
METHOD_0,METHOD_1,

seovic,objects,Expression,
IDENT_0,IDENT_1,IDENT_2,







"Homer",
STRING_0,

























