lazy_load_should_succeed_within_transaction,getLineItems,
METHOD_0,METHOD_1,

acme,Record,PersistenceServiceTestCase,seedRecords,lineItems,
IDENT_0,IDENT_1,IDENT_2,IDENT_3,IDENT_4,


































