callActive4,incrementCache,intValue,
METHOD_0,METHOD_1,METHOD_2,

acme,multinode,infinispan,Cache,counter,newCounter,
IDENT_0,IDENT_1,IDENT_2,IDENT_3,IDENT_4,IDENT_5,







"Cache incremented, current count: ","counter",
STRING_0,STRING_1,

























