mergerDoesNotPreserveOverlappingAtEndBroadcast,Broadcast,DateTime,merge,
METHOD_0,METHOD_1,METHOD_2,METHOD_3,

atlasapi,merge,BroadcastMerger,merger,Broadcast,broadcast,DateTimeZone,UTC,ImmutableSet,Iterable,QueryResult,
IDENT_0,IDENT_1,IDENT_2,IDENT_3,IDENT_4,IDENT_5,IDENT_6,IDENT_7,IDENT_8,IDENT_9,IDENT_10,

2016,22,
INT_0,INT_1,




"\"channelUri\"|\"2016-01-05T00:00:00Z\"|\"2016-01-06T00:00:00Z\"","channelUri",
STRING_0,STRING_1,

























