testRFViewHashConstructor,RFViewBuilder,ServerUrlEncoder,keySet,
METHOD_0,METHOD_1,METHOD_2,METHOD_3,

intToString,oswego,csc480_hci521_2013,h2o,urlbuilders,encoder,UrlEncoder,
IDENT_0,IDENT_1,IDENT_2,IDENT_3,IDENT_4,IDENT_5,IDENT_6,







"http://localhost:54321/RFView.json?-10=-10","&3=3&2=2&10=10&1=1&0=0&7=7&-2=-2&6=6&-1=-1&5=5&-4=-4&","-3=-3&4=4&-6=-6&-5=-5&-8=-8&9=9&-7=-7&8=8&-9=-9",'=','&',"://",":","?",
STRING_0,STRING_1,STRING_2,STRING_3,STRING_4,STRING_5,STRING_6,STRING_7,

























