toZonedDateTime,DefaultAtlasConversionService,
METHOD_0,METHOD_1,

ZonedDateTime,atlasmap,DefaultAtlasConversionService,
IDENT_0,IDENT_1,IDENT_2,




synchronized,
MOD_0,




























