testABC,ExpressRunner,
METHOD_0,METHOD_1,

ql,express,ExpressRunner,
IDENT_0,IDENT_1,IDENT_2,







"\"经\\\"费收\\\"入\\\"aaa-\" + 100","经\"费收\"入\"aaa-100",
STRING_0,STRING_1,

























