testListPrimitiveClassNames,listPrimitiveClassNames,
METHOD_0,METHOD_1,

atlasmap,DefaultAtlasConversionService,PRIMITIVE_CLASSNAMES,
IDENT_0,IDENT_1,IDENT_2,


































