testCapacity0Write,createBuffer,writeLong,readLong,
METHOD_0,METHOD_1,METHOD_2,METHOD_3,

atomix,Buffer,
IDENT_0,IDENT_1,

1024,
INT_0,































