deleteFile_testresultIsTrue,createFile,fileExist,deleteFile,getCurrentRunningDir,
METHOD_0,METHOD_1,METHOD_2,METHOD_3,METHOD_4,

mockFile,fileManager,testResult,att,aro,Util,dir,
IDENT_0,IDENT_1,IDENT_2,IDENT_3,IDENT_4,IDENT_5,IDENT_6,


































