readData_BadData,readAllLine,fileExist,readData,
METHOD_0,METHOD_1,METHOD_2,METHOD_3,

filereader,traceDateTime,traceFolder,att,aro,Util,FILE_SEPARATOR,TraceDataConst,FileName,KERNEL_LOG_FILE,peripheral,pojo,AlarmInfo,sessionTable,
IDENT_0,IDENT_1,IDENT_2,IDENT_3,IDENT_4,IDENT_5,IDENT_6,IDENT_7,IDENT_8,IDENT_9,IDENT_10,IDENT_11,IDENT_12,IDENT_13,

123,124,
INT_0,INT_1,




"<6>[ 0.000z00] Initializing cgroup subsys cpu","<6>[ 1770.877611] alarm_timer_triggered type 0 at 302m2491z4374","<MCLL>[ 0.000000] CPU: ARMv7 Processor [412fc082] revision 2 (ARMv7), cr=10c53c7d",
STRING_0,STRING_1,STRING_2,

























