readNoLines,fileExist,readAllLine,readData,
METHOD_0,METHOD_1,METHOD_2,METHOD_3,

filereader,att,aro,peripheral,pojo,BatteryInfo,batteryInfos,batteryreader,sessionTable,
IDENT_0,IDENT_1,IDENT_2,IDENT_3,IDENT_4,IDENT_5,IDENT_6,IDENT_7,IDENT_8,


































