readData,fileExist,readAllLine,delta,
METHOD_0,METHOD_1,METHOD_2,METHOD_3,

filereader,sum,cameraReader,traceFolder,sessionTable,
IDENT_0,IDENT_1,IDENT_2,IDENT_3,IDENT_4,







"1.413913535177E9 OFF","1.413913591806E9 ON","1.413913610613E9 OFF","1.413913620683E9 ON","1.413913620883E9 OFF","1.413913622533E9 OFF",
STRING_0,STRING_1,STRING_2,STRING_3,STRING_4,STRING_5,

























