readData_NoFile,fileExist,readData,
METHOD_0,METHOD_1,METHOD_2,

filereader,InetAddress,traceFolder,sessionTable,
IDENT_0,IDENT_1,IDENT_2,IDENT_3,


































