testdelete,getTDHSConnection,createStatement,executeUpdate,
METHOD_0,METHOD_1,METHOD_2,METHOD_3,

taobao,tdhs,Connection,Statement,updateCount,
IDENT_0,IDENT_1,IDENT_2,IDENT_3,IDENT_4,







"delete from orders where user_id =1 and auction_name!=\"Book\"",
STRING_0,

























