testMetadataCommand,getCommandByName,isAsync,
METHOD_0,METHOD_1,METHOD_2,

audit4j,CommandProcessor,MetadataCommand,PreConfigurationContext,async,
IDENT_0,IDENT_1,IDENT_2,IDENT_3,IDENT_4,







"-metadata","async",
STRING_0,STRING_1,

























