testGetUri,IdentifierImpl,getUri,
METHOD_0,METHOD_1,METHOD_2,

att,research,xacml,Identifier,id1,std,
IDENT_0,IDENT_1,IDENT_2,IDENT_3,IDENT_4,IDENT_5,







"com:test",
STRING_0,

























