testGensymString,gensym,getContent,getAttributes,
METHOD_0,METHOD_1,METHOD_2,METHOD_3,

att,research,xacml,Identifier,std,IdentifierImpl,stringBuilder,objectToDump,Attribute,iterAttributes,
IDENT_0,IDENT_1,IDENT_2,IDENT_3,IDENT_4,IDENT_5,IDENT_6,IDENT_7,IDENT_8,IDENT_9,







"{","super=",",content=",",attributes=[",',',']','}',
STRING_0,STRING_1,STRING_2,STRING_3,STRING_4,STRING_5,STRING_6,

























