testPresent,getMapper,PossiblePojo,readValue,PossibleLong,
METHOD_0,METHOD_1,METHOD_2,METHOD_3,METHOD_4,

ObjectMapper,discord4j,PossiblePojo,Possible,
IDENT_0,IDENT_1,IDENT_2,IDENT_3,







"hello world","{\"string\": \"hello world\"}",
STRING_0,STRING_1,

























