testMonster,monster,monsterAnimationCount,
METHOD_0,METHOD_1,METHOD_2,

Image,m1,imf,m2,animationIndex,monsterImage,
IDENT_0,IDENT_1,IDENT_2,IDENT_3,IDENT_4,IDENT_5,













%,
OP_0,



















