testSearch,Html5VideoService,UnsupportedOperationException,
METHOD_0,METHOD_1,METHOD_2,

aview,html5,Html5VideoService,Html5Series,
IDENT_0,IDENT_1,IDENT_2,IDENT_3,







"breaking","HTTP Live Streaming search not implemented yet.",
STRING_0,STRING_1,

























