ofTypeAndName,Asynch,perform,await,until,fieldIn,ofType,andWithName,
METHOD_0,METHOD_1,METHOD_2,METHOD_3,METHOD_4,METHOD_5,METHOD_6,METHOD_7,

awaitility,fakeRepository,Awaitility,currentConditionValue,
IDENT_0,IDENT_1,IDENT_2,IDENT_3,


































