nullCause,getRootCause,getCause,getLog,
METHOD_0,METHOD_1,METHOD_2,METHOD_3,

orig,Throwables,MAX_RETRY,cause,LogFactory,
IDENT_0,IDENT_1,IDENT_2,IDENT_3,IDENT_4,







"Possible circular reference detected on ",": [",
STRING_0,STRING_1,

























