testManyS3LinksClass,ManyS3LinksTestClass,getS3_1,
METHOD_0,METHOD_1,METHOD_2,

mobileconnectors,dynamodbv2,dynamodbmapper,ConfigureS3LinksTest,ManyS3LinksTestClass,s3_1,
IDENT_0,IDENT_1,IDENT_2,IDENT_3,IDENT_4,IDENT_5,


































