getAllUsers,prepareGetAllUserMock,getUsers,
METHOD_0,METHOD_1,METHOD_2,

userCount,alien4cloud,users,ldapUserDao,ldapTemplate,userLdapAttributeMapper,
IDENT_0,IDENT_1,IDENT_2,IDENT_3,IDENT_4,IDENT_5,


































