getMinWhitespace,getLeadingWhitespace,
METHOD_0,METHOD_1,

lines,minWhitespace,lineLeadingWhitespace,ParsingUtils,
IDENT_0,IDENT_1,IDENT_2,IDENT_3,







" FOO"," BAR"," BAZ",
STRING_0,STRING_1,STRING_2,

























