controlMessages,LinkedHashMap,fromString,
METHOD_0,METHOD_1,METHOD_2,

software,eventstream,HeaderValue,
IDENT_0,IDENT_1,IDENT_2,







":content-type","application/json","{\"foo\": \"bar\"}",":content-type: \"application/json\"\n","{\"foo\": \"bar\"}\n","Header{","name='",'\'',", value=",'}',
STRING_0,STRING_1,STRING_2,STRING_3,STRING_4,STRING_5,STRING_6,STRING_7,STRING_8,STRING_9,

























