getFloat,Item,withFloat,getNumber,NumberFormatException,floatValue,
METHOD_0,METHOD_1,METHOD_2,METHOD_3,METHOD_4,METHOD_5,

software,awssdk,dynamodb,Item,bd,attrName,
IDENT_0,IDENT_1,IDENT_2,IDENT_3,IDENT_4,IDENT_5,







"item_key","value of "," is null",
STRING_0,STRING_1,STRING_2,

123.45F,
FLOAT_0,






















