testEmptyByteArray,toUtf8String,
METHOD_0,METHOD_1,

software,awssdk,IoUtils,charset,StandardCharsets,
IDENT_0,IDENT_1,IDENT_2,IDENT_3,IDENT_4,


































