testBuildResourcePath_bothBlank,buildResourcePath,trimSlashes,removeEnd,
METHOD_0,METHOD_1,METHOD_2,METHOD_3,

basePath,resourcePath,
IDENT_0,IDENT_1,


































