testGetSequenceNumber,getStartingSequenceNumber,getSequenceNumber,getDynamodb,
METHOD_0,METHOD_1,METHOD_2,METHOD_3,

mockRequest,TEST_STRING,internalRecord,
IDENT_0,IDENT_1,IDENT_2,


































