TestExceptionMisc,LogException,GetRequestId,GetHeader,
METHOD_0,METHOD_1,METHOD_2,METHOD_3,

aliyun,openservices,LogException,Consts,CONST_X_SLS_REQUESTID,
IDENT_0,IDENT_1,IDENT_2,IDENT_3,IDENT_4,


































