testNextAndExtract_NonNullValue_WasNull,getObject,wasNull,nextAndExtract,extract,
METHOD_0,METHOD_1,METHOD_2,METHOD_3,METHOD_4,

resultSet,axonframework,JdbcUtils,columnType,
IDENT_0,IDENT_1,IDENT_2,IDENT_3,


































