putSucceedOn5InnerMaps,TwinCollection,putFinal,
METHOD_0,METHOD_1,METHOD_2,

rawMap,deps,twin,twinCollection,inner,lock,
IDENT_0,IDENT_1,IDENT_2,IDENT_3,IDENT_4,IDENT_5,




synchronized,
MOD_0,

"Value","NewValue","Inner1","Inner2","Inner3","Inner4","FinalInnerValue","MaxSpeed",
STRING_0,STRING_1,STRING_2,STRING_3,STRING_4,STRING_5,STRING_6,STRING_7,

500.0,300.0,
FLOAT_0,FLOAT_1,






















