getLastUpdatedNullSucceed,getLastUpdated,
METHOD_0,METHOD_1,

lastUpdated,lastUpdatedVersion,deps,twin,TwinMetadata,twinMetadata,mockit,Deencapsulation,
IDENT_0,IDENT_1,IDENT_2,IDENT_3,IDENT_4,IDENT_5,IDENT_6,IDENT_7,


































