GetStatusGets,DeviceMethodData,
METHOD_0,METHOD_1,

DeviceTwin,DeviceMethodData,testData,testStatus,
IDENT_0,IDENT_1,IDENT_2,IDENT_3,







"testMessage",
STRING_0,

























