isExpiredReturnsFalseIfCurrentTimeIsSmallerThanExpiryTime,setExpiryTime,isExpired,
METHOD_0,METHOD_1,METHOD_2,

actualResult,expectedResult,expiryTime,
IDENT_0,IDENT_1,IDENT_2,

97,98,99,
INT_0,INT_1,INT_2,































