testLogViewNotNull,logview,getLogViewHost,
METHOD_0,METHOD_1,METHOD_2,

aliyun,odps,LogView,logViewHost,
IDENT_0,IDENT_1,IDENT_2,IDENT_3,


































