getSingerName,BearerTokenSigner,getSignerName,
METHOD_0,METHOD_1,METHOD_2,

aliyuncs,BearerTokenSigner,signer,
IDENT_0,IDENT_1,IDENT_2,


































