getSingerType,BearerTokenSigner,getSignerType,
METHOD_0,METHOD_1,METHOD_2,

aliyuncs,BearerTokenSigner,signer,
IDENT_0,IDENT_1,IDENT_2,







"BEARERTOKEN",
STRING_0,

























