getETagGetsNull,DeviceTwinDevice,getETag,
METHOD_0,METHOD_1,METHOD_2,

devicetwin,DeviceTwinDevice,testDevice,etag,eTag,
IDENT_0,IDENT_1,IDENT_2,IDENT_3,IDENT_4,







"testDevice",
STRING_0,

























