canGetUserByDisplayName,users,getByName,
METHOD_0,METHOD_1,METHOD_2,

graphrbac,ActiveDirectoryUser,graphRbacManager,
IDENT_0,IDENT_1,IDENT_2,







"Reader zero",
STRING_0,

























