getSetCreated,AccessPolicyInfo,AccessPolicyType,setCreated,getCreated,
METHOD_0,METHOD_1,METHOD_2,METHOD_3,METHOD_4,

windowsazure,AccessPolicyInfo,implementation,created,
IDENT_0,IDENT_1,IDENT_2,IDENT_3,


































