getSetName,AccessPolicyInfo,AccessPolicyType,
METHOD_0,METHOD_1,METHOD_2,

windowsazure,AccessPolicyInfo,implementation,
IDENT_0,IDENT_1,IDENT_2,







"policy name goes here",
STRING_0,

























