testGetSetId,AssetFileInfo,AssetFileType,
METHOD_0,METHOD_1,METHOD_2,

expectedId,windowsazure,AssetFileInfo,implementation,actualId,
IDENT_0,IDENT_1,IDENT_2,IDENT_3,IDENT_4,







"testId",
STRING_0,

























