listAllFileInfosHasCorrectUri,getUri,
METHOD_0,METHOD_1,

expectedUri,windowsazure,entityoperations,EntityListOperation,AssetFileInfo,lister,AssetFile,
IDENT_0,IDENT_1,IDENT_2,IDENT_3,IDENT_4,IDENT_5,IDENT_6,







"Files",
STRING_0,

























