canIterateThroughResults,createStringListResult,
METHOD_0,METHOD_1,

windowsazure,ListResult,expectedStrings,
IDENT_0,IDENT_1,IDENT_2,


































