testCorrectCapture,getBoard,ChessEngine,getScoredMove,getScore,
METHOD_0,METHOD_1,METHOD_2,METHOD_3,METHOD_4,

barrysw19,calculon,BitBoard,board,notation,FENUtils,ChessEngine,chessEngine,SearchContext,ctx1,ctx2,score,
IDENT_0,IDENT_1,IDENT_2,IDENT_3,IDENT_4,IDENT_5,IDENT_6,IDENT_7,IDENT_8,IDENT_9,IDENT_10,IDENT_11,

30,
INT_0,




"r3kb1r/ppp1pppp/2n5/4P3/3P2B1/4BN2/PP3PPP/R2nK2R b KQkq - 0 11","D1E3","D1B2",
STRING_0,STRING_1,STRING_2,

























