treeAwareUpdates2,atomics,MemData,addDelete,addInsert,elemClip,updatesSize,flush,
METHOD_0,METHOD_1,METHOD_2,METHOD_3,METHOD_4,METHOD_5,METHOD_6,METHOD_7,

basex,up,AtomicUpdateCache,auc,AtomicUpdatesTest,MemData,md,struct,
IDENT_0,IDENT_1,IDENT_2,IDENT_3,IDENT_4,IDENT_5,IDENT_6,IDENT_7,







"<a><b/></a>","<c/>","<d/>","insert node <d/> into $input, insert node <c/> into $input/b,","delete node $input/b","<a>\n<d/>\n</a>",
STRING_0,STRING_1,STRING_2,STRING_3,STRING_4,STRING_5,

























