string2token2string,toChars,consumeWS,more,curr,eoc,consume,finish,
METHOD_0,METHOD_1,METHOD_2,METHOD_3,METHOD_4,METHOD_5,METHOD_6,METHOD_7,

Character,MAX_CODE_POINT,basex,Cmd,more,quoted,cmd,
IDENT_0,IDENT_1,IDENT_2,IDENT_3,IDENT_4,IDENT_5,IDENT_6,







'"',' ',"^\"|\"$",
STRING_0,STRING_1,STRING_2,

























