encodesQueryRequestCorrectly,encodeTsQueryRequest,flush,OtpOutputStream,write_tuple_head,write_atom,write_binary,write_nil,write_boolean,
METHOD_0,METHOD_1,METHOD_2,METHOD_3,METHOD_4,METHOD_5,METHOD_6,METHOD_7,METHOD_8,

ericsson,otp,erlang,OtpOutputStream,os,basho,riak,TermToBinaryCodec,TermToBinaryCodecTest,QUERY,OtpExternal,versionTag,TS_QUERY_REQ,TS_INTERPOLATION,queryText,StandardCharsets,coverageContext,UNDEFINED,
IDENT_0,IDENT_1,IDENT_2,IDENT_3,IDENT_4,IDENT_5,IDENT_6,IDENT_7,IDENT_8,IDENT_9,IDENT_10,IDENT_11,IDENT_12,IDENT_13,IDENT_14,IDENT_15,IDENT_16,IDENT_17,

131,104,116,115,113,117,101,114,121,105,110,112,111,108,97,109,21,83,69,76,67,84,32,42,70,82,79,77,65,90,106,102,
INT_0,INT_1,INT_2,INT_3,INT_4,INT_5,INT_6,INT_7,INT_8,INT_9,INT_10,INT_11,INT_12,INT_13,INT_14,INT_15,INT_16,INT_17,INT_18,INT_19,INT_20,INT_21,INT_22,INT_23,INT_24,INT_25,INT_26,INT_27,INT_28,INT_29,INT_30,INT_31,































