writesDataWithoutError,withRows,isSuccess,
METHOD_0,METHOD_1,METHOD_2,

basho,riak,ts,StoreOperation,storeOp,rows,RiakFuture,Void,coreFuture,
IDENT_0,IDENT_1,IDENT_2,IDENT_3,IDENT_4,IDENT_5,IDENT_6,IDENT_7,IDENT_8,


































