test_ipProtocols,setIpProtocols,toBDD,getIpProtocol,or,
METHOD_0,METHOD_1,METHOD_2,METHOD_3,METHOD_4,

IpProtocol,proto1,TCP,proto2,UDP,HeaderSpace,headerSpace,javabdd,BDD,bdd,_toBDD,protoBDD,_pkt,_values,
IDENT_0,IDENT_1,IDENT_2,IDENT_3,IDENT_4,IDENT_5,IDENT_6,IDENT_7,IDENT_8,IDENT_9,IDENT_10,IDENT_11,IDENT_12,IDENT_13,


































