testIpWildcardSetIpSpace,including,IpWildcard,excluding,toBDD,or,diff,visit,getMatchCondition,
METHOD_0,METHOD_1,METHOD_2,METHOD_3,METHOD_4,METHOD_5,METHOD_6,METHOD_7,METHOD_8,

Prefix,include1,include2,include3,exclude1,exclude2,exclude3,exclude4,IpWildcardSetIpSpace,ipSpace,javabdd,BDD,include1Bdd,_ipSpaceToBdd,include2Bdd,include3Bdd,exclude1Bdd,exclude2Bdd,exclude3Bdd,exclude4Bdd,IpAccessListLine,
IDENT_0,IDENT_1,IDENT_2,IDENT_3,IDENT_4,IDENT_5,IDENT_6,IDENT_7,IDENT_8,IDENT_9,IDENT_10,IDENT_11,IDENT_12,IDENT_13,IDENT_14,IDENT_15,IDENT_16,IDENT_17,IDENT_18,IDENT_19,IDENT_20,







"1.1.1.0/24","1.1.2.0/24","1.1.3.0/24","1.1.0.0/16","1.1.1.1/32","1.1.2.2/32","1.1.3.3/32",
STRING_0,STRING_1,STRING_2,STRING_3,STRING_4,STRING_5,STRING_6,

























