testFold,PrefixTrieMultiMap,fold,addPrefix,
METHOD_0,METHOD_1,METHOD_2,METHOD_3,

PrefixTrieMultiMap,Prefix,ZERO,ll,lr,rl,rr,prefixes,FoldOperator,Nonnull,prefix,elems,Nullable,leftResult,rightResult,Prefix6,changed,_prefixes,_trie,
IDENT_0,IDENT_1,IDENT_2,IDENT_3,IDENT_4,IDENT_5,IDENT_6,IDENT_7,IDENT_8,IDENT_9,IDENT_10,IDENT_11,IDENT_12,IDENT_13,IDENT_14,IDENT_15,IDENT_16,IDENT_17,IDENT_18,







"0.0.0.0/8","0.0.0.0/16","0.128.0.0/16","128.0.0.0/8","128.0.0.0/16","128.128.0.0/16",
STRING_0,STRING_1,STRING_2,STRING_3,STRING_4,STRING_5,

























