testSimplifyAndTrue,newAtom,AndExpr,simplifyBooleanExpr,Simplifier,
METHOD_0,METHOD_1,METHOD_2,METHOD_3,METHOD_4,

z3,BooleanExpr,p1,p2,AndExpr,TrueExpr,visitors,
IDENT_0,IDENT_1,IDENT_2,IDENT_3,IDENT_4,IDENT_5,IDENT_6,


































