testGetMessageCount,getMessageCount,queueClient,verifyNoMoreInteractions,
METHOD_0,METHOD_1,METHOD_2,METHOD_3,

_server,_authQueueService,_apiKey,
IDENT_0,IDENT_1,IDENT_2,

123L,
INT_0,




"queue-name",
STRING_0,

























