testMove,moveAsync,queueClient,verifyNoMoreInteractions,
METHOD_0,METHOD_1,METHOD_2,METHOD_3,

_server,moveId,_authDatabus,_apiKey,
IDENT_0,IDENT_1,IDENT_2,IDENT_3,







"queue-src","queue-dest","moveId1",
STRING_0,STRING_1,STRING_2,

























