testEqualsSame,endPoint,
METHOD_0,METHOD_1,

bazaarvoice,ostrich,ServiceEndPoint,endPoint,serviceName,
IDENT_0,IDENT_1,IDENT_2,IDENT_3,IDENT_4,







"Foo","server:80",
STRING_0,STRING_1,

























