testHashCodeEquals,endPoint,
METHOD_0,METHOD_1,

bazaarvoice,ostrich,ServiceEndPoint,endPoint1,endPoint2,_map,
IDENT_0,IDENT_1,IDENT_2,IDENT_3,IDENT_4,IDENT_5,

95261,
INT_0,




"Foo","server:80",
STRING_0,STRING_1,

























