testNoArgsRequestsHelp,parseArgs,isHelpRequested,
METHOD_0,METHOD_1,METHOD_2,

esa,gpf,main,CommandLineArgs,lineArgs,helpRequested,
IDENT_0,IDENT_1,IDENT_2,IDENT_3,IDENT_4,IDENT_5,


































