testParametersFileOption,parseArgs,getParameterFilePath,
METHOD_0,METHOD_1,METHOD_2,

esa,gpf,main,CommandLineArgs,lineArgs,parameterFilePath,
IDENT_0,IDENT_1,IDENT_2,IDENT_3,IDENT_4,IDENT_5,







"Reproject","source.dim","-p","param.properties",
STRING_0,STRING_1,STRING_2,STRING_3,

























