testNotAllVariables,getVariables,getFullName,
METHOD_0,METHOD_1,METHOD_2,

names,ucar,nc2,Variable,esa,dataio,netcdf,ReaderUtils,variables,variable,
IDENT_0,IDENT_1,IDENT_2,IDENT_3,IDENT_4,IDENT_5,IDENT_6,IDENT_7,IDENT_8,IDENT_9,







"ade","lsmf",
STRING_0,STRING_1,

























