testLeft,determineBookPosition,
METHOD_0,METHOD_1,

designforcode,controllers,BooksViewed,
IDENT_0,IDENT_1,IDENT_2,







"leftBook","rightBook",
STRING_0,STRING_1,

























