testWithTreeType,ForestIndexEntity,getForestTreeType,
METHOD_0,METHOD_1,METHOD_2,

bcvsolutions,forest,ForestIndexEntity,forestOne,forestTreeType,DEFAULT_TREE_TYPE,
IDENT_0,IDENT_1,IDENT_2,IDENT_3,IDENT_4,IDENT_5,







"mock",
STRING_0,

























