set_prompt_by_interpreter,StringReader,Interpreter,PrintStream,setExitOnEOF,
METHOD_0,METHOD_1,METHOD_2,METHOD_3,METHOD_4,

StringReader,P,baos,bsh,Interpreter,tokenImage,kind,
IDENT_0,IDENT_1,IDENT_2,IDENT_3,IDENT_4,IDENT_5,IDENT_6,







"abc> ","cde# ","bsh.prompt",": ",
STRING_0,STRING_1,STRING_2,STRING_3,

























