generics_wildcard,eval,
METHOD_0,METHOD_1,

clas,bsh,TestUtil,
IDENT_0,IDENT_1,IDENT_2,







"Class<?> clas = ArrayList.class;","clas;",
STRING_0,STRING_1,

























