instanceOf_withArgName_subtype_isValid,instanceOf,notNull,isInstance,IllegalInstanceOfArgumentException,
METHOD_0,METHOD_1,METHOD_2,METHOD_3,METHOD_4,

qualitycheck,Check,
IDENT_0,IDENT_1,







"list","type","obj",
STRING_0,STRING_1,STRING_2,

























