jsonToXml,Resty,XPathQuery,eval,
METHOD_0,METHOD_1,METHOD_2,METHOD_3,

us,monoid,Resty,title,XPathQuery,xp,xPath,returnType,
IDENT_0,IDENT_1,IDENT_2,IDENT_3,IDENT_4,IDENT_5,IDENT_6,IDENT_7,







"http://www.google.com/calendar/feeds/developer-calendar@google.com/public/full?alt=json","feed.entry[0].id.$t","entry/title/text()",
STRING_0,STRING_1,STRING_2,

























