testFindFirstWithoutTypeNoMatch,BinaryElement,findFirst,
METHOD_0,METHOD_1,METHOD_2,

BinaryElement,AbstractElement,ELEMENT_TYPE,nameRegexs,
IDENT_0,IDENT_1,IDENT_2,IDENT_3,







"anything",
STRING_0,

























