checkPositionIndex_ok_highest,positionIndex,IllegalPositionIndexException,
METHOD_0,METHOD_1,METHOD_2,

qualitycheck,Check,isIndexValid,
IDENT_0,IDENT_1,IDENT_2,


































