equals_otherClass,
METHOD_0,

qualitycheck,immutableobject,Import,ConditionalCheckTest,NotEqual,
IDENT_0,IDENT_1,IDENT_2,IDENT_3,IDENT_4,


































