equals_null,Blueprint,
METHOD_0,METHOD_1,

qualitycheck,immutableobject,MethodTest,ConditionalCheckTest,NotEqual,
IDENT_0,IDENT_1,IDENT_2,IDENT_3,IDENT_4,


































