testGetElements,BooleanElement,DocumentElement,getElements,
METHOD_0,METHOD_1,METHOD_2,METHOD_3,

subElement,DocumentElement,myElements,
IDENT_0,IDENT_1,IDENT_2,


































