hashCodesFromDifferentFileSystemTest,newFileSystem,
METHOD_0,METHOD_1,

beijunyi,parallelgit,filesystem,GitFileSystem,Gfs,GitPath,p1,gfs,p2,gitPath,
IDENT_0,IDENT_1,IDENT_2,IDENT_3,IDENT_4,IDENT_5,IDENT_6,IDENT_7,IDENT_8,IDENT_9,







"/a/b/c",
STRING_0,

























