absolutePathResolveSiblingWithAbsolutePathTest,resolveSibling,
METHOD_0,METHOD_1,

beijunyi,parallelgit,filesystem,GitPath,gfs,stringValue,CHARSET,
IDENT_0,IDENT_1,IDENT_2,IDENT_3,IDENT_4,IDENT_5,IDENT_6,







"/a/b/c","/a/d",
STRING_0,STRING_1,

























