commitNoChange_theResultShouldBeUnsuccessful,isSuccessful,
METHOD_0,METHOD_1,

beijunyi,parallelgit,filesystem,GfsCommit,Gfs,gfs,
IDENT_0,IDENT_1,IDENT_2,IDENT_3,IDENT_4,IDENT_5,


































