testWithNameWhenSameName,IntegerElement,withName,UuidElement,getSubType,
METHOD_0,METHOD_1,METHOD_2,METHOD_3,METHOD_4,

IntegerElement,myUuid,
IDENT_0,IDENT_1,

1010101,
INT_0,































