testLoadDataFromClasspath,loadFromClassPath,loadFromInputStream,
METHOD_0,METHOD_1,METHOD_2,

success,no,bekk,bekkopen,MailDataLoader,
IDENT_0,IDENT_1,IDENT_2,IDENT_3,IDENT_4,







"/tilbud5.txt",
STRING_0,

























