testIsMaleDNumber,Fodselsnummer,isMale,getGenderDigit,
METHOD_0,METHOD_1,METHOD_2,METHOD_3,

sut,no,bekk,bekkopen,FodselsnummerTest,D_FODSELSNUMMER,
IDENT_0,IDENT_1,IDENT_2,IDENT_3,IDENT_4,IDENT_5,













%,
OP_0,



















