testDomainShow,getUser,domainShow,getClientId,getResult,getJsonObject,success,
METHOD_0,METHOD_1,METHOD_2,METHOD_3,METHOD_4,METHOD_5,METHOD_6,

belerweb,social,weibo,UserTest,
IDENT_0,IDENT_1,IDENT_2,IDENT_3,







"cqlybest",
STRING_0,

























