testGet,getGroup,getResult,getJsonObject,success,
METHOD_0,METHOD_1,METHOD_2,METHOD_3,METHOD_4,

belerweb,social,weixin,Group,GroupTest,
IDENT_0,IDENT_1,IDENT_2,IDENT_3,IDENT_4,


































