testSendCustomMessage,setToUser,setContent,sendCustomMessage,success,
METHOD_0,METHOD_1,METHOD_2,METHOD_3,METHOD_4,

belerweb,social,weixin,MsgType,TEXT,
IDENT_0,IDENT_1,IDENT_2,IDENT_3,IDENT_4,







"weixin.openid",
STRING_0,

























