should_catch_in_order_specified,Try,SubException,Catch,TryBuilder,
METHOD_0,METHOD_1,METHOD_2,METHOD_3,METHOD_4,

benjiweber,Try,TryAsExpressionTest,SuperException,Action,
IDENT_0,IDENT_1,IDENT_2,IDENT_3,IDENT_4,







"try","firstcatch","secondcatch",
STRING_0,STRING_1,STRING_2,

























