counting_nodes_example,countNodes,left,right,
METHOD_0,METHOD_1,METHOD_2,METHOD_3,

benjiweber,caseclass,CaseTreeTest,Tree,Leaf,leaf,CaseTreeTest$Tree,
IDENT_0,IDENT_1,IDENT_2,IDENT_3,IDENT_4,IDENT_5,IDENT_6,


































