list_size_example,erasesTo,tail,
METHOD_0,METHOD_1,METHOD_2,

benjiweber,caseclass,CaseListTest,Tail,EmptyList,CaseListTest$List,Case3,
IDENT_0,IDENT_1,IDENT_2,IDENT_3,IDENT_4,IDENT_5,IDENT_6,







"one","two","three",
STRING_0,STRING_1,STRING_2,

























