list_double_item_example,longer,erasesTo,head,tail,
METHOD_0,METHOD_1,METHOD_2,METHOD_3,METHOD_4,

benjiweber,caseclass,CaseListTest,Tail,EmptyList,CaseListTest$List,Case3,
IDENT_0,IDENT_1,IDENT_2,IDENT_3,IDENT_4,IDENT_5,IDENT_6,







"one","two","three","oneone","twotwo","threethree",
STRING_0,STRING_1,STRING_2,STRING_3,STRING_4,STRING_5,

























