testWithNameWhenSameName,UuidElement,randomUUID,withName,getSubType,
METHOD_0,METHOD_1,METHOD_2,METHOD_3,METHOD_4,

UuidElement,LEGACY_UUID_SUBTTYPE,myUuid,
IDENT_0,IDENT_1,IDENT_2,


































