EncodingDecodingTest,getElement,getDecodingFunction,
METHOD_0,METHOD_1,METHOD_2,

bfh,unicrypt,algebra,dualistic,ZMod,zmod,PolynomialField,polynomialField,ZModTwo,encoder,ZModToBinaryPolynomialField,enc,ZModElement,PolynomialElement,encElement,decElement,general,DE,
IDENT_0,IDENT_1,IDENT_2,IDENT_3,IDENT_4,IDENT_5,IDENT_6,IDENT_7,IDENT_8,IDENT_9,IDENT_10,IDENT_11,IDENT_12,IDENT_13,IDENT_14,IDENT_15,IDENT_16,IDENT_17,

113,
INT_0,




"5192296858534827689835882578830703","4986819005910345345662976",
STRING_0,STRING_1,

























