testGetInstanceByCollectionException,getLength,
METHOD_0,METHOD_1,

list1,bfh,unicrypt,DenseArray,
IDENT_0,IDENT_1,IDENT_2,IDENT_3,







"s1","s3",
STRING_0,STRING_1,

























