testOriginalString,CFDv22,createComprobante,getCadenaOriginal,getOriginalBytes,
METHOD_0,METHOD_1,METHOD_2,METHOD_3,METHOD_4,

mx,bigdata,sat,cfd,CFDv22,ExampleCFDv22Factory,cadena,
IDENT_0,IDENT_1,IDENT_2,IDENT_3,IDENT_4,IDENT_5,IDENT_6,







"||2.2|ABCD|2|2012-05-03T14:11:36|49|2008|ingreso|UNA SOLA EXHIBICIÓN|2000.00|0.00|2320.00|efectivo|Mexico|PAMC660606ER9|CONTRIBUYENTE PRUEBASEIS PATERNOSEIS MATERNOSEIS|PRUEBA SEIS|6|6|PUEBLA CENTRO|PUEBLA|PUEBLA|PUEBLA|MÉXICO|72000|simplificado|CAUR390312S87|ROSA MARÍA CALDERÓN UIRIEGAS|TOPOCHICO|52|JARDINES DEL VALLE|NUEVO LEON|México|95465|1.00|Servicio|01|Asesoria Fiscal y administrativa|2000.00|2000.00|IVA|16.00|320.00|320.00||",
STRING_0,

























