getByState,getState,
METHOD_0,METHOD_1,

billforward,Invoice,InvoiceState,invoiceState,Unpaid,invoices,invoice,Subscription,SubscriptionState,
IDENT_0,IDENT_1,IDENT_2,IDENT_3,IDENT_4,IDENT_5,IDENT_6,IDENT_7,IDENT_8,


































