testUsEQLClass,Eql,selectFirst,useSqlFile,getEqlExtension,
METHOD_0,METHOD_1,METHOD_2,METHOD_3,METHOD_4,

n3r,eql,SimpleTest,sqlClassPath,sqlBoundClass,
IDENT_0,IDENT_1,IDENT_2,IDENT_3,IDENT_4,







"test1",'.','/',".",
STRING_0,STRING_1,STRING_2,STRING_3,

























