addWithTranError,queryDataCount,queryRecordCounts,
METHOD_0,METHOD_1,METHOD_2,

eqlTranService,ArithmeticException,eqlTranEqler,
IDENT_0,IDENT_1,IDENT_2,


































