testParseObjectIdInArray,JsonParser,pushArray,ObjectId,subElements,
METHOD_0,METHOD_1,METHOD_2,METHOD_3,METHOD_4,

JsonParser,DocumentBuilder,BuilderFactory,
IDENT_0,IDENT_1,IDENT_2,

1318946730,6351683009505662374L,
INT_0,INT_1,




"{ a : [ObjectId('4e9d87aa5825b60b637815a6')] }",
STRING_0,

























