testToPDB_StringBuffer,toPDB,
METHOD_0,METHOD_1,

biojava,nbio,structure,SiteTest,newline,bindingSite,chromosome,locus,
IDENT_0,IDENT_1,IDENT_2,IDENT_3,IDENT_4,IDENT_5,IDENT_6,IDENT_7,







"SITE 1 AC1 6 ARG H 221A LYS H 224 HOH H 403 HOH H 460 ","SITE 2 AC1 6 HOH H 464 HOH H 497 ","Cytoband [chromosome=",", start=",", end=",", locus=",", type=",
STRING_0,STRING_1,STRING_2,STRING_3,STRING_4,STRING_5,STRING_6,

























