testGetSiteID,getSiteID,
METHOD_0,METHOD_1,

biojava,nbio,structure,SiteTest,catSite,siteID,
IDENT_0,IDENT_1,IDENT_2,IDENT_3,IDENT_4,IDENT_5,







"CAT",
STRING_0,

























