testGetGroups,getGroups,unmodifiableSet,
METHOD_0,METHOD_1,METHOD_2,

biojava,nbio,structure,Group,SiteTest,bindingSiteGroups,bindingSite,groups,protmod,
IDENT_0,IDENT_1,IDENT_2,IDENT_3,IDENT_4,IDENT_5,IDENT_6,IDENT_7,IDENT_8,


































