testParseBigLongInArray,pushArray,subElements,
METHOD_0,METHOD_1,METHOD_2,

Json,DocumentBuilder,BuilderFactory,
IDENT_0,IDENT_1,IDENT_2,

12345678901L,
INT_0,




"{ a : [ 12345678901 ]}",
STRING_0,

























