testParseAll,CSVWriter,writeAll,
METHOD_0,METHOD_1,METHOD_2,

allElements,line1,line2,line3,bytecode,opencsv,sw,CSVWriter,csvw,lines,
IDENT_0,IDENT_1,IDENT_2,IDENT_3,IDENT_4,IDENT_5,IDENT_6,IDENT_7,IDENT_8,IDENT_9,







"Name#Phone#Email","#","Glen#1234#glen@abcd.com","John#5678#john@efgh.com",
STRING_0,STRING_1,STRING_2,STRING_3,

























