buildTextSqlParams,newInstace,BuildSource,getJoin,
METHOD_0,METHOD_1,METHOD_2,METHOD_3,

blinkfox,zealot,SqlInfo,sqlInfo,XmlSqlInfoBuilder,
IDENT_0,IDENT_1,IDENT_2,IDENT_3,IDENT_4,


































