hasProjectPermission,
METHOD_0,

permissionEvaluator,Permission,EDIT_PAGE,blizzy,documentr,access,projectName,permission,
IDENT_0,IDENT_1,IDENT_2,IDENT_3,IDENT_4,IDENT_5,IDENT_6,IDENT_7,







"project",
STRING_0,

























