sendError,addAttribute,
METHOD_0,METHOD_1,

errorController,HttpServletResponse,SC_FORBIDDEN,Model,statusCode,messageKey,
IDENT_0,IDENT_1,IDENT_2,IDENT_3,IDENT_4,IDENT_5,







"key","statusCode","messageKey","/sendError",
STRING_0,STRING_1,STRING_2,STRING_3,

























