testIntervalMerge,StringSink,getFactory,generateQuoteData,parseDateTime,RecordSourcePrinter,LongList,print,JournalRecordSource,MultiIntervalPartitionSource,JournalPartitionSource,getMetadata,AllRowSource,
METHOD_0,METHOD_1,METHOD_2,METHOD_3,METHOD_4,METHOD_5,METHOD_6,METHOD_7,METHOD_8,METHOD_9,METHOD_10,METHOD_11,METHOD_12,

questdb,std,StringSink,sink,JournalWriter,Quote,w,DateFormatUtils,Dates,MINUTE_MILLIS,ql,RecordSourcePrinter,LongList,intervals,interval,timestamp,sym,bid,ask,bidSize,askSize,mode,
IDENT_0,IDENT_1,IDENT_2,IDENT_3,IDENT_4,IDENT_5,IDENT_6,IDENT_7,IDENT_8,IDENT_9,IDENT_10,IDENT_11,IDENT_12,IDENT_13,IDENT_14,IDENT_15,IDENT_16,IDENT_17,IDENT_18,IDENT_19,IDENT_20,IDENT_21,

600,
INT_0,




"2014-03-10T07:03:00.000Z\tTLW.L\t245.300086975098\t363.160156250000\t1722093204\t448833342\tFast trading\tLXE\n","2014-03-10T07:15:00.000Z","2014-03-10T07:00:00.000Z\tGKN.L\t290.000000000000\t320.000000000000\t1070060020\t627764827\tFast trading\tLXE\n","2014-03-10T07:01:00.000Z\tLLOY.L\t0.001271238521\t0.000000010817\t855783502\t444545168\tFast trading\tLXE\n","2014-03-10T07:02:00.000Z\tRRS.L\t0.000010917804\t272.000000000000\t1212565949\t1829154977\tFast trading\tLXE\n","2014-03-10T07:04:00.000Z\tTLW.L\t0.025095539168\t0.000000122058\t1703832336\t180642477\tFast trading\tLXE\n","2014-03-10T07:08:00.000Z\tAGK.L\t0.207015849650\t0.199165701866\t1090730005\t1076974002\tFast trading\tLXE\n","2014-03-10T07:11:00.000Z\tAGK.L\t512.000000000000\t33.973937988281\t1723438228\t349327821\tFast trading\tLXE\n","2014-03-10T07:12:00.000Z\tWTB.L\t384.000000000000\t0.000000832384\t2145991300\t1388483923\tFast trading\tLXE\n","2014-03-10T07:13:00.000Z\tTLW.L\t0.000000093063\t0.000071085584\t1186156647\t1143726003\tFast trading\tLXE\n","Quote{","timestamp=",", sym='",'\'',", bid=",", ask=",", bidSize=",", askSize=",", mode='",", ex='",'}',
STRING_0,STRING_1,STRING_2,STRING_3,STRING_4,STRING_5,STRING_6,STRING_7,STRING_8,STRING_9,STRING_10,STRING_11,STRING_12,STRING_13,STRING_14,STRING_15,STRING_16,STRING_17,STRING_18,STRING_19,STRING_20,

























