testBinarySearch,LongMatrix,addRow,binarySearch,arrayGet,
METHOD_0,METHOD_1,METHOD_2,METHOD_3,METHOD_4,

questdb,std,LongMatrix,Unsafe,
IDENT_0,IDENT_1,IDENT_2,IDENT_3,

631,
INT_0,




"s",
STRING_0,

























