testAsDocument,QueryBuilder,whereField,asDocument,addInteger,Distinct,
METHOD_0,METHOD_1,METHOD_2,METHOD_3,METHOD_4,METHOD_5,

QueryBuilder,DocumentBuilder,BuilderFactory,
IDENT_0,IDENT_1,IDENT_2,

23,
INT_0,




"x",
STRING_0,

























