testFixedWidthFloat,FixedColumn,MemoryFile,putFloat,getFloat,
METHOD_0,METHOD_1,METHOD_2,METHOD_3,METHOD_4,

questdb,FixedColumn,col,dataFile,JournalMode,APPEND,cairo,Record,rec,columnIndex,
IDENT_0,IDENT_1,IDENT_2,IDENT_3,IDENT_4,IDENT_5,IDENT_6,IDENT_7,IDENT_8,IDENT_9,

22,150,
INT_0,INT_1,







0.33F,
FLOAT_0,






















