testSpan,FilterRecursiveDescentParser,
METHOD_0,METHOD_1,

kyori,Component,TextParsers,XML_PARSER,TextComponent,blurengine,blur,modules,lexer,
IDENT_0,IDENT_1,IDENT_2,IDENT_3,IDENT_4,IDENT_5,IDENT_6,IDENT_7,IDENT_8,







"<span>foo</span>",
STRING_0,

























