findSmileysShouldHandleEmptyStrings,findSmileys,
METHOD_0,METHOD_1,

usikkert,kouchat,smiley,Smiley,smileys,locator,Tools,
IDENT_0,IDENT_1,IDENT_2,IDENT_3,IDENT_4,IDENT_5,IDENT_6,







" a ","hello you",
STRING_0,STRING_1,

























