findSmileysShouldFindMultipleOfTheSameSmileyWithOtherCharactersBetween,findSmileys,verifySmiley,
METHOD_0,METHOD_1,METHOD_2,

usikkert,kouchat,smiley,Smiley,smileys,locator,userList,
IDENT_0,IDENT_1,IDENT_2,IDENT_3,IDENT_4,IDENT_5,IDENT_6,







":) - :) - :)",":)",
STRING_0,STRING_1,

























