getMatchingLinesOfTextShouldFindCorrectLinesEvenWhenSpreadOverManyLines,getMatchingLinesOfText,correctLineContent,
METHOD_0,METHOD_1,METHOD_2,

usikkert,kouchat,Line,lines,RobotiumTestUtils,userList,
IDENT_0,IDENT_1,IDENT_2,IDENT_3,IDENT_4,IDENT_5,







"[18:47:32] *** Tina aborted reception of kouchat-512x512.png ***","[18:47:32] *** ","Tina ","aborted"," reception ","of ","kouchat","-512x512",".png"," ***",
STRING_0,STRING_1,STRING_2,STRING_3,STRING_4,STRING_5,STRING_6,STRING_7,STRING_8,STRING_9,

























