testDeleteChannel,deleteChannel,
METHOD_0,METHOD_1,

joynr,jeeintegration,messaging,JeeServletMessageReceiver,channelId,
IDENT_0,IDENT_1,IDENT_2,IDENT_3,IDENT_4,







"Deleting channel %s",
STRING_0,

























