getMeetingsForFullWeekOf,getNumberOfMeetings,
METHOD_0,METHOD_1,

bnymellon,codekatas,calendarkata10,var,fullWeek,calendar,LocalDate,meetings,
IDENT_0,IDENT_1,IDENT_2,IDENT_3,IDENT_4,IDENT_5,IDENT_6,IDENT_7,

2017,
INT_0,































