testSetDimensionSuccess,Dimension,setDimension,getDimension,
METHOD_0,METHOD_1,METHOD_2,METHOD_3,

goodoldai,jeff,explanation,Dimension,dim,single,dimension,
IDENT_0,IDENT_1,IDENT_2,IDENT_3,IDENT_4,IDENT_5,IDENT_6,







"Miles",
STRING_0,

























