testGetTimeSpanFromInt,getTimeSpanFromInt,
METHOD_0,METHOD_1,

timeSpan,bj58,spat,gaea,utility,TimeSpanHelper,
IDENT_0,IDENT_1,IDENT_2,IDENT_3,IDENT_4,IDENT_5,







"getTimeSpanFromInt","The test case is a prototype.","NotImplementedException",
STRING_0,STRING_1,STRING_2,

























