testGetClusterPhotos,getTagsInterface,getClusterPhotos,getTotal,
METHOD_0,METHOD_1,METHOD_2,METHOD_3,

flickr4java,flickr,tags,TagsInterface,iface,photos,PhotoList,Photo,total,
IDENT_0,IDENT_1,IDENT_2,IDENT_3,IDENT_4,IDENT_5,IDENT_6,IDENT_7,IDENT_8,







"ducati","999-1098-848",
STRING_0,STRING_1,

























