getNumberOfUsers,getIdentityAPI,createUser,deleteUser,
METHOD_0,METHOD_1,METHOD_2,METHOD_3,

usersCount,
IDENT_0,







"jane","bpm","paul",
STRING_0,STRING_1,STRING_2,

























