testBeginActiveTx,begin,getState,
METHOD_0,METHOD_1,METHOD_2,

txService,TransactionState,ACTIVE,STransactionCreationException,
IDENT_0,IDENT_1,IDENT_2,IDENT_3,







"Impossible to begin a tx with state ",
STRING_0,

























