testBetween,between,
METHOD_0,METHOD_1,

boon,CriteriaTest,TestClass,items,ObjectFilter,
IDENT_0,IDENT_1,IDENT_2,IDENT_3,IDENT_4,







"i",
STRING_0,

























