testBetweenSalary_OR_PRECISE_NESTED_AND,$q,sortedQuery,or,between,
METHOD_0,METHOD_1,METHOD_2,METHOD_3,METHOD_4,

boon,Employee,queryableList,bigList,ObjectFilter,
IDENT_0,IDENT_1,IDENT_2,IDENT_3,IDENT_4,

1001,1002,1003,
INT_0,INT_1,INT_2,




"firstName","salary","firstC10","firstC11",
STRING_0,STRING_1,STRING_2,STRING_3,

























