testBetweenSalaryExactOutOfRange,$q,sortedQuery,between,
METHOD_0,METHOD_1,METHOD_2,METHOD_3,

boon,Employee,queryableList,ObjectFilter,
IDENT_0,IDENT_1,IDENT_2,IDENT_3,

400,500,
INT_0,INT_1,




"firstName","salary",
STRING_0,STRING_1,

























