testDeserialization_Value1,deserialize,YAMLFactory,createParser,newObjectMapper,readValue,
METHOD_0,METHOD_1,METHOD_2,METHOD_3,METHOD_4,METHOD_5,

Period,dataformat,yaml,YAMLParser,yml,jacksonService,
IDENT_0,IDENT_1,IDENT_2,IDENT_3,IDENT_4,IDENT_5,







"\"P5Y2M3D\"",
STRING_0,

























