testCommandName_NoMatch,addMockCommand,createCli,commandName,
METHOD_0,METHOD_1,METHOD_2,METHOD_3,

bootique,Cli,
IDENT_0,IDENT_1,







"c1","me","them","--me",
STRING_0,STRING_1,STRING_2,STRING_3,

























