testShouldEmit1,Expectations,shouldEmit,
METHOD_0,METHOD_1,METHOD_2,

boozallen,cognition,ingest,storm,LogRecord,bolt,mockit,
IDENT_0,IDENT_1,IDENT_2,IDENT_3,IDENT_4,IDENT_5,IDENT_6,







"field",
STRING_0,

























