testPendingMessageQueueTooBig,PendingMessageQueue,capacity,
METHOD_0,METHOD_1,METHOD_2,

PendingMessageQueue,MAX_SIZE,LockType,MUTEX,myQueue,
IDENT_0,IDENT_1,IDENT_2,IDENT_3,IDENT_4,


































