testGetGroup,CollapsibleGroup,WCollapsibleToggle,getGroup,
METHOD_0,METHOD_1,METHOD_2,METHOD_3,

bordertech,wcomponents,CollapsibleGroup,WCollapsibleToggle,toggle,
IDENT_0,IDENT_1,IDENT_2,IDENT_3,IDENT_4,


































