testGetAutocomplete,MyDate,setDirectly,getAutocomplete,
METHOD_0,METHOD_1,METHOD_2,METHOD_3,

testString,bordertech,wcomponents,autocomplete,AutocompleteableDate_Test,MyDate,
IDENT_0,IDENT_1,IDENT_2,IDENT_3,IDENT_4,IDENT_5,


































