testAnnotatedBot,fromJson,verifyEventCondition,beforeReply,reply,afterReply,
METHOD_0,METHOD_1,METHOD_2,METHOD_3,METHOD_4,METHOD_5,

aurasphere,botmill,fb,incoming,MessageEnvelope,envelope,FbBotMillJsonUtils,IncomingToOutgoingMessageHandler,triggered,reply,
IDENT_0,IDENT_1,IDENT_2,IDENT_3,IDENT_4,IDENT_5,IDENT_6,IDENT_7,IDENT_8,IDENT_9,







"{\"sender\":{\"id\":\"1158621824216736\"},\"recipient\":{\"id\":\"1226565047419159\"},\"timestamp\":1490832021661,\"message\":{\"mid\":\"mid.$cAAUPCFn4ymdhTcignVbHH3rzpKd_\",\"seq\":844819,\"text\":\"Hi!\"}}",
STRING_0,

























