testFromDecimal,fromDecimal,Probability,
METHOD_0,METHOD_1,METHOD_2,

pl,bottega,ddd,sharedkernel,Probability,ZERO,ONE,
IDENT_0,IDENT_1,IDENT_2,IDENT_3,IDENT_4,IDENT_5,IDENT_6,







"value must be in <0,1>",
STRING_0,

0.5,
FLOAT_0,






















