testConflict,WKTReader,GeometryAttributeDiff,conflicts,canBeAppliedOn,
METHOD_0,METHOD_1,METHOD_2,METHOD_3,METHOD_4,

vividsolutions,Geometry,oldGeom,newGeom,geogig,plumbing,diff,GeometryAttributeDiff,newGeom2,diff2,AttributeDiff,ad,gad,TYPE,REMOVED,MODIFIED,newGeometry,ADDED,
IDENT_0,IDENT_1,IDENT_2,IDENT_3,IDENT_4,IDENT_5,IDENT_6,IDENT_7,IDENT_8,IDENT_9,IDENT_10,IDENT_11,IDENT_12,IDENT_13,IDENT_14,IDENT_15,IDENT_16,IDENT_17,







"MULTILINESTRING ((40 40, 20 45, 45 30, 40 40),(20 35, 45 10, 30 5, 10 30, 20 35))","MULTILINESTRING ((40 40, 20 45),(20 35, 45 10, 20 35))","MULTILINESTRING ((40 40, 20 45, 41 33, 25 25),(20 35, 45 10, 30 5, 10 30, 20 35))",
STRING_0,STRING_1,STRING_2,

























