testExclude,isNull,
METHOD_0,METHOD_1,

vividsolutions,Envelope,env,Filter,EXCLUDE,visitor,
IDENT_0,IDENT_1,IDENT_2,IDENT_3,IDENT_4,IDENT_5,


































