testGetForSQLType,getSQLType,getForSQLType,
METHOD_0,METHOD_1,METHOD_2,

Geometries,sqlType,gt,
IDENT_0,IDENT_1,IDENT_2,







" getSQLType and getForSQLType",
STRING_0,

























