testSetCalendarDate,getCalendarDate,setCalendarDate,
METHOD_0,METHOD_1,METHOD_2,

dateAndTime1,caldate,temporal,DefaultDateAndTime,calendarDate,
IDENT_0,IDENT_1,IDENT_2,IDENT_3,IDENT_4,

1990,
INT_0,































