testSetCoordinateValue,getCoordinateValue,setCoordinateValue,
METHOD_0,METHOD_1,METHOD_2,

Number,temporalCoordinate1,temporal,DefaultTemporalCoordinate,coordinateValue,
IDENT_0,IDENT_1,IDENT_2,IDENT_3,IDENT_4,

250,
INT_0,































