testSetEnding_Date,getEnding,getPosition,getDate,setEnding,
METHOD_0,METHOD_1,METHOD_2,METHOD_3,METHOD_4,

period1,temporal,DefaultPeriod,
IDENT_0,IDENT_1,IDENT_2,


































