findStringForNull,findString,stringValue,
METHOD_0,METHOD_1,METHOD_2,

braintreegateway,NodeWrapper,SimpleNodeWrapper,
IDENT_0,IDENT_1,IDENT_2,







"<toplevel><foo nil='true'></foo></toplevel>",
STRING_0,

























