whenGetUtilities_thenReturnsExpectedUtilities,getUtilities,
METHOD_0,METHOD_1,

brandwatch,robots,RobotsUtilities,robotsUtilities,utilities,
IDENT_0,IDENT_1,IDENT_2,IDENT_3,IDENT_4,


































