givenGroupIsEmpty_whenGetDirectives_thenReturnsEmptyList,getDirectives,
METHOD_0,METHOD_1,

brandwatch,robots,Group,directives,
IDENT_0,IDENT_1,IDENT_2,IDENT_3,


































