testSetValue,createObject,toJSONString,defaultSerializeConfig,
METHOD_0,METHOD_1,METHOD_2,METHOD_3,

TestedModel,fastjson,JSON,testedObject,dest,JsonUtils,
IDENT_0,IDENT_1,IDENT_2,IDENT_3,IDENT_4,IDENT_5,







"lucifer_test_key_get_set",
STRING_0,

























