testSideEffect,sideEffect,iterate,UnsupportedOperationException,
METHOD_0,METHOD_1,METHOD_2,METHOD_3,

jglue,totorom,TVertex,collected,
IDENT_0,IDENT_1,IDENT_2,IDENT_3,


































