templateSingle$,appendReplacement,appendTail,
METHOD_0,METHOD_1,METHOD_2,

orig,btrace,ArgsMapTest,KEY1,KEY2,Matcher,ArgsMap,PatternSingleton,
IDENT_0,IDENT_1,IDENT_2,IDENT_3,IDENT_4,IDENT_5,IDENT_6,IDENT_7,







"$","$0",
STRING_0,STRING_1,

























