testBuyAndSellLeavesNoEntryInSnapshot,Client,SecurityBuilder,addPrice,addTo,PortfolioBuilder,buy,sell,TestCurrencyConverter,getPositions,
METHOD_0,METHOD_1,METHOD_2,METHOD_3,METHOD_4,METHOD_5,METHOD_6,METHOD_7,METHOD_8,METHOD_9,

abuchen,portfolio,Client,Security,Portfolio,LocalDate,snapshot,PortfolioSnapshot,positions,
IDENT_0,IDENT_1,IDENT_2,IDENT_3,IDENT_4,IDENT_5,IDENT_6,IDENT_7,IDENT_8,

1000000,10000,700000,12000,300000,
INT_0,INT_1,INT_2,INT_3,INT_4,




"2010-01-01","2010-01-02","2010-01-03","2010-01-31",
STRING_0,STRING_1,STRING_2,STRING_3,

























