testQueryJobOrderLessThan,runAssertions,getCount,
METHOD_0,METHOD_1,METHOD_2,

bullhornsdk,ListWrapper,JobOrder,wrapper,bullhornData,queryParams,
IDENT_0,IDENT_1,IDENT_2,IDENT_3,IDENT_4,IDENT_5,







"id < 5","ListWrapper<JobOrder>",
STRING_0,STRING_1,

























