pipesAndChains,Sequence,Property,compile,
METHOD_0,METHOD_1,METHOD_2,METHOD_3,

burt,jmespath,Expression,
IDENT_0,IDENT_1,IDENT_2,







"baz","qux","foo.bar | baz.qux",
STRING_0,STRING_1,STRING_2,

























