flattenExpression,Sequence,Property,FlattenArray,compile,
METHOD_0,METHOD_1,METHOD_2,METHOD_3,METHOD_4,

burt,jmespath,Expression,
IDENT_0,IDENT_1,IDENT_2,







"foo[]",
STRING_0,

























