functionCallWithMultipleArgumentsExpression,FunctionCall,Property,Current,compile,
METHOD_0,METHOD_1,METHOD_2,METHOD_3,METHOD_4,

burt,jmespath,Expression,
IDENT_0,IDENT_1,IDENT_2,







"merge","baz","merge(bar, baz, @)",
STRING_0,STRING_1,STRING_2,

























