booleanComparisonExpression,Sequence,Property,Selection,Or,And,Comparison,compile,
METHOD_0,METHOD_1,METHOD_2,METHOD_3,METHOD_4,METHOD_5,METHOD_6,METHOD_7,

burt,jmespath,Expression,
IDENT_0,IDENT_1,IDENT_2,







"!=","baz","==","qux","fux",">","mux","lux",
STRING_0,STRING_1,STRING_2,STRING_3,STRING_4,STRING_5,STRING_6,STRING_7,

























