getTrueBoolean,getBoolean,
METHOD_0,METHOD_1,

mConfiguration,PropertyKey,WEB_THREADS,
IDENT_0,IDENT_1,IDENT_2,







"true",
STRING_0,

























