chainPipeIndexSliceCombination,Sequence,Property,Index,Slice,compile,
METHOD_0,METHOD_1,METHOD_2,METHOD_3,METHOD_4,METHOD_5,

burt,jmespath,Expression,
IDENT_0,IDENT_1,IDENT_2,







"baz","qux","foo[3].bar | baz.qux[2:3]",
STRING_0,STRING_1,STRING_2,

























