comparisonWithJsonLiteralExpression,Sequence,Property,Selection,Comparison,JsonLiteral,compile,
METHOD_0,METHOD_1,METHOD_2,METHOD_3,METHOD_4,METHOD_5,METHOD_6,

burt,jmespath,Expression,
IDENT_0,IDENT_1,IDENT_2,







"==","{\"foo\":\"bar\"}","foo[?bar == `{\"foo\": \"bar\"}`]",
STRING_0,STRING_1,STRING_2,

























