getXOManagerFactory,createXOManager,currentTransaction,begin,
METHOD_0,METHOD_1,METHOD_2,METHOD_3,

buschmais,xo,XOManager,xoManager,implementedby,composite,A,a1,a2,active,
IDENT_0,IDENT_1,IDENT_2,IDENT_3,IDENT_4,IDENT_5,IDENT_6,IDENT_7,IDENT_8,IDENT_9,


































