getMs,parseTimeSize,
METHOD_0,METHOD_1,

mConfiguration,PropertyKey,PROXY_STREAM_CACHE_TIMEOUT_MS,FormatUtils,ExceptionMessage,INVALID_TIME,
IDENT_0,IDENT_1,IDENT_2,IDENT_3,IDENT_4,IDENT_5,







"100",
STRING_0,

























