testFluentInterfaceWithHost,DataBaseInfo,withHost,getHost,
METHOD_0,METHOD_1,METHOD_2,METHOD_3,

team,bus,DataBaseInfo,
IDENT_0,IDENT_1,IDENT_2,







"testFluentInterfaceWithHost","localhost",
STRING_0,STRING_1,

























