testRequiredOptionsShort,JCommander,getFiles,
METHOD_0,METHOD_1,METHOD_2,

beust,jcommander,cmdLine,files,
IDENT_0,IDENT_1,IDENT_2,IDENT_3,







"testfile",
STRING_0,

























