testDropDatabaseParameterTrue,JCommander,isDropDatabase,
METHOD_0,METHOD_1,METHOD_2,

beust,jcommander,cmdLine,dropDatabase,
IDENT_0,IDENT_1,IDENT_2,IDENT_3,







"--drop","testfile",
STRING_0,STRING_1,

























