test500_withoutRetryAfter,sendSimpleMessage,getHttpStatusCode,
METHOD_0,METHOD_1,METHOD_2,

restResource,bytefish,fcmjava,FcmGeneralException,httpStatusCode,
IDENT_0,IDENT_1,IDENT_2,IDENT_3,IDENT_4,

500,
INT_0,































