testIteratorOnEmptyCacheCallHasNext,freshCache,entries,UnsupportedOperationException,
METHOD_0,METHOD_1,METHOD_2,METHOD_3,

cache2k,Cache,
IDENT_0,IDENT_1,


































