remove_2arg_Existing_EqualKey_EqualValue,isPresentOrMiss,getValueOrException,
METHOD_0,METHOD_1,METHOD_2,

K,V,Semantic,UpdateExisting,Progress,cache2k,ExaminationEntry,
IDENT_0,IDENT_1,IDENT_2,IDENT_3,IDENT_4,IDENT_5,IDENT_6,


































