testInvalidMessagesForCpf,AcceptAnyValidator,invalidMessagesFor,getInvalidValues,
METHOD_0,METHOD_1,METHOD_2,METHOD_3,

caelum,stella,Validator,Documento,CPF,cpf,renavam,
IDENT_0,IDENT_1,IDENT_2,IDENT_3,IDENT_4,IDENT_5,IDENT_6,







"336.397.038-20",
STRING_0,

























