should_sign_up_through_login_page,home,toLoginPage,signUp,randomEmail,isLoggedIn,profileLink,getAttribute,
METHOD_0,METHOD_1,METHOD_2,METHOD_3,METHOD_4,METHOD_5,METHOD_6,METHOD_7,

loggedIn,WebElement,profileLink,linkClass,
IDENT_0,IDENT_1,IDENT_2,IDENT_3,







"leonardo","123456","class","login",
STRING_0,STRING_1,STRING_2,STRING_3,

























