should_escape_LTGT_wehen_possible,sanitize,
METHOD_0,METHOD_1,

sanitized,htmlSanitizer,
IDENT_0,IDENT_1,







"< bla >","&lt; bla &gt;",
STRING_0,STRING_1,

























