testTableColCount,currentPage,getColCount,
METHOD_0,METHOD_1,METHOD_2,

caelum,seleniumdsl,Table,browser,colCount,
IDENT_0,IDENT_1,IDENT_2,IDENT_3,IDENT_4,







"table",
STRING_0,

























