shouldSerializeAllBasicFields,Order,Client,
METHOD_0,METHOD_1,METHOD_2,

expectedResult,caelum,vraptor,GsonJSONSerializationTest,Order,
IDENT_0,IDENT_1,IDENT_2,IDENT_3,IDENT_4,







"{\"order\":{\"price\":15.0,\"comments\":\"pack it nicely, please\"}}","guilherme silveira","pack it nicely, please",
STRING_0,STRING_1,STRING_2,

15.0,
FLOAT_0,






















