shouldCallXStreamSerializationWithParams,
METHOD_0,

expectedResult,
IDENT_0,







"<message><message>Just another object in memory</message><category>success</category></message>","object","memory","success","message.cat",
STRING_0,STRING_1,STRING_2,STRING_3,STRING_4,

























