shouldSerializeAllBasicFieldsIndented,Order,Client,indented,
METHOD_0,METHOD_1,METHOD_2,METHOD_3,

expectedResult,caelum,vraptor,GsonJSONSerializationTest,Order,
IDENT_0,IDENT_1,IDENT_2,IDENT_3,IDENT_4,







"{\n \"order\": {\n \"price\": 15.0,\n \"comments\": \"pack it nicely, please\"\n }\n}","guilherme silveira","pack it nicely, please",
STRING_0,STRING_1,STRING_2,

15.0,
FLOAT_0,






















