shouldExcludeAllPrimitiveFields,Order,Client,excludeAll,
METHOD_0,METHOD_1,METHOD_2,METHOD_3,

expectedResult,caelum,vraptor,xstream,XStreamXMLSerializationTest,Order,
IDENT_0,IDENT_1,IDENT_2,IDENT_3,IDENT_4,IDENT_5,







"<order/>","nykolas lima","gift bags, please",
STRING_0,STRING_1,STRING_2,

15.0,
FLOAT_0,






















