AvgAggregator,evict,aggregateResult,
METHOD_0,METHOD_1,METHOD_2,

calrissian,flowmix,aggregator,AvgAggregator,expectedResult,
IDENT_0,IDENT_1,IDENT_2,IDENT_3,IDENT_4,







"AvgAggregatorTest",
STRING_0,

2.5,
FLOAT_0,






















