SumAggregator,evict,aggregateResult,
METHOD_0,METHOD_1,METHOD_2,

calrissian,flowmix,aggregator,SumAggregator,expectedResult,
IDENT_0,IDENT_1,IDENT_2,IDENT_3,IDENT_4,







"SumAggregatorTest",
STRING_0,

























