testEquals_orNodesWithEq,or,criteriaFromNode,
METHOD_0,METHOD_1,METHOD_2,

calrissian,mango,QueryBuilder,node2,Criteria,criteria2,TermValueLeaf,Objects,
IDENT_0,IDENT_1,IDENT_2,IDENT_3,IDENT_4,IDENT_5,IDENT_6,IDENT_7,







"key1","val1","key2","val2",
STRING_0,STRING_1,STRING_2,STRING_3,

























