test_next_bytes,mockInstance,nextBytes,engineNextBytes,
METHOD_0,METHOD_1,METHOD_2,METHOD_3,

nullschool,DigitalRandom,dr,DigitalRandomTest,
IDENT_0,IDENT_1,IDENT_2,IDENT_3,


































