testGetDeployment,createDeploymentQuery,
METHOD_0,METHOD_1,

Deployment,deployments,repositoryService,deletedCache,
IDENT_0,IDENT_1,IDENT_2,IDENT_3,


































