testHasAttributeWithPresentAttribute,ProductDTO,setAttribute,hasAttribute,
METHOD_0,METHOD_1,METHOD_2,METHOD_3,

candlepin,manifest,ProductDTO,
IDENT_0,IDENT_1,IDENT_2,







"attrib","key is null",
STRING_0,STRING_1,

























