testRemoveAttributeWithPresentAttribute,PoolDTO,setAttributes,removeAttribute,
METHOD_0,METHOD_1,METHOD_2,METHOD_3,

candlepin,PoolDTO,
IDENT_0,IDENT_1,







"attribute-key-4","attribute-value-4","key is null",
STRING_0,STRING_1,STRING_2,

























