getFilePath,defaults,InstancedConfiguration,
METHOD_0,METHOD_1,METHOD_2,

paths,HEADER,HEADER_FT,FileSystemShellUtils,ConfigurationTestUtils,ConfigurationUtils,
IDENT_0,IDENT_1,IDENT_2,IDENT_3,IDENT_4,IDENT_5,







"localhost:19998/dir","/dir","dir",
STRING_0,STRING_1,STRING_2,

























