testCreationDate,createProduct,getCreated,
METHOD_0,METHOD_1,METHOD_2,

candlepin,Product,prod,TestUtil,productCurator,created,
IDENT_0,IDENT_1,IDENT_2,IDENT_3,IDENT_4,IDENT_5,







"test-label","test-product-name",
STRING_0,STRING_1,

























