uploadRules,Rules,getRules,
METHOD_0,METHOD_1,METHOD_2,

candlepin,Rules,rulesCurator,updateRules,
IDENT_0,IDENT_1,IDENT_2,IDENT_3,







"// Version: 5.1000\n//these are the new rules",
STRING_0,

























