idCert,setIdCert,getIdCert,
METHOD_0,METHOD_1,METHOD_2,

candlepin,IdentityCertificate,ic,uc,
IDENT_0,IDENT_1,IDENT_2,IDENT_3,


































