testToString,ValidationWarning,
METHOD_0,METHOD_1,

candlepin,ValidationWarning,vw,displayMessage,
IDENT_0,IDENT_1,IDENT_2,IDENT_3,







"foobarbaz",
STRING_0,

























