testGetOverridesEmptyList,getContentOverrideList,keySet,
METHOD_0,METHOD_1,METHOD_2,

candlepin,ContentOverrideDTO,principal,virtUuidToConsumerMap,
IDENT_0,IDENT_1,IDENT_2,IDENT_3,


































