nullFilterTest,createFilter,hasMatchFilters,
METHOD_0,METHOD_1,METHOD_2,

candlepin,EntitlementFilterBuilder,EntitlementFinderUtil,matchFilters,
IDENT_0,IDENT_1,IDENT_2,IDENT_3,


































