testUserCannotListAllPools,keySet,
METHOD_0,METHOD_1,

candlepin,PoolDTO,pools,poolResource,adminPrincipal,virtUuidToConsumerMap,
IDENT_0,IDENT_1,IDENT_2,IDENT_3,IDENT_4,IDENT_5,


































