onlyDays,getFromDate,setTime,findFile,
METHOD_0,METHOD_1,METHOD_2,METHOD_3,

cal,DATE,candlepin,ResourceDateParser,curator,
IDENT_0,IDENT_1,IDENT_2,IDENT_3,IDENT_4,







"3",
STRING_0,

























