nullCompareTo,PathNode,NodePair,getPool,
METHOD_0,METHOD_1,METHOD_2,METHOD_3,

candlepin,X509V3ExtensionUtil,PathNode,pn,NodePair,np,Entitlement,
IDENT_0,IDENT_1,IDENT_2,IDENT_3,IDENT_4,IDENT_5,IDENT_6,













^,
OP_0,



















