testInstanceIdIsSet,getCurrentEnvironment,getAttributes,
METHOD_0,METHOD_1,METHOD_2,

instanceId,apphosting,ApiProxy,
IDENT_0,IDENT_1,IDENT_2,







"com.google.appengine.instance.id",
STRING_0,

























