testPutAllReplaceOnlyIfPresent,putAll,namespacedKey,
METHOD_0,METHOD_1,METHOD_2,

MemcacheService,SetPolicy,REPLACE_ONLY_IF_PRESENT,
IDENT_0,IDENT_1,IDENT_2,







"key1","value1","key2","value2",
STRING_0,STRING_1,STRING_2,STRING_3,

























