testRole,getQueue,withUrl,getLastRequest,
METHOD_0,METHOD_1,METHOD_2,METHOD_3,

appengine,taskqueue,Queue,QueueFactory,capedwarf,tasks,SecureServlet,lastRequest,
IDENT_0,IDENT_1,IDENT_2,IDENT_3,IDENT_4,IDENT_5,IDENT_6,IDENT_7,







"tasks-queue","/secure/foo",
STRING_0,STRING_1,

























