testRemoveDocument,getTestIndex,newEmptyDocument,numberOfDocumentsIn,getAllDocumentsIn,
METHOD_0,METHOD_1,METHOD_2,METHOD_3,METHOD_4,

appengine,Index,
IDENT_0,IDENT_1,


































