testSimple,getUserService,createLoginURL,
METHOD_0,METHOD_1,METHOD_2,

destinationURL,appengine,users,UserServiceFactory,
IDENT_0,IDENT_1,IDENT_2,IDENT_3,







"destinationURL",
STRING_0,

























