testBlank,isModernBrowser,getHeader,
METHOD_0,METHOD_1,METHOD_2,

HttpServletRequest,carrot2,webapp,UserAgentUtils,
IDENT_0,IDENT_1,IDENT_2,IDENT_3,







"User-Agent",
STRING_0,

























