testToArrayWithClass,arraycopy,
METHOD_0,METHOD_1,

carrotsearch,hppc,KTypeArrayList,l1,KType,head,tail,rightCount,
IDENT_0,IDENT_1,IDENT_2,IDENT_3,IDENT_4,IDENT_5,IDENT_6,IDENT_7,







"Target array must be >= ",
STRING_0,

























