testMultipleSourcesIsNoOp,addConnection,insertConnectors,DatasetProperties,unmodifiableMap,
METHOD_0,METHOD_1,METHOD_2,METHOD_3,METHOD_4,

cdag,etl,planner,ConnectorDag,
IDENT_0,IDENT_1,IDENT_2,IDENT_3,







"n1","n5","n2","n3","n6","n7","n8","n9","n10","n11",
STRING_0,STRING_1,STRING_2,STRING_3,STRING_4,STRING_5,STRING_6,STRING_7,STRING_8,STRING_9,

























