testDateConversion,SimpleDateFormat,setTimeZone,getTimeZone,recordOf,convertAndSet,DatasetProperties,unmodifiableMap,
METHOD_0,METHOD_1,METHOD_2,METHOD_3,METHOD_4,METHOD_5,METHOD_6,METHOD_7,

ts,SimpleDateFormat,dateFormat,TimeZone,LONG,STRING,StructuredRecord,
IDENT_0,IDENT_1,IDENT_2,IDENT_3,IDENT_4,IDENT_5,IDENT_6,







"yyyy-MM-dd","UTC","x1","ts","date1","date2","1970-01-01T00:00:00 UTC","1970-01-01",
STRING_0,STRING_1,STRING_2,STRING_3,STRING_4,STRING_5,STRING_6,STRING_7,

























