testNullLogicalType,recordOf,nullableOf,setDate,getDate,findColumn,
METHOD_0,METHOD_1,METHOD_2,METHOD_3,METHOD_4,METHOD_5,

INT,STRING,LogicalType,DATE,StructuredRecord,LocalDate,
IDENT_0,IDENT_1,IDENT_2,IDENT_3,IDENT_4,IDENT_5,







"id","date",
STRING_0,STRING_1,

























