testNullCheck,recordOf,getFields,UnexpectedFormatException,
METHOD_0,METHOD_1,METHOD_2,METHOD_3,

NULL,RECORD,StructuredRecord,
IDENT_0,IDENT_1,IDENT_2,







"x","Schema must be a record with at least one field.",
STRING_0,STRING_1,

























