reg_layout_3,allTypes,fetch,lookup,getLogger,HBaseRdfException,
METHOD_0,METHOD_1,METHOD_2,METHOD_3,METHOD_4,METHOD_5,

talis,rdf,LayoutType,layoutTypeName,slf4j,LoggerFactory,
IDENT_0,IDENT_1,IDENT_2,IDENT_3,IDENT_4,IDENT_5,







"LayoutType.convert: null not allowed","Can't turn '","' into a layout type",
STRING_0,STRING_1,STRING_2,

























