test_DoublesPair_of_PairNumberNumber_DoublesPair,ofNumbers,
METHOD_0,METHOD_1,

testng,DoublesPair,Pair,
IDENT_0,IDENT_1,IDENT_2,










1.2,2.5,
FLOAT_0,FLOAT_1,






















