testBadMimeType,MimeTypeDaoImpl,getMimeType,
METHOD_0,METHOD_1,METHOD_2,

holmes,mimetype,MimeTypeDao,mimeTypeDao,fileName,MimeType,mimeType,
IDENT_0,IDENT_1,IDENT_2,IDENT_3,IDENT_4,IDENT_5,IDENT_6,







"/mimetypes.properties","movie.blabla",
STRING_0,STRING_1,

























