testAtomType_String,AtomType,getSymbol,
METHOD_0,METHOD_1,METHOD_2,

IAtomType,at,symbol,
IDENT_0,IDENT_1,IDENT_2,







"C",
STRING_0,

























