ChemObject,setID,
METHOD_0,METHOD_1,

ChemObject,co1,co2,IChemObject,chemObj,Objects,identifier,
IDENT_0,IDENT_1,IDENT_2,IDENT_3,IDENT_4,IDENT_5,IDENT_6,







"a1",
STRING_0,

























