testCompare_Object,newChemObject,getBuilder,Bond,
METHOD_0,METHOD_1,METHOD_2,METHOD_3,

IChemObject,IAtom,IBond,Order,DOUBLE,b2,silent,ChemObject,chemObj,Objects,identifier,
IDENT_0,IDENT_1,IDENT_2,IDENT_3,IDENT_4,IDENT_5,IDENT_6,IDENT_7,IDENT_8,IDENT_9,IDENT_10,







"C","O",
STRING_0,STRING_1,

























