testValenceFailFastF,Expr,getImplicitHydrogenCount,
METHOD_0,METHOD_1,METHOD_2,

isomorphism,Expr,VALENCE,IAtom,a1,IAtomContainer,atomContainer,
IDENT_0,IDENT_1,IDENT_2,IDENT_3,IDENT_4,IDENT_5,IDENT_6,


































