testRingBondCountT,Expr,isInRing,getBondCount,bonds,
METHOD_0,METHOD_1,METHOD_2,METHOD_3,METHOD_4,

isomorphism,Expr,RING_BOND_COUNT,IAtom,atom,IBond,b1,b2,b3,IAtomContainer,atomContainer,
IDENT_0,IDENT_1,IDENT_2,IDENT_3,IDENT_4,IDENT_5,IDENT_6,IDENT_7,IDENT_8,IDENT_9,IDENT_10,


































