testIsSetParameter,ParameterReact,isSetParameter,
METHOD_0,METHOD_1,METHOD_2,

reaction,IParameterReact,paramSet,IS_SET_PARAMETER,
IDENT_0,IDENT_1,IDENT_2,IDENT_3,


































