testCompare_AtomTypeName,AtomType,setAtomTypeName,
METHOD_0,METHOD_1,METHOD_2,

silent,AtomType,at1,at2,IChemObject,ChemObject,chemObj,Objects,identifier,
IDENT_0,IDENT_1,IDENT_2,IDENT_3,IDENT_4,IDENT_5,IDENT_6,IDENT_7,IDENT_8,







"C","C4",
STRING_0,STRING_1,

























