paths_bicyclo,bicyclo,EdgeShortCycles,paths,
METHOD_0,METHOD_1,METHOD_2,METHOD_3,

bicyclo,InitialCyclesTest,EdgeShortCycles,esc,paths,
IDENT_0,IDENT_1,IDENT_2,IDENT_3,IDENT_4,


































