pathsAreCopy,all,makeAnthracene,paths,not,Negation,getBuilder,
METHOD_0,METHOD_1,METHOD_2,METHOD_3,METHOD_4,METHOD_5,METHOD_6,

Cycles,isomorphism,IQueryAtom,smarts,LogicalOperatorAtom,
IDENT_0,IDENT_1,IDENT_2,IDENT_3,IDENT_4,

203,
INT_0,































