size_bicyclo,bicyclo,EssentialCycles,
METHOD_0,METHOD_1,METHOD_2,

bicyclo,InitialCyclesTest,EssentialCycles,essential,cells,
IDENT_0,IDENT_1,IDENT_2,IDENT_3,IDENT_4,


































