testNPathsTo_Int_OutOfBoundIndex,ShortestPaths,getAtom,nPathsTo,
METHOD_0,METHOD_1,METHOD_2,METHOD_3,

IAtomContainer,ShortestPathsTest,ShortestPaths,paths,IAtom,
IDENT_0,IDENT_1,IDENT_2,IDENT_3,IDENT_4,


































