cyclophaneSize,TripletShortCycles,MinimumCycleBasis,cyclophane,
METHOD_0,METHOD_1,METHOD_2,METHOD_3,

TripletShortCycles,esssr,TripletShortCyclesTest,cells,
IDENT_0,IDENT_1,IDENT_2,IDENT_3,


































