testNewRing_int,getBuilder,ofClass,
METHOD_0,METHOD_1,METHOD_2,

IChemObjectBuilder,AbstractChemObjectBuilderTest,rootObject,IRing,ring,
IDENT_0,IDENT_1,IDENT_2,IDENT_3,IDENT_4,


































