testSetPoint2d_Point2d,Point2d,newChemObject,setPoint2d,getPoint2d,
METHOD_0,METHOD_1,METHOD_2,METHOD_3,METHOD_4,

vecmath,Point2d,point2d,IAtom,
IDENT_0,IDENT_1,IDENT_2,IDENT_3,


































