testClone_Symbol,newChemObject,setSymbol,clone,getSymbol,
METHOD_0,METHOD_1,METHOD_2,METHOD_3,METHOD_4,

IElement,elem,clone,symbol,
IDENT_0,IDENT_1,IDENT_2,IDENT_3,







"C","H",
STRING_0,STRING_1,

























