testGetTempFactor,newChemObject,setSymbol,setTempFactor,getTempFactor,
METHOD_0,METHOD_1,METHOD_2,METHOD_3,METHOD_4,

IPDBAtom,atom,tempFactor,
IDENT_0,IDENT_1,IDENT_2,







"C",
STRING_0,

























