testSetICode_String,newChemObject,setICode,getICode,
METHOD_0,METHOD_1,METHOD_2,METHOD_3,

IPDBMonomer,monomer,iCode,
IDENT_0,IDENT_1,IDENT_2,


































