testGetReactionSchemeCount,newChemObject,getBuilder,getReactionSchemeCount,
METHOD_0,METHOD_1,METHOD_2,METHOD_3,

IReactionScheme,scheme,reactionScheme,
IDENT_0,IDENT_1,IDENT_2,


































