testGetMapping_int,newChemObject,getBuilder,addMapping,getMapping,
METHOD_0,METHOD_1,METHOD_2,METHOD_3,METHOD_4,

IReaction,reaction,IMapping,IAtom,gotIt,
IDENT_0,IDENT_1,IDENT_2,IDENT_3,IDENT_4,







"C",
STRING_0,

























