testReset_String,reset,getFormulasString,
METHOD_0,METHOD_1,METHOD_2,

fsb,masOs,inte,
IDENT_0,IDENT_1,IDENT_2,







"[%#04o]","IsotopeContainer{","mass=",", intensity=",", MF=",'}',
STRING_0,STRING_1,STRING_2,STRING_3,STRING_4,STRING_5,

























