testGetAllChemObjects_IAtomContainerSet,getAllChemObjects,
METHOD_0,METHOD_1,

IChemObject,manipulator,AtomContainerSetManipulator,som,cells,
IDENT_0,IDENT_1,IDENT_2,IDENT_3,IDENT_4,


































