testGetMass,getMass,
METHOD_0,METHOD_1,

AtomicProperties,mass,IMolecularFormula,manipulator,MolecularFormulaManipulator,mf,MolWeight,
IDENT_0,IDENT_1,IDENT_2,IDENT_3,IDENT_4,IDENT_5,IDENT_6,







"C",
STRING_0,

























