testMultipleInvocations,premain,isAgentActive,
METHOD_0,METHOD_1,METHOD_2,

instrument,Instrumentation,inst,amadeus,agent,SessionAgent,agentActive,
IDENT_0,IDENT_1,IDENT_2,IDENT_3,IDENT_4,IDENT_5,IDENT_6,


































