testGetElapsedTimeInSeconds,TimeManager,myMethod,getElapsedTimeInSeconds,
METHOD_0,METHOD_1,METHOD_2,METHOD_3,

smsd,TimeManager,currentTime,startTime,
IDENT_0,IDENT_1,IDENT_2,IDENT_3,

360,
INT_0,







0.36,
FLOAT_0,






















