testTwoNull,construct,Point3dDifference,addChild,childCount,
METHOD_0,METHOD_1,METHOD_2,METHOD_3,METHOD_4,

diff,IDifference,Point3dDifference,vecmath,Point3d,second,totalDiff,DoubleDifference,z,
IDENT_0,IDENT_1,IDENT_2,IDENT_3,IDENT_4,IDENT_5,IDENT_6,IDENT_7,IDENT_8,







"Foo","x","y","z",
STRING_0,STRING_1,STRING_2,STRING_3,

























