testGetElement_Nonelement,ChemObject,getBuilder,getElement,getMajorIsotope,
METHOD_0,METHOD_1,METHOD_2,METHOD_3,METHOD_4,

XMLIsotopeFactory,elfac,IElement,atomicNumber,
IDENT_0,IDENT_1,IDENT_2,IDENT_3,







"E",
STRING_0,

























