testSpliteratorConsumed,spliterator,
METHOD_0,METHOD_1,

one,streamex,StreamEx,startInclusive,endExclusive,
IDENT_0,IDENT_1,IDENT_2,IDENT_3,IDENT_4,


































