testAddIsotope_IsotopeContainer,IsotopePattern,addIsotope,IsotopeContainer,
METHOD_0,METHOD_1,METHOD_2,METHOD_3,

formula,IsotopePattern,isoP,isotopeCList,isoContainer,
IDENT_0,IDENT_1,IDENT_2,IDENT_3,IDENT_4,


































