test_SuccessTest,getCubeGroup,Permutation,getSize,
METHOD_0,METHOD_1,METHOD_2,METHOD_3,

PermutationGroup,Permutation,
IDENT_0,IDENT_1,


































