testFind_Distinct,AllEquivalentCyclicSet,
METHOD_0,METHOD_1,

IAtomContainer,dummy,EquivalentSetFinder,finder,cells,
IDENT_0,IDENT_1,IDENT_2,IDENT_3,IDENT_4,

11,13,14,17,
INT_0,INT_1,INT_2,INT_3,































