testInit,TemplateHandler,getTemplateCount,
METHOD_0,METHOD_1,METHOD_2,

TemplateHandler,th,DefaultChemObjectBuilder,templateHandler,
IDENT_0,IDENT_1,IDENT_2,IDENT_3,


































