test_withJniInchi,MDLV2000Reader,StringReader,AtomContainer,percieveAtomTypesAndConfigureAtoms,getBuilder,addImplicitHydrogens,getTautomers,
METHOD_0,METHOD_1,METHOD_2,METHOD_3,METHOD_4,METHOD_5,METHOD_6,METHOD_7,

mdlInput,MDLV2000Reader,IAtomContainer,molecule,manipulator,AtomContainerManipulator,CDKHydrogenAdder,hAdder,tautomers,tautomerGenerator,cells,
IDENT_0,IDENT_1,IDENT_2,IDENT_3,IDENT_4,IDENT_5,IDENT_6,IDENT_7,IDENT_8,IDENT_9,IDENT_10,







" 4 6 2 0 0 0 0\n"," 4 5 1 0 0 0 0\n"," 0.7145 -0.4125 0.0000 C 0 0 0 0 0 0 0 0 0 0 0 0\n"," -0.7145 -0.4125 0.0000 N 0 0 0 0 0 0 0 0 0 0 0 0\n"," 0.0000 0.8250 0.0000 N 0 0 0 0 0 0 0 0 0 0 0 0\n"," 0.7145 1.2375 0.0000 C 0 0 0 0 0 0 0 0 0 0 0 0\n"," 3 4 1 0 0 0 0\n"," 7 8 1 0 0 0 0\n"," 7 9 2 0 0 0 0\n","M END\n",
STRING_0,STRING_1,STRING_2,STRING_3,STRING_4,STRING_5,STRING_6,STRING_7,STRING_8,STRING_9,

























