readNegativeInt,setupInputStreamRead,readInt,readByte,pow,
METHOD_0,METHOD_1,METHOD_2,METHOD_3,METHOD_4,

actualInt,allIntBytes,RedisBytes,CARRIAGE_RETURN_BYTE,number,negative,DASH_BYTE,ZERO_BYTE,
IDENT_0,IDENT_1,IDENT_2,IDENT_3,IDENT_4,IDENT_5,IDENT_6,IDENT_7,

13,
INT_0,




'-','1','0','\r','\n',
STRING_0,STRING_1,STRING_2,STRING_3,STRING_4,




--,
OP_0,



















