testSmallNumberTagBased,scan,getIssues,
METHOD_0,METHOD_1,METHOD_2,

cfcSrc,cflint,CFLintResult,lintresult,cfBugs,BugInfo,bugs,
IDENT_0,IDENT_1,IDENT_2,IDENT_3,IDENT_4,IDENT_5,IDENT_6,







"<cfcomponent>\r\n","<cffunction name=\"test\">\r\n","\t<cfargument name=\"argumentOne\">\r\n","\t<cfargument name=\"argumentTwo\">\r\n","\t<cfargument name=\"argumentThree\">\r\n","\t<cfset var a = 1>\r\n","</cffunction>\r\n","</cfcomponent>",
STRING_0,STRING_1,STRING_2,STRING_3,STRING_4,STRING_5,STRING_6,STRING_7,

























