testURI,createURI,toBytes,fromBytes,
METHOD_0,METHOD_1,METHOD_2,METHOD_3,

openrdf,erdf,datalayer,NodeSerializer,uriB,sparql,EndPointExecutor,endPoint,
IDENT_0,IDENT_1,IDENT_2,IDENT_3,IDENT_4,IDENT_5,IDENT_6,IDENT_7,







"http://dbpedia.org/resource/Amsterdam",
STRING_0,

























