testDeleteUUID,getBean,addUUID,UUIDTestEntity,deleteUUID,findByUUID,
METHOD_0,METHOD_1,METHOD_2,METHOD_3,METHOD_4,METHOD_5,

uuid,ancoron,postgresql,UUIDTestEntity,
IDENT_0,IDENT_1,IDENT_2,IDENT_3,







"deleteUUID","delete-uuid",
STRING_0,STRING_1,

























