testSetDisambiguate,setDisambiguate,shouldDisambiguate,
METHOD_0,METHOD_1,METHOD_2,

opencyc,NLFormat,NLFormatTest,cyc,
IDENT_0,IDENT_1,IDENT_2,IDENT_3,







"setDisambiguate",
STRING_0,

























