testPerfectSquareOfFour,sqrt,abs,
METHOD_0,METHOD_1,METHOD_2,

low,high,num,mid,charlesbihis,sandbox,sqrtestimationbybinarysearch,SqrtEstimationByBinarySearch,DELTA,
IDENT_0,IDENT_1,IDENT_2,IDENT_3,IDENT_4,IDENT_5,IDENT_6,IDENT_7,IDENT_8,


































