testGet,
METHOD_0,

cn,chenlichao,wmi4j,SWbemObject,SWbemServicesTest,objectPath,
IDENT_0,IDENT_1,IDENT_2,IDENT_3,IDENT_4,IDENT_5,







"Win32_Service.Name='Dnscache'",
STRING_0,

























