lotsOfInsertsWithTxsThatStayOpen,createPageFileAndIndex,Buffer,
METHOD_0,METHOD_1,METHOD_2,

fusesource,hawtdb,BTreeIndex,pf,hawtbuf,Key,
IDENT_0,IDENT_1,IDENT_2,IDENT_3,IDENT_4,IDENT_5,

1024,
INT_0,































