sameValueAndUnitGivesSameHashCode,Timeout,
METHOD_0,METHOD_1,

stormpot,Timeout,SECONDS,timeoutBase,
IDENT_0,IDENT_1,IDENT_2,IDENT_3,

31,32,
INT_0,INT_1,










^,
OP_0,



















