testLinkWithLeadingSpaces,findElement,partialLinkText,
METHOD_0,METHOD_1,METHOD_2,

pages,simpleTestPage,WebElement,elem,By,stb,
IDENT_0,IDENT_1,IDENT_2,IDENT_3,IDENT_4,IDENT_5,







"links","link with leading space",
STRING_0,STRING_1,

























