testCaptureToBase64,isAbleToTakeScreenshots,getScreenshot,getScreenshotAs,
METHOD_0,METHOD_1,METHOD_2,METHOD_3,

screenshot,OutputType,BASE64,
IDENT_0,IDENT_1,IDENT_2,







"qtwidget://QWidget",
STRING_0,

























