readTest,CrDetailResource,getAll,
METHOD_0,METHOD_1,METHOD_2,

xxx,carrental,CrDetailResource,testee,resp,
IDENT_0,IDENT_1,IDENT_2,IDENT_3,IDENT_4,







"2015","en",
STRING_0,STRING_1,

























