testAllPrintableKeys,findElement,clear,sendKeys,
METHOD_0,METHOD_1,METHOD_2,METHOD_3,

WebElement,By,allPrintable,stb,
IDENT_0,IDENT_1,IDENT_2,IDENT_3,







"enabeledTextElement","!\"#$%&\'()*+,-./0123456789:;<=>?@ ABCDEFGHIJKLMNO","PQRSTUVWXYZ [\\]^_`abcdefghijklmnopqrstuvwxyz{|}~",
STRING_0,STRING_1,STRING_2,

























