testShouldConvertAnArrayBackIntoAnArray,BeanToJsonConverter,JsonToBeanConverter,
METHOD_0,METHOD_1,METHOD_2,

converted,reconstructed,
IDENT_0,IDENT_1,







"stackTrace",
STRING_0,

























