testCanPopulateASimpleBean,JsonToBeanConverter,
METHOD_0,METHOD_1,

toConvert,JsonToBeanConverterTest,SimpleBean,
IDENT_0,IDENT_1,IDENT_2,







"time",
STRING_0,

























