checkHashCodeWorks,fromString,
METHOD_0,METHOD_1,

Color,objectA,objectB,Objects,
IDENT_0,IDENT_1,IDENT_2,IDENT_3,







"#f00","rgb(255, 0, 0)",
STRING_0,STRING_1,

























