testCleanupToEmpty,createFormula,prettyPrint,cleanup,
METHOD_0,METHOD_1,METHOD_2,METHOD_3,

anjlab,sat3,ICompactTripletsStructure,Helper,
IDENT_0,IDENT_1,IDENT_2,IDENT_3,


































