testBugRegistration,MyBuggyRemoteProxy,getAllProxies,
METHOD_0,METHOD_1,METHOD_2,

Registry,RegistrationListenerTest,proxies,
IDENT_0,IDENT_1,IDENT_2,


































