testBitCoinSerialization,Block,bitcoinSerialize,
METHOD_0,METHOD_1,METHOD_2,

bitcoin,Block,BlockTest,blockBytes,
IDENT_0,IDENT_1,IDENT_2,IDENT_3,


































