shouldBuildMetadataWithClientCorrelationId,metadataWithDefaults,withClientCorrelationId,clientCorrelationId,
METHOD_0,METHOD_1,METHOD_2,METHOD_3,

correlationId,justice,messaging,Metadata,
IDENT_0,IDENT_1,IDENT_2,IDENT_3,







"d51597dc-2526-4c71-bd08-5031c79f11e1",
STRING_0,

























