shouldNotMatchJsonObject,createObjectBuilder,isJsonValueNull,JsonValueNullMatcher,
METHOD_0,METHOD_1,METHOD_2,METHOD_3,

JsonObject,jsonObject,Json,justice,
IDENT_0,IDENT_1,IDENT_2,IDENT_3,







"someId","idValue",
STRING_0,STRING_1,

























