noReplacement,ViewTemplate,getContent,
METHOD_0,METHOD_1,METHOD_2,

cleancoderscom,ViewTemplate,
IDENT_0,IDENT_1,







"some static content",
STRING_0,

























