testRevertBrackets,revertBrackets,
METHOD_0,METHOD_1,

rep,emory,clir,clearnlp,pair,Pair,Pattern,PatternUtils,L_BRACKETS,form,o1,o2,
IDENT_0,IDENT_1,IDENT_2,IDENT_3,IDENT_4,IDENT_5,IDENT_6,IDENT_7,IDENT_8,IDENT_9,IDENT_10,IDENT_11,







"-LRB-","-RRB-","-RCB-","-RSB-","-LRB--RRB-","-LCB--RCB-","-LSB--RSB-","{","[]",
STRING_0,STRING_1,STRING_2,STRING_3,STRING_4,STRING_5,STRING_6,STRING_7,STRING_8,

























