testStartInvalidState,
METHOD_0,

success,httpServer,cloudera,InternalHttpServerTest,
IDENT_0,IDENT_1,IDENT_2,IDENT_3,







"Caught expected exception: {}",
STRING_0,

























