testCustomTerminal,custom,orElse,
METHOD_0,METHOD_1,METHOD_2,

annimon,Function,optional,isPresent,
IDENT_0,IDENT_1,IDENT_2,IDENT_3,


































