testCorrectCaching,getAEProvider,
METHOD_0,METHOD_1,

uima,ae,AEProvider,aeProvider,AEProviderFactory,
IDENT_0,IDENT_1,IDENT_2,IDENT_3,IDENT_4,







"/uima/TestAggregateSentenceAE.xml",
STRING_0,

























