invalidPathNameIsNull,isValidPathElementName,
METHOD_0,METHOD_1,

Matcher,cloudname,CloudnamePath,NAME_PATTERN,
IDENT_0,IDENT_1,IDENT_2,IDENT_3,

64,
INT_0,




'-',
STRING_0,

























