testHashCodeWithDifferentNullableState,ofNullable,
METHOD_0,METHOD_1,

annimon,optInt,optIntNullable,isPresent,
IDENT_0,IDENT_1,IDENT_2,IDENT_3,

1231,1237,
INT_0,INT_1,































