testProduct,product,
METHOD_0,METHOD_1,

m1,m2,product,cmu,tetrad,MatrixUtils,ma,mb,_ma,_mb,
IDENT_0,IDENT_1,IDENT_2,IDENT_3,IDENT_4,IDENT_5,IDENT_6,IDENT_7,IDENT_8,IDENT_9,










6.0,7.0,12.0,14.0,8.0,9.0,16.0,18.0,3.0,4.0,5.0,142.0,25.0,302.0,186.0,33.0,394.0,
FLOAT_0,FLOAT_1,FLOAT_2,FLOAT_3,FLOAT_4,FLOAT_5,FLOAT_6,FLOAT_7,FLOAT_8,FLOAT_9,FLOAT_10,FLOAT_11,FLOAT_12,FLOAT_13,FLOAT_14,FLOAT_15,FLOAT_16,






















