BookHandle,getCorpNo,
METHOD_0,METHOD_1,

cn,cerc,IHandle,mis,handle,corpNo,
IDENT_0,IDENT_1,IDENT_2,IDENT_3,IDENT_4,IDENT_5,







"144001",
STRING_0,

























