test_makeURL,makeURL,ToStringBuilder,getQ,
METHOD_0,METHOD_1,METHOD_2,METHOD_3,

urlString,restfulwhois,rdap,URLUtil,RdapClientException,searchParamName,
IDENT_0,IDENT_1,IDENT_2,IDENT_3,IDENT_4,IDENT_5,


































