reconstructFormattingElementsInTable,isTrue,forName,rewind,
METHOD_0,METHOD_1,METHOD_2,METHOD_3,

h,Jsoup,want,Validate,executed,charset,Charset,DataUtil,defaultCharset,byteData,
IDENT_0,IDENT_1,IDENT_2,IDENT_3,IDENT_4,IDENT_5,IDENT_6,IDENT_7,IDENT_8,IDENT_9,







"<p><b>One</p> <table><tr><td><p><i>Three<p>Four</i></td></tr></table> <p>Five</p>","<p><b>One</b></p>\n","<b> \n"," <table>\n"," <tbody>\n"," <tr>\n"," <td><p><i>Three</i></p><p><i>Four</i></p></td>\n"," </tr>\n"," </tbody>\n"," </table> <p>Five</p></b>","Request must be executed (with .execute(), .get(), or .post() before getting response body",
STRING_0,STRING_1,STRING_2,STRING_3,STRING_4,STRING_5,STRING_6,STRING_7,STRING_8,STRING_9,STRING_10,

























