testCustomTerminalOperator_Sum,custom,Sum,requireNonNull,
METHOD_0,METHOD_1,METHOD_2,METHOD_3,

sum,annimon,Stream,CustomOperators,Function,Objects,
IDENT_0,IDENT_1,IDENT_2,IDENT_3,IDENT_4,IDENT_5,


































