sort,addLatest,returnValue,DefaultGenericTypeNamingStrategy,typeName,
METHOD_0,METHOD_1,METHOD_2,METHOD_3,METHOD_4,

src,codeabovelab,dm,VersionComparator,vc,springfox,documentation,contexts,ModelContext,modelContext,DocumentationType,SPRING_WEB,typeNameExtractor,
IDENT_0,IDENT_1,IDENT_2,IDENT_3,IDENT_4,IDENT_5,IDENT_6,IDENT_7,IDENT_8,IDENT_9,IDENT_10,IDENT_11,IDENT_12,







"0.12-dev.2-sha.9984399","0.2-dev.1-sha.23f4399.dirty","0.12-dev.10-sha.9984399","1.10","1.10-alpine","1.8.1-alpine","1.8","1.8-alpine","latest"," == ","com.codeabovelab.dm",
STRING_0,STRING_1,STRING_2,STRING_3,STRING_4,STRING_5,STRING_6,STRING_7,STRING_8,STRING_9,STRING_10,

























