testCatchException_throwError,catchThrowable,Error,caughtThrowable,
METHOD_0,METHOD_1,METHOD_2,METHOD_3,

catchexception,throwable,CatchThrowable,ThrowableHolder,
IDENT_0,IDENT_1,IDENT_2,IDENT_3,







"ddd",
STRING_0,

























