sleuth_meta_data_should_be_print_out,callSoapService,getLog,isSleuthLogLineSomewhereIn,compile,
METHOD_0,METHOD_1,METHOD_2,METHOD_3,METHOD_4,

systemOutRule,Pattern,sleuth_log_line_pattern,Matcher,loglineMatcher,
IDENT_0,IDENT_1,IDENT_2,IDENT_3,IDENT_4,







"(INFO \\[-,\\w+,\\w+,false].*: Returning a forecast.)",
STRING_0,

























