testToUnixLineBreaks,toUnixLineBreaks,
METHOD_0,METHOD_1,

codeforces,StringUtil,Patterns,LINE_BREAK_PATTERN,
IDENT_0,IDENT_1,IDENT_2,IDENT_3,







"ABA\r\n\r\nC\rABA\nDABAC\r\r\n\nABA\r\n","ABA\n\nC\nABA\nDABAC\n\n\nABA\n",
STRING_0,STRING_1,

























