testFromNonEmptyOptional,fromOptional,asOptional,
METHOD_0,METHOD_1,METHOD_2,

nonEmpty,codefx,libfx,SerializableOptional,nonEmptySerializable,optional,
IDENT_0,IDENT_1,IDENT_2,IDENT_3,IDENT_4,IDENT_5,







"Not Empty!",
STRING_0,

























