testOfWithNonNull,asOptional,
METHOD_0,METHOD_1,

notNull,codefx,libfx,SerializableOptional,presentSerializable,optional,
IDENT_0,IDENT_1,IDENT_2,IDENT_3,IDENT_4,IDENT_5,







"Not Null!",
STRING_0,

























