deserializeShouldUseBaseResponseDeserializer,deserialize,
METHOD_0,METHOD_1,

mockBaseResponseDeserializer,toTest,baseResponseDeserializer,
IDENT_0,IDENT_1,IDENT_2,


































