testIf_period_zero_then_return_start_period,asDate,calculate,setTime,isWorkedDay,
METHOD_0,METHOD_1,METHOD_2,METHOD_3,METHOD_4,

startDate,countDays,calendar,DAY_OF_MONTH,
IDENT_0,IDENT_1,IDENT_2,IDENT_3,







"22/07/2014 10:50:31","      NULL","       ",
STRING_0,STRING_1,STRING_2,




--,
OP_0,



















