begin,Employee,setLogin,persist,getEm,
METHOD_0,METHOD_1,METHOD_2,METHOD_3,METHOD_4,

ru,codeinside,adm,Employee,tClass,
IDENT_0,IDENT_1,IDENT_2,IDENT_3,IDENT_4,







"x",
STRING_0,

























