shouldSapperMoveToUp,getY,sapperMoveTo,getHead,
METHOD_0,METHOD_1,METHOD_2,METHOD_3,

oldYPosition,sapper,board,Direction,UP,
IDENT_0,IDENT_1,IDENT_2,IDENT_3,IDENT_4,


































