shouldGetCodeByName_ifNotFound,register,getCodeById,
METHOD_0,METHOD_1,METHOD_2,

codenjoy,dojo,RegistrationTest,
IDENT_0,IDENT_1,IDENT_2,







"user","email","pass","data","other_user","SELECT code FROM users WHERE id = ?;","code",
STRING_0,STRING_1,STRING_2,STRING_3,STRING_4,STRING_5,STRING_6,

























