acceptsContentWhenSizeDoesNotExceedMaxLimit,getOutputStream,getInputStream,
METHOD_0,METHOD_1,METHOD_2,

inMemoryFileItem,readContent,ByteStreams,
IDENT_0,IDENT_1,IDENT_2,







"__TEST__",
STRING_0,

























