convertsNullObjectToJson,createJsonObject,isNull,
METHOD_0,METHOD_1,METHOD_2,

everrest,JsonValue,JsonGenerator,
IDENT_0,IDENT_1,IDENT_2,


































