convert16MiBValue,toHumanSize,fromHumanSize,
METHOD_0,METHOD_1,METHOD_2,

newSize,che,ide,Bytes,humanSize,
IDENT_0,IDENT_1,IDENT_2,IDENT_3,IDENT_4,







"16MiB",
STRING_0,

























