testNavigateToFirstWhenNeedToSkipFirstPages,canSkip,addPage,navigateToFirst,resetNavigationState,navigateToNext,
METHOD_0,METHOD_1,METHOD_2,METHOD_3,METHOD_4,METHOD_5,

page1,wizard,page2,page3,
IDENT_0,IDENT_1,IDENT_2,IDENT_3,


































