runnerShouldNotBeAliveWhenStatusFailed,setStatus,isAlive,
METHOD_0,METHOD_1,METHOD_2,

Runner,FAILED,EnumSet,RUNNING,DONE,
IDENT_0,IDENT_1,IDENT_2,IDENT_3,IDENT_4,


































