viewShouldBeReturned,getView,
METHOD_0,METHOD_1,

che,ide,tabs,templates,TemplatesView,widget,presenter,
IDENT_0,IDENT_1,IDENT_2,IDENT_3,IDENT_4,IDENT_5,IDENT_6,


































