testResourceNameNotSet,FileInputStream,ResourceImpl,Failure,
METHOD_0,METHOD_1,METHOD_2,METHOD_3,

ResourceImpl,ri,mimeType,ResourceImplTest,notification,
IDENT_0,IDENT_1,IDENT_2,IDENT_3,IDENT_4,







"IO Failure",
STRING_0,

























