testValidItem,ContentItemImpl,isBlank,getUri,isNotBlank,getQualifier,validateInput,
METHOD_0,METHOD_1,METHOD_2,METHOD_3,METHOD_4,METHOD_5,METHOD_6,

ContentItem,qualifierValid,ContentItemValidator,QUALIFIER_PATTERN,CONTENT_PATTERN,
IDENT_0,IDENT_1,IDENT_2,IDENT_3,IDENT_4,







"de7a758e-ed76-45c0-af82-aa731950693d","-",
STRING_0,STRING_1,

























