testStopProcessingException,StopProcessingException,
METHOD_0,METHOD_1,

StopProcessingException,spe,notifications,Notification,NOTIFICATION_KEY_MESSAGE,
IDENT_0,IDENT_1,IDENT_2,IDENT_3,IDENT_4,


































