testId,MockedRemoteSolrCatalogProvider,maskId,
METHOD_0,METHOD_1,METHOD_2,

CatalogProvider,RemoteSolrCatalogProviderTest,solrj,SolrClient,providerId,
IDENT_0,IDENT_1,IDENT_2,IDENT_3,IDENT_4,







"myId",
STRING_0,

























