testHashCode,SizeValidator,
METHOD_0,METHOD_1,

SizeValidator,validator1,validator2,
IDENT_0,IDENT_1,IDENT_2,

13,1799,
INT_0,INT_1,































