testEqualsNull,SizeValidator,EqualsBuilder,isEquals,
METHOD_0,METHOD_1,METHOD_2,METHOD_3,

SizeValidator,ISO3CountryCodeValidator,countryCodes,ignoreCase,
IDENT_0,IDENT_1,IDENT_2,IDENT_3,

13,1799,
INT_0,INT_1,































