testUtf8CountryCodeRemainsUTF8,createTestString,copyOf,
METHOD_0,METHOD_1,METHOD_2,

testString,libs,klv,KlvEncodingDetectedString,klvEncodingDetectedstring,
IDENT_0,IDENT_1,IDENT_2,IDENT_3,IDENT_4,







"UTF-8",
STRING_0,

























