testWasSuccessfulWithRunnableWhenErrorsAreRecorded,MigrationException,wasSuccessful,
METHOD_0,METHOD_1,METHOD_2,

Runnable,migration,nerrs,numErrors,
IDENT_0,IDENT_1,IDENT_2,IDENT_3,


































