testAce2005,ACEReader,
METHOD_0,METHOD_1,

is2004,cogcomp,nlp,corpusreaders,ACEReader,aceReaderTests,ACEReaderParseTest,ACE2005CORPUS,textAnnotations,currentAnnotationId,
IDENT_0,IDENT_1,IDENT_2,IDENT_3,IDENT_4,IDENT_5,IDENT_6,IDENT_7,IDENT_8,IDENT_9,


































