testNoError,HtmlParser,getErrors,unmodifiableList,
METHOD_0,METHOD_1,METHOD_2,METHOD_3,

cognifide,crx,HtmlParser,
IDENT_0,IDENT_1,IDENT_2,







"...abc<span class=\"-\"><b>-</b>&nbsp;Hello world</span>xyz...","Cannot return error messages before parsing html content. Invoke parse() method first.",
STRING_0,STRING_1,

























