shouldDeferAnAtomicLong,AtomicLong,deferred,
METHOD_0,METHOD_1,METHOD_2,

AtomicLong,oracle,bedrock,deferred,Deferred,DeferredHelper,
IDENT_0,IDENT_1,IDENT_2,IDENT_3,IDENT_4,IDENT_5,







"Hello",
STRING_0,

























