shouldHaveCorrectFirstTag,DockerImage,getFirstTag,
METHOD_0,METHOD_1,METHOD_2,

oracle,bedrock,docker,DockerImage,OptionsByType,tags,
IDENT_0,IDENT_1,IDENT_2,IDENT_3,IDENT_4,IDENT_5,


































