sizeOfConstantIntervalIsOne,DiscreteInterval,
METHOD_0,METHOD_1,

fishwife,jrugged,interval,DiscreteInterval,
IDENT_0,IDENT_1,IDENT_2,IDENT_3,


































