isNotLateIfNotStarted,getGranularity,anyTimes,getNanoTime,DiscreteInterval,isLate,getMax,
METHOD_0,METHOD_1,METHOD_2,METHOD_3,METHOD_4,METHOD_5,METHOD_6,

mockClock,fishwife,jrugged,interval,startTime,clock,targetEndTime,
IDENT_0,IDENT_1,IDENT_2,IDENT_3,IDENT_4,IDENT_5,IDENT_6,

4L,5L,1000L,100L,
INT_0,INT_1,INT_2,INT_3,































