intervalsWithDifferentBoundsAreNotEqual,DiscreteInterval,
METHOD_0,METHOD_1,

fishwife,jrugged,interval,DiscreteInterval,i1,i2,
IDENT_0,IDENT_1,IDENT_2,IDENT_3,IDENT_4,IDENT_5,


































