testSearch2a,getIntervalList1,sort,
METHOD_0,METHOD_1,METHOD_2,

interval,IntervalTree,qy,VariantType,
IDENT_0,IDENT_1,IDENT_2,IDENT_3,


































