testGetFromEmptyQueueAfterSomeAdds,
METHOD_0,

misc,FastQueue,NoSuchElementException,nsee,expecting,elementDescription,
IDENT_0,IDENT_1,IDENT_2,IDENT_3,IDENT_4,IDENT_5,







"queue index 0 > last index -1",
STRING_0,

























