shouldFindCorrectMax,getDoubleMaxKudaf,aggregate,getOrDefault,
METHOD_0,METHOD_1,METHOD_2,METHOD_3,

confluent,ksql,udaf,DoubleMaxKudaf,doubleMaxKudaf,currentMax,sampleSize,aggregateValue,sum,newValue,
IDENT_0,IDENT_1,IDENT_2,IDENT_3,IDENT_4,IDENT_5,IDENT_6,IDENT_7,IDENT_8,IDENT_9,







"sample_size","sum","mean",
STRING_0,STRING_1,STRING_2,

3.0,5.0,8.0,2.2,3.5,4.6,
FLOAT_0,FLOAT_1,FLOAT_2,FLOAT_3,FLOAT_4,FLOAT_5,






















