testEmptyIntersection,
METHOD_0,

misc,IntervalSet,s2,expecting,
IDENT_0,IDENT_1,IDENT_2,IDENT_3,







'a','z','0','9',"{}",
STRING_0,STRING_1,STRING_2,STRING_3,STRING_4,

























