testSetGetMessageId,AsyncMsgRecord,setMessageId,getMessageId,
METHOD_0,METHOD_1,METHOD_2,METHOD_3,

asyncmsgs,AsyncMsgRecord,SoapEdgeContext,MESSAGE_ID,
IDENT_0,IDENT_1,IDENT_2,IDENT_3,







"testSetGetMessageId","uuid:1234567890",
STRING_0,STRING_1,

























