testGetResponseType,AsyncMsgRecord,setResponseType,getResponseType,
METHOD_0,METHOD_1,METHOD_2,METHOD_3,

asyncmsgs,AsyncMsgRecord,responseType,
IDENT_0,IDENT_1,IDENT_2,







"testGetResponseType","Success",
STRING_0,STRING_1,

























