testComplement,complement,
METHOD_0,METHOD_1,

misc,IntervalSet,s2,expecting,
IDENT_0,IDENT_1,IDENT_2,IDENT_3,

101,102,
INT_0,INT_1,




"102",
STRING_0,

























