canBuildMessage,getBuilder,ADRequestTransformingBuilder,
METHOD_0,METHOD_1,METHOD_2,

admindistribution,aspect,
IDENT_0,IDENT_1,


































