testSetsInCombinedGrammarSentToLexer,Grammar,getLexerGrammar,getAttribute,getActions,keySet,addAggr,
METHOD_0,METHOD_1,METHOD_2,METHOD_3,METHOD_4,METHOD_5,METHOD_6,

tool,Grammar,expecting,newline,lexerGrammarST,optionName,doNotCopyOptionsToLexer,
IDENT_0,IDENT_1,IDENT_2,IDENT_3,IDENT_4,IDENT_5,IDENT_6,







"grammar t;\n","A : \'{\' ~(\'}\')* \'}\';\n","lexer grammar t;","// $ANTLR src \"<string>\" 2","A : '{' ~('}')* '}';","literals","rules","lexer","actionNames","actions","options.{name,value}",
STRING_0,STRING_1,STRING_2,STRING_3,STRING_4,STRING_5,STRING_6,STRING_7,STRING_8,STRING_9,STRING_10,

























