validUrlsThatDoNotExistShouldWork,UrlResource,getInputStream,
METHOD_0,METHOD_1,METHOD_2,

constretto,UrlResource,urlResource,
IDENT_0,IDENT_1,IDENT_2,







"http://loocalhost/notHere.html",
STRING_0,

























