shouldExportPhraseQuery,phrase,SearchQuery,export,
METHOD_0,METHOD_1,METHOD_2,METHOD_3,

queries,PhraseQuery,fts,SearchQuery,JsonObject,JsonArray,bucket,
IDENT_0,IDENT_1,IDENT_2,IDENT_3,IDENT_4,IDENT_5,IDENT_6,







"salty","beers","query","terms","INSERT INTO ",
STRING_0,STRING_1,STRING_2,STRING_3,STRING_4,

























