testOverlappingReplace3,Grammar,ANTLRStringStream,Interpreter,TokenRewriteStream,fill,getToken,getLine,
METHOD_0,METHOD_1,METHOD_2,METHOD_3,METHOD_4,METHOD_5,METHOD_6,METHOD_7,

tool,Grammar,CharStream,Interpreter,lexEngine,TokenRewriteStream,expecting,grammar,
IDENT_0,IDENT_1,IDENT_2,IDENT_3,IDENT_4,IDENT_5,IDENT_6,IDENT_7,







"lexer grammar t;\n","A : \'a\';\n","B : \'b\';\n","C : \'c\';\n","abcc","barc","[",".",",index=",",line=",
STRING_0,STRING_1,STRING_2,STRING_3,STRING_4,STRING_5,STRING_6,STRING_7,STRING_8,STRING_9,

























