testFindByKey,SignatureGenerator,getFileResource,isEnabled,
METHOD_0,METHOD_1,METHOD_2,METHOD_3,

redline_rpm,SignatureGenerator,enabled,
IDENT_0,IDENT_1,IDENT_2,







"/pgp/secring.gpg","5A186608","redline",
STRING_0,STRING_1,STRING_2,

























