testDoubleEvents,newXpathEventable,putIfAbsent,addEdge,getAllEdges,lock,copyOf,edgeSet,unlock,
METHOD_0,METHOD_1,METHOD_2,METHOD_3,METHOD_4,METHOD_5,METHOD_6,METHOD_7,METHOD_8,

crawljax,Eventable,c1,c2,state2,readLock,ImmutableSet,sfg,
IDENT_0,IDENT_1,IDENT_2,IDENT_3,IDENT_4,IDENT_5,IDENT_6,IDENT_7,







"/body/div[4]","/body/div[4]/div[2]",
STRING_0,STRING_1,

























