testDeepTree,CommonTree,CommonToken,addChild,newStream,toTokenTypeString,
METHOD_0,METHOD_1,METHOD_2,METHOD_3,METHOD_4,METHOD_5,

CommonTree,Tree,rule1,alt,rule2,id2,TreeNodeStream,expecting,BufferedTreeNodeStream,
IDENT_0,IDENT_1,IDENT_2,IDENT_3,IDENT_4,IDENT_5,IDENT_6,IDENT_7,IDENT_8,

101,
INT_0,




" 10 2 100 101 20 2 30 2 40 50 2 60 2 70 3 3 3 80 2 90 3 3 3",
STRING_0,

























