testEmptyArray,Pojo4,setBooleans,showBytes,deserialize,getBooleans,
METHOD_0,METHOD_1,METHOD_2,METHOD_3,METHOD_4,METHOD_5,

ctrip,soa,caravan,protobuf,Pojo4,bout,JacksonProtobuf2Serializer,got,booleans,
IDENT_0,IDENT_1,IDENT_2,IDENT_3,IDENT_4,IDENT_5,IDENT_6,IDENT_7,IDENT_8,


































