testBigDecimal,PojoBigDecimal,setpBigDecimal,deserialize,getpBigDecimal,
METHOD_0,METHOD_1,METHOD_2,METHOD_3,METHOD_4,

ctrip,soa,caravan,protobuf,PojoBigDecimal,origin,bout,JacksonProtobuf2Serializer,got,pBigDecimal,
IDENT_0,IDENT_1,IDENT_2,IDENT_3,IDENT_4,IDENT_5,IDENT_6,IDENT_7,IDENT_8,IDENT_9,







"12345678901234567890123456789",
STRING_0,

























