specificValueTest,deserialize,
METHOD_0,METHOD_1,

specificJson,ctrip,soa,caravan,ssjson,TestEntity,testEntity,SSJsonSerializer,DEFAULT,
IDENT_0,IDENT_1,IDENT_2,IDENT_3,IDENT_4,IDENT_5,IDENT_6,IDENT_7,IDENT_8,







"{\"value\": \"abcdnefg\"}",
STRING_0,

























