setContent,getContent,
METHOD_0,METHOD_1,

newContent,
IDENT_0,







"PROXY ROUTE PROXYTLS://10.5.111.148:443 TCP://10.2.24.215:6390;null;",
STRING_0,

























