nextEndpoints,DefaultProxyEndpoint,
METHOD_0,METHOD_1,

ctrip,xpipe,endpoint,
IDENT_0,IDENT_1,IDENT_2,







"PROXYTLS://10.5.111.148:443",
STRING_0,

























