testEqualsWithMismatchedText,TreeWizard,getTokenIndex,createNode,
METHOD_0,METHOD_1,METHOD_2,METHOD_3,

TreeWizard,wiz,TestTreeWizard,adaptor,CommonTree,t1,t2,same,Token,dbg,
IDENT_0,IDENT_1,IDENT_2,IDENT_3,IDENT_4,IDENT_5,IDENT_6,IDENT_7,IDENT_8,IDENT_9,







"(A B[foo] C)","(A B C)",
STRING_0,STRING_1,

























