testSetState2,setState,TunnelEstablished,TunnelClosing,getState,TunnelHalfEstablished,
METHOD_0,METHOD_1,METHOD_2,METHOD_3,METHOD_4,METHOD_5,

tunnel,ctrip,xpipe,
IDENT_0,IDENT_1,IDENT_2,


































