leReadWriteTest,RandomAccess,leLong,jumpAbs,setLeLong,checkSpace,
METHOD_0,METHOD_1,METHOD_2,METHOD_3,METHOD_4,METHOD_5,

cad,tpsparse,bin,RandomAccess,rx,value2,baseOfs,ofs,
IDENT_0,IDENT_1,IDENT_2,IDENT_3,IDENT_4,IDENT_5,IDENT_6,IDENT_7,

24,
INT_0,































