provides_the_uri_of_the_feature_file,createScenarioWithFeatureFileUri,getUri,
METHOD_0,METHOD_1,METHOD_2,

cucumber,Scenario,scenario,
IDENT_0,IDENT_1,IDENT_2,







"path/file.feature",
STRING_0,

























