default_strict,RuntimeOptions,isStrict,
METHOD_0,METHOD_1,METHOD_2,

cucumber,RuntimeOptions,strict,
IDENT_0,IDENT_1,IDENT_2,







"--glue","somewhere",
STRING_0,STRING_1,

























