loads_resources_from_filesystem_dir,FileResourceLoader,
METHOD_0,METHOD_1,

cucumber,FeaturePath,Iterable,Resource,files,fi,
IDENT_0,IDENT_1,IDENT_2,IDENT_3,IDENT_4,IDENT_5,







"src/test/resources/cucumber/runtime",".properties",
STRING_0,STRING_1,

























