testMapToString_error,mapToString,keySet,maskIfNotSafe,escapeXml11,
METHOD_0,METHOD_1,METHOD_2,METHOD_3,METHOD_4,

cybersource,Utility,dest,src,iter,mask,PCI,hasEscapes,HAS_ESCAPES,StringEscapeUtils,
IDENT_0,IDENT_1,IDENT_2,IDENT_3,IDENT_4,IDENT_5,IDENT_6,IDENT_7,IDENT_8,IDENT_9,







"=","true",
STRING_0,STRING_1,

























