testGetProp,getProperties,
METHOD_0,METHOD_1,

cytoscape,SimpleCyProperty,CyProperty,SavePolicy,DO_NOT_SAVE,
IDENT_0,IDENT_1,IDENT_2,IDENT_3,IDENT_4,


































