testEmptyPayload,AddedEdgeViewsEvent,getEdgeViews,getPayloadCollection,
METHOD_0,METHOD_1,METHOD_2,METHOD_3,

cytoscape,View,CyEdge,vs,AddedEdgeViewsEvent,ev1,networkView,
IDENT_0,IDENT_1,IDENT_2,IDENT_3,IDENT_4,IDENT_5,IDENT_6,


































