getRoot,isAbsolute,HadoopPath,
METHOD_0,METHOD_1,METHOD_2,

rootPath,Paths,jsr203,TestPath,clusterUri,
IDENT_0,IDENT_1,IDENT_2,IDENT_3,IDENT_4,







"tmp/testNormalize/test",
STRING_0,

























