isSameFile,createTempFile,toHadoopPath,
METHOD_0,METHOD_1,METHOD_2,

rootPath,Paths,jsr203,TestFiles,clusterUri,Files,HadoopFileSystemProvider,path2,
IDENT_0,IDENT_1,IDENT_2,IDENT_3,IDENT_4,IDENT_5,IDENT_6,IDENT_7,







"tmp",
STRING_0,

























