testWithExplodeModifier,VarSpec,getVariableName,
METHOD_0,METHOD_1,METHOD_2,

damnhandy,VarSpec,varSpec,Modifier,EXPLODE,variableName,
IDENT_0,IDENT_1,IDENT_2,IDENT_3,IDENT_4,IDENT_5,







"experiment",
STRING_0,

























