updateTest,executeTest,perform,andExpect,isOk,containsString,basicTest,
METHOD_0,METHOD_1,METHOD_2,METHOD_3,METHOD_4,METHOD_5,METHOD_6,

mockMvc,
IDENT_0,

5000,
INT_0,




"/nmap/update","<div ","mockMvc couldn't be initiated","/nmap-exe?code={code}","scanme.nmap.org","nmap scanme.nmap.org",
STRING_0,STRING_1,STRING_2,STRING_3,STRING_4,STRING_5,

























