shouldCompleteAGameWithADouble,dart,isFinished,
METHOD_0,METHOD_1,METHOD_2,

Multiplier,TRIPLE,DOUBLE,
IDENT_0,IDENT_1,IDENT_2,

17,
INT_0,































