testKeysOfDifferentClasses,PaintMap,getPaint,
METHOD_0,METHOD_1,METHOD_2,

PaintMap,Color,red,blue,colorPalette,
IDENT_0,IDENT_1,IDENT_2,IDENT_3,IDENT_4,

99,
INT_0,




"ABC",
STRING_0,

























