testNormalize,toMail,normalize,
METHOD_0,METHOD_1,METHOD_2,

pair,addressessPairs,mailet,MailAddress,normalized,MailAddressNormalizer,TestHttpRequest,
IDENT_0,IDENT_1,IDENT_2,IDENT_3,IDENT_4,IDENT_5,IDENT_6,


































