testSingleElementMinusDisjointSet,subtract,getTarget,getTestName,
METHOD_0,METHOD_1,METHOD_2,METHOD_3,

misc,IntervalSet,s2,expecting,
IDENT_0,IDENT_1,IDENT_2,IDENT_3,







"{}",":",
STRING_0,STRING_1,

























