testComplement3,complement,getTarget,getTestName,
METHOD_0,METHOD_1,METHOD_2,METHOD_3,

misc,IntervalSet,Lexer,MAX_CHAR_VALUE,expecting,
IDENT_0,IDENT_1,IDENT_2,IDENT_3,IDENT_4,

96,99,
INT_0,INT_1,




"{97..98}",":",
STRING_0,STRING_1,

























