testMatch,includesPropertiesOf,getPropertyIds,
METHOD_0,METHOD_1,METHOD_2,

dashbuilder,navigation,NavItemContext,c1,ctx1,c2,ctx2,includesPropertiesOf,
IDENT_0,IDENT_1,IDENT_2,IDENT_3,IDENT_4,IDENT_5,IDENT_6,IDENT_7,







"NavItemContext %s should%s include properties of %s"," not",
STRING_0,STRING_1,

























