testRmRightSide,getTarget,getTestName,
METHOD_0,METHOD_1,METHOD_2,

misc,IntervalSet,expecting,
IDENT_0,IDENT_1,IDENT_2,







"{-3, 1..9}",":",
STRING_0,STRING_1,

























