hasEnoughNodes_WAY_true,setInterpretationType,hasEnoughNodes,minNodes,
METHOD_0,METHOD_1,METHOD_2,METHOD_3,

touchview,InterpretationType,WAY,polygon,point2,interpreter,
IDENT_0,IDENT_1,IDENT_2,IDENT_3,IDENT_4,IDENT_5,


































