shouldClearDataBaseUsingSequenceOrder,countAuthors,countBooks,using,fetchCount,
METHOD_0,METHOD_1,METHOD_2,METHOD_3,METHOD_4,

JooqDBUnitTest,jooq,DSL,Tables,BOOK,
IDENT_0,IDENT_1,IDENT_2,IDENT_3,IDENT_4,


































