testCreateBothNull,wrap,
METHOD_0,METHOD_1,

pkts,Buffer,Buffers,BoundedInputStreamBuffer,NOT_IMPLEMENTED_JUST_YET,
IDENT_0,IDENT_1,IDENT_2,IDENT_3,IDENT_4,


































