testIfUserCanValidateSubscription,push,isSuccessful,
METHOD_0,METHOD_1,METHOD_2,

datasift,push,PushValidation,s3,failed,
IDENT_0,IDENT_1,IDENT_2,IDENT_3,IDENT_4,

199,400,
INT_0,INT_1,































