sizeTest,enqueue,NotImplementedException,
METHOD_0,METHOD_1,METHOD_2,

wachtrij,generics,reflectiveObjects,
IDENT_0,IDENT_1,IDENT_2,


































