robustnessNewTypedNode,newTypedNode,free,
METHOD_0,METHOD_1,METHOD_2,

exceptionCaught,greycat,_graph,bufferedReader,importer,
IDENT_0,IDENT_1,IDENT_2,IDENT_3,IDENT_4,







"Unexpected exception thrown",
STRING_0,

























