robustnessFromVar,newTask,then,readVar,executeWith,
METHOD_0,METHOD_1,METHOD_2,METHOD_3,METHOD_4,

exceptionCaught,greycat,Tasks,_graph,npe,Graph,Callback,callback,
IDENT_0,IDENT_1,IDENT_2,IDENT_3,IDENT_4,IDENT_5,IDENT_6,IDENT_7,







"Unexpected exception thrown",
STRING_0,

























