tripleHash_6Test,tripleHash,
METHOD_0,METHOD_1,

greycat,utility,HashHelper,CoreConstants,END_OF_TIME,PRIME5,PRIME2,v3,PRIME3,PRIME4,crc,p1,p2,p3,p0,PRIME1,
IDENT_0,IDENT_1,IDENT_2,IDENT_3,IDENT_4,IDENT_5,IDENT_6,IDENT_7,IDENT_8,IDENT_9,IDENT_10,IDENT_11,IDENT_12,IDENT_13,IDENT_14,IDENT_15,

13,51,11,53,17,47,19,45,61,58,55,
INT_0,INT_1,INT_2,INT_3,INT_4,INT_5,INT_6,INT_7,INT_8,INT_9,INT_10,




"Max must be > 0",
STRING_0,




*=,^=,%,
OP_0,OP_1,OP_2,



















