testTest,scoreToPvalue,
METHOD_0,METHOD_1,

is_twoTailed,aLevel,datumbox,statistics,nonparametrics,onesample,Binomial,pvalue,rejectH0,
IDENT_0,IDENT_1,IDENT_2,IDENT_3,IDENT_4,IDENT_5,IDENT_6,IDENT_7,IDENT_8,

40,
INT_0,




"All the parameters must be positive.",
STRING_0,

0.35,0.05,
FLOAT_0,FLOAT_1,






















