testCoverageLongsOfAnAreaThatCantBeCoveredWithHashOfLengthOne,coverBoundingBoxLongs,getHashLength,
METHOD_0,METHOD_1,METHOD_2,

geo,CoverageLongs,coverage,GeoHash,hashes,
IDENT_0,IDENT_1,IDENT_2,IDENT_3,IDENT_4,

45,170,
INT_0,INT_1,































