checkPathIsSingleStepOnly,bits,dimensions,point,pow,abs,
METHOD_0,METHOD_1,METHOD_2,METHOD_3,METHOD_4,METHOD_5,

bits,dimensions,hilbert,HilbertCurve,point,point2,sum,
IDENT_0,IDENT_1,IDENT_2,IDENT_3,IDENT_4,IDENT_5,IDENT_6,


































