testIncludeWithArg,ST,defineTemplate,dump,getDefault,
METHOD_0,METHOD_1,METHOD_2,METHOD_3,METHOD_4,

stringtemplate,ST,st,nativeGroup,
IDENT_0,IDENT_1,IDENT_2,IDENT_3,







"load <box(\"arg\")>;","box","x","kewl <x> daddy","Ter","load kewl arg daddy;",
STRING_0,STRING_1,STRING_2,STRING_3,STRING_4,STRING_5,

























