testIncludeWithArg2,ST,defineTemplate,getDefault,
METHOD_0,METHOD_1,METHOD_2,METHOD_3,

stringtemplate,ST,st,nativeGroup,
IDENT_0,IDENT_1,IDENT_2,IDENT_3,







"load <box(\"arg\", foo())>;","box","x,y","kewl <x> <y> daddy","blech","Ter","load kewl arg blech daddy;",
STRING_0,STRING_1,STRING_2,STRING_3,STRING_4,STRING_5,STRING_6,

























