testBulkLoadingWithOneItemIsNotEmpty,SuppressWarnings,isPresent,
METHOD_0,METHOD_1,METHOD_2,

rtree,RTree,Rectangle,RTreeTest,head,
IDENT_0,IDENT_1,IDENT_2,IDENT_3,IDENT_4,







"unchecked",
STRING_0,

























