testDeleteIssue81d,pointGeographic,
METHOD_0,METHOD_1,

rtree,RTree,Point,Geometries,
IDENT_0,IDENT_1,IDENT_2,IDENT_3,










123.4,23.3,
FLOAT_0,FLOAT_1,






















