testAlwaysTrue,alwaysTrue,
METHOD_0,METHOD_1,

reactivex,functions,Predicate,rx2,Predicates,TrueHolder,
IDENT_0,IDENT_1,IDENT_2,IDENT_3,IDENT_4,IDENT_5,


































