testBytesFromFile,FileOutputStream,doOnNext,subscribe,copyOf,
METHOD_0,METHOD_1,METHOD_2,METHOD_3,METHOD_4,

FileOutputStream,rx,Bytes,functions,Action1,
IDENT_0,IDENT_1,IDENT_2,IDENT_3,IDENT_4,







"target/testFromFile","abcdefg",
STRING_0,STRING_1,

























