testNoParams,getAs,toBlocking,single,
METHOD_0,METHOD_1,METHOD_2,METHOD_3,

rx,Tuple2,tuples,Tuples,cls1,cls2,
IDENT_0,IDENT_1,IDENT_2,IDENT_3,IDENT_4,IDENT_5,







"select name, score from person where name=? order by name",
STRING_0,

























