testName,lift,showValue,toBlocking,single,verifyNoMoreInteractions,
METHOD_0,METHOD_1,METHOD_2,METHOD_3,METHOD_4,METHOD_5,

slf4j,Logger,rx,Observable,Logging,
IDENT_0,IDENT_1,IDENT_2,IDENT_3,IDENT_4,







"onSubscribe","3","onCompleted","onUnsubscribe",
STRING_0,STRING_1,STRING_2,STRING_3,

























