testEmptyIFTemplate,ST,getDefault,
METHOD_0,METHOD_1,METHOD_2,

stringtemplate,ST,st,
IDENT_0,IDENT_1,IDENT_2,







"<if(x)>fail<elseif(name)><endif>","Ter",
STRING_0,STRING_1,

























