testElseIf2,ST,getDefault,
METHOD_0,METHOD_1,METHOD_2,

stringtemplate,ST,st,
IDENT_0,IDENT_1,IDENT_2,







"<if(x)>fail1<elseif(y)>fail2<elseif(z)>works<else>fail3<endif>","z","blort","works",
STRING_0,STRING_1,STRING_2,STRING_3,

























