testExistedRepositoryFound,existed,intValue,getRepository,
METHOD_0,METHOD_1,METHOD_2,METHOD_3,

guangdong,dayatang,Company,Number,BaseEntity,
IDENT_0,IDENT_1,IDENT_2,IDENT_3,IDENT_4,


































