testGetInstanceByFactoryBean,getProvider,sayHello,
METHOD_0,METHOD_1,METHOD_2,

dayatang,ioc,spring,Service,MyService1,
IDENT_0,IDENT_1,IDENT_2,IDENT_3,IDENT_4,







"I am Service 1",
STRING_0,

























