hashTest,Tuple4,
METHOD_0,METHOD_1,

dazraf,Tuple4,RESULT_MSG,RESULT_INT,RESULT_BOOL,T1,T2,T3,T4,t1,t2,t3,t4,
IDENT_0,IDENT_1,IDENT_2,IDENT_3,IDENT_4,IDENT_5,IDENT_6,IDENT_7,IDENT_8,IDENT_9,IDENT_10,IDENT_11,IDENT_12,


































