testSetBigDecimal,PropertyValue,setBigDecimal,getBigDecimal,
METHOD_0,METHOD_1,METHOD_2,METHOD_3,

gradoop,PropertyValue,BIG_DECIMAL_VAL_7,
IDENT_0,IDENT_1,IDENT_2,


































