test_intByJson,sendPostRequest,getValueFromResponse,asInt,asObject,
METHOD_0,METHOD_1,METHOD_2,METHOD_3,METHOD_4,

JsonObject,Json,JsonValue,valueObject,
IDENT_0,IDENT_1,IDENT_2,IDENT_3,







"p","/call/test/test_int","result",
STRING_0,STRING_1,STRING_2,

























