testDictKeyLookupAsNonToStringableObject,writeFile,STGroupFile,getInstanceOf,HashableUser,getDefault,
METHOD_0,METHOD_1,METHOD_2,METHOD_3,METHOD_4,METHOD_5,

templates,newline,tmpdir,stringtemplate,STGroup,ST,st,HashableUser,expecting,
IDENT_0,IDENT_1,IDENT_2,IDENT_3,IDENT_4,IDENT_5,IDENT_6,IDENT_7,IDENT_8,

99,172036,391,
INT_0,INT_1,INT_2,




"foo(m,k) ::= \"<m.(k)>\"","m","first","tombu","second","sriram","third","k",
STRING_0,STRING_1,STRING_2,STRING_3,STRING_4,STRING_5,STRING_6,STRING_7,

























