shouldIndicateSimplePnfsMatch,aReplicaOnlineFileWithNoTags,getPnfsId,givenFilterWith,isSimplePnfsMatch,
METHOD_0,METHOD_1,METHOD_2,METHOD_3,METHOD_4,

pnfsids,
IDENT_0,


































