shouldReturnNoLocation,givenAFileOnlyOnOnePool,givenLocationGoesOffline,whenReadableMemberLocationsAreRequested,
METHOD_0,METHOD_1,METHOD_2,METHOD_3,

_plugins,
IDENT_0,


































