testAddWithInfinityUnderflow,addWithInfinity,ArithmeticException,
METHOD_0,METHOD_1,METHOD_2,

MIN_VALUE,
IDENT_0,







"NaN",
STRING_0,




^,
OP_0,



















