testReUseOfRestResult,writeFile,STGroupFile,getInstanceOf,getDefault,
METHOD_0,METHOD_1,METHOD_2,METHOD_3,METHOD_4,

templates,newline,tmpdir,stringtemplate,STGroup,ST,names,expecting,
IDENT_0,IDENT_1,IDENT_2,IDENT_3,IDENT_4,IDENT_5,IDENT_6,IDENT_7,







"a(names) ::= \"<b(rest(names))>\"","b(x) ::= \"<x>, <x>\"","t.stg","Ter","Tom","names","Tom, Tom",
STRING_0,STRING_1,STRING_2,STRING_3,STRING_4,STRING_5,STRING_6,

























