shouldCloseReclaimWindowOnComplete,givenServer,reclaimComplete,waitingForReclaim,
METHOD_0,METHOD_1,METHOD_2,METHOD_3,

clientRecoveryStore,
IDENT_0,


































