testLengthStripList,ST,getDefault,
METHOD_0,METHOD_1,METHOD_2,

stringtemplate,ST,expecting,
IDENT_0,IDENT_1,IDENT_2,







"<length(strip(names))>","names","Tom","Sriram",
STRING_0,STRING_1,STRING_2,STRING_3,

























