parseLockTokenHeaderFromOOoOnWindows7,addHeader,parseRequestHeaders,getLockToken,
METHOD_0,METHOD_1,METHOD_2,METHOD_3,

lockToken,lockHeaderValue,WebDAV,OPAQUE_LOCK_TOKEN,HEADER_LOCK_TOKEN,unlockMethod,m_strLockToken,
IDENT_0,IDENT_1,IDENT_2,IDENT_3,IDENT_4,IDENT_5,IDENT_6,







"976e2f82-40ab-4852-a867-986e9ce11f82:admin",
STRING_0,

























