testCatListAndSingleAttribute,ST,getDefault,
METHOD_0,METHOD_1,METHOD_2,

stringtemplate,ST,expecting,
IDENT_0,IDENT_1,IDENT_2,







"<[mine,yours]; separator=\", \">","mine","3","yours","1, 2, 3, a",
STRING_0,STRING_1,STRING_2,STRING_3,STRING_4,

























