testFunction,DateToLongHuBangStockMapper,
METHOD_0,METHOD_1,

decaywood,dateFirst,DateToLongHuBangStockMapper,calendar,NOVEMBER,Stock,stocks,
IDENT_0,IDENT_1,IDENT_2,IDENT_3,IDENT_4,IDENT_5,IDENT_6,

2015,26,
INT_0,INT_1,































