testNameGet,nameGet,executeCommand,
METHOD_0,METHOD_1,METHOD_2,

objectName,ids,odoojava,OdooCommand,
IDENT_0,IDENT_1,IDENT_2,IDENT_3,







"nameGet","The test case is a prototype.","name_get",
STRING_0,STRING_1,STRING_2,

























