testGetNameWithEscapedTableAndColumnName,SQLIdentifier,
METHOD_0,METHOD_1,

identifier,deegree,SQLIdentifier,
IDENT_0,IDENT_1,IDENT_2,







"\"table.column\"","\"column\"",
STRING_0,STRING_1,

























