testGatherSimple,var,gather,eval,getVarName,getArr,
METHOD_0,METHOD_1,METHOD_2,METHOD_3,METHOD_4,METHOD_5,

autodiff,samediff,SameDiff,sameDiff,SDVariable,
IDENT_0,IDENT_1,IDENT_2,IDENT_3,IDENT_4,







"x",
STRING_0,

























