testAlias,getRandomDir,writeFile,STGroupFile,getInstanceOf,getDefault,
METHOD_0,METHOD_1,METHOD_2,METHOD_3,METHOD_4,METHOD_5,

dir,groupFile,stringtemplate,STGroupFile,ST,st,
IDENT_0,IDENT_1,IDENT_2,IDENT_3,IDENT_4,IDENT_5,







"a() ::= \"bar\"\n","b ::= a\n","group.stg","/group.stg",
STRING_0,STRING_1,STRING_2,STRING_3,

























