testMatrix,getRow,subi,combine,slices,putSlice,reshape,toLongArray,
METHOD_0,METHOD_1,METHOD_2,METHOD_3,METHOD_4,METHOD_5,METHOD_6,METHOD_7,

brr,slices,arrays,ArrayUtil,sliceShape,
IDENT_0,IDENT_1,IDENT_2,IDENT_3,IDENT_4,


































