testRDivi,valueArrayOf,rdivi,generateNewVarName,
METHOD_0,METHOD_1,METHOD_2,METHOD_3,

n2,n2Assertion,nRsubi,autodiff,samediff,SDVariable,sameDiff,RDivOp,OP_NAME,sameDiffVariable,
IDENT_0,IDENT_1,IDENT_2,IDENT_3,IDENT_4,IDENT_5,IDENT_6,IDENT_7,IDENT_8,IDENT_9,










4.0,0.5,
FLOAT_0,FLOAT_1,






















