testStdev1,std,toDoubleVector,getStrides,getMemoryManager,getCurrentWorkspace,logCreationIfNecessary,
METHOD_0,METHOD_1,METHOD_2,METHOD_3,METHOD_4,METHOD_5,METHOD_6,

ind,stdev,DataType,lombok,shape,
IDENT_0,IDENT_1,IDENT_2,IDENT_3,IDENT_4,







"StdDev: {}",
STRING_0,

5.1,3.5,1.4,4.9,3.0,4.7,3.2,1.3,1.8556220879622372,1.7521415467935233,1.7039170558842744,
FLOAT_0,FLOAT_1,FLOAT_2,FLOAT_3,FLOAT_4,FLOAT_5,FLOAT_6,FLOAT_7,FLOAT_8,FLOAT_9,FLOAT_10,






















