testReverse1,reverse,getExecutioner,OldReverse,
METHOD_0,METHOD_1,METHOD_2,METHOD_3,

rev,ops,transforms,same,
IDENT_0,IDENT_1,IDENT_2,IDENT_3,


































