testAtan2_1,assign,atan2,getExecutioner,OldAtan2Op,ulike,
METHOD_0,METHOD_1,METHOD_2,METHOD_3,METHOD_4,METHOD_5,

PI,z,ops,transforms,Transforms,pairwise,arithmetic,
IDENT_0,IDENT_1,IDENT_2,IDENT_3,IDENT_4,IDENT_5,IDENT_6,


































