testNativeSort3,linspace,reshape,dup,shuffle,sort,
METHOD_0,METHOD_1,METHOD_2,METHOD_3,METHOD_4,METHOD_5,

DataType,DOUBLE,time1,time2,
IDENT_0,IDENT_1,IDENT_2,IDENT_3,

1048576,
INT_0,




"Time spent: {} ms",
STRING_0,

























