testTranspose_Custom,linspace,reshape,addInputs,addOutputs,getExecutioner,transpose,
METHOD_0,METHOD_1,METHOD_2,METHOD_3,METHOD_4,METHOD_5,METHOD_6,

DataType,DOUBLE,lombok,ops,DynamicCustomOp,
IDENT_0,IDENT_1,IDENT_2,IDENT_3,IDENT_4,







"transpose",
STRING_0,

























