testMeanEdgeCase_C,linspace,reshape,dup,mean,all,point,PointIndex,
METHOD_0,METHOD_1,METHOD_2,METHOD_3,METHOD_4,METHOD_5,METHOD_6,METHOD_7,

DataType,DOUBLE,arr2,NDArrayIndex,
IDENT_0,IDENT_1,IDENT_2,IDENT_3,

30,
INT_0,




'c',
STRING_0,

























