testImportUtfTemplateFileSameDir,getRandomDir,writeFile,STGroupFile,getInstanceOf,getDefault,
METHOD_0,METHOD_1,METHOD_2,METHOD_3,METHOD_4,METHOD_5,

dir,groupFile,stringtemplate,STGroup,ST,st,
IDENT_0,IDENT_1,IDENT_2,IDENT_3,IDENT_4,IDENT_5,







"import \"c.st\"\n","b() ::= \"foo\"\n","group.stg","c.st","c() ::= \"2∏r\"\n","/group.stg","c","2r",
STRING_0,STRING_1,STRING_2,STRING_3,STRING_4,STRING_5,STRING_6,STRING_7,

























