testCaSTransform1,getExecutioner,CompareAndSet,EqualsCondition,
METHOD_0,METHOD_1,METHOD_2,METHOD_3,

comp,ops,transforms,comparison,conditions,Conditions,Number,
IDENT_0,IDENT_1,IDENT_2,IDENT_3,IDENT_4,IDENT_5,IDENT_6,


































