testOddDimensions,matricesPerSlice,rank,
METHOD_0,METHOD_1,METHOD_2,

lombok,numMatrices,NDArrayMath,
IDENT_0,IDENT_1,IDENT_2,













*=,
OP_0,



















