testArrayFlatten1,asFloat,ComplexFloat,
METHOD_0,METHOD_1,METHOD_2,

arrayC,arrayF,cpu,nativecpu,complex,real,imag,
IDENT_0,IDENT_1,IDENT_2,IDENT_3,IDENT_4,IDENT_5,IDENT_6,







'c','f',"C: ","F: ",
STRING_0,STRING_1,STRING_2,STRING_3,

























