testVstackConcatRows,linspace,reshape,vstack,logCreationIfNecessary,
METHOD_0,METHOD_1,METHOD_2,METHOD_3,METHOD_4,

cols,arrs,
IDENT_0,IDENT_1,







'c',
STRING_0,

























