testIsAlive1,SimpleTimer,triggerEvent,getNumberOfEvents,isAlive,
METHOD_0,METHOD_1,METHOD_2,METHOD_3,METHOD_4,

jita,allocator,SimpleTimer,timer,SECONDS,
IDENT_0,IDENT_1,IDENT_2,IDENT_3,IDENT_4,


































