testEvalAddSelf,linspace,var,mul,eval,singletonMap,
METHOD_0,METHOD_1,METHOD_2,METHOD_3,METHOD_4,METHOD_5,

autodiff,samediff,SameDiff,sameDiff,SDVariable,sigmoid,assertion,eval,Number,
IDENT_0,IDENT_1,IDENT_2,IDENT_3,IDENT_4,IDENT_5,IDENT_6,IDENT_7,IDENT_8,







"x",
STRING_0,

























