testLineWrapForAnonTemplateComplicatedWrap,writeFile,STGroupFile,getInstanceOf,getDefault,
METHOD_0,METHOD_1,METHOD_2,METHOD_3,METHOD_4,

templates,newline,tmpdir,stringtemplate,STGroup,ST,expecting,lineWidth,
IDENT_0,IDENT_1,IDENT_2,IDENT_3,IDENT_4,IDENT_5,IDENT_6,IDENT_7,







"top(s) ::= << <s>.>>","str(data) ::= <<!<data:{v|[<v>]}; wrap=\"!+\\n!\"t.stg","t.stg","str","data","s"," ![3][4]!+"," ![5][6]!+"," ![7][8]!+"," ![9]!.",
STRING_0,STRING_1,STRING_2,STRING_3,STRING_4,STRING_5,STRING_6,STRING_7,STRING_8,STRING_9,

























