testSingleValueWrap,writeFile,STGroupFile,getInstanceOf,getDefault,
METHOD_0,METHOD_1,METHOD_2,METHOD_3,METHOD_4,

templates,newline,tmpdir,stringtemplate,STGroup,ST,expecting,lineWidth,
IDENT_0,IDENT_1,IDENT_2,IDENT_3,IDENT_4,IDENT_5,IDENT_6,IDENT_7,







"m(args,body) ::= <<{ <body; anchor, wrap=\"\\n\"> }>>","t.stg","m","body","i=3;","{ "," i=3; }",
STRING_0,STRING_1,STRING_2,STRING_3,STRING_4,STRING_5,STRING_6,

























