testRSubi,ones,zeros,rsubi,
METHOD_0,METHOD_1,METHOD_2,METHOD_3,

n2,n2Assertion,nRsubi,Number,
IDENT_0,IDENT_1,IDENT_2,IDENT_3,


































