testBroadcastMult,reshape,getExecutioner,execAndReturn,BroadcastMulOp,dup,UnsupportedOperationException,
METHOD_0,METHOD_1,METHOD_2,METHOD_3,METHOD_4,METHOD_5,METHOD_6,

num,denom,
IDENT_0,IDENT_1,

25,36,49,64,
INT_0,INT_1,INT_2,INT_3,







3.0,4.0,5.0,6.0,7.0,8.0,
FLOAT_0,FLOAT_1,FLOAT_2,FLOAT_3,FLOAT_4,FLOAT_5,






















