testPutiRowVector,createUninitialized,assign,putiRowVector,doRowWise,
METHOD_0,METHOD_1,METHOD_2,METHOD_3,METHOD_4,

matrix,rowVector,
IDENT_0,IDENT_1,







'p',
STRING_0,

























