testAllWithNewAxis,linspace,reshape,newAxis,all,point,
METHOD_0,METHOD_1,METHOD_2,METHOD_3,METHOD_4,METHOD_5,

assertion,complex,IComplexNDArray,rows,columns,
IDENT_0,IDENT_1,IDENT_2,IDENT_3,IDENT_4,

24,11,17,18,22,23,
INT_0,INT_1,INT_2,INT_3,INT_4,INT_5,































