testPutRowIndexing,ones,putRow,point,all,NDArrayIndexAll,
METHOD_0,METHOD_1,METHOD_2,METHOD_3,METHOD_4,METHOD_5,

INDArrayIndex,
IDENT_0,


































