testMergeMaxSameOrder_Subtract,assign,getExecutioner,dup,addi,flushQueueBlocking,
METHOD_0,METHOD_1,METHOD_2,METHOD_3,METHOD_4,METHOD_5,

lombok,array0,array1,
IDENT_0,IDENT_1,IDENT_2,







'c',
STRING_0,

5.0,
FLOAT_0,






















