testNot1,not,createUninitialized,shape,ordering,getExecutioner,Not,
METHOD_0,METHOD_1,METHOD_2,METHOD_3,METHOD_4,METHOD_5,METHOD_6,

z,ops,transforms,Transforms,
IDENT_0,IDENT_1,IDENT_2,IDENT_3,


































