testSignatures1,randn,createUninitialized,logCreationIfNecessary,
METHOD_0,METHOD_1,METHOD_2,METHOD_3,

z1,z2,rows,columns,
IDENT_0,IDENT_1,IDENT_2,IDENT_3,

128,5325235,
INT_0,INT_1,































