testAppend,linspace,reshape,copy,shape,valueArrayOf,concat,
METHOD_0,METHOD_1,METHOD_2,METHOD_3,METHOD_4,METHOD_5,METHOD_6,

linspace,otherAppend,assertion,padAmount,paShape,ArrayUtil,axis,concatArray,
IDENT_0,IDENT_1,IDENT_2,IDENT_3,IDENT_4,IDENT_5,IDENT_6,IDENT_7,


































