testMatrixConversion,toNDArray,shape,
METHOD_0,METHOD_1,METHOD_2,

nums,NDArrayUtil,Shape,javaShapeInformation,
IDENT_0,IDENT_1,IDENT_2,IDENT_3,


































