testAxisNormalization_1,normalizeAxis,ND4JIllegalStateException,sort,uniquify,
METHOD_0,METHOD_1,METHOD_2,METHOD_3,METHOD_4,

lombok,axis,rank,norm,shape,Shape,tmp,cnt,
IDENT_0,IDENT_1,IDENT_2,IDENT_3,IDENT_4,IDENT_5,IDENT_6,IDENT_7,







"Axis array "," contains values above rank ",
STRING_0,STRING_1,

























