testMissingDictionaryValue,STGroup,defineTemplate,getInstanceOf,getDefault,
METHOD_0,METHOD_1,METHOD_2,METHOD_3,METHOD_4,

stringtemplate,STGroup,ST,expecting,
IDENT_0,IDENT_1,IDENT_2,IDENT_3,







"m","<m.foo>",
STRING_0,STRING_1,

























