testSeparatorWithSpaces,STGroup,defineTemplate,getInstanceOf,toStringTree,getDefault,
METHOD_0,METHOD_1,METHOD_2,METHOD_3,METHOD_4,METHOD_5,

stringtemplate,STGroup,ST,st,
IDENT_0,IDENT_1,IDENT_2,IDENT_3,







"hi <name; separator= \", \">!","Ter","Tom","Sumana","hi Ter, Tom, Sumana!",
STRING_0,STRING_1,STRING_2,STRING_3,STRING_4,

























