rebaseInvariant,createNodeStore,getRoot,setChildNode,getBaseState,rebase,
METHOD_0,METHOD_1,METHOD_2,METHOD_3,METHOD_4,METHOD_5,

NodeStore,NodeBuilder,added,NodeState,
IDENT_0,IDENT_1,IDENT_2,IDENT_3,







"added",
STRING_0,

























