noChild,getChildNodeCount,getNode,MicroKernelException,
METHOD_0,METHOD_1,METHOD_2,METHOD_3,

childCount,mk,NodeState,revisionId,
IDENT_0,IDENT_1,IDENT_2,IDENT_3,







"Node not found: ",
STRING_0,

























