testInsertarUsuario,Usuario,insertar,
METHOD_0,METHOD_1,METHOD_2,

upc,galaxy,Usuario,usuario,usuarioDao,Cita,CitasServiceImpl,citaDao,
IDENT_0,IDENT_1,IDENT_2,IDENT_3,IDENT_4,IDENT_5,IDENT_6,IDENT_7,







"admin","admin@admin.com","Creando Cita",
STRING_0,STRING_1,STRING_2,

























