testGetPrettyInterval,DateTime,toDate,getPrettyInterval,print,Period,
METHOD_0,METHOD_1,METHOD_2,METHOD_3,METHOD_4,METHOD_5,

interval,hisp,dhis,DateUtils,diff,DAY_SECOND_FORMAT,
IDENT_0,IDENT_1,IDENT_2,IDENT_3,IDENT_4,IDENT_5,

2014,18,19,11,45,42,56,
INT_0,INT_1,INT_2,INT_3,INT_4,INT_5,INT_6,































