testGetAll,getAll,
METHOD_0,METHOD_1,

oAuth2ClientStore,clientA,clientB,clientC,hisp,dhis,oauth2,OAuth2Client,all,
IDENT_0,IDENT_1,IDENT_2,IDENT_3,IDENT_4,IDENT_5,IDENT_6,IDENT_7,IDENT_8,


































