testLocaleWithNumberRenderer,writeFile,STGroupFile,registerRenderer,NumberRenderer,getInstanceOf,getDefault,
METHOD_0,METHOD_1,METHOD_2,METHOD_3,METHOD_4,METHOD_5,METHOD_6,

templates,tmpdir,stringtemplate,STGroup,ST,st,expecting,lineWidth,
IDENT_0,IDENT_1,IDENT_2,IDENT_3,IDENT_4,IDENT_5,IDENT_6,IDENT_7,

2100,
INT_0,




"foo(x,y) ::= <<\n","<x; format=\"%,d\"> <y; format=\"%,2.3f\">\n",">>\n","t.stg","/t.stg","x","y","pl",
STRING_0,STRING_1,STRING_2,STRING_3,STRING_4,STRING_5,STRING_6,STRING_7,

3.14159,
FLOAT_0,






















