testSurfaceForm,
METHOD_0,

candidateURL,aksw,agdistis,Triple,predicate,defaultMaxNumberOfDocsRetrievedFromIndex,
IDENT_0,IDENT_1,IDENT_2,IDENT_3,IDENT_4,IDENT_5,







"http://dbpedia.org/resource/Jon_Voight",
STRING_0,

























