testNoTrimmedNewlinesBeforeAfterInCodedTemplate,ST,getDefault,
METHOD_0,METHOD_1,METHOD_2,

stringtemplate,ST,st,newline,
IDENT_0,IDENT_1,IDENT_2,IDENT_3,


































