testDiscoveryErrorEvent,discoveryError,getError,
METHOD_0,METHOD_1,METHOD_2,

discoverListener,digi,xbee,IDiscoveryListenerTest,ERROR,
IDENT_0,IDENT_1,IDENT_2,IDENT_3,IDENT_4,


































