testHardwareVersionEnumStaticAccess,
METHOD_0,

digi,xbee,HardwareVersionEnum,hardwareVersionEnum,hardwareVersionValues,CELLULAR,lookupTable,
IDENT_0,IDENT_1,IDENT_2,IDENT_3,IDENT_4,IDENT_5,IDENT_6,


































