testSendDataRequestOptionsEnumValues,getID,
METHOD_0,METHOD_1,

digi,xbee,SendDataRequestOptions,option,
IDENT_0,IDENT_1,IDENT_2,IDENT_3,


































