testFindCardsByMilestoneOnEmptyProject,findCardsCountByMilestone,
METHOD_0,METHOD_1,

lavagna,Project,projectService,MilestoneCount,statisticsService,
IDENT_0,IDENT_1,IDENT_2,IDENT_3,IDENT_4,

42,
INT_0,




"TEST2","desc",
STRING_0,STRING_1,

























