deleteJob,getTestJob,createJob,updateJob,getJob,
METHOD_0,METHOD_1,METHOD_2,METHOD_3,METHOD_4,

huffingtonpost,chronos,JobSpec,TestAgent,
IDENT_0,IDENT_1,IDENT_2,IDENT_3,







"Jane Austen","Virginia Woolf",
STRING_0,STRING_1,

























