parseFunctionAnyParameters1,parseFunctionAnyParameter,
METHOD_0,METHOD_1,

diirt,datasource,FunctionParser,
IDENT_0,IDENT_1,IDENT_2,







"foo(1.0)","(\\w+)",
STRING_0,STRING_1,

























