clear1,CircularBufferDouble,addDouble,clear,
METHOD_0,METHOD_1,METHOD_2,METHOD_3,

diirt,CircularBufferDouble,coll,
IDENT_0,IDENT_1,IDENT_2,


































