shouldReturnMultiDay1,plusDays,changeStartDate,changeEndDate,isMultiDay,
METHOD_0,METHOD_1,METHOD_2,METHOD_3,METHOD_4,

LocalDate,st,et,multiDay,_multiDay,
IDENT_0,IDENT_1,IDENT_2,IDENT_3,IDENT_4,


































