shouldChangeStartTime,withStartTime,getStartTime,
METHOD_0,METHOD_1,METHOD_2,

LocalTime,newTime,interval,startTime,_startTime,
IDENT_0,IDENT_1,IDENT_2,IDENT_3,IDENT_4,


































