testWriteXMLToStream,parseXML,writeXML,copy,normalize,
METHOD_0,METHOD_1,METHOD_2,METHOD_3,METHOD_4,

bpelunit,XMLUtil,IOUtils,referenceString,actualString,
IDENT_0,IDENT_1,IDENT_2,IDENT_3,IDENT_4,







"simple.xml",
STRING_0,

























