use_a_field_to_fake_an_accessor,
METHOD_0,

oneeyedmen,fakir,FakerTest,ClassToBeFaked,fake,Faker,
IDENT_0,IDENT_1,IDENT_2,IDENT_3,IDENT_4,IDENT_5,







"bill",
STRING_0,

























