showTest,show,Show,commandData,
METHOD_0,METHOD_1,METHOD_2,METHOD_3,

sickbeard,Show,sick,tvdbid,ShowJson,TypeToken,JsonResponse,
IDENT_0,IDENT_1,IDENT_2,IDENT_3,IDENT_4,IDENT_5,IDENT_6,







"71256","show","&tvdbid=",
STRING_0,STRING_1,STRING_2,

























