testExists,toFile,
METHOD_0,METHOD_1,

elegit,RepoHelper,localPath,dir,
IDENT_0,IDENT_1,IDENT_2,IDENT_3,







"Checked if repo still exists",".git",
STRING_0,STRING_1,

























