testAutoboxing,Third,
METHOD_0,METHOD_1,

dozermapper,deepindex,customconverter,Third,third,sourceObject,
IDENT_0,IDENT_1,IDENT_2,IDENT_3,IDENT_4,IDENT_5,


































