shouldMapImmutableTypes,Immutable,
METHOD_0,METHOD_1,

dozermapper,functional_tests,ImmutableMappingTest,Immutable,TEST_STRING,
IDENT_0,IDENT_1,IDENT_2,IDENT_3,IDENT_4,


































