testEquals,getAllCards,Card,
METHOD_0,METHOD_1,METHOD_2,

poker,Card,card0,Deck,card1,numCards,Suit,Rank,suit,rank,
IDENT_0,IDENT_1,IDENT_2,IDENT_3,IDENT_4,IDENT_5,IDENT_6,IDENT_7,IDENT_8,IDENT_9,







"equals",
STRING_0,

























