testTextToFloatRemoveInvalid,testConvert,FieldConvertToTypeIfPossible,validateData,getColumn,
METHOD_0,METHOD_1,METHOD_2,METHOD_3,METHOD_4,

dremio,dac,JobDataFragment,proto,FLOAT,DELETE_RECORDS,nameToColumns,
IDENT_0,IDENT_1,IDENT_2,IDENT_3,IDENT_4,IDENT_5,IDENT_6,







"convert_to_float(d, 1, 0, 0) as foo\nfrom cp.\"json/numbers.json\"\n where is_convertible_data(d, 1, \'float\')","d","cp.\"json/numbers.json\"","0.1","1.0","0.2","2.0","1.0E-113",
STRING_0,STRING_1,STRING_2,STRING_3,STRING_4,STRING_5,STRING_6,STRING_7,

























