testAsBag,asBag,
METHOD_0,METHOD_1,

dresdenocl,codegen,ocl2java,OclBag,bag1,bag2,object1,object2,metamodels,xsd,XSDModel,
IDENT_0,IDENT_1,IDENT_2,IDENT_3,IDENT_4,IDENT_5,IDENT_6,IDENT_7,IDENT_8,IDENT_9,IDENT_10,


































