testIntersectionWithSet,intersection,
METHOD_0,METHOD_1,

dresdenocl,codegen,ocl2java,OclBag,bag1,bag2,bag3,OclSet,set1,object1,object2,object3,metamodels,xsd,XSDModel,
IDENT_0,IDENT_1,IDENT_2,IDENT_3,IDENT_4,IDENT_5,IDENT_6,IDENT_7,IDENT_8,IDENT_9,IDENT_10,IDENT_11,IDENT_12,IDENT_13,IDENT_14,







"3",
STRING_0,

























