negativeLength,testOutput,
METHOD_0,METHOD_1,

baos,magic,
IDENT_0,IDENT_1,







'a',"matched","0 pstring =",
STRING_0,STRING_1,STRING_2,

























