shouldSupportRemovingAPath,addPath,removePath,getPaths,
METHOD_0,METHOD_1,METHOD_2,METHOD_3,

paths,
IDENT_0,







"/a/b/c","/d/e/f","/g/h/i",
STRING_0,STRING_1,STRING_2,

























