testDeleteIndication,Indication,getIndications,deleteEntity,
METHOD_0,METHOD_1,METHOD_2,METHOD_3,

drugis,addis,Indication,d_domain,d_indications,
IDENT_0,IDENT_1,IDENT_2,IDENT_3,IDENT_4,







"i",
STRING_0,

























