testBucketMonthComparator,makeDataSegment,shuffle,newTreeSet,bucketMonthComparator,truncate,getInterval,getStart,
METHOD_0,METHOD_1,METHOD_2,METHOD_3,METHOD_4,METHOD_5,METHOD_6,METHOD_7,

timeline,DataSegment,sortedOrder,shuffled,theSet,Sets,dataSegment,Comparator,lhs,rhs,retVal,DateTime,lhsMonth,Granularity,MONTH,rhsMonth,
IDENT_0,IDENT_1,IDENT_2,IDENT_3,IDENT_4,IDENT_5,IDENT_6,IDENT_7,IDENT_8,IDENT_9,IDENT_10,IDENT_11,IDENT_12,IDENT_13,IDENT_14,IDENT_15,







"test1","2011-01-01/2011-01-02","2011-01-02/2011-01-03","test2","2011-02-01/2011-02-02","2011-02-02/2011-02-03",
STRING_0,STRING_1,STRING_2,STRING_3,STRING_4,STRING_5,

























