testUnwrapWithNull,RoaringBitmapFactory,union,WrappedRoaringBitmap,
METHOD_0,METHOD_1,METHOD_2,METHOD_3,

bitmap,RoaringBitmapFactory,ImmutableBitmap,Iterables,Function,
IDENT_0,IDENT_1,IDENT_2,IDENT_3,IDENT_4,


































