testRollupSetting,ArbitraryGranularitySpec,isRollup,
METHOD_0,METHOD_1,METHOD_2,

Interval,intervals,Intervals,segment,granularity,GranularitySpec,Granularities,NONE,rollup,
IDENT_0,IDENT_1,IDENT_2,IDENT_3,IDENT_4,IDENT_5,IDENT_6,IDENT_7,IDENT_8,







"2012-01-08T00Z/2012-01-11T00Z","2012-02-01T00Z/2012-03-01T00Z","2012-01-07T00Z/2012-01-08T00Z","2012-01-03T00Z/2012-01-04T00Z","2012-01-01T00Z/2012-01-03T00Z",
STRING_0,STRING_1,STRING_2,STRING_3,STRING_4,

























