iteratesOverData,addData,
METHOD_0,METHOD_1,

dummyUberNode,foo,bar,escalon,hypermedia,spring,uber,UberNode,uberNode,
IDENT_0,IDENT_1,IDENT_2,IDENT_3,IDENT_4,IDENT_5,IDENT_6,IDENT_7,IDENT_8,


































