testStartRequest,startRequest,endRequest,InternalRequestImpl,
METHOD_0,METHOD_1,METHOD_2,METHOD_3,

requestId,statelessRequestService,dspace,sessions,
IDENT_0,IDENT_1,IDENT_2,IDENT_3,


































