testCanGetInstance,FastClasspathScanner,scan,
METHOD_0,METHOD_1,METHOD_2,

dstl,baleen,ReflectionUtils,scanner,lukehutch,fastclasspathscanner,scanResult,
IDENT_0,IDENT_1,IDENT_2,IDENT_3,IDENT_4,IDENT_5,IDENT_6,







"-scala",
STRING_0,

























