testTransformValues,THashMap,transformValues,
METHOD_0,METHOD_1,METHOD_2,

gnu,trove,THashMap,tHashMapWithRealDelegate,THashMapTest,HELLO,WORLD,
IDENT_0,IDENT_1,IDENT_2,IDENT_3,IDENT_4,IDENT_5,IDENT_6,







"New",
STRING_0,

























