testForMax,MaximumIndex,
METHOD_0,METHOD_1,

dstl,baleen,mallet,MaximumIndex,maximumIndex,maxAt,
IDENT_0,IDENT_1,IDENT_2,IDENT_3,IDENT_4,IDENT_5,










1.5,
FLOAT_0,






















