testGetFlags,getFlags,
METHOD_0,METHOD_1,

spy,memcached,tapmessage,TapResponseFlag,expResultVal,flag,expectedFlags,resultVal,flags,
IDENT_0,IDENT_1,IDENT_2,IDENT_3,IDENT_4,IDENT_5,IDENT_6,IDENT_7,IDENT_8,


































