testGetRegisteredMBeanNotThere,getRegisteredMBean,
METHOD_0,METHOD_1,

profileCollector,registeredMBeans,mBeanName,
IDENT_0,IDENT_1,IDENT_2,







"notFound",
STRING_0,

























