testGetServer_None,TabletLocationState,getServer,
METHOD_0,METHOD_1,METHOD_2,

tls,master,keyExtent,TabletLocationStateTest,walogs,
IDENT_0,IDENT_1,IDENT_2,IDENT_3,IDENT_4,


































