testDao,getDao,getInteresadoDao,
METHOD_0,METHOD_1,METHOD_2,

es,ieci,tecdoc,fwktd,BaseDao,
IDENT_0,IDENT_1,IDENT_2,IDENT_3,IDENT_4,


































