testMockType_Class,createMock,getMockedClass,isProxyClass,getInterfaces,getSuperclass,
METHOD_0,METHOD_1,METHOD_2,METHOD_3,METHOD_4,METHOD_5,

Proxy,R,
IDENT_0,IDENT_1,


































