testNewInstance,ObjenesisStd,
METHOD_0,METHOD_1,

objenesis,Objenesis,ObjenesisHelper,OBJENESIS_STD,
IDENT_0,IDENT_1,IDENT_2,IDENT_3,


































