testGetIpAddress,getIPAddress,getLocalHost,getCanonicalHostName,
METHOD_0,METHOD_1,METHOD_2,METHOD_3,

ipAddress,expectedIpAddress,InetAddress,canonicalHostName,
IDENT_0,IDENT_1,IDENT_2,IDENT_3,


































