hasCollectionType3,hasCollectionType,isCollectionType,
METHOD_0,METHOD_1,METHOD_2,

typeClass,ebayopensource,turmeric,codegen,typeClazz,IntrospectUtil,
IDENT_0,IDENT_1,IDENT_2,IDENT_3,IDENT_4,IDENT_5,


































