testEmbedLeft021,getEntities,
METHOD_0,METHOD_1,

ebay,cms,IQueryResult,queryService,deployContext,
IDENT_0,IDENT_1,IDENT_2,IDENT_3,IDENT_4,







"Manifest.versions+.approvals[@_oid=\"xxxx\"]",
STRING_0,

























