testEmbedQuery_notExists,setAllowFullTableScan,getEntities,
METHOD_0,METHOD_1,METHOD_2,

deployContext,ebay,cms,IQueryResult,queryService,
IDENT_0,IDENT_1,IDENT_2,IDENT_3,IDENT_4,







"Manifest.versions[not exists @description]",
STRING_0,

























