testJoinQuery8,setAllowFullTableScan,getEntities,
METHOD_0,METHOD_1,METHOD_2,

raptorContext,ebay,cms,IQueryResult,queryService,IEntity,appList,
IDENT_0,IDENT_1,IDENT_2,IDENT_3,IDENT_4,IDENT_5,IDENT_6,







"ApplicationService[@label=\"srp-app\"]{*}.services{*}",
STRING_0,

























