test_add,addNested,isEqualTo,
METHOD_0,METHOD_1,METHOD_2,

ebean,PathProperties,FetchPath,beanType,queryKey,
IDENT_0,IDENT_1,IDENT_2,IDENT_3,IDENT_4,







"status,date","customer","id,name","status,date,customer(id,name)","beanType:"," queryKey:"," sql:",
STRING_0,STRING_1,STRING_2,STRING_3,STRING_4,STRING_5,STRING_6,

























