testFormatParse,getOffset,formatValue,
METHOD_0,METHOD_1,METHOD_2,

ZonedDateTime,ZoneOffset,val1,baseType,
IDENT_0,IDENT_1,IDENT_2,IDENT_3,


































