TSMaster,addDetail,TSDetail,fetch,where,idEq,findOne,getDetails,
METHOD_0,METHOD_1,METHOD_2,METHOD_3,METHOD_4,METHOD_5,METHOD_6,METHOD_7,

basic,TSMaster,m0,ebean,Ebean,m0Check,details,
IDENT_0,IDENT_1,IDENT_2,IDENT_3,IDENT_4,IDENT_5,IDENT_6,







"master1","master1 detail1","master1 detail2","details",
STRING_0,STRING_1,STRING_2,STRING_3,

























