isPresent_returnsTrueWhenValuePresent,ofNullable,isPresent,toBlocking,single,
METHOD_0,METHOD_1,METHOD_2,METHOD_3,METHOD_4,

eccyan,optional,observable,
IDENT_0,IDENT_1,IDENT_2,


































