flatMap_returnsEmptyWhenValueNotPresent,ofNullable,flatMap,isPresent,toBlocking,single,
METHOD_0,METHOD_1,METHOD_2,METHOD_3,METHOD_4,METHOD_5,

eccyan,optional,rx,functions,Func1,integer,observable,
IDENT_0,IDENT_1,IDENT_2,IDENT_3,IDENT_4,IDENT_5,IDENT_6,


































