toString_customPermission,
METHOD_0,

customPermissionName,acciente,oacc,ResourcePermission,resourcePermission,ResourcePermissions,resourceId,externalId,
IDENT_0,IDENT_1,IDENT_2,IDENT_3,IDENT_4,IDENT_5,IDENT_6,IDENT_7,







"myPermission","{resourceId: ",", externalId: \"","\"}","}","{externalId: \"","{}",
STRING_0,STRING_1,STRING_2,STRING_3,STRING_4,STRING_5,STRING_6,

























