testComplexDimensionExpression,isComplexDimensionExpr,isReferenceToAttribute,ScriptExpression,
METHOD_0,METHOD_1,METHOD_2,METHOD_3,

birt,olap,OlapExpressionUtil,exprTrimed,referToAttribute,querydefn,DataException,
IDENT_0,IDENT_1,IDENT_2,IDENT_3,IDENT_4,IDENT_5,IDENT_6,







"var kind = dimension[\"Group1\"][\"Field1\"][\"Attribute1\"]\n","var numerator = data[\"Data Column Binding1\"]\n","var denominator","\\n","\\r","\\t","\\Qdimension[\"\\E.*\\Q\"][\"\\E.*\\Q\"][\"\\E.*\\Q\"]\\E\\S+?","\\S+?\\Qdimension[\"\\E.*\\Q\"][\"\\E.*\\Q\"][\"\\E.*\\Q\"]\\E","\\S+?\\Qdimension[\"\\E.*\\Q\"][\"\\E.*\\Q\"][\"\\E.*\\Q\"]\\E\\S+?","\\Qdimension[\"\\E.*\\Q\"][\"\\E.*\\Q\"]\\E\\S+?","\\S+?\\Qdimension[\"\\E.*\\Q\"][\"\\E.*\\Q\"]\\E","\\S+?\\Qdimension[\"\\E.*\\Q\"][\"\\E.*\\Q\"]\\E\\S+?",
STRING_0,STRING_1,STRING_2,STRING_3,STRING_4,STRING_5,STRING_6,STRING_7,STRING_8,STRING_9,STRING_10,STRING_11,

























