testEOL2,createDocument,tokenize,checkNoErrors,checkToken,
METHOD_0,METHOD_1,METHOD_2,METHOD_3,METHOD_4,

jface,IDocument,cdt,autotools,editors,Token,ITokenConstants,EOL,fSize,
IDENT_0,IDENT_1,IDENT_2,IDENT_3,IDENT_4,IDENT_5,IDENT_6,IDENT_7,IDENT_8,







"\r\n",
STRING_0,

























