shouldGetReturnNullIfExceedSize,
METHOD_0,

ConcurrentAppendOnlyChunkedListTest,ELEMENTS,chunkedList,federations,
IDENT_0,IDENT_1,IDENT_2,IDENT_3,


































