shouldResolveUrl,setMapping,fillInternalServers,fillExternalServers,
METHOD_0,METHOD_1,METHOD_2,METHOD_3,

urlResolver,che,workspace,ServerImpl,servers,machineName,
IDENT_0,IDENT_1,IDENT_2,IDENT_3,IDENT_4,IDENT_5,







"id","url",
STRING_0,STRING_1,

























