shouldNotBeExcluded,isExcluded,singleton,
METHOD_0,METHOD_1,METHOD_2,

PathMatcher,che,watcher,FileWatcherUtils,excludes,
IDENT_0,IDENT_1,IDENT_2,IDENT_3,IDENT_4,


































