testNull,splitString,toCharArray,isWhitespace,
METHOD_0,METHOD_1,METHOD_2,METHOD_3,

concierge,EMPTY_STRING_ARRAY,chars,openingQuote,pointer,curr,Character,delimiter,limit,endPointer,
IDENT_0,IDENT_1,IDENT_2,IDENT_3,IDENT_4,IDENT_5,IDENT_6,IDENT_7,IDENT_8,IDENT_9,







',','\\','"',"Unmatched quotation mark at position ",
STRING_0,STRING_1,STRING_2,STRING_3,




--,
OP_0,



















