iterateImageSumStream3,lazyRand,sliceStream,
METHOD_0,METHOD_1,METHOD_2,

january,ILazyDataset,lz,Random,Number,maxes,dawnsci,SliceStreamSupport,Collectors,nameDataMappings,
IDENT_0,IDENT_1,IDENT_2,IDENT_3,IDENT_4,IDENT_5,IDENT_6,IDENT_7,IDENT_8,IDENT_9,

64,
INT_0,































