testTreeSerializationSimpleNonHashMap,Hashtable,testMap,marshal,unmarshal,
METHOD_0,METHOD_1,METHOD_2,METHOD_3,METHOD_4,

pam,marshaller,
IDENT_0,IDENT_1,


































