size_keySet,newMap,forEach,oneTo,keySet,assertEmpty,
METHOD_0,METHOD_1,METHOD_2,METHOD_3,METHOD_4,METHOD_5,

ConcurrentHashMap,parallel,ParallelIterate,Interval,each,Verify,fixed,EmptyMap,
IDENT_0,IDENT_1,IDENT_2,IDENT_3,IDENT_4,IDENT_5,IDENT_6,IDENT_7,

10000,
INT_0,































