doAllPeopleHavePets,isPetPerson,getNumberOfPets,
METHOD_0,METHOD_1,METHOD_2,

predicate,Predicate,petkata,
IDENT_0,IDENT_1,IDENT_2,


































