RichIterable_toArray,newWith,CompositeFastList,newListWith,
METHOD_0,METHOD_1,METHOD_2,METHOD_3,

MutableList,FastList,
IDENT_0,IDENT_1,







"3","4","B",
STRING_0,STRING_1,STRING_2,

























