getTotalNumberOfPetsUsingStreams,mapToInt,sum,oneTo,
METHOD_0,METHOD_1,METHOD_2,METHOD_3,

numberOfPetsStream,people,PersonAndPetKataTest,getNumberOfPets,primitive,IntInterval,
IDENT_0,IDENT_1,IDENT_2,IDENT_3,IDENT_4,IDENT_5,

10L,
INT_0,































