selectUnique,newWith,
METHOD_0,METHOD_1,

bag,MutableBag,Bags,MutableSet,Sets,
IDENT_0,IDENT_1,IDENT_2,IDENT_3,IDENT_4,







"0","3","4","5",
STRING_0,STRING_1,STRING_2,STRING_3,

























