testNewEmpty,newEmpty,newBag,
METHOD_0,METHOD_1,METHOD_2,

bag,HashBagWithHashingStrategy,hashingStrategy,
IDENT_0,IDENT_1,IDENT_2,


































