swappedPair,pair,newListWith,PairImpl,
METHOD_0,METHOD_1,METHOD_2,METHOD_3,

Pair,pair1,Tuples,pair2,pair3,pair4,MutableList,testList,FastList,Functions,T1,T2,one,two,
IDENT_0,IDENT_1,IDENT_2,IDENT_3,IDENT_4,IDENT_5,IDENT_6,IDENT_7,IDENT_8,IDENT_9,IDENT_10,IDENT_11,IDENT_12,IDENT_13,







"One","Two","Three","Four",
STRING_0,STRING_1,STRING_2,STRING_3,

























