forEachWith,newList,newListWith,putPair,
METHOD_0,METHOD_1,METHOD_2,METHOD_3,

MutableList,FastList,MultiReaderFastList,argument1,argument2,Pair,keyValuePair,
IDENT_0,IDENT_1,IDENT_2,IDENT_3,IDENT_4,IDENT_5,IDENT_6,


































