detectIfNone,classUnderTest,getMutableCollection,
METHOD_0,METHOD_1,METHOD_2,

detect,predicate,Predicate,Function0,
IDENT_0,IDENT_1,IDENT_2,IDENT_3,


































