groupByUniqueKey_target,newSetWith,groupByUniqueKey,newWithKeysValues,withKeysValues,
METHOD_0,METHOD_1,METHOD_2,METHOD_3,METHOD_4,

MutableMap,integers,UnifiedMap,K,V,key1,value1,key2,value2,key3,value3,key4,value4,
IDENT_0,IDENT_1,IDENT_2,IDENT_3,IDENT_4,IDENT_5,IDENT_6,IDENT_7,IDENT_8,IDENT_9,IDENT_10,IDENT_11,IDENT_12,


































