reverseForEach,newWith,newWithKeysValues,
METHOD_0,METHOD_1,METHOD_2,

MutableList,sorted,MutableSortedSet,integers,K,V,bimap,HashBiMap,key1,value1,key2,value2,
IDENT_0,IDENT_1,IDENT_2,IDENT_3,IDENT_4,IDENT_5,IDENT_6,IDENT_7,IDENT_8,IDENT_9,IDENT_10,IDENT_11,


































