testIgnoredUnknownSchemes,setOut,PrintStream,flush,resolveCompilationUnit,
METHOD_0,METHOD_1,METHOD_2,METHOD_3,METHOD_4,

PrintStream,originalOut,baos,jdt,ls,JDTUtils,
IDENT_0,IDENT_1,IDENT_2,IDENT_3,IDENT_4,IDENT_5,







"inmemory:///foo/bar/Clazz.java","EXT_TOSTRING_0.6.0",
STRING_0,STRING_1,

























