testArrayBuilder,createBuilderFactory,createArrayBuilder,
METHOD_0,METHOD_1,METHOD_2,

JsonBuilderFactory,builderFactory,Json,JsonProvider,
IDENT_0,IDENT_1,IDENT_2,IDENT_3,


































