test_getParentItem,TreeItem,getParentItem,
METHOD_0,METHOD_1,METHOD_2,

TreeItem,tItem,treeItem,SWT,NULL,parentItem,
IDENT_0,IDENT_1,IDENT_2,IDENT_3,IDENT_4,IDENT_5,


































