testBadLocation,setDocument,detectHyperlinks,Region,
METHOD_0,METHOD_1,METHOD_2,METHOD_3,

textViewer,jface,hyperlink,IHyperlink,hyperlinks,detector,
IDENT_0,IDENT_1,IDENT_2,IDENT_3,IDENT_4,IDENT_5,


































