testZoomOut,TagCloud,setWords,getWord,zoomReset,getZoom,zoomOut,checkWidget,
METHOD_0,METHOD_1,METHOD_2,METHOD_3,METHOD_4,METHOD_5,METHOD_6,METHOD_7,

gef,cloudio,TagCloud,composite,SWT,NONE,zoom,currentZoom,
IDENT_0,IDENT_1,IDENT_2,IDENT_3,IDENT_4,IDENT_5,IDENT_6,IDENT_7,


































