test_equals,Arc,fromDeg,getPrecisionFraction,Angle,
METHOD_0,METHOD_1,METHOD_2,METHOD_3,METHOD_4,

gef,planar,Arc,a1,euclidean,Angle,a2,degrees,DEG_TO_RAD,
IDENT_0,IDENT_1,IDENT_2,IDENT_3,IDENT_4,IDENT_5,IDENT_6,IDENT_7,IDENT_8,










360.0,10.0,
FLOAT_0,FLOAT_1,






















