checkUpdateEvents,notifyUpdateListeners,reset,wasUpdated,
METHOD_0,METHOD_1,METHOD_2,METHOD_3,

ICEFormEditor,testListener,updated,
IDENT_0,IDENT_1,IDENT_2,

21,
INT_0,































