test009_toString,fromString,
METHOD_0,METHOD_1,

lfs,LongObjectId,oid,ZEROID_STR,
IDENT_0,IDENT_1,IDENT_2,IDENT_3,







"140ce71d628cceb78e3709940ba52a651a0c4a9c1400f2e15e998a1a43887edf",
STRING_0,

























