unstashNoHead,createWorkRepository,wrap,stashApply,
METHOD_0,METHOD_1,METHOD_2,METHOD_3,

Repository,Git,NoHeadException,
IDENT_0,IDENT_1,IDENT_2,







"Exception not thrown",
STRING_0,

























