testValidGitModules,insertGitModules,DfsFsck,check,getCorruptObjects,
METHOD_0,METHOD_1,METHOD_2,METHOD_3,METHOD_4,

fakeGitmodules,dfs,DfsFsck,fsck,FsckError,corruptObjects,
IDENT_0,IDENT_1,IDENT_2,IDENT_3,IDENT_4,IDENT_5,







"[submodule \"test\"]\n"," path = xlib\n"," url = https://example.com/repo/xlib.git\n\n","[submodule \"test2\"]\n"," path = zlib\n"," url = ok/path\n",
STRING_0,STRING_1,STRING_2,STRING_3,STRING_4,STRING_5,

























