testNextSelectionDistanceWithSmallerRecentSpan,newPeparer,nextSpan,
METHOD_0,METHOD_1,METHOD_2,

pack,PackWriterBitmapPreparer,preparer,DEFAULT_BITMAP_RECENT_COMMIT_COUNT,DEFAULT_BITMAP_DISTANT_COMMIT_SPAN,distancesAndSpans,pair,distanceFromTip,recentCommitCount,recentCommitSpan,distantCommitSpan,
IDENT_0,IDENT_1,IDENT_2,IDENT_3,IDENT_4,IDENT_5,IDENT_6,IDENT_7,IDENT_8,IDENT_9,IDENT_10,

10000,20000,20010,20012,20050,20200,22200,2200,24999,4999,25000,5000,50000,1000000,
INT_0,INT_1,INT_2,INT_3,INT_4,INT_5,INT_6,INT_7,INT_8,INT_9,INT_10,INT_11,INT_12,INT_13,































