testTimeout_readBuffer_Success1,readFully,EOFException,
METHOD_0,METHOD_1,METHOD_2,

act,IO,fd,dst,off,JGitText,shortReadOfBlock,
IDENT_0,IDENT_1,IDENT_2,IDENT_3,IDENT_4,IDENT_5,IDENT_6,







'a','b','c',
STRING_0,STRING_1,STRING_2,




-=,
OP_0,



















