testGetChecked_Inital,GridItem,getChecked,checkWidget,
METHOD_0,METHOD_1,METHOD_2,METHOD_3,

nebula,GridItem,SWT,NONE,
IDENT_0,IDENT_1,IDENT_2,IDENT_3,


































