testIsExpanded_onVirtual_doesNotResolveItem,Grid,setItemCount,getItem,isExpanded,isResolved,isVirtual,
METHOD_0,METHOD_1,METHOD_2,METHOD_3,METHOD_4,METHOD_5,METHOD_6,

nebula,SWT,VIRTUAL,GridItem,
IDENT_0,IDENT_1,IDENT_2,IDENT_3,


































