testString2Long_1,createMessage,setStringProperty,getLongProperty,JMSException,longValue,
METHOD_0,METHOD_1,METHOD_2,METHOD_3,METHOD_4,METHOD_5,

senderSession,JMSException,prop,
IDENT_0,IDENT_1,IDENT_2,







"prop","0","Not long",
STRING_0,STRING_1,STRING_2,

























