testGetResource,createNewFile,isDirectory,toURI,toURL,
METHOD_0,METHOD_1,METHOD_2,METHOD_3,METHOD_4,

fileName,contextWrapper,bundle,MalformedURLException,shouldNotHappen,
IDENT_0,IDENT_1,IDENT_2,IDENT_3,IDENT_4,







"test.txt",
STRING_0,

























