testShort2Int,createMessage,setShortProperty,getIntProperty,JMSException,intValue,
METHOD_0,METHOD_1,METHOD_2,METHOD_3,METHOD_4,METHOD_5,

senderSession,JMSException,prop,
IDENT_0,IDENT_1,IDENT_2,

127,
INT_0,




"prop","Not int",
STRING_0,STRING_1,

























