equals_trueForSameInstance,JsonLiteral,
METHOD_0,METHOD_1,

JsonLiteral,literal,e4,RAPEventObjectSupplier,Subscriber,requestor,topic,
IDENT_0,IDENT_1,IDENT_2,IDENT_3,IDENT_4,IDENT_5,IDENT_6,


































