testGetUIThreadForNewSession,getUIThread,getUISession,getContext,
METHOD_0,METHOD_1,METHOD_2,METHOD_3,

lifecycle,IUIThreadHolder,uiThread,LifeCycleUtil,ContextProvider,
IDENT_0,IDENT_1,IDENT_2,IDENT_3,IDENT_4,


































