testIsStartup_withoutDisplayCreated,isStartup,getSessionDisplay,
METHOD_0,METHOD_1,METHOD_2,

lifecycle,LifeCycleUtil,
IDENT_0,IDENT_1,


































