testActivateTwice,activate,isActive,getActivePageInstance,
METHOD_0,METHOD_1,METHOD_2,METHOD_3,

serverPushActivationTracker,editor,
IDENT_0,IDENT_1,







"id",
STRING_0,

























