testDeactivateOneFromMultipleActivations,activate,deactivate,isActive,getActivePageInstance,
METHOD_0,METHOD_1,METHOD_2,METHOD_3,METHOD_4,

serverPushActivationTracker,editor,
IDENT_0,IDENT_1,







"id1","id2",
STRING_0,STRING_1,

























