testGetItemsToMeasureWithEmptyResult,getItems,
METHOD_0,METHOD_1,

textsize,MeasurementItem,items,operator,
IDENT_0,IDENT_1,IDENT_2,IDENT_3,


































