testReplaceNewLines_unixLineBreaks,replaceNewLines,
METHOD_0,METHOD_1,

stringToReplace,EncodingUtil,UNIX_NEWLINE,
IDENT_0,IDENT_1,IDENT_2,







"First line.\nSecond line.\nThird line.","First line.\\nSecond line.\\nThird line.",
STRING_0,STRING_1,

























