testGetAttributeNullKey,getAttribute,notNull,
METHOD_0,METHOD_1,METHOD_2,

NullPointerException,npe,ParamCheck,
IDENT_0,IDENT_1,IDENT_2,


































