testGetUISession,UISessionEvent,getUISession,checkContext,
METHOD_0,METHOD_1,METHOD_2,METHOD_3,

UISessionEvent,uiSession,UISession,RWT,ContextProvider,
IDENT_0,IDENT_1,IDENT_2,IDENT_3,IDENT_4,


































