testEquality_withAlpha,Color,
METHOD_0,METHOD_1,

graphics,Color,salmon1,salmon2,e4,RAPEventObjectSupplier,Subscriber,requestor,topic,
IDENT_0,IDENT_1,IDENT_2,IDENT_3,IDENT_4,IDENT_5,IDENT_6,IDENT_7,IDENT_8,

250,128,114,
INT_0,INT_1,INT_2,































