testDrawArcWithZeroWidth,drawArc,getGCOperations,getGCAdapter,
METHOD_0,METHOD_1,METHOD_2,METHOD_3,

gc,graphics,GCOperation,gcOperations,ControlGC_Test,GC,
IDENT_0,IDENT_1,IDENT_2,IDENT_3,IDENT_4,IDENT_5,


































