testSetLineCapWithUnchangeValue,setLineCap,getGCAdapter,clearGCOperations,getGCOperations,
METHOD_0,METHOD_1,METHOD_2,METHOD_3,METHOD_4,

gc,SWT,CAP_ROUND,graphics,ControlGC_Test,GC,
IDENT_0,IDENT_1,IDENT_2,IDENT_3,IDENT_4,IDENT_5,


































