testGetDevice,Cursor,getDevice,getCurrent,
METHOD_0,METHOD_1,METHOD_2,METHOD_3,

graphics,Cursor,cursor,SWT,CURSOR_ARROW,disposed,ERROR_GRAPHIC_DISPOSED,Device,Display,
IDENT_0,IDENT_1,IDENT_2,IDENT_3,IDENT_4,IDENT_5,IDENT_6,IDENT_7,IDENT_8,


































