testSetSystemColor_transparent,getSystemColor,getDisplay,getRGB,Color,
METHOD_0,METHOD_1,METHOD_2,METHOD_3,METHOD_4,

graphics,Color,transparent,SWT,COLOR_TRANSPARENT,
IDENT_0,IDENT_1,IDENT_2,IDENT_3,IDENT_4,


































