testCreateId_idsDifferWithCustomPrefix,createId,
METHOD_0,METHOD_1,

id1,idGenerator,id2,e4,RAPEventObjectSupplier,Subscriber,requestor,topic,
IDENT_0,IDENT_1,IDENT_2,IDENT_3,IDENT_4,IDENT_5,IDENT_6,IDENT_7,


































