testPreserveProperty,preserve,getPreserved,UnsupportedOperationException,
METHOD_0,METHOD_1,METHOD_2,METHOD_3,










"prop",
STRING_0,

























