testHandleSetFocusIndex_outOfRange,createList,ListOperationHandler,handleSet,JsonObject,getFocusIndex,
METHOD_0,METHOD_1,METHOD_2,METHOD_3,METHOD_4,METHOD_5,

listkit,focusIndex,
IDENT_0,IDENT_1,

55,
INT_0,




"focusIndex",
STRING_0,

























