testHandleSetText,TextOperationHandler,handleSet,JsonObject,checkWidget,
METHOD_0,METHOD_1,METHOD_2,METHOD_3,METHOD_4,

textkit,
IDENT_0,







"text","abc",
STRING_0,STRING_1,

























