testDeselectWithWrongIndex,deselect,getSelectionIndex,checkWidget,
METHOD_0,METHOD_1,METHOD_2,METHOD_3,

combo,cellSelectionEnabled,selectedCells,selectedItems,items,
IDENT_0,IDENT_1,IDENT_2,IDENT_3,IDENT_4,







"item1","item2","item3",
STRING_0,STRING_1,STRING_2,

























