testSetParent_fixesSavedFocus,Button,open,setFocus,Shell,setParent,getSavedFocus,
METHOD_0,METHOD_1,METHOD_2,METHOD_3,METHOD_4,METHOD_5,METHOD_6,

Control,SWT,NONE,Shell,display,savedFocus,
IDENT_0,IDENT_1,IDENT_2,IDENT_3,IDENT_4,IDENT_5,


































