testAppName_acceptsNullArgument,setAppName,getAppName,getUISession,getAttribute,
METHOD_0,METHOD_1,METHOD_2,METHOD_3,METHOD_4,

Display,UISession,ContextProvider,APP_NAME,
IDENT_0,IDENT_1,IDENT_2,IDENT_3,


































