testUnhookUnknownListener,hook,unhook,ControlSizeProperty,
METHOD_0,METHOD_1,METHOD_2,METHOD_3,

Listener,eventTable,EventTable_Test,EVENT_1,jface,databinding,
IDENT_0,IDENT_1,IDENT_2,IDENT_3,IDENT_4,IDENT_5,


































