testId,MenuItem,setID,getID,
METHOD_0,METHOD_1,METHOD_2,METHOD_3,

MenuItem,menuBar,SWT,CASCADE,
IDENT_0,IDENT_1,IDENT_2,IDENT_3,

123,
INT_0,































