testCreation,TimerExecTask,getRunnable,
METHOD_0,METHOD_1,METHOD_2,

Runnable,runnable,TimerExecTask,scheduler,
IDENT_0,IDENT_1,IDENT_2,IDENT_3,


































