testIsSerializable,setMessage,serializeAndDeserialize,
METHOD_0,METHOD_1,METHOD_2,

toolTip,ToolTip,deserializedToolTip,
IDENT_0,IDENT_1,IDENT_2,







"message",
STRING_0,

























