testParent,TreeColumn,getParent,
METHOD_0,METHOD_1,METHOD_2,

SWT,NONE,iae,
IDENT_0,IDENT_1,IDENT_2,







"Must not allow to create TreeColumn withh null-parent.",
STRING_0,

























