testSetCellToolTipText,getAdapter,setCellToolTipText,getCellToolTipText,
METHOD_0,METHOD_1,METHOD_2,METHOD_3,

ICellToolTipAdapter,toolTipText,
IDENT_0,IDENT_1,


































