testStateIsSerializable,addState,serializeAndDeserialize,hasState,
METHOD_0,METHOD_1,METHOD_2,METHOD_3,

widget,Widget,deserializedWidget,flag,
IDENT_0,IDENT_1,IDENT_2,IDENT_3,

23,
INT_0,































