testIsDisposed_trueAfterDispose,dispose,isDisposed,hasState,
METHOD_0,METHOD_1,METHOD_2,METHOD_3,

widget,Widget,DISPOSED,
IDENT_0,IDENT_1,IDENT_2,


































