testToolItemInViewToolBarFound,DefaultToolItem,getToolTipText,
METHOD_0,METHOD_1,METHOD_2,

reddeer,ToolItem,toolbar,TreeItemHandler,swtWidget,
IDENT_0,IDENT_1,IDENT_2,IDENT_3,IDENT_4,







"RedDeer SWT ViewToolItem",
STRING_0,

























