testLocation,newPreferences,getOptions,
METHOD_0,METHOD_1,METHOD_2,

invalidURL,
IDENT_0,







"http","eclipse.org","testEquinoxFile","password1",
STRING_0,STRING_1,STRING_2,STRING_3,

























