getAsPercentFromPercent,createDimmerItem,PercentType,getState,toBigDecimal,
METHOD_0,METHOD_1,METHOD_2,METHOD_3,METHOD_4,

origin,smarthome,items,DimmerItem,DimmerItemTest,DecimalType,
IDENT_0,IDENT_1,IDENT_2,IDENT_3,IDENT_4,IDENT_5,

25,
INT_0,































