testTypedArrayLength_WithArrayBuffer,V8ArrayBuffer,executeScript,executeIntegerFunction,
METHOD_0,METHOD_1,METHOD_2,METHOD_3,

v8,V8ArrayBuffer,V8Array,v8Object,mirror,ArrayMirror,LENGTH,
IDENT_0,IDENT_1,IDENT_2,IDENT_3,IDENT_4,IDENT_5,IDENT_6,







"buf","var ints = new Int32Array(buf); ints[0] = 7; ints",
STRING_0,STRING_1,

























