testAddNullAsObject,V8Array,push,getObject,UnsupportedOperationException,
METHOD_0,METHOD_1,METHOD_2,METHOD_3,METHOD_4,

v8,V8Array,V8Object,
IDENT_0,IDENT_1,IDENT_2,


































