testGetIntegerAsByte_Overflow,executeArrayScript,getByte,
METHOD_0,METHOD_1,METHOD_2,

v8,V8Array,
IDENT_0,IDENT_1,







"foo = [256]",
STRING_0,

























