testGetStringBiggerArray,executeArrayScript,getStrings,
METHOD_0,METHOD_1,METHOD_2,

v8,V8Array,
IDENT_0,IDENT_1,

40,
INT_0,




"['a', 'b', 'c', 'd']",
STRING_0,

























