testBooleanFunctionCall,executeVoidScript,V8Array,push,executeBooleanFunction,UnsupportedOperationException,
METHOD_0,METHOD_1,METHOD_2,METHOD_3,METHOD_4,METHOD_5,

v8,V8Array,
IDENT_0,IDENT_1,







"function add(x, y) {return x&&y;}","add",
STRING_0,STRING_1,

























