testObjectParameter,V8Object,V8Array,push,executeVoidScript,executeIntegerFunction,UnsupportedOperationException,
METHOD_0,METHOD_1,METHOD_2,METHOD_3,METHOD_4,METHOD_5,METHOD_6,

v8,V8Object,obj1,obj2,V8Array,
IDENT_0,IDENT_1,IDENT_2,IDENT_3,IDENT_4,







"first","John","last","Smith","age","Tim","Jones","function add(p1, p2) {return p1.age + p2['age'];}","add",
STRING_0,STRING_1,STRING_2,STRING_3,STRING_4,STRING_5,STRING_6,STRING_7,STRING_8,

























