testTwinIsUndefined,getUndefined,twin,isUndefined,executeBooleanFunction,
METHOD_0,METHOD_1,METHOD_2,METHOD_3,METHOD_4,

v8,V8Object,v8Object,V8,V8Value,twin,mirror,Mirror,IS_UNDEFINED,
IDENT_0,IDENT_1,IDENT_2,IDENT_3,IDENT_4,IDENT_5,IDENT_6,IDENT_7,IDENT_8,


































