testClearWeakMakesObjectWeak,V8Object,setWeak,clearWeak,isWeak,checkThread,checkReleased,getV8RuntimePtr,getHandle,
METHOD_0,METHOD_1,METHOD_2,METHOD_3,METHOD_4,METHOD_5,METHOD_6,METHOD_7,METHOD_8,

v8,V8Value,
IDENT_0,IDENT_1,


































