testReleaseObjectDoesNotReleaseTwin,V8Object,twin,isReleased,
METHOD_0,METHOD_1,METHOD_2,METHOD_3,

v8,V8Object,v8Object,V8Value,twin,
IDENT_0,IDENT_1,IDENT_2,IDENT_3,IDENT_4,


































