testInt8TypedArray_Length,V8ArrayBuffer,V8TypedArray,executeIntegerFunction,
METHOD_0,METHOD_1,METHOD_2,METHOD_3,

v8,V8ArrayBuffer,V8TypedArray,v8Int8Array,V8Value,BYTE,v8Object,mirror,ArrayMirror,LENGTH,
IDENT_0,IDENT_1,IDENT_2,IDENT_3,IDENT_4,IDENT_5,IDENT_6,IDENT_7,IDENT_8,IDENT_9,


































