testIsTerminating,V8Executor,forceTermination,isTerminating,
METHOD_0,METHOD_1,METHOD_2,METHOD_3,

v8,V8Executor,forceTerminating,
IDENT_0,IDENT_1,IDENT_2,


































