testRemoveMissing,executeVoidScript,getObject,
METHOD_0,METHOD_1,METHOD_2,

v8,V8Map,V8Object,v8Object,V,V8Value,twin,twinMap,
IDENT_0,IDENT_1,IDENT_2,IDENT_3,IDENT_4,IDENT_5,IDENT_6,IDENT_7,







"var x = {}","x",
STRING_0,STRING_1,

























