testCreateResponseHasNoBody,createResponse,hasBody,
METHOD_0,METHOD_1,METHOD_2,

restfuse,CallbackResource,CallbackResource_Test,OK,MediaType,WILDCARD,
IDENT_0,IDENT_1,IDENT_2,IDENT_3,IDENT_4,IDENT_5,


































