testDelegatesPut,mockHttpRequest,doPut,wasCalled,
METHOD_0,METHOD_1,METHOD_2,METHOD_3,

HttpServletRequest,HttpServletResponse,resp,callbackSerlvet,restfuse,Request,
IDENT_0,IDENT_1,IDENT_2,IDENT_3,IDENT_4,IDENT_5,


































