testHasMode,FluidGridConfiguration,getMode,
METHOD_0,METHOD_1,METHOD_2,

tabris,passepartout,FluidGridConfiguration,LayoutMode,AUTO,mode,
IDENT_0,IDENT_1,IDENT_2,IDENT_3,IDENT_4,IDENT_5,


































