testReturnsNullWhenAcessingNullProperties,AppEvent,
METHOD_0,METHOD_1,

tabris,AppEvent,appEvent,EventType,PAUSE,JsonValue,
IDENT_0,IDENT_1,IDENT_2,IDENT_3,IDENT_4,IDENT_5,


































