testSavesBadgeNumber,AppImpl,setBadgeNumber,getBadgeNumber,
METHOD_0,METHOD_1,METHOD_2,METHOD_3,

tabris,AppImpl,badgeNumber,
IDENT_0,IDENT_1,IDENT_2,

42,
INT_0,































