testGetCurrentRenderer,PageFlow,getCurrentRenderer,getIndexOfLastRenderer,
METHOD_0,METHOD_1,METHOD_2,METHOD_3,

tabris,RemotePage,rootPage,PageFlow,currentPage,renderers,
IDENT_0,IDENT_1,IDENT_2,IDENT_3,IDENT_4,IDENT_5,


































