testGetDescriptor,RemotePage,getDescriptor,
METHOD_0,METHOD_1,METHOD_2,

tabris,RemotePage,uiRenderer,descriptor,PageData,
IDENT_0,IDENT_1,IDENT_2,IDENT_3,IDENT_4,


































