testCreatePageSwitcher_pageSwitcherMenu,getPageSwitcherMenu,
METHOD_0,METHOD_1,

Menu,pageSwitcherMenu,webUI,
IDENT_0,IDENT_1,IDENT_2,


































