testHasId,Order,getOrderId,
METHOD_0,METHOD_1,METHOD_2,

tabris,tracking,Order,ONE,orderId,
IDENT_0,IDENT_1,IDENT_2,IDENT_3,IDENT_4,


































