testHasDefaultQuantity,OrderItem,getQuantity,
METHOD_0,METHOD_1,METHOD_2,

tabris,tracking,OrderItem,quantity,
IDENT_0,IDENT_1,IDENT_2,IDENT_3,


































