testStoresQuantity,EcommerceItem,setQuantity,getQuantity,
METHOD_0,METHOD_1,METHOD_2,METHOD_3,

tabris,tracking,piwik,ecommerce,EcommerceItem,ecommerceItem,quantity,
IDENT_0,IDENT_1,IDENT_2,IDENT_3,IDENT_4,IDENT_5,IDENT_6,


































