selectsItemsBasedOnString,selection,
METHOD_0,METHOD_1,

swtbot,finder,TableCollection,selection,
IDENT_0,IDENT_1,IDENT_2,IDENT_3,







"Index:9",
STRING_0,

























