testGetName,getNameNode,getDocumentElement,getNodes,getLength,
METHOD_0,METHOD_1,METHOD_2,METHOD_3,METHOD_4,

thym,CordovaPluginXMLHelper,NodeList,
IDENT_0,IDENT_1,IDENT_2,


































