testGetResource,ClusterResourceDefinition,QueryInfo,
METHOD_0,METHOD_1,METHOD_2,

ResourceDefinition,QueryInfo,
IDENT_0,IDENT_1,


































