testExcludes,createDirectoryAndScanForTests,
METHOD_0,METHOD_1,

includes,excludes,surefire,ScanResult,
IDENT_0,IDENT_1,IDENT_2,IDENT_3,







"*","*Another*",
STRING_0,STRING_1,

























