testEncodePrettily,randomByteArray,addNull,JsonObject,JsonArray,getEncoder,encodeToString,encodePrettily,
METHOD_0,METHOD_1,METHOD_2,METHOD_3,METHOD_4,METHOD_5,METHOD_6,METHOD_7,

jsonArray,strBytes,Base64,LINE_SEPARATOR,Json,
IDENT_0,IDENT_1,IDENT_2,IDENT_3,IDENT_4,

123,1234L,
INT_0,INT_1,




" : \"0foo\", 123, 1234, 1.23, 2.34, true, \"","\", null, {"," \"foo\" : \"bar\"","}, [ \"foo\", 123 ] ]",
STRING_0,STRING_1,STRING_2,STRING_3,

1.23F,2.34,
FLOAT_0,FLOAT_1,






















