testCompareToSmallerWineryVersion,WineryVersion,
METHOD_0,METHOD_1,

winery,WineryVersion,smaller,greater,accountability,BlockchainElement,unixTimestamp,
IDENT_0,IDENT_1,IDENT_2,IDENT_3,IDENT_4,IDENT_5,IDENT_6,







"1.0.0",
STRING_0,

























