testNoneExistingFile,PathTraverser,findAllResourceUris,
METHOD_0,METHOD_1,METHOD_2,

emf,uris,mwe,PathTraverserTest,everythingButDummy,
IDENT_0,IDENT_1,IDENT_2,IDENT_3,IDENT_4,







"fileNotExists",
STRING_0,

























