testFragmentURI_02,getFragment,createTypeSignature,
METHOD_0,METHOD_1,METHOD_2,

fragment,uriHelper,jdt,Signature,
IDENT_0,IDENT_1,IDENT_2,IDENT_3,







"java.lang.String",
STRING_0,

























