testVersion,Version,getVersion,addDetailMessage,
METHOD_0,METHOD_1,METHOD_2,METHOD_3,

be,fedict,eid,applet,Version,applicationVersion,VersionTest,
IDENT_0,IDENT_1,IDENT_2,IDENT_3,IDENT_4,IDENT_5,IDENT_6,







"application version: ",
STRING_0,

























