testMutableAdd,mutableAdd,IndexOutOfBoundsException,
METHOD_0,METHOD_1,METHOD_2,

cvec,dvec,w,
IDENT_0,IDENT_1,IDENT_2,







"mutableAdd",
STRING_0,

























