testApply_List,IndexTable,DoubleList,IndexOutOfBoundsException,
METHOD_0,METHOD_1,METHOD_2,METHOD_3,

jsat,IndexTable,idt,IndexTableTest,w,
IDENT_0,IDENT_1,IDENT_2,IDENT_3,IDENT_4,


































