testMalformedURLReturnsNull,makeAbsolute,
METHOD_0,METHOD_1,

edx,mobile,UrlUtil,baseUri,URISyntaxException,
IDENT_0,IDENT_1,IDENT_2,IDENT_3,IDENT_4,







"/somepath","@:",
STRING_0,STRING_1,

























