testExecute,capture,getSession,
METHOD_0,METHOD_1,METHOD_2,

cassandraSession,queryCaptor,
IDENT_0,IDENT_1,







"SELECT * FROM table;",
STRING_0,

























