getEmployeeByType,getEmployeesByType,
METHOD_0,METHOD_1,

egov,eis,Employee,employees,employeeService,
IDENT_0,IDENT_1,IDENT_2,IDENT_3,IDENT_4,


































