testStartsEmptyWhenConfigured,SizeOfFilterSource,getFilters,
METHOD_0,METHOD_1,METHOD_2,

ehcache,sizeof,SizeOfFilterSource,
IDENT_0,IDENT_1,IDENT_2,


































