testGetValues_Empty,getValues,
METHOD_0,METHOD_1,

gr,ekt,bte,Value,res0,rec,
IDENT_0,IDENT_1,IDENT_2,IDENT_3,IDENT_4,IDENT_5,







"empty",
STRING_0,

























