testUrlToFile,getAbsoluteFile,toURI,toURL,urlToFile,toUri,
METHOD_0,METHOD_1,METHOD_2,METHOD_3,METHOD_4,METHOD_5,

urlToFile,jwbf,JWBF,urlString,
IDENT_0,IDENT_1,IDENT_2,IDENT_3,







".",
STRING_0,

























