testGetStatement,JdbcLink,getStatement,disconnect,
METHOD_0,METHOD_1,METHOD_2,METHOD_3,

rgw,JdbcLink,link,Stm,stm,jdbcLink,
IDENT_0,IDENT_1,IDENT_2,IDENT_3,IDENT_4,IDENT_5,







"org.h2.Driver","jdbc:h2:mem:test_mem",
STRING_0,STRING_1,

























