testCopyProperties,copyProperties,
METHOD_0,METHOD_1,

emailtohl,building,site,u,BeanUtil,bar,BeanUtilTest,
IDENT_0,IDENT_1,IDENT_2,IDENT_3,IDENT_4,IDENT_5,IDENT_6,


































