testFindArticle,recentArticles,getArticle,articlefilter,findOne,
METHOD_0,METHOD_1,METHOD_2,METHOD_3,METHOD_4,

emailtohl,building,site,cms,Article,ls,cmsService,articleRepository,
IDENT_0,IDENT_1,IDENT_2,IDENT_3,IDENT_4,IDENT_5,IDENT_6,IDENT_7,


































