checkUriEqualsNoResourceWithoutNode,equalsNoResource,
METHOD_0,METHOD_1,

calclab,emite,XmppURI,uri2,Objects,
IDENT_0,IDENT_1,IDENT_2,IDENT_3,IDENT_4,







"localhost/resource1","localhost/resource2",
STRING_0,STRING_1,

























