shouldNotDecodeNotEncodedName,
METHOD_0,

roomName,prefixIndex,calclab,hablar,rooms,RoomName,ID_PREFIX,
IDENT_0,IDENT_1,IDENT_2,IDENT_3,IDENT_4,IDENT_5,IDENT_6,







"My-room",'_',' ',
STRING_0,STRING_1,STRING_2,

























