isCompleted,
METHOD_0,

encomendaz,tracking,Tracking,TrackingManager,
IDENT_0,IDENT_1,IDENT_2,IDENT_3,







"PB261442824BR",
STRING_0,

























