findByUUID,MeterReading,setUUID,randomUUID,persist,getUUID,
METHOD_0,METHOD_1,METHOD_2,METHOD_3,METHOD_4,METHOD_5,

greenbuttonalliance,espi,MeterReading,meterReading,uuid,
IDENT_0,IDENT_1,IDENT_2,IDENT_3,IDENT_4,


































