viewProperty_asProperty_ReturnsProperty,getViewProperty,asProperty,getURI,
METHOD_0,METHOD_1,METHOD_2,METHOD_3,

hp,hpl,rdf,Property,prop,endpointResource,
IDENT_0,IDENT_1,IDENT_2,IDENT_3,IDENT_4,IDENT_5,


































