uriInteropAllCodepoints,fragment,defaultPort,
METHOD_0,METHOD_1,METHOD_2,

point,urllib,Url,Urls,scheme,ImmutableUrl,authority,
IDENT_0,IDENT_1,IDENT_2,IDENT_3,IDENT_4,IDENT_5,IDENT_6,

256,
INT_0,




"host.com",
STRING_0,

























