testParseVariable,createNewContext,asString,
METHOD_0,METHOD_1,METHOD_2,

cambridge,ExpressionContext,language,Expression,
IDENT_0,IDENT_1,IDENT_2,IDENT_3,







"Cambridge","#name",
STRING_0,STRING_1,

























