allAsciiUnreserved,percentEncode,decodeUnreserved,
METHOD_0,METHOD_1,METHOD_2,

encoded,percent,CodepointMatcher,ALPHANUMERIC,urllib,PercentDecoder,UNRESERVED,
IDENT_0,IDENT_1,IDENT_2,IDENT_3,IDENT_4,IDENT_5,IDENT_6,

128,
INT_0,




".-_~",
STRING_0,

























