methodWithReturn,getProxy,
METHOD_0,METHOD_1,

link,jfire,simplerpc,Print,print,jfireframework,rpc,RpcFactory,
IDENT_0,IDENT_1,IDENT_2,IDENT_3,IDENT_4,IDENT_5,IDENT_6,IDENT_7,

1688,
INT_0,




"print","127.0.0.1","{}",
STRING_0,STRING_1,STRING_2,

























