encode_4,
METHOD_0,

arg,sourceChunks,extraBytes,dataIndex,resultIndex,allBits,erlide,Base64,digits,
IDENT_0,IDENT_1,IDENT_2,IDENT_3,IDENT_4,IDENT_5,IDENT_6,IDENT_7,IDENT_8,

63,
INT_0,




"Zm9v",'=',
STRING_0,STRING_1,




--,
OP_0,



















