testGetSourceClusterEnd,Feed,getSourceClusterEnd,
METHOD_0,METHOD_1,METHOD_2,

ivory,Feed,feed,sourceClusterEnd,
IDENT_0,IDENT_1,IDENT_2,IDENT_3,







"Feed1","d","s","sch","source","st","send","l","end",
STRING_0,STRING_1,STRING_2,STRING_3,STRING_4,STRING_5,STRING_6,STRING_7,STRING_8,

























