testMatch_novar,OtpBindings,
METHOD_0,METHOD_1,

ericsson,otp,erlang,OtpErlangObject,erlide,OtpErlang,t1,OtpBindings,term,
IDENT_0,IDENT_1,IDENT_2,IDENT_3,IDENT_4,IDENT_5,IDENT_6,IDENT_7,IDENT_8,







"[a, {b}]",
STRING_0,

























