removeCommonPrefixTest_3,removeCommonPrefixes,getLongestPrefix,
METHOD_0,METHOD_1,METHOD_2,

erlide,prefixLength,
IDENT_0,IDENT_1,







"beta",
STRING_0,

























