testGetLog,Instance,getLog,
METHOD_0,METHOD_1,METHOD_2,

ivory,Instance,
IDENT_0,IDENT_1,







"Feed1","Instance1","SUBMITTED","start","end","details","log",
STRING_0,STRING_1,STRING_2,STRING_3,STRING_4,STRING_5,STRING_6,

























