testCALLDATALOAD_6,VM,Program,step,isStopped,
METHOD_0,METHOD_1,METHOD_2,METHOD_3,METHOD_4,

ethereum,vm,VM,program,spongycastle,encoders,Hex,stopped,
IDENT_0,IDENT_1,IDENT_2,IDENT_3,IDENT_4,IDENT_5,IDENT_6,IDENT_7,







"35",
STRING_0,

























