testSetGetSettingData,BlueprintSettingEntity,setSettingData,getSettingData,
METHOD_0,METHOD_1,METHOD_2,METHOD_3,

orm,BlueprintSettingEntity,settingData,
IDENT_0,IDENT_1,IDENT_2,







"[{'recovery_settings':[{'recovery_enabled':'true'}]}]",
STRING_0,

























