given2EqualValueTypesWithAutoValue_whenEqual_thenCorrect,
METHOD_0,

autovalue,AutoValueMoney,m1,m2,MyPair,second,
IDENT_0,IDENT_1,IDENT_2,IDENT_3,IDENT_4,IDENT_5,

5000,
INT_0,




"USD",
STRING_0,

























