whenUsingHelloMethod_thenCorrect,hello,
METHOD_0,METHOD_1,

endpointResponse,baeldungProxy,localResponse,baeldungImpl,
IDENT_0,IDENT_1,IDENT_2,IDENT_3,







"Baeldung","Hello, ",
STRING_0,STRING_1,

























