whenCalculateUsingEnumOperator_thenReturnCorrectResult,Calculator,calculate,
METHOD_0,METHOD_1,METHOD_2,

reducingIfElse,Calculator,calculator,Operator,operator,
IDENT_0,IDENT_1,IDENT_2,IDENT_3,IDENT_4,







"ADD",
STRING_0,

























