givenAnIntArray_whenUsingStream_thenFindSum,findSumUsingStream,sum,
METHOD_0,METHOD_1,METHOD_2,

expectedSumOfArray,actualSumOfArray,SumAndAverageInArray,
IDENT_0,IDENT_1,IDENT_2,

19,55,
INT_0,INT_1,































