whenInitializedWithDeclarationAndThenInitalization_thenCorrect,declarationAndThenInitialization,
METHOD_0,METHOD_1,

jaggedArr,
IDENT_0,


































