givenIntArray_whenSortingAscending_thenCorrectlySorted,sort,prepare,toCharArray,
METHOD_0,METHOD_1,METHOD_2,METHOD_3,

numbers,chars,sorting,AnagramValidator,
IDENT_0,IDENT_1,IDENT_2,IDENT_3,


































