whenIteratingUsingForEach_thenReturnThreeAsSizeOfList,forEach,clear,
METHOD_0,METHOD_1,METHOD_2,

europeanCountries,country,globalCountries,
IDENT_0,IDENT_1,IDENT_2,


































