whenPush_addsAtFirst,ArrayDeque,push,getFirst,
METHOD_0,METHOD_1,METHOD_2,METHOD_3,

Deque,deque,
IDENT_0,IDENT_1,







"first","second",
STRING_0,STRING_1,

























