whenRemovingElementUsingIterator_shouldRemoveElement,
METHOD_0,

hashset,itr,
IDENT_0,IDENT_1,







"First","Second","Third",
STRING_0,STRING_1,STRING_2,

























