whenInitializeSetWithDoubleBraces_containsElements,containsValue,
METHOD_0,METHOD_1,

countries,cookieMap,Cookie,
IDENT_0,IDENT_1,IDENT_2,







"India","USSR","USA",
STRING_0,STRING_1,STRING_2,

























