whenSwitchAgumentIsNull_thenNullPointerException,exampleOfSwitch,
METHOD_0,METHOD_1,

animal,
IDENT_0,







"DOG","CAT","domestic animal","TIGER","wild animal","unknown animal",
STRING_0,STRING_1,STRING_2,STRING_3,STRING_4,STRING_5,

























