whenCreatingURI_thenCorrect,randomUUID,toDocument,
METHOD_0,METHOD_1,METHOD_2,

spring,JsonDocument,bucket,
IDENT_0,IDENT_1,IDENT_2,







"urn:isbn:1234567890",
STRING_0,

























