givenMap_whenEqualsAndHashCodeNotOverridden_thenMemoryLeak,print,
METHOD_0,METHOD_1,

memoryleaks,equalshashcode,
IDENT_0,IDENT_1,

10000000,
INT_0,




"jon","Debug Point - VisuaLVM",
STRING_0,STRING_1,

























