givenElementsOnStack_whenRemoveIfIsInvoked_thenAllElementsSatysfyingConditionAreRemoved,Stack,removeIf,
METHOD_0,METHOD_1,METHOD_2,

Stack,intStack,intList,
IDENT_0,IDENT_1,IDENT_2,


































