whenUsingSystemProperty_shouldReturnOS,getOperatingSystem,
METHOD_0,METHOD_1,

os,
IDENT_0,







"Windows 10","os.name","Using System Property: ",
STRING_0,STRING_1,STRING_2,

























