givenRandomPerson_whenCreate_thenPersonPersisted,randomPerson,getContent,
METHOD_0,METHOD_1,METHOD_2,

spring,personService,limit,
IDENT_0,IDENT_1,IDENT_2,


































