givenUnmappedKey_whenGetReturnsNull_thenCorrect,unwrap,getCurrentSession,
METHOD_0,METHOD_1,METHOD_2,

rtnVal,emf,SessionFactory,demo,Foo,
IDENT_0,IDENT_1,IDENT_2,IDENT_3,IDENT_4,







"key1",
STRING_0,

























