givenJsonString_thenCreateJSONObject,
METHOD_0,

jo,title,
IDENT_0,IDENT_1,







"{\"city\":\"chicago\",\"name\":\"jon doe\",\"age\":\"22\"}","Post{","id=",", title='",'\'',", body='",'}',
STRING_0,STRING_1,STRING_2,STRING_3,STRING_4,STRING_5,STRING_6,

























