givenValue_whenGetKey_thenMappedKey,DualHashBidiMap,getAnnotation,
METHOD_0,METHOD_1,METHOD_2,

collections4,BidiMap,bidimap,customannotations,JsonElement,
IDENT_0,IDENT_1,IDENT_2,IDENT_3,IDENT_4,







"key1","value1",
STRING_0,STRING_1,

























