whenCompare_thenCorrect,LongestCommonSubsequence,
METHOD_0,METHOD_1,

similarity,LongestCommonSubsequence,lcs,countLcs,
IDENT_0,IDENT_1,IDENT_2,IDENT_3,







"New York","New Hampshire",
STRING_0,STRING_1,

























