givenDAO_whenCRUD_thenOk,Library,queryForId,getLibraryId,
METHOD_0,METHOD_1,METHOD_2,METHOD_3,

ormlite,Library,ORMLiteIntegrationTest,libraryDao,
IDENT_0,IDENT_1,IDENT_2,IDENT_3,







"My Library","My Other Library",
STRING_0,STRING_1,

























