whenFilterListByName_thenSizeShouldBe4,distinctByKey,
METHOD_0,METHOD_1,

distinct,personListFiltered,personList,DistinctWithJavaFunction,Collectors,
IDENT_0,IDENT_1,IDENT_2,IDENT_3,IDENT_4,


































