mapList_givenIntList_returnResult,
METHOD_0,

fj,fList,resultList,MyPair,second,
IDENT_0,IDENT_1,IDENT_2,IDENT_3,IDENT_4,

103,104,105,106,
INT_0,INT_1,INT_2,INT_3,































