testRegister,Member,setEmail,setPhoneNumber,register,
METHOD_0,METHOD_1,METHOD_2,METHOD_3,METHOD_4,

Member,newMember,memberRegistration,
IDENT_0,IDENT_1,IDENT_2,







"Jane Doe","jane@mailinator.com","2125551234"," was persisted with id ",
STRING_0,STRING_1,STRING_2,STRING_3,

























