givenUsersExist_whenFindingUserWithAgeLessThan50AndGreateThan20_thenUsersAreFound,setAge,addCriteria,where,lt,gt,
METHOD_0,METHOD_1,METHOD_2,METHOD_3,METHOD_4,METHOD_5,

mongoTemplate,Criteria,users,
IDENT_0,IDENT_1,IDENT_2,

33,40,26,
INT_0,INT_1,INT_2,




"Jon","Jim","age",
STRING_0,STRING_1,STRING_2,

























