testDeleteAll,deleteAll,findAll,
METHOD_0,METHOD_1,METHOD_2,

movieRepository,spring,Movie,
IDENT_0,IDENT_1,IDENT_2,







"deleteAll",
STRING_0,

























