whenPostJson_thenCorrect,post,newCall,
METHOD_0,METHOD_1,METHOD_2,

okhttp3,RequestBody,MediaType,Request,okhttp,OkHttpPostingLiveTest,BASE_URL,Call,
IDENT_0,IDENT_1,IDENT_2,IDENT_3,IDENT_4,IDENT_5,IDENT_6,IDENT_7,







"{\"id\":1,\"name\":\"John\"}","application/json; charset=utf-8","/users/detail",
STRING_0,STRING_1,STRING_2,

























