whenCheckingListSize_ThenSizeEqualsToInit,
METHOD_0,

migration,junit4,BeforeAndAfterAnnotationsUnitTest,
IDENT_0,IDENT_1,IDENT_2,







"executing test","another test",
STRING_0,STRING_1,

























