givenUserService_whenSearchForUserByEmailMatches_thenFound,findByEmail,
METHOD_0,METHOD_1,

userService,
IDENT_0,







".+\\@.+\\..+","test@example.com",
STRING_0,STRING_1,

























