multipleViolations,minLength,maxLength,getCausingExceptions,
METHOD_0,METHOD_1,METHOD_2,METHOD_3,

everit,StringSchema,ValidationException,causingExceptions,
IDENT_0,IDENT_1,IDENT_2,IDENT_3,







"^b.*","ab",
STRING_0,STRING_1,

























