arrayByItems,getJSONObject,
METHOD_0,METHOD_1,

everit,ArraySchema,SchemaLoader,ArraySchemaLoaderTest,ALL_SCHEMAS,schemaName,
IDENT_0,IDENT_1,IDENT_2,IDENT_3,IDENT_4,IDENT_5,







"arrayByItems",
STRING_0,

























