booleanSchema,
METHOD_0,

everit,BooleanSchema,SchemaLoader,SchemaLoaderTest,
IDENT_0,IDENT_1,IDENT_2,IDENT_3,







"booleanSchema",
STRING_0,

























