testListNotebooks,listNotebooks,getClient,getToken,
METHOD_0,METHOD_1,METHOD_2,METHOD_3,

evernote,edam,LinkedNotebook,listLinkedNotebooks,
IDENT_0,IDENT_1,IDENT_2,IDENT_3,


































