testVeryObese,calculateBMICategory,
METHOD_0,METHOD_1,

string0,different,packagename,BMICalculator,bmi,weight,height,
IDENT_0,IDENT_1,IDENT_2,IDENT_3,IDENT_4,IDENT_5,IDENT_6,

25,30,40,
INT_0,INT_1,INT_2,




"underweight","healthy","overweight","obese","very obese",
STRING_0,STRING_1,STRING_2,STRING_3,STRING_4,

2138.41,18.5,
FLOAT_0,FLOAT_1,






















