testGetId,getEvent,emptyMap,
METHOD_0,METHOD_1,METHOD_2,

EventImpl,EventImplTest,view_xml,
IDENT_0,IDENT_1,IDENT_2,







"MyEvent",
STRING_0,

























