testGetUri,EvoHttpServletRequest,getRequestURI,getContextPath,getServletPath,
METHOD_0,METHOD_1,METHOD_2,METHOD_3,METHOD_4,

javaee,EvoHttpServletRequest,
IDENT_0,IDENT_1,


































