testGetPropertyIds,UnsupportedPropertyException,getPropertyIds,
METHOD_0,METHOD_1,METHOD_2,

ids,UnsupportedPropertyException,propertyIds,
IDENT_0,IDENT_1,IDENT_2,







"p1","p2","type",
STRING_0,STRING_1,STRING_2,

























