testSave,Model,persist,
METHOD_0,METHOD_1,METHOD_2,

ewcms,Model,K,entityManager,entityClass,pk,
IDENT_0,IDENT_1,IDENT_2,IDENT_3,IDENT_4,IDENT_5,


































