xmldbURIIsAbsolute1,xmldbUriFor,isAbsolute,isCollectionPathAbsolute,
METHOD_0,METHOD_1,METHOD_2,METHOD_3,

xmldb,XmldbURI,xmldbURI,
IDENT_0,IDENT_1,IDENT_2,







"xmldb:exist:///db",
STRING_0,

























