xmldbURIEquals1,xmldbUriFor,
METHOD_0,METHOD_1,

xmldb,XmldbURI,xmldbURI1,xmldbURI2,LuceneMatch,nodeId,
IDENT_0,IDENT_1,IDENT_2,IDENT_3,IDENT_4,IDENT_5,







"xmldb:exist:///db",
STRING_0,

























