testIndexOfWordPositive,getWords,Word,indexOfWord,checkLemmaIsNotNull,getLemma,
METHOD_0,METHOD_1,METHOD_2,METHOD_3,METHOD_4,METHOD_5,

testObj,extjwnl,dictionary,lemma,words,
IDENT_0,IDENT_1,IDENT_2,IDENT_3,IDENT_4,







"lemma",
STRING_0,

























