testCycles,lookupIndexWord,getSenses,getHypernymTree,checkPointers,
METHOD_0,METHOD_1,METHOD_2,METHOD_3,METHOD_4,

extjwnl,dictionary,IndexWord,POS,VERB,Synset,senses,PointerUtils,
IDENT_0,IDENT_1,IDENT_2,IDENT_3,IDENT_4,IDENT_5,IDENT_6,IDENT_7,







"contain",
STRING_0,

























