testConstructor,VerbSynset,getVerbFrameFlags,UnsupportedOperationException,
METHOD_0,METHOD_1,METHOD_2,METHOD_3,

extjwnl,VerbSynset,verbSynset,dictionary,
IDENT_0,IDENT_1,IDENT_2,IDENT_3,


































