equalsMethod,createPath,UnsupportedOperationException,
METHOD_0,METHOD_1,METHOD_2,

path1,data1,path2,data2,
IDENT_0,IDENT_1,IDENT_2,IDENT_3,







"Multiple conflicting Finished events detected.",
STRING_0,

























