iteratorMethod,createPath,forEachRemaining,getJarFile,JarEntrySupplier,makeCustomEntry,getInputStream,
METHOD_0,METHOD_1,METHOD_2,METHOD_3,METHOD_4,METHOD_5,METHOD_6,

zip,owner,
IDENT_0,IDENT_1,


































