submitRejectsAfterShutdown,submit,createTask,isShutdown,
METHOD_0,METHOD_1,METHOD_2,METHOD_3,

expectedException,RejectedExecutionException,
IDENT_0,IDENT_1,


































