testGetResourceValidExist,createVFSUriSet,VfsResource,getVFSManager,
METHOD_0,METHOD_1,METHOD_2,METHOD_3,

testResource,VfsTestHelper,TEST_IVY_XML,ivy,vfs,VfsURI,vfsURI,
IDENT_0,IDENT_1,IDENT_2,IDENT_3,IDENT_4,IDENT_5,IDENT_6,


































