testJavaTypeIsOverridden,setModuleType,getModuleType,
METHOD_0,METHOD_1,METHOD_2,

IjModuleType,JAVA_MODULE,ANDROID_MODULE,moduleType,
IDENT_0,IDENT_1,IDENT_2,IDENT_3,


































