returnsAGlobWhenAskedForPathOrGlob,getPathOrGlob,getGlob,
METHOD_0,METHOD_1,METHOD_2,

filesystem,ExactPathMatcher,
IDENT_0,IDENT_1,







".idea",
STRING_0,

























