shouldAddJavaTempDirToVmArgs,newRule,amendVmArgs,createMock,
METHOD_0,METHOD_1,METHOD_2,METHOD_3,

vmArgs,jvm,JavaTest,amended,sourcepath,SourcePathResolver,S,Pair,second,
IDENT_0,IDENT_1,IDENT_2,IDENT_3,IDENT_4,IDENT_5,IDENT_6,IDENT_7,IDENT_8,







"--one","path","-Djava.io.tmpdir=path",
STRING_0,STRING_1,STRING_2,

























