constructArgsWhenOneArg,constructArgs,arraycopy,
METHOD_0,METHOD_1,METHOD_2,

expectedArgs,jvm,FileClassPathRunner,mainArgs,
IDENT_0,IDENT_1,IDENT_2,IDENT_3,







"one",
STRING_0,

























