nameWillBeAddedIfMissing,toPythonFunction,
METHOD_0,METHOD_1,

definition,buckPyFunction,RuleType,Kind,BUILD,NoName,
IDENT_0,IDENT_1,IDENT_2,IDENT_3,IDENT_4,IDENT_5,







"bad",
STRING_0,

























