testHasPatterns,PatternsMatcher,hasPatterns,
METHOD_0,METHOD_1,METHOD_2,

PatternsMatcher,patternsMatcher,
IDENT_0,IDENT_1,







"pattern.*","test_pattern",
STRING_0,STRING_1,

























