emptyColumnList,columnList,Row,getColumnNames,reduce,
METHOD_0,METHOD_1,METHOD_2,METHOD_3,METHOD_4,

columns,airhacks,enhydrator,JDBCSink,entries,u,
IDENT_0,IDENT_1,IDENT_2,IDENT_3,IDENT_4,IDENT_5,







",",
STRING_0,

























