testTargetOverridesDefault,setNewProperty,setTarget,getTarget,
METHOD_0,METHOD_1,METHOD_2,METHOD_3,

MagicNames,BUILD_JAVAC_TARGET,javac,
IDENT_0,IDENT_1,IDENT_2,







"1.4","1.5",
STRING_0,STRING_1,

























