testarFormataoCEPvalido,formatarCEP,
METHOD_0,METHOD_1,

cep,cepFormatado,FormatadorUtils,esperado,
IDENT_0,IDENT_1,IDENT_2,IDENT_3,







"42800080","42800-080","-",
STRING_0,STRING_1,STRING_2,

























