testGetTickId,TickHistory,getTickId,
METHOD_0,METHOD_1,METHOD_2,

ic,kyoto,tradehistory,TickHistory,tickId,
IDENT_0,IDENT_1,IDENT_2,IDENT_3,IDENT_4,


































