stringMapping,Row,addColumn,processRow,getDeveloper,
METHOD_0,METHOD_1,METHOD_2,METHOD_3,METHOD_4,

airhacks,enhydrator,Row,cut,Developer,dev,
IDENT_0,IDENT_1,IDENT_2,IDENT_3,IDENT_4,IDENT_5,







"duke",
STRING_0,

























