testRecursive,FilterSet,addFilter,setBeginToken,setEndToken,replaceTokens,
METHOD_0,METHOD_1,METHOD_2,METHOD_3,METHOD_4,METHOD_5,

ant,FilterSet,replacedLine,filterSet,filterSets,
IDENT_0,IDENT_1,IDENT_2,IDENT_3,IDENT_4,







"it works line","@test@ line","@test1@","test1","@test2@","test2","it works","@",
STRING_0,STRING_1,STRING_2,STRING_3,STRING_4,STRING_5,STRING_6,STRING_7,

























