shouldReturnElements,findWords,containsLettersOfTheSameRow,
METHOD_0,METHOD_1,METHOD_2,

words,expectedResult,actualResult,keywordRow,word,
IDENT_0,IDENT_1,IDENT_2,IDENT_3,IDENT_4,







"Hello","Alaska","Dad","Peace",
STRING_0,STRING_1,STRING_2,STRING_3,

























