testParseTemplate4,parseTemplate,parseOldTemplate,
METHOD_0,METHOD_1,METHOD_2,

parsed,jrds,Util,arguments,probe,gd,
IDENT_0,IDENT_1,IDENT_2,IDENT_3,IDENT_4,IDENT_5,







"%string","${graphdesc.name}","${host}","${index}","${url}","${probename}","${index.signature}","${url.signature}",
STRING_0,STRING_1,STRING_2,STRING_3,STRING_4,STRING_5,STRING_6,STRING_7,

























