oneLevel,StarterNode,LocalStarter,registerStarter,
METHOD_0,METHOD_1,METHOD_2,METHOD_3,

jrds,starter,StarterNode,Starter,StarterTest,sc,
IDENT_0,IDENT_1,IDENT_2,IDENT_3,IDENT_4,IDENT_5,


































