testClear,clear,isReference,getRef,dieOnCircularReference,streamArchives,mapToInt,sum,
METHOD_0,METHOD_1,METHOD_2,METHOD_3,METHOD_4,METHOD_5,METHOD_6,METHOD_7,

ant,VectorSetTest,O,ArchiveFileSet,
IDENT_0,IDENT_1,IDENT_2,IDENT_3,


































