testGetNamespaces,setNamespaces,getNamespaces,
METHOD_0,METHOD_1,METHOD_2,

namespaces,
IDENT_0,







"ldp","http://www.w3.org/ns/ldp#",
STRING_0,STRING_1,

























