testOnlyOrGroup,loadXML,number,
METHOD_0,METHOD_1,METHOD_2,

ovgu,featureide,fm,IFeatureModel,
IDENT_0,IDENT_1,IDENT_2,IDENT_3,

250,
INT_0,




"<or mandatory=\"true\" name=\"S\"><feature mandatory=\"true\" name=\"A\"/><feature mandatory=\"true\" name=\"B\"/></or>",
STRING_0,

























