testCombination2,loadXML,number,
METHOD_0,METHOD_1,METHOD_2,

ovgu,featureide,fm,IFeatureModel,
IDENT_0,IDENT_1,IDENT_2,IDENT_3,

250,
INT_0,




"<or name=\"S\">","<feature name=\"A\"/>","<feature name=\"B\"/>","<feature name=\"C\"/>","</or>",
STRING_0,STRING_1,STRING_2,STRING_3,STRING_4,

























