testAddFormulaVariablesNumbers,addFormula,And,LinkedList,Or,getClauses,
METHOD_0,METHOD_1,METHOD_2,METHOD_3,METHOD_4,METHOD_5,

prop4j,explain,solvers,SatProblem,clauses,
IDENT_0,IDENT_1,IDENT_2,IDENT_3,IDENT_4,







"-3",
STRING_0,

























