testVariableDirectoryFoo,DimacsReader,setReadingVariableDirectory,And,Or,Literal,
METHOD_0,METHOD_1,METHOD_2,METHOD_3,METHOD_4,METHOD_5,

ovgu,featureide,fm,dimacs,DimacsReader,prop4j,FeatureModelManager,modelFilePath,
IDENT_0,IDENT_1,IDENT_2,IDENT_3,IDENT_4,IDENT_5,IDENT_6,IDENT_7,







"c 1 Foo\n","c 2 Bar\n","c 3 Baz\n","p cnf 3 2\n","1 -3 0\n","2 3 -1 0","Foo","Baz","Bar",
STRING_0,STRING_1,STRING_2,STRING_3,STRING_4,STRING_5,STRING_6,STRING_7,STRING_8,

























