testputandget,
METHOD_0,

geodeStore,primaryVal,primary,apex,malhar,contrib,enrich,NullValuesCacheManager,NULL,backupVal,backup,
IDENT_0,IDENT_1,IDENT_2,IDENT_3,IDENT_4,IDENT_5,IDENT_6,IDENT_7,IDENT_8,IDENT_9,IDENT_10,







"test4_abc","123",
STRING_0,STRING_1,

























