testToString,CakeTopping,CakeLayer,Cake,setTopping,addLayer,
METHOD_0,METHOD_1,METHOD_2,METHOD_3,METHOD_4,METHOD_5,

iluwatar,layers,CakeTopping,topping,CakeLayer,layer,Cake,cake,interestedOps,
IDENT_0,IDENT_1,IDENT_2,IDENT_3,IDENT_4,IDENT_5,IDENT_6,IDENT_7,IDENT_8,

2345L,3456L,1234L,
INT_0,INT_1,INT_2,




"topping","layer","id=1234 topping=id=2345 name=topping calories=20 ","layers=[id=3456 name=layer calories=100]","Change of ops to: ",
STRING_0,STRING_1,STRING_2,STRING_3,STRING_4,

























