testQueryWithIdAsString,Parent,yawp,where,only,
METHOD_0,METHOD_1,METHOD_2,METHOD_3,METHOD_4,

yawp,parents,Parent,retrievedParent1,
IDENT_0,IDENT_1,IDENT_2,IDENT_3,







"xpto","id","=",
STRING_0,STRING_1,STRING_2,

























