testDeleteTestSuite,buildTestSuite,getSuiteId,
METHOD_0,METHOD_1,METHOD_2,

feuyeux,jaxrs2,atup,AtupTestSuite,fake,CreatTestSuite,savedEntity,deleted,suiteId,
IDENT_0,IDENT_1,IDENT_2,IDENT_3,IDENT_4,IDENT_5,IDENT_6,IDENT_7,IDENT_8,


































