testGetDevice,queryParam,getIp,
METHOD_0,METHOD_1,METHOD_2,

testIp,Device,deviceIp,
IDENT_0,IDENT_1,IDENT_2,







"10.11.58.184","device","ip",
STRING_0,STRING_1,STRING_2,

























