updateKOdoesnotExist,updateProperty,existProperty,assertHasLength,containsProperty,
METHOD_0,METHOD_1,METHOD_2,METHOD_3,METHOD_4,

testedStore,ff4j,Util,propertySource,
IDENT_0,IDENT_1,IDENT_2,IDENT_3,







"invalid","aa",
STRING_0,STRING_1,

























