testGetters,InMemoryPropertyStore,setLocation,setFileName,getFileName,
METHOD_0,METHOD_1,METHOD_2,METHOD_3,METHOD_4,

ff4j,InMemoryPropertyStore,ips,fileName,
IDENT_0,IDENT_1,IDENT_2,IDENT_3,







"ff4j.xml","invalid.xml",
STRING_0,STRING_1,

























