testEmpty2,InMemoryPropertyStore,setProperties,
METHOD_0,METHOD_1,METHOD_2,

ff4j,InMemoryPropertyStore,ips,
IDENT_0,IDENT_1,IDENT_2,


































