testCustoms,CassandraConnection,FeatureStoreCassandra,setConn,getConn,
METHOD_0,METHOD_1,METHOD_2,METHOD_3,METHOD_4,

ff4j,CassandraConnection,FeatureStoreCassandra,cassandraStore,
IDENT_0,IDENT_1,IDENT_2,IDENT_3,


































