initWithConfig,FeatureStoreEhCache,
METHOD_0,METHOD_1,

ehcache,managerConfiguration,ff4j,FeatureStoreEhCache,storeEHcache,
IDENT_0,IDENT_1,IDENT_2,IDENT_3,IDENT_4,







"config",
STRING_0,

























