testFromEpochToZuluDate_withSetTimeZone,setEpochTimeZone,setupStage,LocalDocument,putContentField,getContentField,getContentMap,
METHOD_0,METHOD_1,METHOD_2,METHOD_3,METHOD_4,METHOD_5,METHOD_6,

epochTest,findwise,hydra,local,LocalDocument,ld,fieldName,
IDENT_0,IDENT_1,IDENT_2,IDENT_3,IDENT_4,IDENT_5,IDENT_6,







"1377174053","2013-08-22T14:20:53Z","+0200","date",
STRING_0,STRING_1,STRING_2,STRING_3,

























