testInEqualityAlbumArtists,MPDAlbum,getGenre,compareArtists,compareDates,
METHOD_0,METHOD_1,METHOD_2,METHOD_3,METHOD_4,

bff,javampd,album,MPDAlbum,album1,album2,
IDENT_0,IDENT_1,IDENT_2,IDENT_3,IDENT_4,IDENT_5,







"Album1","Artist1","Artist2",
STRING_0,STRING_1,STRING_2,

























