testIsDirectory,MPDFile,setDirectory,isDirectory,
METHOD_0,METHOD_1,METHOD_2,METHOD_3,

bff,javampd,MPDFile,mpdFile,
IDENT_0,IDENT_1,IDENT_2,IDENT_3,


































