testProcessSong,FileTagProcessor,MPDSong,processTag,getFile,
METHOD_0,METHOD_1,METHOD_2,METHOD_3,METHOD_4,

testFile,bff,javampd,FileTagProcessor,fileTagProcessor,song,MPDSong,
IDENT_0,IDENT_1,IDENT_2,IDENT_3,IDENT_4,IDENT_5,IDENT_6,







"testFile","file","title","file:",
STRING_0,STRING_1,STRING_2,STRING_3,

























