testProcessSong,IdTagProcessor,MPDSong,processTag,
METHOD_0,METHOD_1,METHOD_2,METHOD_3,

testId,bff,javampd,IdTagProcessor,idTagProcessor,song,MPDSong,
IDENT_0,IDENT_1,IDENT_2,IDENT_3,IDENT_4,IDENT_5,IDENT_6,







"testFile","testName","Id:",
STRING_0,STRING_1,STRING_2,

























