testInvalidXFade,sendCommand,getXFade,
METHOD_0,METHOD_1,METHOD_2,

statusList,commandExecutor,serverStatus,
IDENT_0,IDENT_1,IDENT_2,







"xfade: junk",
STRING_0,

























