test_6,ExampleXmlGenerator,getExampleXml,
METHOD_0,METHOD_1,METHOD_2,

swaggergen,ExampleXmlGenerator,exampleXmlGenerator,XmlTypeInterfaceCase,exampleXml,
IDENT_0,IDENT_1,IDENT_2,IDENT_3,IDENT_4,


































