smokeTest,NodeFromJSON,fromSingleQuotedString,RangeMerge,applyTo,fromJsonString,
METHOD_0,METHOD_1,METHOD_2,METHOD_3,METHOD_4,METHOD_5,

firebase,snapshot,TestHelpers,RangeMerge,merge,
IDENT_0,IDENT_1,IDENT_2,IDENT_3,IDENT_4,







"{'bar': 'bar-value', 'foo': { 'a': {'deep-a-1': 1, 'deep-a-2':2}, 'b': 'b', ","'c': 'c', 'd': 'd'}, 'quu': 'quu-value'}","{'foo': { 'a': {'deep-a-2':'new-a-2', 'deep-a-3':3}, 'b-2': 'new-b', 'c': ","'new-c' }}","foo/a/deep-a-1","foo/c","{'bar': 'bar-value', 'foo': { 'a': {'deep-a-1': 1, 'deep-a-2':'new-a-2', ","'deep-a-3':3}, 'b-2': 'new-b', 'c': 'new-c', 'd': 'd'}, ","'quu': 'quu-value'}","'","\"",
STRING_0,STRING_1,STRING_2,STRING_3,STRING_4,STRING_5,STRING_6,STRING_7,STRING_8,STRING_9,STRING_10,

























