canUpdateLeafNode,NodeFromJSON,fromSingleQuotedString,RangeMerge,applyTo,fromJsonString,
METHOD_0,METHOD_1,METHOD_2,METHOD_3,METHOD_4,METHOD_5,

firebase,snapshot,TestHelpers,RangeMerge,merge,
IDENT_0,IDENT_1,IDENT_2,IDENT_3,IDENT_4,







"leaf-value","{'bar': 'bar-value' }","{'bar': 'bar-value'}","'","\"",
STRING_0,STRING_1,STRING_2,STRING_3,STRING_4,

























