test_Double_to_int,castTo,cast,
METHOD_0,METHOD_1,METHOD_2,

nutz,castor,Castors,cts,src,toType,
IDENT_0,IDENT_1,IDENT_2,IDENT_3,IDENT_4,IDENT_5,


































