each_by_map_namekeyset,each,where,keySet,
METHOD_0,METHOD_1,METHOD_2,METHOD_3,

nutz,Pet,pets,Cnd,Each,pet,width,cursor,
IDENT_0,IDENT_1,IDENT_2,IDENT_3,IDENT_4,IDENT_5,IDENT_6,IDENT_7,







"pet3","pet5","in",
STRING_0,STRING_1,STRING_2,

























