query_by_special_char,fetch,where,
METHOD_0,METHOD_1,METHOD_2,

nutz,Pet,pets,Cnd,width,cursor,
IDENT_0,IDENT_1,IDENT_2,IDENT_3,IDENT_4,IDENT_5,







"a@b","=",
STRING_0,STRING_1,

























