test_update_chain_and_cnd_by_in,setNickName,make,where,fetch,getNickName,
METHOD_0,METHOD_1,METHOD_2,METHOD_3,METHOD_4,METHOD_5,

nutz,Pet,pet,Chain,Cnd,Lang,nickName,
IDENT_0,IDENT_1,IDENT_2,IDENT_3,IDENT_4,IDENT_5,IDENT_6,







"xb","XB","xiaobai","nickName","in",
STRING_0,STRING_1,STRING_2,STRING_3,STRING_4,

























