testIssue307,eval,
METHOD_0,METHOD_1,

nutz,Lang,El,width,cursor,
IDENT_0,IDENT_1,IDENT_2,IDENT_3,IDENT_4,







"jk","list","System","list.add(list.get(0))",
STRING_0,STRING_1,STRING_2,STRING_3,

























