test_setvalue_by_setter,fromJson,getNum,
METHOD_0,METHOD_1,METHOD_2,

nutz,Json,num,
IDENT_0,IDENT_1,IDENT_2,







"{num:1}",
STRING_0,

























