test_array,initreq,getAsString,getAsInt,parseInt,
METHOD_0,METHOD_1,METHOD_2,METHOD_3,METHOD_4,










"/json/array","[{name:'a'},{name:'b'},{name:'c'}]",
STRING_0,STRING_1,

























