try_insert_multiple_dynamic_objects,initPlatoon,Atom,make,wrapThrow,dropPlatoon,getEntity,_count,getViewName,
METHOD_0,METHOD_1,METHOD_2,METHOD_3,METHOD_4,METHOD_5,METHOD_6,METHOD_7,METHOD_8,

pojos,nutz,TableName,trans,Trans,Mission,DaoException,Lang,en,holder,classOfT,
IDENT_0,IDENT_1,IDENT_2,IDENT_3,IDENT_4,IDENT_5,IDENT_6,IDENT_7,IDENT_8,IDENT_9,IDENT_10,







"D1","2008-12-21 20:15:26","2008-9-21 17:12:23","D2","2008-10-21 18:13:24","D3","2008-11-21 19:14:25",
STRING_0,STRING_1,STRING_2,STRING_3,STRING_4,STRING_5,STRING_6,

























