isChildRelation_nullUri,Edge,isChildRelation,
METHOD_0,METHOD_1,METHOD_2,

flax,biosolr,ontology,ols,Edge,edge,RDFConstants,RDFS_SUBCLASSOF,
IDENT_0,IDENT_1,IDENT_2,IDENT_3,IDENT_4,IDENT_5,IDENT_6,IDENT_7,







"source","target","label",
STRING_0,STRING_1,STRING_2,

























