testSingletonAnnotation,getAnnotation,getAnnotations,isInstance,
METHOD_0,METHOD_1,METHOD_2,METHOD_3,

robovm,rt,AnnotationTest,Anno3,anno1,AnnoHost1,anno2,AnnoHost2,Annotation,annotationType,A,
IDENT_0,IDENT_1,IDENT_2,IDENT_3,IDENT_4,IDENT_5,IDENT_6,IDENT_7,IDENT_8,IDENT_9,IDENT_10,


































