test001,Lambda,testAddInt,intValue,
METHOD_0,METHOD_1,METHOD_2,METHOD_3,

robovm,rt,lambdas,test009,Lambda,lambda,test008,I,Number,
IDENT_0,IDENT_1,IDENT_2,IDENT_3,IDENT_4,IDENT_5,IDENT_6,IDENT_7,IDENT_8,


































