copy,sendKeys,guardHttp,click,getAttribute,
METHOD_0,METHOD_1,METHOD_2,METHOD_3,METHOD_4,

airhacks,IndexPage,inputText,arquillian,graphene,Graphene,ok,
IDENT_0,IDENT_1,IDENT_2,IDENT_3,IDENT_4,IDENT_5,IDENT_6,







"duke",
STRING_0,

























