create_collection_populates_a_new_collection_with_size,createCollection,getCount,
METHOD_0,METHOD_1,METHOD_2,

fixtureCollections,collectionType,innerType,multipleCount,
IDENT_0,IDENT_1,IDENT_2,IDENT_3,


































