testDeserialize,SPUD,deserialize,setParent,wrap,putLong,
METHOD_0,METHOD_1,METHOD_2,METHOD_3,METHOD_4,METHOD_5,

spudPacket,floodlightcontroller,SPUD,packetSerialized,payloadData,HEADER_LENGTH,bb,MAGIC_CONSTANT,tubeID,adecBit,adec,pdecBit,pdec,lastByte,reserved,
IDENT_0,IDENT_1,IDENT_2,IDENT_3,IDENT_4,IDENT_5,IDENT_6,IDENT_7,IDENT_8,IDENT_9,IDENT_10,IDENT_11,IDENT_12,IDENT_13,IDENT_14,

216,182,64,23,136,81,161,162,104,117,115,101,114,110,97,109,74,99,111,98,103,32,106,105,116,
INT_0,INT_1,INT_2,INT_3,INT_4,INT_5,INT_6,INT_7,INT_8,INT_9,INT_10,INT_11,INT_12,INT_13,INT_14,INT_15,INT_16,INT_17,INT_18,INT_19,INT_20,INT_21,INT_22,INT_23,INT_24,































