should_list_credential_without_type,performRequestWith200Status,parseArray,fromJson,
METHOD_0,METHOD_1,METHOD_2,METHOD_3,

credential,Credential,credentials,Jsonable,GSON_CONFIG,tClass,
IDENT_0,IDENT_1,IDENT_2,IDENT_3,IDENT_4,IDENT_5,







"/credentials",
STRING_0,

























