should_list_session_status_success_complex,getSessionId,
METHOD_0,METHOD_1,

sessionIds,Job,jobs,jobDao,NodeStatus,SUCCESS,
IDENT_0,IDENT_1,IDENT_2,IDENT_3,IDENT_4,IDENT_5,


































