testCloning,Matrix3d,clone,Matrix3f,
METHOD_0,METHOD_1,METHOD_2,METHOD_3,

flowpowered,matrix,Matrix3d,
IDENT_0,IDENT_1,IDENT_2,


































