test2,getDecoder,getJsonObject,JsonObject,fieldNames,getBoolean,
METHOD_0,METHOD_1,METHOD_2,METHOD_3,METHOD_4,METHOD_5,

Base64,got,JsonObject,repl,
IDENT_0,IDENT_1,IDENT_2,IDENT_3,







"eyJzdWIiOiJfX3VuZGVmaW5lZF9fIiwidXNlcl9pZCI6Ijk5OTk5OTk5L","Tk5OTktOTk5OS05OTk5LTk5OTk5OTk5OTk5OSIsInRlbmFudCI6InRlc3RsaWIifQ","{\"sub\":\"__undefined__\",","\"user_id\":\"99999999-9999-9999-9999-999999999999\",\"tenant\":\"testlib\"}","_id","enabled","_","__",".",
STRING_0,STRING_1,STRING_2,STRING_3,STRING_4,STRING_5,STRING_6,STRING_7,STRING_8,

























