testPropEquals,Protocol,addProp,
METHOD_0,METHOD_1,METHOD_2,

Protocol,p1,p2,protobuf,multiplefiles,M,unknownFields,
IDENT_0,IDENT_1,IDENT_2,IDENT_3,IDENT_4,IDENT_5,IDENT_6,







"P",
STRING_0,

























