testFromCoordinatesWithVersionRange,fromCoordinates,toCoordinates,getVersion,
METHOD_0,METHOD_1,METHOD_2,METHOD_3,

forge,furnace,addons,AddonId,
IDENT_0,IDENT_1,IDENT_2,IDENT_3,







"org.example:example-addon,[1.0.0-SNAPSHOT,2.0.0]",",",
STRING_0,STRING_1,

























