testAddonDeploymentEnhancerCalled,getCalls,
METHOD_0,METHOD_1,

forge,furnace,MockAddonDeploymentScenarioEnhancer,calls,
IDENT_0,IDENT_1,IDENT_2,IDENT_3,


































