testRecordWithNullNamespace,createRecord,
METHOD_0,METHOD_1,

schemaString,symbolTable,
IDENT_0,IDENT_1,







"doc","ResolvingVisitor{","replace=",", symbolTable=",", root=",'}',
STRING_0,STRING_1,STRING_2,STRING_3,STRING_4,STRING_5,

























