testIsUnionOnUnionWithMultipleElements,createUnion,isUnion,
METHOD_0,METHOD_1,METHOD_2,

NULL,LONG,UnionSchema,
IDENT_0,IDENT_1,IDENT_2,


































