testGetSubTaskCommandByProcessKey,getSubTaskCommandByKey,
METHOD_0,METHOD_1,

foxbpm,TaskCommand,taskCommands,taskService,
IDENT_0,IDENT_1,IDENT_2,IDENT_3,







"Test_taskService_1",
STRING_0,

























