testArticleSummary,datacube,
METHOD_0,METHOD_1,

DAY_OF_MONTH,foxinmy,weixin4j,mp,datacube,ArticleSummary,articleSummaryList,dataApi,DatacubeType,GETARTICLESUMMARY,
IDENT_0,IDENT_1,IDENT_2,IDENT_3,IDENT_4,IDENT_5,IDENT_6,IDENT_7,IDENT_8,IDENT_9,


































