listUser,
METHOD_0,

foxinmy,weixin4j,qy,userList,userApi,UserStatus,BOTH,
IDENT_0,IDENT_1,IDENT_2,IDENT_3,IDENT_4,IDENT_5,IDENT_6,


































