scan,push,
METHOD_0,METHOD_1,

para,xmlSb,statDate,targetUser,
IDENT_0,IDENT_1,IDENT_2,IDENT_3,







"?signature=d919cc8a6361597afa536e906156262cc9cd93df&timestamp=1433903433&nonce=518016546","<xml>","<ToUserName><![CDATA[toUser]]></ToUserName>","<FromUserName><![CDATA[FromUser]]></FromUserName>","<CreateTime>123456789</CreateTime>","<MsgType><![CDATA[event]]></MsgType>","<Event><![CDATA[SCAN]]></Event>","<EventKey><![CDATA[SCENE_VALUE]]></EventKey>","<Ticket><![CDATA[TICKET]]></Ticket>","</xml>","statDate=",", targetUser=",", ",
STRING_0,STRING_1,STRING_2,STRING_3,STRING_4,STRING_5,STRING_6,STRING_7,STRING_8,STRING_9,STRING_10,STRING_11,STRING_12,

























