testSenseNumber,BaseSynset,setSenseNumber,getSenseNumber,
METHOD_0,METHOD_1,METHOD_2,METHOD_3,

llnl,ontology,wordnet,Synset,synset,PartsOfSpeech,NOUN,senseNumber,
IDENT_0,IDENT_1,IDENT_2,IDENT_3,IDENT_4,IDENT_5,IDENT_6,IDENT_7,


































