testRandomDistributionOverHalfSet,randomDistribution,cardinality,
METHOD_0,METHOD_1,METHOD_2,

BitSet,ucla,sspace,Statistics,indices,
IDENT_0,IDENT_1,IDENT_2,IDENT_3,IDENT_4,


































