testSizeOnDisjointSets,
METHOD_0,

ucla,sspace,set1,set2,sets,combined,CombinedSet,assignments,
IDENT_0,IDENT_1,IDENT_2,IDENT_3,IDENT_4,IDENT_5,IDENT_6,IDENT_7,


































