testYear,TimeSpan,insideRange,setTimeInMillis,isInRange,
METHOD_0,METHOD_1,METHOD_2,METHOD_3,METHOD_4,

ucla,sspace,TimeSpan,ts,lessThanYearFromNow,MONTH,c1,c2,startDate,endDate,
IDENT_0,IDENT_1,IDENT_2,IDENT_3,IDENT_4,IDENT_5,IDENT_6,IDENT_7,IDENT_8,IDENT_9,







"1y",
STRING_0,

























