testCardinality,SparseIntArray,cardinality,
METHOD_0,METHOD_1,METHOD_2,

ucla,sspace,SparseIntArray,indices,
IDENT_0,IDENT_1,IDENT_2,IDENT_3,

1033,
INT_0,































