compareToInputNotNullOutputPositive3,GraphEdge,
METHOD_0,METHOD_1,

freedomotic,environment,GraphEdge,objectUnderTest,retval,i18n,ComboLanguage,
IDENT_0,IDENT_1,IDENT_2,IDENT_3,IDENT_4,IDENT_5,IDENT_6,

1349517313,558365760,1349517312,
INT_0,INT_1,INT_2,































