compareToInputNotNullOutputZero,GraphEdge,
METHOD_0,METHOD_1,

freedomotic,environment,GraphEdge,objectUnderTest,retval,i18n,ComboLanguage,
IDENT_0,IDENT_1,IDENT_2,IDENT_3,IDENT_4,IDENT_5,IDENT_6,

1416985954,4255775,
INT_0,INT_1,































