testEqualsNegative,setXref,
METHOD_0,METHOD_1,

family1,family2,gedcom4j,RepositoryCitation,callNumbers,repositoryXref,
IDENT_0,IDENT_1,IDENT_2,IDENT_3,IDENT_4,IDENT_5,







"@F1@","@F2@",
STRING_0,STRING_1,

























