succeedsWhenInnerMatcherSucceeds,isThrowable,
METHOD_0,METHOD_1,

Matcher,StacktracePrintingMatcher,throwableMatcher,
IDENT_0,IDENT_1,IDENT_2,


































