removeElement,findMoney,currency,amount,
METHOD_0,METHOD_1,METHOD_2,METHOD_3,

fFull,samples,money,Money,
IDENT_0,IDENT_1,IDENT_2,IDENT_3,


































