isNotEqualToNull,TestClass,isInstance,
METHOD_0,METHOD_1,METHOD_2,

TestClass,testClass,TestClassTest,DummyClass,FrameworkMethod,
IDENT_0,IDENT_1,IDENT_2,IDENT_3,IDENT_4,


































