testsAreOnlyIncludedOnceWhenExpandingForSorting,aClass,getRunCount,
METHOD_0,METHOD_1,METHOD_2,

fMax,Request,experimental,MaxStarterTest,TwoTests,
IDENT_0,IDENT_1,IDENT_2,IDENT_3,IDENT_4,


































