makeSureSuiteIsCalled,runClasses,defaultComputer,
METHOD_0,METHOD_1,METHOD_2,

junit3compatibility,SuiteMethodTest,wasRun,JUnitCore,OldTest,
IDENT_0,IDENT_1,IDENT_2,IDENT_3,IDENT_4,


































