isZero,zero,getXAsInt,getYAsInt,
METHOD_0,METHOD_1,METHOD_2,METHOD_3,

fundynamic,d2tm,Vector2D,zero,
IDENT_0,IDENT_1,IDENT_2,IDENT_3,


































