cachesCreatedColorWithAlpha,makeColor,
METHOD_0,METHOD_1,

newdawn,slick,Color,color1,fundynamic,d2tm,Colors,color2,colorMap,
IDENT_0,IDENT_1,IDENT_2,IDENT_3,IDENT_4,IDENT_5,IDENT_6,IDENT_7,IDENT_8,

234,23,142,32,
INT_0,INT_1,INT_2,INT_3,




"-",
STRING_0,

























