testCopy,treeProgram,stringProgram,copyProgram,StringProgram,getProgram,
METHOD_0,METHOD_1,METHOD_2,METHOD_3,METHOD_4,METHOD_5,

fxnn,brainfuck,program,TreeProgram,ProgramCopierTest,copy,sut,StringProgram,
IDENT_0,IDENT_1,IDENT_2,IDENT_3,IDENT_4,IDENT_5,IDENT_6,IDENT_7,







"+","<",".",">","-",
STRING_0,STRING_1,STRING_2,STRING_3,STRING_4,

























