createPluginJSONFile,isDirectory,
METHOD_0,METHOD_1,

userHome,pluginFile,separator,dockstore,FileProvisionUtil,PLUGINS_JSON_FILENAME,
IDENT_0,IDENT_1,IDENT_2,IDENT_3,IDENT_4,IDENT_5,







"user.home",".dockstore",
STRING_0,STRING_1,

























