testAdaptInstanceDefaultPresent,adapt,isPresent,
METHOD_0,METHOD_1,METHOD_2,

foo,defaultAdapter,papyrus,infra,AdapterUtils,
IDENT_0,IDENT_1,IDENT_2,IDENT_3,IDENT_4,


































