mulQuaternionQuaternion,nextDouble,Quaternion,setW,getW,getX,getY,getZ,setX,setY,setZ,mul,
METHOD_0,METHOD_1,METHOD_2,METHOD_3,METHOD_4,METHOD_5,METHOD_6,METHOD_7,METHOD_8,METHOD_9,METHOD_10,METHOD_11,

aP,bP,cP,dP,arakhne,afc,d3,continuous,Quaternion,q1,q2,mul,vmutil,MACNumber,bao,
IDENT_0,IDENT_1,IDENT_2,IDENT_3,IDENT_4,IDENT_5,IDENT_6,IDENT_7,IDENT_8,IDENT_9,IDENT_10,IDENT_11,IDENT_12,IDENT_13,IDENT_14,


































