getDefaultCoordinateSystem,
METHOD_0,

arakhne,afc,coordinatesystem,CoordinateSystem2D,defaultCoordinateSystem,CoordinateSystemConstants,SIMULATION_2D,
IDENT_0,IDENT_1,IDENT_2,IDENT_3,IDENT_4,IDENT_5,IDENT_6,


































