getAllFeatures,setupFullRegistry,
METHOD_0,METHOD_1,

gadgets,features,FeatureResource,stackHolder,
IDENT_0,IDENT_1,IDENT_2,IDENT_3,







"gadget",
STRING_0,

























