testGetPredicates,ConjunctionPredicate,getPredicates,
METHOD_0,METHOD_1,METHOD_2,

gbif,occurrence,predicate,Predicate,mocks,ConjunctionPredicate,predicates,
IDENT_0,IDENT_1,IDENT_2,IDENT_3,IDENT_4,IDENT_5,IDENT_6,


































