shouldCreateNewHashMapCacheIfOneDoesNotExist,getCache,
METHOD_0,METHOD_1,

ICache,HashMapCacheServiceTest,CACHE_NAME,
IDENT_0,IDENT_1,IDENT_2,


































