shouldBeAbleToDeleteCacheEntries,putInCache,removeFromCache,sizeOfCache,
METHOD_0,METHOD_1,METHOD_2,METHOD_3,

HashMapCacheServiceTest,CACHE_NAME,
IDENT_0,IDENT_1,


































