shouldHandleNullIterable,LimitedCloseableIterable,
METHOD_0,METHOD_1,

commonutil,iterable,CloseableIterable,nullIterable,delegateMap,
IDENT_0,IDENT_1,IDENT_2,IDENT_3,IDENT_4,


































