shouldThrowExceptionIfStartIsBiggerThanEnd,LimitedCloseableIterable,getErrorOffset,
METHOD_0,METHOD_1,METHOD_2,

commonutil,iterable,visibility,
IDENT_0,IDENT_1,IDENT_2,







"Exception expected"," in string \'","\' at position ",
STRING_0,STRING_1,STRING_2,

























