shouldDeserialiseAndReserialiseIntoTheSamePrettyJson,loadView,toJson,
METHOD_0,METHOD_1,METHOD_2,

elementdefinition,View,view1,json1,view2,json2,userId,dataAuths,opAuths,
IDENT_0,IDENT_1,IDENT_2,IDENT_3,IDENT_4,IDENT_5,IDENT_6,IDENT_7,IDENT_8,


































