shouldConvertObjectArrayToEntityIds,EntitySeed,toEntityIds,ToEntityId,
METHOD_0,METHOD_1,METHOD_2,METHOD_3,

Iterable,EntityId,OperationUtil,Collectors,
IDENT_0,IDENT_1,IDENT_2,IDENT_3,







"3","group","4",
STRING_0,STRING_1,STRING_2,

























