shouldSetAndGetProperty,createStoreProperties,
METHOD_0,METHOD_1,

StoreProperties,K,multiMap,
IDENT_0,IDENT_1,IDENT_2,







"key2","value2",
STRING_0,STRING_1,

























