shouldRemovePropertyWhenPropertyValueIsNull,createStoreProperties,
METHOD_0,METHOD_1,

StoreProperties,K,multiMap,
IDENT_0,IDENT_1,IDENT_2,







"testKey",
STRING_0,

























