shouldConvertStringToTypeSubTypeValue,ToTypeSubTypeValue,TypeSubTypeValue,
METHOD_0,METHOD_1,METHOD_2,

ToTypeSubTypeValue,TypeSubTypeValue,
IDENT_0,IDENT_1,







"value1",
STRING_0,

























