shouldAddEntriesToCache,initialiseWithTestConfig,putInCache,getFromCache,
METHOD_0,METHOD_1,METHOD_2,METHOD_3,

HazelcastCacheServiceTest,CACHE_NAME,K,
IDENT_0,IDENT_1,IDENT_2,


































