shouldGetSetFromMap,MapOfSets,given,willReturn,
METHOD_0,METHOD_1,METHOD_2,METHOD_3,

mapstore,multimap,MapOfSets,mapOfSets,LinkedHashSet,
IDENT_0,IDENT_1,IDENT_2,IDENT_3,IDENT_4,







"key1",
STRING_0,

























