testBinarySearchNotFound,binarySearch,
METHOD_0,METHOD_1,

begin,genemania,matricks,mid,
IDENT_0,IDENT_1,IDENT_2,IDENT_3,

13,17,19,14,
INT_0,INT_1,INT_2,INT_3,




"binarySearch",
STRING_0,




--,
OP_0,



















