testTwoVertical1,Point2D,makeHull,sort,makeHullPresorted,
METHOD_0,METHOD_1,METHOD_2,METHOD_3,METHOD_4,

geogebra,discrete,Point2D,points,algorithms,ConvexHull,newPoints,
IDENT_0,IDENT_1,IDENT_2,IDENT_3,IDENT_4,IDENT_5,IDENT_6,


































