testEvaluate,StringConstant,getLeft,getRight,
METHOD_0,METHOD_1,METHOD_2,METHOD_3,

geolatte,StringConstant,stringConstant,
IDENT_0,IDENT_1,IDENT_2,







"Test this string",
STRING_0,

























