testGetPropertyName,GeometryProperty,getPropertyName,
METHOD_0,METHOD_1,METHOD_2,

geolatte,geo,GeometryProperty,prop,propertyName,
IDENT_0,IDENT_1,IDENT_2,IDENT_3,IDENT_4,







"aGeometry",
STRING_0,

























