testSetClockTime,getClockTime,setClockTime,
METHOD_0,METHOD_1,METHOD_2,

Number,dateAndTime1,clk,geotoolkit,temporal,DefaultDateAndTime,clockTime,
IDENT_0,IDENT_1,IDENT_2,IDENT_3,IDENT_4,IDENT_5,IDENT_6,

23,
INT_0,







5.7,
FLOAT_0,






















