testSphericalDerivative,toRadians,verifyDerivative,isSpherical,
METHOD_0,METHOD_1,METHOD_2,METHOD_3,

tolerance,delta,geotoolkit,referencing,projection,StereographicTest,derivativeDeltas,ProjectionTestBase,
IDENT_0,IDENT_1,IDENT_2,IDENT_3,IDENT_4,IDENT_5,IDENT_6,IDENT_7,

60,1852,30,
INT_0,INT_1,INT_2,







1.0E-9,100.0,
FLOAT_0,FLOAT_1,






















