testVendor,getVendor,SimpleCitation,
METHOD_0,METHOD_1,METHOD_2,

citation,Citation,vendor,sis,
IDENT_0,IDENT_1,IDENT_2,IDENT_3,







"org.geotoolkit.","Geotk","Unknown",
STRING_0,STRING_1,STRING_2,

























