testUrlToFileWithNull,urlToFile,isFileUrl,toURI,
METHOD_0,METHOD_1,METHOD_2,METHOD_3,

ga,earthsci,worldwind,URLUtil,e1,e2,
IDENT_0,IDENT_1,IDENT_2,IDENT_3,IDENT_4,IDENT_5,


































