testGetMessageKeyInNoBundlesWithDefault,
METHOD_0,

classToBeTested,ga,earthsci,worldwind,MessageSourceAccessor,
IDENT_0,IDENT_1,IDENT_2,IDENT_3,IDENT_4,







"keyNone","default",
STRING_0,STRING_1,

























