testComputeLatLonFromStringWithValidSignedDecimalDegrees,computeLatLonFromString,LatLon,fromDegrees,
METHOD_0,METHOD_1,METHOD_2,METHOD_3,

nasa,worldwind,LatLon,ga,Util,Angle,coordString,
IDENT_0,IDENT_1,IDENT_2,IDENT_3,IDENT_4,IDENT_5,IDENT_6,







"-87.345, 123.45",
STRING_0,

87.345,123.45,
FLOAT_0,FLOAT_1,






















