shouldFindAroundOrigin,findByLocationWithin,Circle,
METHOD_0,METHOD_1,METHOD_2,

geosdi,geoplatform,experimental,Address,addresses,addressRepo,GPMongoConfigTest,
IDENT_0,IDENT_1,IDENT_2,IDENT_3,IDENT_4,IDENT_5,IDENT_6,







"@@@@@@@@@@@@@@@@@@@@@@@@@@@@@@@@@@@@ shouldFindAroundOrigin() Found : {}\n\n",
STRING_0,

0.75,
FLOAT_0,






















