testNotConsistentWithEquals,consistentWithEquals,
METHOD_0,METHOD_1,

coders,MapCoder,coder,VarIntCoder,ByteArrayCoder,
IDENT_0,IDENT_1,IDENT_2,IDENT_3,IDENT_4,


































