testCastor,marshal,unmarshal,
METHOD_0,METHOD_1,METHOD_2,

castorFile,castor,geosdi,geoplatform,ClassToXMLMap,castorMap,jaxb,GPValidationMessage,
IDENT_0,IDENT_1,IDENT_2,IDENT_3,IDENT_4,IDENT_5,IDENT_6,IDENT_7,







"target/castor.xml","CASTOR BEAN ******************** {}",
STRING_0,STRING_1,

























