testToFilter,toFilter,
METHOD_0,METHOD_1,

cql2,CQL,CQLException,Filter,f1,ecql,ECQL,f2,geoserver,XCQL,e1,
IDENT_0,IDENT_1,IDENT_2,IDENT_3,IDENT_4,IDENT_5,IDENT_6,IDENT_7,IDENT_8,IDENT_9,IDENT_10,







"IN('foo','bar')","filter should have thrown exception",
STRING_0,STRING_1,

























