invalid,getNamespaceURI,getLocalPart,
METHOD_0,METHOD_1,METHOD_2,

geoserver,Resource,Name,csw,RecordDescriptor,descriptor,
IDENT_0,IDENT_1,IDENT_2,IDENT_3,IDENT_4,IDENT_5,







"..",".. invalid",
STRING_0,STRING_1,

























