testRelative,StringValidatable,
METHOD_0,METHOD_1,

geoserver,StringValidatable,validatable,wicket,FileExistsValidatorTest,errorList,
IDENT_0,IDENT_1,IDENT_2,IDENT_3,IDENT_4,IDENT_5,







"file:wcs/BlueMarble.tiff",
STRING_0,

























