addEventListener,createListener,isListening,
METHOD_0,METHOD_1,METHOD_2,

geosolutions,jaiext,jiffle,JiffleEventListener,_lock,listeners,
IDENT_0,IDENT_1,IDENT_2,IDENT_3,IDENT_4,IDENT_5,




synchronized,
MOD_0,

" add event listener",
STRING_0,

























