bandWithIntLiteral,Band,IntLiteral,
METHOD_0,METHOD_1,METHOD_2,

geosolutions,jaiext,jiffle,Band,average,
IDENT_0,IDENT_1,IDENT_2,IDENT_3,IDENT_4,







"Bucket{","count=",", average=",", min=",", max=",'}',
STRING_0,STRING_1,STRING_2,STRING_3,STRING_4,STRING_5,

























