testQuotedComparison,toFilter,getFilterFactory2,AttributeExpressionImpl,
METHOD_0,METHOD_1,METHOD_2,METHOD_3,

Filter,ecql,ECQL,FilterFactory2,ff,CommonFactoryFinder,Name,
IDENT_0,IDENT_1,IDENT_2,IDENT_3,IDENT_4,IDENT_5,IDENT_6,







"\"a\"=\"b\"",
STRING_0,

























