testNoThresholds,literal,findFunction,intValue,round,
METHOD_0,METHOD_1,METHOD_2,METHOD_3,METHOD_4,

categoryValue,ff2,Function,fn,finder,Fraction,numerator,denominator,
IDENT_0,IDENT_1,IDENT_2,IDENT_3,IDENT_4,IDENT_5,IDENT_6,IDENT_7,

42,
INT_0,




"categorize",
STRING_0,

























