processTimestampedElement,ReifyTimestamps,Instant,takeOutputElements,
METHOD_0,METHOD_1,METHOD_2,METHOD_3,

transforms,DoFnTester,TimestampedValue,tester,DoFnTesterTest,
IDENT_0,IDENT_1,IDENT_2,IDENT_3,IDENT_4,


































