testIt,getSources,
METHOD_0,METHOD_1,

mbstyle,MBSource,sourceMap,testStyle,categories,
IDENT_0,IDENT_1,IDENT_2,IDENT_3,IDENT_4,


































