invalidPollingInterval,getPollingInterval,setPollingInterval,
METHOD_0,METHOD_1,METHOD_2,

poll,pollingInterval,
IDENT_0,IDENT_1,


































