testParseCubeWerx_RoadSeg,getTypeView,getParser,getNumberOfFeatures,FeatureAssertor,createLineString,Coordinate,setExpectedGeometries,testParseGetFeatures,
METHOD_0,METHOD_1,METHOD_2,METHOD_3,METHOD_4,METHOD_5,METHOD_6,METHOD_7,METHOD_8,

namespace,QName,featureName,wfs,WFSTestData,CUBEWERX_ROADSEG,TYPENAME,schemaLocation,SCHEMA,SimpleFeatureType,featureType,CRS,GetFeatureParser,DATA,nof,parsers,AbstractGetFeatureParserTest,FeatureAssertor,assertor,Geometry,geometries,GF,Coordinate,
IDENT_0,IDENT_1,IDENT_2,IDENT_3,IDENT_4,IDENT_5,IDENT_6,IDENT_7,IDENT_8,IDENT_9,IDENT_10,IDENT_11,IDENT_12,IDENT_13,IDENT_14,IDENT_15,IDENT_16,IDENT_17,IDENT_18,IDENT_19,IDENT_20,IDENT_21,IDENT_22,







"lastUpdateDate","geometry","status","isAnchorSection",
STRING_0,STRING_1,STRING_2,STRING_3,

160.230234,21.87064403,160.22929,21.87069903,160.227474,21.87080403,160.227439,21.86885203,160.225335,21.86891603,160.225266,21.86722003,160.224406,21.86724603,
FLOAT_0,FLOAT_1,FLOAT_2,FLOAT_3,FLOAT_4,FLOAT_5,FLOAT_6,FLOAT_7,FLOAT_8,FLOAT_9,FLOAT_10,FLOAT_11,FLOAT_12,FLOAT_13,






















