moveUpLast,movePhone,getPhones,getDisplayOrder,
METHOD_0,METHOD_1,METHOD_2,METHOD_3,

c2,cpLast2,passed,dk,i2m,converge,contacts,ContactPhone,phone,displayOrder,
IDENT_0,IDENT_1,IDENT_2,IDENT_3,IDENT_4,IDENT_5,IDENT_6,IDENT_7,IDENT_8,IDENT_9,

24,
INT_0,































