shouldCreateBaseClassInstanceEvenWithSubclassNewInstance,getFieldA,
METHOD_0,METHOD_1,

NonConstructableBaseClassWithField,fieldA,
IDENT_0,IDENT_1,


































