testGetRoles,getRoles,getHibernateTemplate,
METHOD_0,METHOD_1,METHOD_2,

gisgraphy,Role,roles,
IDENT_0,IDENT_1,IDENT_2,







"retrieving all role names...","from Role order by name",
STRING_0,STRING_1,

























