isCityWithNullValuesShouldNotThrow,isCity,
METHOD_0,METHOD_1,

featureClass,featureCode,gisgraphy,FeatureClassCodeHelper,featureCodes,classCode,
IDENT_0,IDENT_1,IDENT_2,IDENT_3,IDENT_4,IDENT_5,







"P","_",
STRING_0,STRING_1,

























