testFindingThreeLinks,findOn,getEntity,getContentLength,
METHOD_0,METHOD_1,METHOD_2,METHOD_3,

gistlabs,mechanize,JsonNode,three,hypermedia,JsonLink,links,finder,
IDENT_0,IDENT_1,IDENT_2,IDENT_3,IDENT_4,IDENT_5,IDENT_6,IDENT_7,







"three",
STRING_0,

























