testAnyWithAttribute,findAll,getEntity,getContentLength,
METHOD_0,METHOD_1,METHOD_2,METHOD_3,

gistlabs,mechanize,css_query,NodeSelector,JsonNode,selector,
IDENT_0,IDENT_1,IDENT_2,IDENT_3,IDENT_4,IDENT_5,







"{ \"a\" : 2, \"b\" : { \"x\" : \"y\" }, \"results\" : [ { \"x\" : 1 }, { \"b\" : 2, \"c\" : 3 } ] }","[x]",
STRING_0,STRING_1,

























