testEmptyUnmodIterator,emptyUnmodIterator,
METHOD_0,METHOD_1,

organicdesign,fp,UnmodIterator,UnIterator,EMPTY,
IDENT_0,IDENT_1,IDENT_2,IDENT_3,IDENT_4,


































