testSynchronizedIncrementEvaluations5,setup,synchronizedIncrementEvaluations,
METHOD_0,METHOD_1,METHOD_2,

evaluations,evalthreads,lock,
IDENT_0,IDENT_1,IDENT_2,




synchronized,
MOD_0,




























