aliasPrintParams1,ParameterDatabase,Parameter,printGotten,_exists,
METHOD_0,METHOD_1,METHOD_2,METHOD_3,METHOD_4,

ec,ParameterDatabase,PRINT_PARAMS,defaultParameter,
IDENT_0,IDENT_1,IDENT_2,IDENT_3,







".alias","x","false",
STRING_0,STRING_1,STRING_2,

























