alias1,ParameterDatabase,Parameter,printGotten,_exists,
METHOD_0,METHOD_1,METHOD_2,METHOD_3,METHOD_4,

ec,ParameterDatabase,defaultParameter,
IDENT_0,IDENT_1,IDENT_2,







"a.alias","solutionb",
STRING_0,STRING_1,

























