testStringField,AStringField,readFrom,
METHOD_0,METHOD_1,METHOD_2,

fastcatsearch,ir,AStringField,avalue,BytesDataInput,field2,value2,
IDENT_0,IDENT_1,IDENT_2,IDENT_3,IDENT_4,IDENT_5,IDENT_6,







"A"," : ",
STRING_0,STRING_1,

























