distinct,SelectIterable,newListWith,lessThan,
METHOD_0,METHOD_1,METHOD_2,METHOD_3,

lazy,SelectIterable,iterable,FastList,Predicates,
IDENT_0,IDENT_1,IDENT_2,IDENT_3,IDENT_4,


































