distinct,SelectInstancesOfIterable,newListWith,
METHOD_0,METHOD_1,METHOD_2,

lazy,SelectInstancesOfIterable,iterable,FastList,
IDENT_0,IDENT_1,IDENT_2,IDENT_3,










3.0,4.0,5.0,
FLOAT_0,FLOAT_1,FLOAT_2,






















