binarySearchWithComparator,classUnderTest,binarySearch,
METHOD_0,METHOD_1,METHOD_2,

ListIterable,sortedList,Comparator,comparator,
IDENT_0,IDENT_1,IDENT_2,IDENT_3,


































