valuesView,ImmutableSingletonMap,newListWith,
METHOD_0,METHOD_1,METHOD_2,

MutableList,immutable,E,FastList,
IDENT_0,IDENT_1,IDENT_2,IDENT_3,







"One",
STRING_0,

























