testClone,newMapWithKeysValues,clone,
METHOD_0,METHOD_1,METHOD_2,

MutableMap,clone,
IDENT_0,IDENT_1,







"One","Two",
STRING_0,STRING_1,

























