ofSortedMap,withSortedMap,
METHOD_0,METHOD_1,

sorted,immutable,ImmutableTreeMap,immutableMap,SortedMaps,SortedMap,
IDENT_0,IDENT_1,IDENT_2,IDENT_3,IDENT_4,IDENT_5,







"3","4",
STRING_0,STRING_1,

























