newMultimapFromPairs,newMultimapWithKeysValues,newMultimap,pair,
METHOD_0,METHOD_1,METHOD_2,METHOD_3,

multimap,Multimap,Tuples,T1,T2,PairImpl,one,two,
IDENT_0,IDENT_1,IDENT_2,IDENT_3,IDENT_4,IDENT_5,IDENT_6,IDENT_7,







"One","Two","Three","Four",
STRING_0,STRING_1,STRING_2,STRING_3,

























