newSetWith,
METHOD_0,

primitive,ByteToObjectFunction,Byte,ByteHashSet,MutableSet,actualSet,expectedSet,UnifiedSet,Function,lazy,parallel,bag,CollectUnsortedBagBatch,V,VV,
IDENT_0,IDENT_1,IDENT_2,IDENT_3,IDENT_4,IDENT_5,IDENT_6,IDENT_7,IDENT_8,IDENT_9,IDENT_10,IDENT_11,IDENT_12,IDENT_13,IDENT_14,

31,64,111,30,65,110,63,
INT_0,INT_1,INT_2,INT_3,INT_4,INT_5,INT_6,































