getIfAbsentPutWith,newMap,isAbsent,
METHOD_0,METHOD_1,METHOD_2,

MutableMap,UnifiedMap,Function,value1,utility,MapIterate,value2,K,P,V,
IDENT_0,IDENT_1,IDENT_2,IDENT_3,IDENT_4,IDENT_5,IDENT_6,IDENT_7,IDENT_8,IDENT_9,







"value:","key",
STRING_0,STRING_1,

























