testSelect_stripsSelect,StatementBuilder,toStatement,getQuery,
METHOD_0,METHOD_1,METHOD_2,METHOD_3,

ads,admanager,axis,v201805,StatementBuilder,statementBuilder,Statement,
IDENT_0,IDENT_1,IDENT_2,IDENT_3,IDENT_4,IDENT_5,IDENT_6,







"SELECT id, name",
STRING_0,

























