getPersistentHashFunction,newHasher,putObject,asInt,addProperty,
METHOD_0,METHOD_1,METHOD_2,METHOD_3,METHOD_4,

caliper,PersistentHashing,StringMapFunnel,Host,shouldContinue,
IDENT_0,IDENT_1,IDENT_2,IDENT_3,IDENT_4,


































