testSmoke,getQueue,waitOnFuture,addAsync,withUrl,getLastRequest,
METHOD_0,METHOD_1,METHOD_2,METHOD_3,METHOD_4,METHOD_5,

appengine,taskqueue,Queue,QueueFactory,tck,PrintServlet,
IDENT_0,IDENT_1,IDENT_2,IDENT_3,IDENT_4,IDENT_5,







"tasks-queue",
STRING_0,

























