testEquals_generalObject,cast,isEqual,
METHOD_0,METHOD_1,METHOD_2,

appengine,users,tck,memcache,ComboType,ct,mixedField,
IDENT_0,IDENT_1,IDENT_2,IDENT_3,IDENT_4,IDENT_5,IDENT_6,







"abc","xyz",
STRING_0,STRING_1,

























