testCreate_nonLibrary,
METHOD_0,

appengine,libraries,LibraryFactory,IConfigurationElement,LibraryFactoryException,
IDENT_0,IDENT_1,IDENT_2,IDENT_3,IDENT_4,


































