testConstructor,LibraryFile,getMavenCoordinates,
METHOD_0,METHOD_1,METHOD_2,

appengine,libraries,LibraryFile,libraryFile,mavenCoordinates,
IDENT_0,IDENT_1,IDENT_2,IDENT_3,IDENT_4,


































