testAccountEmail_none,createControl,getShell,getAccountEmail,
METHOD_0,METHOD_1,METHOD_2,METHOD_3,

shellCreator,runOptionsDefaultsComponent,
IDENT_0,IDENT_1,


































