testGetNetty,getLatestReleaseVersion,
METHOD_0,METHOD_1,

artifact,versioning,ArtifactVersion,ArtifactRetriever,DEFAULT,groupId,artifactId,
IDENT_0,IDENT_1,IDENT_2,IDENT_3,IDENT_4,IDENT_5,IDENT_6,







"io.netty","netty-handler",
STRING_0,STRING_1,

























