testGetRegion,getRegion,toPb,getService,
METHOD_0,METHOD_1,METHOD_2,METHOD_3,

computeRpcMock,deprecated,ComputeImplTest,REGION_ID,EMPTY_RPC_OPTIONS,REGION,Region,region,
IDENT_0,IDENT_1,IDENT_2,IDENT_3,IDENT_4,IDENT_5,IDENT_6,IDENT_7,


































