testListAcls,initializeExpectedBucket,getOptions,listAcls,initializeBucket,
METHOD_0,METHOD_1,METHOD_2,METHOD_3,METHOD_4,

mockOptions,BucketTest,BUCKET_INFO,ACLS,Acl,acls,bucket,acl,
IDENT_0,IDENT_1,IDENT_2,IDENT_3,IDENT_4,IDENT_5,IDENT_6,IDENT_7,


































