bytesNotEmittedToSinkWithoutFlush,Buffer,RealBufferedSink,writeUtf8,
METHOD_0,METHOD_1,METHOD_2,METHOD_3,

okio,Buffer,sink,BufferedSink,bufferedSink,
IDENT_0,IDENT_1,IDENT_2,IDENT_3,IDENT_4,







"abc",
STRING_0,

























