test_plus_Period_zero,plus,compileOperation,Plus,
METHOD_0,METHOD_1,METHOD_2,METHOD_3,

LocalDate,TEST_2007_07_15,MockSimplePeriod,ZERO_DAYS,xpath,opPos,
IDENT_0,IDENT_1,IDENT_2,IDENT_3,IDENT_4,IDENT_5,


































