test_withNanoOfSecond_noChange,withNano,
METHOD_0,METHOD_1,

OffsetDateTime,LocalDate,LocalTime,TestOffsetDateTime,OFFSET_PONE,dateTime,nanoOfSecond,
IDENT_0,IDENT_1,IDENT_2,IDENT_3,IDENT_4,IDENT_5,IDENT_6,

2008,30,11,59,
INT_0,INT_1,INT_2,INT_3,































