test_of_Locale_cached,requireNonNull,putIfAbsent,
METHOD_0,METHOD_1,METHOD_2,

DecimalStyle,loc1,CANADA,loc2,Objects,locale,CACHE,
IDENT_0,IDENT_1,IDENT_2,IDENT_3,IDENT_4,IDENT_5,IDENT_6,







"locale",
STRING_0,

























