test_parse_changeStyle_sensitive,setCaseSensitive,ParsePosition,getFormatter,parseUnresolved,getIndex,
METHOD_0,METHOD_1,METHOD_2,METHOD_3,METHOD_4,METHOD_5,

ParsePosition,m_index,
IDENT_0,IDENT_1,


































