testSetHttpTimeout,setHttpTimeout,getHttpTimeout,getInteger,
METHOD_0,METHOD_1,METHOD_2,METHOD_3,

jib,Request,global,JibSystemProperties,HTTP_TIMEOUT,
IDENT_0,IDENT_1,IDENT_2,IDENT_3,IDENT_4,

3000,20000,
INT_0,INT_1,































