testAddLayer_success,getLayers,
METHOD_0,METHOD_1,

jib,Layer,expectedLayers,mockLayer,mockReferenceLayer,mockDigestOnlyLayer,ImageLayers,imageLayers,layers,
IDENT_0,IDENT_1,IDENT_2,IDENT_3,IDENT_4,IDENT_5,IDENT_6,IDENT_7,IDENT_8,


































