testRandomNonce,randBytes,AesGcmJce,encrypt,hexEncode,
METHOD_0,METHOD_1,METHOD_2,METHOD_3,METHOD_4,

samples,tink,subtle,Random,aad,AesGcmJce,gcm,ciphertexts,ct,ctHex,TestUtil,Hex,
IDENT_0,IDENT_1,IDENT_2,IDENT_3,IDENT_4,IDENT_5,IDENT_6,IDENT_7,IDENT_8,IDENT_9,IDENT_10,IDENT_11,

17,
INT_0,































