testRetrieve,getDefaultObject,retrieve,
METHOD_0,METHOD_1,METHOD_2,

shippo,Address,testObject,AddressTest,retrievedObject,objectId,
IDENT_0,IDENT_1,IDENT_2,IDENT_3,IDENT_4,IDENT_5,


































