testGetToken,BaseMatchImpl,getToken,
METHOD_0,METHOD_1,METHOD_2,

gosimple,nbvcxz,matching,BaseMatch,BaseMatchTest,
IDENT_0,IDENT_1,IDENT_2,IDENT_3,IDENT_4,







"Test of getToken method, of class BaseMatch","dummyToken",
STRING_0,STRING_1,

























