testConstructRectangle,ConstructTheRectangle,constructRectangle,sqrt,
METHOD_0,METHOD_1,METHOD_2,METHOD_3,

javapractice,leetcode,ConstructTheRectangle,area,
IDENT_0,IDENT_1,IDENT_2,IDENT_3,













--,%,
OP_0,OP_1,



















