testSingleNumber,SingleNumber,singleNumber,
METHOD_0,METHOD_1,METHOD_2,

javapractice,leetcode,SingleNumber,A,
IDENT_0,IDENT_1,IDENT_2,IDENT_3,













^,
OP_0,



















