canAddClosureAsASpec,createAtomicElements,toClosure,isSatisfiedBy,getSpecsArray,
METHOD_0,METHOD_1,METHOD_2,METHOD_3,METHOD_4,

gradle,specs,AndSpec,TestUtil,Spec,OrSpec,
IDENT_0,IDENT_1,IDENT_2,IDENT_3,IDENT_4,IDENT_5,







"{ false }",
STRING_0,

























