when_committingInvalidData_expect_commitError,runConsoleSession,
METHOD_0,METHOD_1,

grakn,console,GraknConsoleIT,oMinEntry,
IDENT_0,IDENT_1,IDENT_2,IDENT_3,







"insert bob sub relation;\ncommit",
STRING_0,

























