testMessagesCall,invokeComponent,getMessages,
METHOD_0,METHOD_1,METHOD_2,

granite,tide,invocation,InvocationResult,
IDENT_0,IDENT_1,IDENT_2,IDENT_3,







"createPerson","create",
STRING_0,STRING_1,

























