testNoErrorOnLargeName,NameIndex,RAMDirectory,camelCaseToUnderScore,
METHOD_0,METHOD_1,METHOD_2,METHOD_3,

NameIndex,Helper,
IDENT_0,IDENT_1,

127,
INT_0,































