testGetValue,waitCallback,
METHOD_0,METHOD_1,

bookkeeper,metastore,MetastoreTableAsyncToSyncConverter,HeldValue,versioning,Versioned,Value,retValue,
IDENT_0,IDENT_1,IDENT_2,IDENT_3,IDENT_4,IDENT_5,IDENT_6,IDENT_7,







"key",
STRING_0,

























