hasVariableLocationShouldBeTrue,getJob,hasVariableLocation,
METHOD_0,METHOD_1,METHOD_2,

Break,aBreak,serviceActivity,variableLocation,
IDENT_0,IDENT_1,IDENT_2,IDENT_3,


































