testFindByIdNonexisting,findByNodeId,findOne,
METHOD_0,METHOD_1,METHOD_2,

collector1id,graylog,sidecar,Sidecar,sidecarService,mongojack,DBQuery,FIELD_NODE_ID,
IDENT_0,IDENT_1,IDENT_2,IDENT_3,IDENT_4,IDENT_5,IDENT_6,IDENT_7,







"nonexisting",
STRING_0,

























