testDecompressZlib,zlibCompress,decompressZlib,
METHOD_0,METHOD_1,METHOD_2,

testString,compressed,graylog2,inputs,TestHelper,Tools,compressedData,
IDENT_0,IDENT_1,IDENT_2,IDENT_3,IDENT_4,IDENT_5,IDENT_6,







"Teststring 123",
STRING_0,

























