testGetDefaultValue,NumberField,getDefaultValue,
METHOD_0,METHOD_1,METHOD_2,

graylog2,NumberField,ConfigurationField,NOT_OPTIONAL,
IDENT_0,IDENT_1,IDENT_2,IDENT_3,

9001,
INT_0,




"Name",
STRING_0,

























