testGetDefaultValue,TextField,getDefaultValue,
METHOD_0,METHOD_1,METHOD_2,

graylog2,TextField,
IDENT_0,IDENT_1,







"Name","default","description",
STRING_0,STRING_1,STRING_2,

























