comparisonLessThan,fromBase58,
METHOD_0,METHOD_1,

bitcoinj,Address,AddressTest,mainParams,Sha256Hash,LENGTH,thisByte,otherByte,
IDENT_0,IDENT_1,IDENT_2,IDENT_3,IDENT_4,IDENT_5,IDENT_6,IDENT_7,







"1Dorian4RoXcnBv9hnQ4Y2C1an6NJ4UrjX","1EXoDusjGwvnjZUyKkxZ4UHEf77z6A5S4P",
STRING_0,STRING_1,




--,
OP_0,



















