testPeerAddressRoundtrip,PeerAddress,unsafeBitcoinSerialize,copyOf,divmod,
METHOD_0,METHOD_1,METHOD_2,METHOD_3,METHOD_4,

fromSpec,bitcoinj,PeerAddress,pa,MainNetParams,HEX,reserialized,zeros,encoded,outputStart,inputStart,Base58,ALPHABET,ENCODED_ZERO,
IDENT_0,IDENT_1,IDENT_2,IDENT_3,IDENT_4,IDENT_5,IDENT_6,IDENT_7,IDENT_8,IDENT_9,IDENT_10,IDENT_11,IDENT_12,IDENT_13,

256,58,
INT_0,INT_1,




"010000000000000000000000000000000000ffff0a000001208d",
STRING_0,




--,
OP_0,



















