shouldNotExceedMaxSize,
METHOD_0,

icegreen,greenmail,MaxSizeLinkedHashMapTest,TEST_MAX_SIZE,mailMessages,
IDENT_0,IDENT_1,IDENT_2,IDENT_3,IDENT_4,


































