testUpdateDouble,DataOutputStream,writeDouble,getHashAndReset,updateDouble,
METHOD_0,METHOD_1,METHOD_2,METHOD_3,METHOD_4,

PI,primitiveDataChecksum,
IDENT_0,IDENT_1,

4294967295L,
INT_0,































