testNullValues,PrimitiveDataChecksum,Adler32,updateUtf8,
METHOD_0,METHOD_1,METHOD_2,METHOD_3,

greenrobot,essentials,PrimitiveDataChecksum,checksum,zip,before,
IDENT_0,IDENT_1,IDENT_2,IDENT_3,IDENT_4,IDENT_5,

4294967295L,
INT_0,































