testWriteAndReadUtf8,writeUtf8,readUtf8,readChars,
METHOD_0,METHOD_1,METHOD_2,METHOD_3,

greenrobot,essentials,FileUtils,
IDENT_0,IDENT_1,IDENT_2,







"Hello, let's put in some Umlauts:  ","UTF-8",
STRING_0,STRING_1,

























