testBook,Author,setLastName,setFirstName,Book,setAuthor,setSubtitle,setTitle,setCompany,
METHOD_0,METHOD_1,METHOD_2,METHOD_3,METHOD_4,METHOD_5,METHOD_6,METHOD_7,METHOD_8,

bval,jsr,Author,author,Book,book,ConstraintViolation,All,
IDENT_0,IDENT_1,IDENT_2,IDENT_3,IDENT_4,IDENT_5,IDENT_6,IDENT_7,







"Baudelaire","12345678900125678901234578901234567890","Les fleurs du mal","Some random publisher with a very very very long name",
STRING_0,STRING_1,STRING_2,STRING_3,

























