testIsDelayedQueue_Success,createJedis,zadd,isDelayedQueue,
METHOD_0,METHOD_1,METHOD_2,METHOD_3,

clients,jedis,Jedis,greghaines,jesque,TestJedisUtils,CONFIG,TEST_KEY,JedisUtils,ZSET,
IDENT_0,IDENT_1,IDENT_2,IDENT_3,IDENT_4,IDENT_5,IDENT_6,IDENT_7,IDENT_8,IDENT_9,


































