testNullElementInCollection,RecursiveFoo,getFoos,
METHOD_0,METHOD_1,METHOD_2,

bval,jsr,RecursiveFoo,foo,wrapped,
IDENT_0,IDENT_1,IDENT_2,IDENT_3,IDENT_4,


































