testLinesCalculation2,AntlrContext,SourceLine,getLineAndColumn,getEnd,getLine,getStart,
METHOD_0,METHOD_1,METHOD_2,METHOD_3,METHOD_4,METHOD_5,METHOD_6,

sonar,tsql,AntlrContext,lines,SourceLine,global,
IDENT_0,IDENT_1,IDENT_2,IDENT_3,IDENT_4,IDENT_5,

30,
INT_0,































