testNonExistingSearchPathSpecified,newFile,getFiles,getRoot,
METHOD_0,METHOD_1,METHOD_2,METHOD_3,

folder,files,sut,
IDENT_0,IDENT_1,IDENT_2,







"aatest.xml","samplePrefix.xml","a.xml",
STRING_0,STRING_1,STRING_2,

























