testNotEqualsWithNonVersion,Version,
METHOD_0,METHOD_1,

codehaus,gmavenplus,Version,buff,major,minor,revision,tag,
IDENT_0,IDENT_1,IDENT_2,IDENT_3,IDENT_4,IDENT_5,IDENT_6,IDENT_7,







".","-",
STRING_0,STRING_1,

























