testConstructorReferences11a,createUnit,searchForReferences,getMethods,getElement,
METHOD_0,METHOD_1,METHOD_2,METHOD_3,METHOD_4,

codehaus,jdt,groovy,GroovyCompilationUnit,foo,ctorRefs,IMethod,quickfix,proposals,ProblemDescriptor,
IDENT_0,IDENT_1,IDENT_2,IDENT_3,IDENT_4,IDENT_5,IDENT_6,IDENT_7,IDENT_8,IDENT_9,







"p"," new Foo(\'\')\n","package p\n"," Foo(int i = 0) {}\n"," Foo(String s) {this()}\n"," new Foo()\n"," new Foo(0)\n"," }\n","}","Foo.groovy",
STRING_0,STRING_1,STRING_2,STRING_3,STRING_4,STRING_5,STRING_6,STRING_7,STRING_8,STRING_9,

























