should_run_before_each_command_string,getRunCommands,
METHOD_0,METHOD_1,

groupon,buildtype,ShellCommands,
IDENT_0,IDENT_1,IDENT_2,







"before_each","before_each cmd","run","unit","command","integration",
STRING_0,STRING_1,STRING_2,STRING_3,STRING_4,STRING_5,

























