groupname,MBeanGroup,
METHOD_0,METHOD_1,

groupon,lex,jmx,MBeanGroup,mbg,obj_name,NamedResolverMap,EMPTY,name_,
IDENT_0,IDENT_1,IDENT_2,IDENT_3,IDENT_4,IDENT_5,IDENT_6,IDENT_7,IDENT_8,


































