testLargeData,TagOutputStream,TypeLengthValueWriter,NdefMessageTlv,getBuffer,
METHOD_0,METHOD_1,METHOD_2,METHOD_3,METHOD_4,

largeData,expectedData,nfctools,tags,TagOutputStream,mf,tlv,TypeLengthValueWriter,writtenData,
IDENT_0,IDENT_1,IDENT_2,IDENT_3,IDENT_4,IDENT_5,IDENT_6,IDENT_7,IDENT_8,

1024,1029,1028,254,
INT_0,INT_1,INT_2,INT_3,































