testGetUser,checking,Expectations,one,will,returnValue,getUser,
METHOD_0,METHOD_1,METHOD_2,METHOD_3,METHOD_4,METHOD_5,METHOD_6,

mockery,jmock,emptyUser,
IDENT_0,IDENT_1,IDENT_2,

500,
INT_0,




"user "," retrieved",
STRING_0,STRING_1,

























