testToString,ScreenSize,
METHOD_0,METHOD_1,

bixly,pastevid,ScreenSizeTest,ScreenSize,clientHandlers,ipc,ClientHandler,
IDENT_0,IDENT_1,IDENT_2,IDENT_3,IDENT_4,IDENT_5,IDENT_6,







"ScreenSize.toString","Name","Client: "," : ","EMPTY",
STRING_0,STRING_1,STRING_2,STRING_3,STRING_4,

























