testMethod0,TestAsync0,run0,finish,async,
METHOD_0,METHOD_1,METHOD_2,METHOD_3,METHOD_4,

rice,pcdp,async,PCDP,acc,
IDENT_0,IDENT_1,IDENT_2,IDENT_3,IDENT_4,


































