testOrderByMarkDescending,orderByMarkDescending,getGrade,
METHOD_0,METHOD_1,METHOD_2,

hackbulgaria,corejava101,Student,students,studentOperations,prev,grade,
IDENT_0,IDENT_1,IDENT_2,IDENT_3,IDENT_4,IDENT_5,IDENT_6,


































