createExceptionFromXAException,XAException,createException,SQLException,
METHOD_0,METHOD_1,METHOD_2,METHOD_3,

xa,XAException,
IDENT_0,IDENT_1,


































