stripExpression,emptyMap,
METHOD_0,METHOD_1,

Matcher,gwt,elemento,ExpressionParser,PATTERN,
IDENT_0,IDENT_1,IDENT_2,IDENT_3,IDENT_4,


































