setIllegalPageSize,PageInfo,setPageSize,getPageSize,
METHOD_0,METHOD_1,METHOD_2,METHOD_3,

hal,ballroom,dataprovider,PageInfo,pageInfo,PageInfoTest,PAGE_SIZE,pageSize,
IDENT_0,IDENT_1,IDENT_2,IDENT_3,IDENT_4,IDENT_5,IDENT_6,IDENT_7,


































