testSetAlpha_Color_int,Color,setAlpha,getAlpha,
METHOD_0,METHOD_1,METHOD_2,METHOD_3,

Color,COLOR,ALPHA,hansolo,steelseries,Util,alpha,
IDENT_0,IDENT_1,IDENT_2,IDENT_3,IDENT_4,IDENT_5,IDENT_6,

128,
INT_0,




"setAlpha",
STRING_0,

























