testInvalidDueDate,Todo,setDueDate,
METHOD_0,METHOD_1,METHOD_2,

hantsylabs,ee8,bv,Todo,todo,LocalDateTime,ConstraintViolation,violations,groups,Default,Level,INFO,dueDate,
IDENT_0,IDENT_1,IDENT_2,IDENT_3,IDENT_4,IDENT_5,IDENT_6,IDENT_7,IDENT_8,IDENT_9,IDENT_10,IDENT_11,IDENT_12,







"violations.size ::",
STRING_0,

























