testDelete,Admin,createGroup,umount,
METHOD_0,METHOD_1,METHOD_2,METHOD_3,

haosdent,cgroup,manage,Admin,SUBSYS_CPU,Group,one,GroupTest,groups,groupList,
IDENT_0,IDENT_1,IDENT_2,IDENT_3,IDENT_4,IDENT_5,IDENT_6,IDENT_7,IDENT_8,IDENT_9,







"one","Create Admin error.",
STRING_0,STRING_1,

























