testClearForceEmpty,getMemory,clearForceEmpty,cgset,
METHOD_0,METHOD_1,METHOD_2,METHOD_3,

haosdent,cgroup,subsystem,MemoryTest,one,Memory,PROP_MEMORY_FORCE_EMPTY,
IDENT_0,IDENT_1,IDENT_2,IDENT_3,IDENT_4,IDENT_5,IDENT_6,







"Clear force_empty failed.",
STRING_0,

























