testNoProblems,lint,getIssues,
METHOD_0,METHOD_1,METHOD_2,

jslint4java,JSLintResult,issues,
IDENT_0,IDENT_1,IDENT_2,







"var foo = 1;",
STRING_0,

























