testNotNullWithParameter,notNull,
METHOD_0,METHOD_1,

pParameter,pParamName,twelvemonkeys,Validate,UNSPECIFIED_PARAM_NAME,
IDENT_0,IDENT_1,IDENT_2,IDENT_3,IDENT_4,







"%s may not be null",
STRING_0,

























