testNoNullElementsArrayParameterNull,noNullElements,
METHOD_0,METHOD_1,

twelvemonkeys,Validate,pParameter,pParamName,
IDENT_0,IDENT_1,IDENT_2,IDENT_3,







"baz",
STRING_0,

























