testNoNullValuesEmptyParameter,noNullValues,notNull,
METHOD_0,METHOD_1,METHOD_2,

twelvemonkeys,Validate,pParameter,pParamName,V,UNSPECIFIED_PARAM_NAME,
IDENT_0,IDENT_1,IDENT_2,IDENT_3,IDENT_4,IDENT_5,







"%s may not contain null values",
STRING_0,

























