testNoNullValuesNullElementsParameter,noNullValues,singletonMap,
METHOD_0,METHOD_1,METHOD_2,

twelvemonkeys,Validate,
IDENT_0,IDENT_1,


































