testSortOverProjectSort,scan,sort,limit,hasTree,compose,toLinux,
METHOD_0,METHOD_1,METHOD_2,METHOD_3,METHOD_4,METHOD_5,METHOD_6,

RelBuilder,RelBuilderTest,rel,RelNode,Util,RelOptUtil,
IDENT_0,IDENT_1,IDENT_2,IDENT_3,IDENT_4,IDENT_5,







"EMP","F1","LogicalProject(F1=[$1])\n"," LogicalSort(sort0=[$0], dir0=[ASC], fetch=[1])\n"," LogicalTableScan(table=[[scott, EMP]])\n",
STRING_0,STRING_1,STRING_2,STRING_3,STRING_4,

























