testWrite1SPP8BPS,HorizontalDifferencingStream,arraycopy,
METHOD_0,METHOD_1,METHOD_2,

twelvemonkeys,imageio,tiff,OutputStream,ByteOrder,BIG_ENDIAN,newBuf,
IDENT_0,IDENT_1,IDENT_2,IDENT_3,IDENT_4,IDENT_5,IDENT_6,

127,128,132,254,
INT_0,INT_1,INT_2,INT_3,































