testUniqueIdValues,
METHOD_0,

Short,retrievedIdValues,bitwalker,useragentutils,Application,
IDENT_0,IDENT_1,IDENT_2,IDENT_3,IDENT_4,


































