testInitialFragmentTrue,Trace,setTraceId,setFragmentId,initialFragment,getTraceId,getFragmentId,
METHOD_0,METHOD_1,METHOD_2,METHOD_3,METHOD_4,METHOD_5,METHOD_6,

hawkular,apm,Trace,
IDENT_0,IDENT_1,IDENT_2,


































