testNoImplementation,getSingletonService,getServices,
METHOD_0,METHOD_1,METHOD_2,

s1,hawkular,apm,ServiceResolver,singletons,intf,
IDENT_0,IDENT_1,IDENT_2,IDENT_3,IDENT_4,IDENT_5,




synchronized,
MOD_0,




























