testRewriteURI,Consumer,setUri,rewriteURI,getUri,
METHOD_0,METHOD_1,METHOD_2,METHOD_3,METHOD_4,

hawkular,apm,Consumer,NodeUtilTest,ORIGINAL_URI,NodeUtil,NEW_URI,
IDENT_0,IDENT_1,IDENT_2,IDENT_3,IDENT_4,IDENT_5,IDENT_6,


































