testLongCountPredicate,asEnumerable,longCount,
METHOD_0,METHOD_1,METHOD_2,

Linq4j,Linq4jTest,depts,employees,
IDENT_0,IDENT_1,IDENT_2,IDENT_3,







"size",
STRING_0,

























