testUpdateEntity,openSession,beginTransaction,DummyEntity,
METHOD_0,METHOD_1,METHOD_2,METHOD_3,

dummyId,Session,Transaction,hazelcast,ent,sf2,txTimestamp,
IDENT_0,IDENT_1,IDENT_2,IDENT_3,IDENT_4,IDENT_5,IDENT_6,







"updatedName",
STRING_0,

























