when_tryProcess1_then_delegatesToTryProcess,tryProcess1,validateReceptionOfItem,tryProcess,
METHOD_0,METHOD_1,METHOD_2,METHOD_3,

done,hazelcast,jet,AbstractProcessorTest,MOCK_ITEM,ORDINAL_1,
IDENT_0,IDENT_1,IDENT_2,IDENT_3,IDENT_4,IDENT_5,


































