testGetCurrTimeSeconds,AudioCache,getCurrTimeSeconds,
METHOD_0,METHOD_1,METHOD_2,

bixly,pastevid,recorders,AudioCache,currTimeMS,
IDENT_0,IDENT_1,IDENT_2,IDENT_3,IDENT_4,







"getCurrTimeSeconds",
STRING_0,

























