testGetIdsAsString,getIdsAsString,
METHOD_0,METHOD_1,

idsAsString,hazelcast,simulator,FailureType,
IDENT_0,IDENT_1,IDENT_2,IDENT_3,


































