testReportNullCause_thenIgnored,getUserDir,
METHOD_0,METHOD_1,

hazelcast,simulator,ExceptionReporter,exceptionFile,FileUtils,userDirTest,
IDENT_0,IDENT_1,IDENT_2,IDENT_3,IDENT_4,IDENT_5,







"testID","1.exception","user.dir.test","user.dir",
STRING_0,STRING_1,STRING_2,STRING_3,

























