testValidateOk,MyRequest,setUserId,getUserId,
METHOD_0,METHOD_1,METHOD_2,METHOD_3,

userId,MyRequest,
IDENT_0,IDENT_1,

99L,
INT_0,































