shouldReturnsAllEntriesWhenFilteredOnTrue,
METHOD_0,

Iterable,Predicate,dest,pitest,functional,FCollection,xs,predicate,
IDENT_0,IDENT_1,IDENT_2,IDENT_3,IDENT_4,IDENT_5,IDENT_6,IDENT_7,


































