shouldBeFalseWhenGivenFalseAndFalse,
METHOD_0,

pitest,functional,predicate,And,testee,False,includedClassPathElement,
IDENT_0,IDENT_1,IDENT_2,IDENT_3,IDENT_4,IDENT_5,IDENT_6,


































