shouldSortInConsistantOrder,fromString,sort,MethodName,
METHOD_0,METHOD_1,METHOD_2,METHOD_3,

pitest,mutationtest,Location,classinfo,ClassName,MethodName,ls,
IDENT_0,IDENT_1,IDENT_2,IDENT_3,IDENT_4,IDENT_5,IDENT_6,







"A","AA",
STRING_0,STRING_1,

























