shouldCopyStreamsToByteArrays,createByteArray,streamToByteArray,copy,
METHOD_0,METHOD_1,METHOD_2,METHOD_3,

bis,pitest,StreamUtil,
IDENT_0,IDENT_1,IDENT_2,


































