testToIrc,toIrc,
METHOD_0,METHOD_1,

ircRed,Colors,RED,minecraftRed,bukkit,ChatColor,hef,IRCTransport,ColorMap,Metrics,Graph,
IDENT_0,IDENT_1,IDENT_2,IDENT_3,IDENT_4,IDENT_5,IDENT_6,IDENT_7,IDENT_8,IDENT_9,IDENT_10,







"string is ","red",
STRING_0,STRING_1,

























