testCreateEndpointWithTimeout,createExecEndpoint,getTimeout,
METHOD_0,METHOD_1,METHOD_2,

timeout,ExecEndpoint,
IDENT_0,IDENT_1,

1999999L,
INT_0,




"exec:test?timeout=",
STRING_0,

























