remove_item_from_list,SetLounge,sitDown,nisse,kalle,getSeatedPeople,
METHOD_0,METHOD_1,METHOD_2,METHOD_3,METHOD_4,METHOD_5,

ektorp,docref,SetLounge,lounge,People,seatedPeople,
IDENT_0,IDENT_1,IDENT_2,IDENT_3,IDENT_4,IDENT_5,







"jennylund",
STRING_0,

























