testAreEqual,areEqual,StringReader,
METHOD_0,METHOD_1,METHOD_2,

ektorp,JSONComparator,jsonA,jsonB,
IDENT_0,IDENT_1,IDENT_2,IDENT_3,


































