testLog10Definition,DSFactory,variable,log10,divide,subtract,getPartialDerivative,getFactory,getCompiler,getPartialDerivativeIndex,
METHOD_0,METHOD_1,METHOD_2,METHOD_3,METHOD_4,METHOD_5,METHOD_6,METHOD_7,METHOD_8,METHOD_9,

epsilon,maxOrder,differentiation,DSFactory,DerivativeStructure,dsX,log101,FastMath,log102,zero,orders,
IDENT_0,IDENT_1,IDENT_2,IDENT_3,IDENT_4,IDENT_5,IDENT_6,IDENT_7,IDENT_8,IDENT_9,IDENT_10,










3.0E-16,9.0E-16,8.0E-15,3.0E-13,8.0E-12,0.1,1.2,0.001,10.0,
FLOAT_0,FLOAT_1,FLOAT_2,FLOAT_3,FLOAT_4,FLOAT_5,FLOAT_6,FLOAT_7,FLOAT_8,






















