testZeroImaginary,Complex,getDecimalCharacter,FieldPosition,
METHOD_0,METHOD_1,METHOD_2,METHOD_3,

complex,Complex,complexFormat,Vector,vector,
IDENT_0,IDENT_1,IDENT_2,IDENT_3,IDENT_4,







"30","2333333333",
STRING_0,STRING_1,

30.23333333333,
FLOAT_0,






















