testLogNaN,createComplex,abs,atan2,isNaN,
METHOD_0,METHOD_1,METHOD_2,METHOD_3,METHOD_4,

isNaN,complex,Complex,NaN,FastMath,imaginary,real,
IDENT_0,IDENT_1,IDENT_2,IDENT_3,IDENT_4,IDENT_5,IDENT_6,


































