testMean,PoissonDistribution,getMean,
METHOD_0,METHOD_1,METHOD_2,

distribution,discrete,PoissonDistribution,dist,mean,
IDENT_0,IDENT_1,IDENT_2,IDENT_3,IDENT_4,










10.0,
FLOAT_0,






















