testReduceComparedWithNormalizeAngle,ulp,normalizeAngle,reduce,abs,floor,
METHOD_0,METHOD_1,METHOD_2,METHOD_3,METHOD_4,METHOD_5,

tol,period,PI,center,nA,MathUtils,FastMath,
IDENT_0,IDENT_1,IDENT_2,IDENT_3,IDENT_4,IDENT_5,IDENT_6,










0.5,
FLOAT_0,






















