testNan,FieldPosition,
METHOD_0,METHOD_1,

euclidean,oned,Vector1D,NaN,vector1DFormat,Vector,vector,
IDENT_0,IDENT_1,IDENT_2,IDENT_3,IDENT_4,IDENT_5,IDENT_6,







"{(NaN)}",
STRING_0,

























