testSingleDown,SemiVariance,
METHOD_0,METHOD_1,

stat,descriptive,moment,SemiVariance,sv,singletest,RealVector,point,
IDENT_0,IDENT_1,IDENT_2,IDENT_3,IDENT_4,IDENT_5,IDENT_6,IDENT_7,










50.0,
FLOAT_0,






















