testMath1129,DescriptiveStatistics,getPercentile,setQuantile,
METHOD_0,METHOD_1,METHOD_2,METHOD_3,

NaN,stat,descriptive,DescriptiveStatistics,ds,iqr,percentileImpl,
IDENT_0,IDENT_1,IDENT_2,IDENT_3,IDENT_4,IDENT_5,IDENT_6,

75,25,
INT_0,INT_1,







0.012086732064244697,0.24975668704012527,0.5706168483164684,0.322111769955327,0.24166759508327315,0.16698443218942854,0.10427763937565114,0.15595963093172435,0.028075857595882995,0.24137994506058857,0.47543170476574426,0.07495595384947631,0.37445697625436497,0.09944199541668033,
FLOAT_0,FLOAT_1,FLOAT_2,FLOAT_3,FLOAT_4,FLOAT_5,FLOAT_6,FLOAT_7,FLOAT_8,FLOAT_9,FLOAT_10,FLOAT_11,FLOAT_12,FLOAT_13,






















