testShouldReplay,UnreliableFailHandler,KafkaMessageId,shouldReplay,
METHOD_0,METHOD_1,METHOD_2,METHOD_3,

minvenj,nfi,storm,FailHandler,KafkaMessageId,
IDENT_0,IDENT_1,IDENT_2,IDENT_3,IDENT_4,

1234,
INT_0,































