testHomeDirectory,makeQualified,getHomeDirectory,getHomeDirectoryString,
METHOD_0,METHOD_1,METHOD_2,METHOD_3,

home,fileSys,fsHome,WebHdfsFileSystem,ugi,
IDENT_0,IDENT_1,IDENT_2,IDENT_3,IDENT_4,







"user.home",
STRING_0,

























