testJVMId,JVMId,forName,
METHOD_0,METHOD_1,METHOD_2,

mapred,JVMId,jvmid,jvmid1,VolumeId,arg0,
IDENT_0,IDENT_1,IDENT_2,IDENT_3,IDENT_4,IDENT_5,







"jvm_test_0001_m_000002",
STRING_0,

























