shouldStartRoute,sendBody,receiveBody,getEndpointUri,
METHOD_0,METHOD_1,METHOD_2,METHOD_3,

producerTemplate,receivedMessage,consumerTemplate,Endpoint,endpoint,
IDENT_0,IDENT_1,IDENT_2,IDENT_3,IDENT_4,







"msg","seda:test",
STRING_0,STRING_1,

























