nonEmptyPathShouldBeKeptSame,setHttpURI,getHttpURI,
METHOD_0,METHOD_1,METHOD_2,

endpoint,withSlash,httpURI,
IDENT_0,IDENT_1,IDENT_2,


































