shouldResolveHostParameterAsGivenValue,createEndpoint,getHost,
METHOD_0,METHOD_1,METHOD_2,

RestEndpoint,endpoint,
IDENT_0,IDENT_1,







"host","http://localhost:8080","rest://GET:/path:?host=http%3A%2F%2Flocalhost%3A8080","GET:/path",
STRING_0,STRING_1,STRING_2,STRING_3,

























