selectedFieldsOrdering,Data,Fields,withFields,selectedFields,
METHOD_0,METHOD_1,METHOD_2,METHOD_3,METHOD_4,

cascading,Fields,hotels,plunger,Tuple,
IDENT_0,IDENT_1,IDENT_2,IDENT_3,IDENT_4,







"A","B","C",
STRING_0,STRING_1,STRING_2,

























