testParseUser,readResource,parseJsonObject,getCreatedAt,
METHOD_0,METHOD_1,METHOD_2,METHOD_3,

weiboclient4j,createdAt,
IDENT_0,IDENT_1,







"/weiboclient4j/model/users.json",
STRING_0,

























