shouldSaveState,MemoryStateRepository,setState,getState,countDown,
METHOD_0,METHOD_1,METHOD_2,METHOD_3,METHOD_4,

MemoryStateRepository,KafkaConsumerRebalanceTest,TOPIC,messagesLatch,
IDENT_0,IDENT_1,IDENT_2,IDENT_3,







"key","-1",
STRING_0,STRING_1,

























