testEmptyResults,MockClient,publish,PublisherFactory,ConsoleLogger,
METHOD_0,METHOD_1,METHOD_2,METHOD_3,METHOD_4,

hp,automation,sse,Client,TestPublisher,DOMAIN,PROJECT,USER,Testsuites,testsuites,
IDENT_0,IDENT_1,IDENT_2,IDENT_3,IDENT_4,IDENT_5,IDENT_6,IDENT_7,IDENT_8,IDENT_9,







"BVS","1310","1001",
STRING_0,STRING_1,STRING_2,

























