testHttpProxy,httpProxy,send,statusCode,
METHOD_0,METHOD_1,METHOD_2,METHOD_3,

dongliu,requests,RawResponse,Requests,Proxies,
IDENT_0,IDENT_1,IDENT_2,IDENT_3,IDENT_4,

1081,
INT_0,




"https://www.google.com","127.0.0.1",
STRING_0,STRING_1,

























