testHasHeaders,getRequestUrl,getHeaders,RequestException,
METHOD_0,METHOD_1,METHOD_2,METHOD_3,

RequestError,MultivaluedMap,RequestException,actualHeaders,
IDENT_0,IDENT_1,IDENT_2,IDENT_3,


































