testCreateServletContainerOnce,getServletContainer,
METHOD_0,METHOD_1,

ServletContainer,bridge,container2,servletContainer,
IDENT_0,IDENT_1,IDENT_2,IDENT_3,


































