testProcess6,LimitProcess,sort,
METHOD_0,METHOD_1,METHOD_2,

huawei,LimitProcess,limitProcess,SupportConst,I_FIVE,IEvent,TupleEvent,I_TEN,actualResult,theEvents,
IDENT_0,IDENT_1,IDENT_2,IDENT_3,IDENT_4,IDENT_5,IDENT_6,IDENT_7,IDENT_8,IDENT_9,


































