testHServerAddressString,HServerAddress,InetSocketAddress,getBuffer,getKeyOffset,getKeyLength,
METHOD_0,METHOD_1,METHOD_2,METHOD_3,METHOD_4,METHOD_5,

HServerAddress,hsa1,hsa2,KeyValue,kv,Bytes,
IDENT_0,IDENT_1,IDENT_2,IDENT_3,IDENT_4,IDENT_5,

1234,
INT_0,




"localhost",
STRING_0,

























