sendMessage,establishSharedSession,doRequest,
METHOD_0,METHOD_1,METHOD_2,

cayenne,rop,JettyHttpROPConnectorIT,ropConnector,SEND_MESSAGE_SESSION,MESSAGE,
IDENT_0,IDENT_1,IDENT_2,IDENT_3,IDENT_4,IDENT_5,


































