testTruncDivInteger,newHashMap,
METHOD_0,METHOD_1,

Maps,testCases,testCase,rendered,jinja,items,jinjava,sortExtra,
IDENT_0,IDENT_1,IDENT_2,IDENT_3,IDENT_4,IDENT_5,IDENT_6,IDENT_7,







"dividend","divisor","negativeDividend","negativeDivisor","{% set x = dividend // divisor %}{{x}}","{% set x = dividend // negativeDivisor %}{{x}}","{% set x = dividend // 2 %}{{x}}","-3","{% set x = -5 // 2 %}{{x}}","{% set x = 5 // -2 %}{{x}}","iterable","{% for item in iterable|sort"," %}{{ item }}{% endfor %}",
STRING_0,STRING_1,STRING_2,STRING_3,STRING_4,STRING_5,STRING_6,STRING_7,STRING_8,STRING_9,STRING_10,STRING_11,STRING_12,

























