testStringBound,setUp,
METHOD_0,METHOD_1,

hubspot,liveconfig,InjectionTest,InjectString,injected,injector,PROPERTY_KEY,
IDENT_0,IDENT_1,IDENT_2,IDENT_3,IDENT_4,IDENT_5,IDENT_6,







"abc",
STRING_0,

























