test3,getLoop,getLength,
METHOD_0,METHOD_1,METHOD_2,

items,loop,hubspot,jinjava,ObjectIterator,revcounter,ForLoop,NULL_VALUE,Logging,ENGINE_LOG,
IDENT_0,IDENT_1,IDENT_2,IDENT_3,IDENT_4,IDENT_5,IDENT_6,IDENT_7,IDENT_8,IDENT_9,







"can't compute items' length while looping.",
STRING_0,

























