testGetContainer,getContainer,SmoothieContainerBootstrap,bootstrap,
METHOD_0,METHOD_1,METHOD_2,METHOD_3,

hudsonci,inject,SmoothieContainer,Smoothie,
IDENT_0,IDENT_1,IDENT_2,IDENT_3,







"Container: {}",
STRING_0,

























