withFourNodes_Unbalanced,BinaryTreeNode,isBalanced,isBalancedWithHeight,
METHOD_0,METHOD_1,METHOD_2,METHOD_3,

treegraph,BinaryTreeNode,left,
IDENT_0,IDENT_1,IDENT_2,


































