withOneProject,Digraph,findBuildOrder,dfs,
METHOD_0,METHOD_1,METHOD_2,METHOD_3,

treegraph,Digraph,digraph,onStack,visited,topological,
IDENT_0,IDENT_1,IDENT_2,IDENT_3,IDENT_4,IDENT_5,


































