testRemove,InMemoryKey,
METHOD_0,METHOD_1,

memory,vn,vndirect,exchangesimulator,datastorage,InMemoryKey,objKey,
IDENT_0,IDENT_1,IDENT_2,IDENT_3,IDENT_4,IDENT_5,IDENT_6,







"type","key","value1",
STRING_0,STRING_1,STRING_2,

























