withTwoNodes,BinaryTreeNode,isSubTree,preOrder,
METHOD_0,METHOD_1,METHOD_2,METHOD_3,

treegraph,BinaryTreeNode,left,preorderA,preorderB,
IDENT_0,IDENT_1,IDENT_2,IDENT_3,IDENT_4,


































