shouldNotEmpty,createNewOrder,
METHOD_0,METHOD_1,

vn,vndirect,exchangesimulator,NewOrderSingle,OrderFactory,
IDENT_0,IDENT_1,IDENT_2,IDENT_3,IDENT_4,







"VND",
STRING_0,

12.0,
FLOAT_0,






















