test_getAdaptiveExtension_InjectNotExtFail,getExtensionLoader,getExtension,getList,
METHOD_0,METHOD_1,METHOD_2,METHOD_3,

extensionloader,ext6_inject,Ext6,ExtensionLoader,Ext6Impl2,
IDENT_0,IDENT_1,IDENT_2,IDENT_3,IDENT_4,







"impl2",
STRING_0,

























