testRevertNotify2,revertNotify,rehash,
METHOD_0,METHOD_1,METHOD_2,

notify,newRegister,UrlUtils,expectedRegister,IntHashMap,tab,old,threshold,
IDENT_0,IDENT_1,IDENT_2,IDENT_3,IDENT_4,IDENT_5,IDENT_6,IDENT_7,

2147483647,
INT_0,




"perf/dubbo.test.api.HelloService:1.0.0","dubbo://127.0.0.1:20880/com.xxx.XxxService","group=perf&version=1.0.0",
STRING_0,STRING_1,STRING_2,




%,
OP_0,



















