testSetChannel,newChannel,setChannel,getChannel,
METHOD_0,METHOD_1,METHOD_2,METHOD_3,

hyperledger,fabric,Channel,OrdererTest,hfclient,DEFAULT_CHANNEL_NAME,orderer,
IDENT_0,IDENT_1,IDENT_2,IDENT_3,IDENT_4,IDENT_5,IDENT_6,







"Unexpected Exception ",
STRING_0,

























