testSignValidData,getTrustStore,toCharArray,sign,ecdsaSignToBytes,
METHOD_0,METHOD_1,METHOD_2,METHOD_3,METHOD_4,

PrivateKey,hyperledger,fabric,CryptoPrimitivesTest,plainText,ECPrivateKey,
IDENT_0,IDENT_1,IDENT_2,IDENT_3,IDENT_4,IDENT_5,







"key","123456",
STRING_0,STRING_1,

























