testGetSegmentQuals,Cf,getSegmentQuals,
METHOD_0,METHOD_1,METHOD_2,

pb,x12,Cf,cf,segmentQuals,
IDENT_0,IDENT_1,IDENT_2,IDENT_3,IDENT_4,







"1000A","NM1","41",
STRING_0,STRING_1,STRING_2,

























