testSize,Segment,addElements,childList,
METHOD_0,METHOD_1,METHOD_2,METHOD_3,

pb,x12,Segment,segments,Loop,
IDENT_0,IDENT_1,IDENT_2,IDENT_3,IDENT_4,







'~','*',':',"ISA","ISA01","ISA02","ISA03","ISA04",
STRING_0,STRING_1,STRING_2,STRING_3,STRING_4,STRING_5,STRING_6,STRING_7,

























