testHasPassword,getConfigurations,setPassword,hasPassword,
METHOD_0,METHOD_1,METHOD_2,METHOD_3,

darwinsys,ConnectionUtil,dbPassword,
IDENT_0,IDENT_1,IDENT_2,


































