testDelete,BasicDBObject,createToDo,
METHOD_0,METHOD_1,METHOD_2,

emptyStore,populatedStore,td1,BasicDBObject,DBCursor,cursor,coll,bluemix,todo,ToDo,td,
IDENT_0,IDENT_1,IDENT_2,IDENT_3,IDENT_4,IDENT_5,IDENT_6,IDENT_7,IDENT_8,IDENT_9,IDENT_10,







"123","_id",
STRING_0,STRING_1,

























