equals_differentValue,
METHOD_0,

icantrap,dawg,lhs,rhs,Dawg,word,
IDENT_0,IDENT_1,IDENT_2,IDENT_3,IDENT_4,IDENT_5,







'x','y',
STRING_0,STRING_1,

























