testBitwiseAssociativity,getBuilder,evaluateAsString,
METHOD_0,METHOD_1,METHOD_2,

cayenne,Expression,e1,ExpressionFactory,e2,
IDENT_0,IDENT_1,IDENT_2,IDENT_3,IDENT_4,







"(3010 | 2012) | 4095","3010 | (2012 | 4095)",
STRING_0,STRING_1,

























