testSetInvalidRoot,MockAbstractQuery,setRoot,getRoot,
METHOD_0,METHOD_1,METHOD_2,METHOD_3,

cayenne,AbstractQuery,
IDENT_0,IDENT_1,







"Should not be able to set the root to an Integer",
STRING_0,

























