testFilterValidEmpty,filterValid,
METHOD_0,METHOD_1,

cert,X509Certificate,jivesoftware,openfire,keystore,CertificateUtils,
IDENT_0,IDENT_1,IDENT_2,IDENT_3,IDENT_4,IDENT_5,


































