test_DefaultRoot,firstUpdateCount,
METHOD_0,METHOD_1,

inserted,cayenne,SQLExec,ObjectContext,
IDENT_0,IDENT_1,IDENT_2,IDENT_3,







"INSERT INTO ARTIST (ARTIST_ID, ARTIST_NAME) VALUES (1, 'a')",
STRING_0,

























