testSeparatorItem,ToolbarItem,isSeparator,
METHOD_0,METHOD_1,METHOD_2,

classUnderTest,squirrel_sql,gui,
IDENT_0,IDENT_1,IDENT_2,


































