testSetGetSchema,DatabaseObjectQualifier,setSchema,getSchema,
METHOD_0,METHOD_1,METHOD_2,METHOD_3,

classUnderTest,squirrel_sql,fw,dialects,
IDENT_0,IDENT_1,IDENT_2,IDENT_3,


































