testSetSqlStatementSeparator,setSqlStatementSeparator,getSqlStatementSeparator,
METHOD_0,METHOD_1,METHOD_2,

classUnderTest,sqlStatementSeparator,
IDENT_0,IDENT_1,


































