testDelete,isSuccess,intValue,
METHOD_0,METHOD_1,METHOD_2,

hao0,diablo,delResp,configService,JsonResponse,OK,
IDENT_0,IDENT_1,IDENT_2,IDENT_3,IDENT_4,IDENT_5,







"test0",
STRING_0,

























