testUserSummary,userSummary,loadAccessToken,
METHOD_0,METHOD_1,METHOD_2,

hao0,wechat,UserSummary,summaries,accessToken,Callback,startDate,endDate,
IDENT_0,IDENT_1,IDENT_2,IDENT_3,IDENT_4,IDENT_5,IDENT_6,IDENT_7,







"2015-09-01","2015-09-06",
STRING_0,STRING_1,

























