testSelect,createArtistsDataSet,SelectQuery,
METHOD_0,METHOD_1,METHOD_2,

cayenne,SelectQuery,testdo,testmap,Artist,objects,neighbors,
IDENT_0,IDENT_1,IDENT_2,IDENT_3,IDENT_4,IDENT_5,IDENT_6,


































