test_success_get_principal_by_name_like,getPrincipalByNameLike,
METHOD_0,METHOD_1,

ikasan,IkasanPrincipal,principals,xaSecurityDao,
IDENT_0,IDENT_1,IDENT_2,IDENT_3,

15000,
INT_0,




"anotherPrincipal","Size! ",
STRING_0,STRING_1,

























