convert_when_bytesMessage_has_JMSPriority,ActiveMQBytesMessage,setJMSPriority,reset,getJMSPriority,
METHOD_0,METHOD_1,METHOD_2,METHOD_3,METHOD_4,

jmsPriority,BytesMessage,uut,
IDENT_0,IDENT_1,IDENT_2,


































