convert_when_bytesMessage_has_JMSType,ActiveMQBytesMessage,setJMSType,reset,getJMSType,
METHOD_0,METHOD_1,METHOD_2,METHOD_3,METHOD_4,

jmsType,BytesMessage,uut,
IDENT_0,IDENT_1,IDENT_2,







"TestJMSType",
STRING_0,

























