convert_when_mapMessage_has_JMSType,ActiveMQMapMessage,setJMSType,getJMSType,
METHOD_0,METHOD_1,METHOD_2,METHOD_3,

jmsType,MapMessage,uut,
IDENT_0,IDENT_1,IDENT_2,







"TestJMSType",
STRING_0,

























