testJoin2Inplaces,cursor,fwd,
METHOD_0,METHOD_1,METHOD_2,

imagej,ops,Op,DefaultJoin2Inplaces,inplaceOp,imglib2,Cursor,numeric,integer,ByteType,slice,SlicesII,SlicesIICursor,
IDENT_0,IDENT_1,IDENT_2,IDENT_3,IDENT_4,IDENT_5,IDENT_6,IDENT_7,IDENT_8,IDENT_9,IDENT_10,IDENT_11,IDENT_12,


































