testUnknownDirective,processTemplate,emptyMap,getSql,
METHOD_0,METHOD_1,METHOD_2,METHOD_3,

sqlTemplate,cayenne,access,SQLStatement,compiled,delegateTranslator,
IDENT_0,IDENT_1,IDENT_2,IDENT_3,IDENT_4,IDENT_5,







"SELECT #from(1) FROM a",
STRING_0,

























