testMoveIntInt,RealPoint,move,getDoublePosition,
METHOD_0,METHOD_1,METHOD_2,METHOD_3,

move,imglib2,RealPoint,
IDENT_0,IDENT_1,IDENT_2,










1.5,2.5,4.5,6.5,
FLOAT_0,FLOAT_1,FLOAT_2,FLOAT_3,






















