testSetPositionLongInt,RealPoint,setPosition,getDoublePosition,
METHOD_0,METHOD_1,METHOD_2,METHOD_3,

initial,fynal,imglib2,RealPoint,p1,
IDENT_0,IDENT_1,IDENT_2,IDENT_3,IDENT_4,

98,44,
INT_0,INT_1,







5.3,2.6,3.1,852.1,
FLOAT_0,FLOAT_1,FLOAT_2,FLOAT_3,






















