testSetPositionRealLocalizable,RealPoint,setPosition,getDoublePosition,
METHOD_0,METHOD_1,METHOD_2,METHOD_3,

initial,fynal,imglib2,RealPoint,p1,p2,
IDENT_0,IDENT_1,IDENT_2,IDENT_3,IDENT_4,IDENT_5,










5.3,2.6,3.1,852.1,98.2,16.1,44.7,
FLOAT_0,FLOAT_1,FLOAT_2,FLOAT_3,FLOAT_4,FLOAT_5,FLOAT_6,






















