testGetFloatPosition,RealPoint,getFloatPosition,
METHOD_0,METHOD_1,METHOD_2,

initial,imglib2,RealPoint,p1,
IDENT_0,IDENT_1,IDENT_2,IDENT_3,










5.3,2.6,3.1,852.1,
FLOAT_0,FLOAT_1,FLOAT_2,FLOAT_3,






















