testSetZero,setZero,mul,getDoublePosition,numDimensions,
METHOD_0,METHOD_1,METHOD_2,METHOD_3,METHOD_4,

imglib2,logic,BitType,BitTypeTest,img,
IDENT_0,IDENT_1,IDENT_2,IDENT_3,IDENT_4,


































