testConstructor1,TestMapEvent,getSource,
METHOD_0,METHOD_1,METHOD_2,

src,cayenne,MapEvent,modeler,ModelerEventTest,
IDENT_0,IDENT_1,IDENT_2,IDENT_3,IDENT_4,


































