testSetRandom,Random,abs,nextLong,mul,getDoublePosition,numDimensions,
METHOD_0,METHOD_1,METHOD_2,METHOD_3,METHOD_4,METHOD_5,METHOD_6,

Random,rnd,imglib2,numeric,integer,Unsigned128BitType,Unsigned128BitTypeTest,img,
IDENT_0,IDENT_1,IDENT_2,IDENT_3,IDENT_4,IDENT_5,IDENT_6,IDENT_7,

4096,
INT_0,































