testSmallBigIntegerValues,Unsigned128BitType,
METHOD_0,METHOD_1,

imglib2,numeric,integer,Unsigned128BitType,u,converted,
IDENT_0,IDENT_1,IDENT_2,IDENT_3,IDENT_4,IDENT_5,

329L,
INT_0,































