testPositiveOutOfRangeValue,UnsignedByteType,
METHOD_0,METHOD_1,

imglib2,numeric,integer,UnsignedByteType,u,converted,
IDENT_0,IDENT_1,IDENT_2,IDENT_3,IDENT_4,IDENT_5,

1027,
INT_0,































