testGetIntValue_3,getIntValue,parseInt,
METHOD_0,METHOD_1,METHOD_2,

intStr,defaultVal,impetus,ankush,ParserUtil,paramVal,NumberFormatException,
IDENT_0,IDENT_1,IDENT_2,IDENT_3,IDENT_4,IDENT_5,IDENT_6,


































