testSupportsBatchUpdates,getMetaData,supportsBatchUpdates,
METHOD_0,METHOD_1,METHOD_2,

DatabaseMetaData,dbmd,con,
IDENT_0,IDENT_1,IDENT_2,


































