testFilterEmptyGraph,getEmptyGraph,doPrivileged,
METHOD_0,METHOD_1,METHOD_2,

clerezza,rdf,Graph,Triple,AccessController,PrivilegedAction,wrappedIterator,
IDENT_0,IDENT_1,IDENT_2,IDENT_3,IDENT_4,IDENT_5,IDENT_6,


































