entityWithNoStudentIdCannotBeResolved,MongoEntity,findGoverningEdOrgs,
METHOD_0,METHOD_1,METHOD_2,

leas,
IDENT_0,







"type","id",
STRING_0,STRING_1,

























