testGetType,
METHOD_0,

modeling,xmigen,Identifier,classType,identifier,uml,modelIndex,
IDENT_0,IDENT_1,IDENT_2,IDENT_3,IDENT_4,IDENT_5,IDENT_6,


































