testToString,
METHOD_0,

string1,attribute,string2,identifier,modeling,uml,ZERO_TO_ONE,entityId,
IDENT_0,IDENT_1,IDENT_2,IDENT_3,IDENT_4,IDENT_5,IDENT_6,IDENT_7,







"{id: ",", name: TestAttribute, type: ",", multiplicity: ","}","MongoEntity ",
STRING_0,STRING_1,STRING_2,STRING_3,STRING_4,

























