


modeling,xmi,comp,QNameComparator,qNameComparator,entityId,
IDENT_0,IDENT_1,IDENT_2,IDENT_3,IDENT_4,IDENT_5,







"MongoEntity ",
STRING_0,

























