testReadAll,getBook,readAll,getTitle,getGenre,getPublisher,
METHOD_0,METHOD_1,METHOD_2,METHOD_3,METHOD_4,METHOD_5,

basaki,postgres,jsonb,Book,book,books,Genre,Author,returnedObjs,title,genre,publisher,
IDENT_0,IDENT_1,IDENT_2,IDENT_3,IDENT_4,IDENT_5,IDENT_6,IDENT_7,IDENT_8,IDENT_9,IDENT_10,IDENT_11,


































