testBillGets,_setupTestBill,_checkBillIntoDb,check,getList,getPatient,
METHOD_0,METHOD_1,METHOD_2,METHOD_3,METHOD_4,METHOD_5,

isf,accounting,Bill,foundBill,Tests,testBill,testPriceList,testPatient,
IDENT_0,IDENT_1,IDENT_2,IDENT_3,IDENT_4,IDENT_5,IDENT_6,IDENT_7,


































