testCloseReopen,ContentStoreDirFixedBlock,retrieve,retrieveParts,
METHOD_0,METHOD_1,METHOD_2,METHOD_3,

inl,blacklab,externalstorage,dir,rv,
IDENT_0,IDENT_1,IDENT_2,IDENT_3,IDENT_4,


































