testOrder,idToSortPosition,
METHOD_0,METHOD_1,

sensitive,sortPositionPerId,sortPositionPerIdInsensitive,
IDENT_0,IDENT_1,IDENT_2,







"brown","dog","fox","jumps","lazy","over","quick","the",
STRING_0,STRING_1,STRING_2,STRING_3,STRING_4,STRING_5,STRING_6,STRING_7,

























