testFromStringValid,fromString,checkNotNull,checkArgument,Cpf,
METHOD_0,METHOD_1,METHOD_2,METHOD_3,METHOD_4,

validCpfs,cpf,digits,insula,opes,Cpf,
IDENT_0,IDENT_1,IDENT_2,IDENT_3,IDENT_4,IDENT_5,







"57212970263","023.750.169-47","04642835903","855.826.525-90","96183390259","84250739287","74390651234","51918102287","72178507204","85542520200","\\D","\\d{11}","(\\d)\\1+",
STRING_0,STRING_1,STRING_2,STRING_3,STRING_4,STRING_5,STRING_6,STRING_7,STRING_8,STRING_9,STRING_10,STRING_11,STRING_12,

























