testGetAPageOfAction,CmdletInfo,getAPageOfCmdlet,JdbcTemplate,CmdletRowMapper,
METHOD_0,METHOD_1,METHOD_2,METHOD_3,METHOD_4,

smartdata,CmdletInfo,cmdlet1,CmdletState,EXECUTING,cmdlet2,PAUSED,cmdletDao,desc,JdbcTemplate,jdbcTemplate,dataSource,ifHasAid,metastore,CmdletDao,TABLE_NAME,orderBy,isDesc,
IDENT_0,IDENT_1,IDENT_2,IDENT_3,IDENT_4,IDENT_5,IDENT_6,IDENT_7,IDENT_8,IDENT_9,IDENT_10,IDENT_11,IDENT_12,IDENT_13,IDENT_14,IDENT_15,IDENT_16,IDENT_17,

123123333L,232444444L,78,123178333L,232444994L,
INT_0,INT_1,INT_2,INT_3,INT_4,




"tt","cid","SELECT * FROM "," ORDER BY "," desc ",",","cid,"," LIMIT ",";",
STRING_0,STRING_1,STRING_2,STRING_3,STRING_4,STRING_5,STRING_6,STRING_7,STRING_8,

























