testUpdate,SystemInfo,getByProperty,
METHOD_0,METHOD_1,METHOD_2,

smartdata,SystemInfo,systemInfo,systemInfoDao,newSystemInfo,infos,
IDENT_0,IDENT_1,IDENT_2,IDENT_3,IDENT_4,IDENT_5,







"test1",
STRING_0,

























