flagTest,Plot,PlotId,fromString,getFlag,isPresent,valueToString,ifPresent,NbtFactory,
METHOD_0,METHOD_1,METHOD_2,METHOD_3,METHOD_4,METHOD_5,METHOD_6,METHOD_7,METHOD_8,

intellectualsites,plotsquared,plot,Plot,owner,flag,use,Flags,USE,testBlock,PlotBlock,flag2,bukkit,NbtFactory,
IDENT_0,IDENT_1,IDENT_2,IDENT_3,IDENT_4,IDENT_5,IDENT_6,IDENT_7,IDENT_8,IDENT_9,IDENT_10,IDENT_11,IDENT_12,IDENT_13,







"84499644-ad72-454b-a19d-f28c28df382b",
STRING_0,

























