testFeatureWithIgnore,getScenarioResults,
METHOD_0,METHOD_1,

intuit,karate,FeatureResult,FeatureParserTest,scenarioResults,
IDENT_0,IDENT_1,IDENT_2,IDENT_3,IDENT_4,







"test-ignore-feature.feature",
STRING_0,

























