testToStringWithEmptyLinkList,
METHOD_0,

intuit,wasabi,email,EmailLinksList,emailValue,
IDENT_0,IDENT_1,IDENT_2,IDENT_3,IDENT_4,


































