testUUID,EventEnvelopePayload,makeUUID,getTimeUUID,
METHOD_0,METHOD_1,METHOD_2,METHOD_3,

intuit,wasabi,eventobjects,EventEnvelopePayload,UUIDGen,
IDENT_0,IDENT_1,IDENT_2,IDENT_3,IDENT_4,


































