testPricingFactor,pricingFactor,probabilityCorrect,logoggs,
METHOD_0,METHOD_1,METHOD_2,METHOD_3,

pricingFactor,datascience,gal,Pricing,reverse,temp,minK,prob,Stat,h,
IDENT_0,IDENT_1,IDENT_2,IDENT_3,IDENT_4,IDENT_5,IDENT_6,IDENT_7,IDENT_8,IDENT_9,










0.05,0.5,
FLOAT_0,FLOAT_1,






















