testGetName,
METHOD_0,

harvard,iq,dataverse,users,AuthenticatedUserTest,testUser,firstName,lastName,
IDENT_0,IDENT_1,IDENT_2,IDENT_3,IDENT_4,IDENT_5,IDENT_6,IDENT_7,







"getName",
STRING_0,

























