testIsAuthenticated,isAuthenticated,
METHOD_0,METHOD_1,

harvard,iq,dataverse,users,AuthenticatedUserTest,testUser,
IDENT_0,IDENT_1,IDENT_2,IDENT_3,IDENT_4,IDENT_5,







"isAuthenticated",
STRING_0,

























