testEqualsWithAnotherButEqualObject,SortBy,
METHOD_0,METHOD_1,

harvard,iq,dataverse,SortBy,secondInstance,makedatacount,DatasetExternalCitations,
IDENT_0,IDENT_1,IDENT_2,IDENT_3,IDENT_4,IDENT_5,IDENT_6,


































