TestSearchAkaText,setText,setSelectedIndex,doClick,
METHOD_0,METHOD_1,METHOD_2,METHOD_3,

searchExpression,TagCombo,btnSearch,ResultData,ExpectedResult,
IDENT_0,IDENT_1,IDENT_2,IDENT_3,IDENT_4,







"Docklands","Aarhus Docklands",
STRING_0,STRING_1,

























