testParseInterlanguageLinksEn,readCsv,
METHOD_0,METHOD_1,

dictionary,InterlanguageLinksParserTest,SAMPLE_OUTPUT_EN,interlanguage,SAMPLE_INPUT_EN,
IDENT_0,IDENT_1,IDENT_2,IDENT_3,IDENT_4,


































