testList,B2BucketListService,DisabledListProgressListener,
METHOD_0,METHOD_1,METHOD_2,

AttributedList,b2,DELIMITER,EnumSet,volume,
IDENT_0,IDENT_1,IDENT_2,IDENT_3,IDENT_4,


































