testParseAbsolute,Host,TestProtocol,StringReader,parseAbsolute,getDefaultPath,
METHOD_0,METHOD_1,METHOD_2,METHOD_3,METHOD_4,METHOD_5,

Host,HostParser,StringReader,defaultpath,
IDENT_0,IDENT_1,IDENT_2,IDENT_3,







"/path/sub/directory",
STRING_0,

























