testParse9399,FTPStatListService,numberOfServices,
METHOD_0,METHOD_1,METHOD_2,

ftp,rendezvous,
IDENT_0,IDENT_1,

212,
INT_0,




"drwxrwxr-x 11 995 993 4096 Jan 11 21:24 .","drwxrwxr-x 4 995 993 4096 Jan 11 21:20 ..","drwxrwxr-x 3 995 993 4096 Jan 11 18:05 css","drwxrwxr-x 8 995 993 12288 Dec 07 18:11 images","drwxrwxr-x 3 995 993 4096 Jun 25 2015 layerednavigationajax","lrwxrwxrwx 1 995 993 55 Jan 25 16:39 locale -> ../../../../app/design/frontend/liberty/liberty/locale/","drwxrwxr-x 5 995 993 4096 Jun 25 2015 magentothem","drwxrwxr-x 4 995 993 4096 Jun 25 2015 magentothem_blog","drwxrwxr-x 5 995 993 4096 Jun 25 2015 onepagecheckout","drwxrwxr-x 3 995 993 4096 Jul 24 2015 tm",
STRING_0,STRING_1,STRING_2,STRING_3,STRING_4,STRING_5,STRING_6,STRING_7,STRING_8,STRING_9,

























