testFindKeyWithSpace,S3DefaultMultipartService,
METHOD_0,METHOD_1,

EnumSet,volume,jets3t,MultipartUpload,s3,
IDENT_0,IDENT_1,IDENT_2,IDENT_3,IDENT_4,







"test-us-east-1-cyberduck","t f",
STRING_0,STRING_1,

























