testMultiply,Matrix,multiply,
METHOD_0,METHOD_1,METHOD_2,

Matrix,m1,m2,shouldBe,rslt,vals,by,I11,I12,I21,I13,I31,I22,I32,I23,I33,
IDENT_0,IDENT_1,IDENT_2,IDENT_3,IDENT_4,IDENT_5,IDENT_6,IDENT_7,IDENT_8,IDENT_9,IDENT_10,IDENT_11,IDENT_12,IDENT_13,IDENT_14,IDENT_15,

11,13,46,51,82,91,130,144,
INT_0,INT_1,INT_2,INT_3,INT_4,INT_5,INT_6,INT_7,































