isCaseInsensitive,notNull,notEmpty,Tag,
METHOD_0,METHOD_1,METHOD_2,METHOD_3,

styledxmlparser,Tag,p1,p2,Validate,tagName,tag,tags,isBlock,canContainBlock,
IDENT_0,IDENT_1,IDENT_2,IDENT_3,IDENT_4,IDENT_5,IDENT_6,IDENT_7,IDENT_8,IDENT_9,







"P","p",
STRING_0,STRING_1,

























