convertFloatToStringTest,convertFloatToString,
METHOD_0,METHOD_1,

svg,SvgCssUtils,
IDENT_0,IDENT_1,







"0.5",
STRING_0,

0.5F,
FLOAT_0,






















