testToPrintableStringWithBufferSmallerThanMaxLength,toPrintableString,copiedBuffer,
METHOD_0,METHOD_1,METHOD_2,

uniluebeck,itm,nettyprotocols,ChannelBufferTools,ChannelBuffers,
IDENT_0,IDENT_1,IDENT_2,IDENT_3,IDENT_4,







"0123456789",
STRING_0,

























