testGetLocZeroLat2,locatonsMock,getLoc,
METHOD_0,METHOD_1,METHOD_2,

lat,lng,testPackage,locatonsMock,latitude,longitute,
IDENT_0,IDENT_1,IDENT_2,IDENT_3,IDENT_4,IDENT_5,

90,180,
INT_0,INT_1,




"getLoc",
STRING_0,

























