randomTest04,randomTest,isEqual,getDimensions,getElements,abs,
METHOD_0,METHOD_1,METHOD_2,METHOD_3,METHOD_4,METHOD_5,

seed,neuralnetworks,tensor,Matrix,openClResult,Runtime,OPENCL,seqResult,CPU_SEQ,Tensor,t1,t2,TensorIterator,it1,it2,
IDENT_0,IDENT_1,IDENT_2,IDENT_3,IDENT_4,IDENT_5,IDENT_6,IDENT_7,IDENT_8,IDENT_9,IDENT_10,IDENT_11,IDENT_12,IDENT_13,IDENT_14,

32,10000,
INT_0,INT_1,




"Use seed: ",
STRING_0,

1.0E-6,
FLOAT_0,






















