testLevelProperty,LocalLog,isLevelEnabled,clearProperty,isEnabled,
METHOD_0,METHOD_1,METHOD_2,METHOD_3,METHOD_4,

j256,ormlite,Log,Level,TRACE,LOCAL_LOG_LEVEL_PROPERTY,level,
IDENT_0,IDENT_1,IDENT_2,IDENT_3,IDENT_4,IDENT_5,IDENT_6,







"TRACE",
STRING_0,

























