testDelete,createMock,DatabaseConnectionProxy,
METHOD_0,METHOD_1,METHOD_2,

j256,ormlite,DatabaseConnection,DatabaseConnectionProxy,FieldType,argfieldTypes,
IDENT_0,IDENT_1,IDENT_2,IDENT_3,IDENT_4,IDENT_5,

13872321,
INT_0,




"insert bar",
STRING_0,

























