testTableSuffix,MariaDbDatabaseType,setCreateTableSuffix,appendCreateTableSuffix,
METHOD_0,METHOD_1,METHOD_2,METHOD_3,

j256,ormlite,MariaDbDatabaseType,dbType,suffix,
IDENT_0,IDENT_1,IDENT_2,IDENT_3,IDENT_4,







"ewfwefef","#",
STRING_0,STRING_1,

























