testGetBeanNames,getBeanNames,
METHOD_0,METHOD_1,

ObjectName,names,j256,simplejmx,JmxClientTest,objectName,JmxServer,LocalSocketFactory,inetAddress,
IDENT_0,IDENT_1,IDENT_2,IDENT_3,IDENT_4,IDENT_5,IDENT_6,IDENT_7,IDENT_8,


































