testDarwinPlatform,Process,isLinux,isMac,isFreeBSD,isSunos,isWindows,
METHOD_0,METHOD_1,METHOD_2,METHOD_3,METHOD_4,METHOD_5,METHOD_6,

Process,
IDENT_0,







"os.name","Darwin","os.arch","dummy","linux","darwin","freebsd","sunos","win32",
STRING_0,STRING_1,STRING_2,STRING_3,STRING_4,STRING_5,STRING_6,STRING_7,STRING_8,

























