getSessionId_should_return_session_id,createAgent,startup,getSessionId,
METHOD_0,METHOD_1,METHOD_2,METHOD_3,

jacoco,agent,rt,Agent,
IDENT_0,IDENT_1,IDENT_2,IDENT_3,


































