testHasHits_empty,ExecutionData,hasHits,
METHOD_0,METHOD_1,METHOD_2,

probes,jacoco,ExecutionData,
IDENT_0,IDENT_1,IDENT_2,







"Example",
STRING_0,

























