testEquals1,increment,Var,
METHOD_0,METHOD_1,METHOD_2,

jacoco,CounterImpl,LineImpl,line2,EMPTY,missed,SINGLETON_LIMIT,covered,SINGLETONS,
IDENT_0,IDENT_1,IDENT_2,IDENT_3,IDENT_4,IDENT_5,IDENT_6,IDENT_7,IDENT_8,

111,222,333,444,
INT_0,INT_1,INT_2,INT_3,































