testGetTabWidth,TestLocator,getTabWidth,
METHOD_0,METHOD_1,METHOD_2,

jacoco,ISourceFileLocator,locator,InputStreamSourceFileLocatorTest,tabWidth,
IDENT_0,IDENT_1,IDENT_2,IDENT_3,IDENT_4,

17,
INT_0,




"UTF-8",
STRING_0,

























