testGetLinkNone,MethodItem,getLink,getFirstLine,
METHOD_0,METHOD_1,METHOD_2,METHOD_3,

jacoco,MethodItem,ReportOutputFolder,sourcePage,link,ISourceNode,UNKNOWN_LINE,
IDENT_0,IDENT_1,IDENT_2,IDENT_3,IDENT_4,IDENT_5,IDENT_6,







"test()","#L",
STRING_0,STRING_1,

























