testServerWorks,narrow,servant_to_reference,BasicServerImpl,bounce_long_long,
METHOD_0,METHOD_1,METHOD_2,METHOD_3,METHOD_4,

jacorb,BasicServer,BasicServerHelper,rootPOA,orb,
IDENT_0,IDENT_1,IDENT_2,IDENT_3,IDENT_4,


































