testIsStatic,isStatic,left,right,
METHOD_0,METHOD_1,METHOD_2,METHOD_3,

jacorb,notification,etcl,AbstractTCLNode,TCLParser,
IDENT_0,IDENT_1,IDENT_2,IDENT_3,IDENT_4,







"'identifier'",
STRING_0,

























