testGetLogger,getLogger,
METHOD_0,METHOD_1,

slf4j,Logger,_logger,jacorb,notification,LogUtil,LoggerFactory,
IDENT_0,IDENT_1,IDENT_2,IDENT_3,IDENT_4,IDENT_5,IDENT_6,


































