fieldTest,BundleFilterNot,CachingField,createBundle,
METHOD_0,METHOD_1,METHOD_2,METHOD_3,

addthis,hydra,bundle,BundleFilterNot,bff,MapBundle,Bundle,
IDENT_0,IDENT_1,IDENT_2,IDENT_3,IDENT_4,IDENT_5,IDENT_6,







"dog","food",
STRING_0,STRING_1,

























