shouldBuildCookie,Cookies,NottableString,Cookie,
METHOD_0,METHOD_1,METHOD_2,METHOD_3,

Cookies,cookies,Cookie,cookie,NottableString,
IDENT_0,IDENT_1,IDENT_2,IDENT_3,IDENT_4,


































