constructorTest,ASTPrinter,
METHOD_0,METHOD_1,

pogofish,jadt,printer,ASTPrinter,returnType,statements,
IDENT_0,IDENT_1,IDENT_2,IDENT_3,IDENT_4,IDENT_5,







"Function(returnType = ",", name = ",", args = ",", statements = ",")",
STRING_0,STRING_1,STRING_2,STRING_3,STRING_4,

























