shouldContainsGivenDoesContainElement,
METHOD_0,

SortedSet,webamoeba,LinkedSortedSet,
IDENT_0,IDENT_1,IDENT_2,










12.2,0.1,0.01,
FLOAT_0,FLOAT_1,FLOAT_2,






















