shouldNextGivenIteratorHasNoMoreElements,
METHOD_0,

webamoeba,OrderedSet,TRUE,NoSuchElementException,
IDENT_0,IDENT_1,IDENT_2,IDENT_3,


































