testHashMap,clone,clonePojo,
METHOD_0,METHOD_1,METHOD_2,

mapdb,elsa,E,ElsaSerializerBaseTest,
IDENT_0,IDENT_1,IDENT_2,IDENT_3,

2000,10000,
INT_0,INT_1,































