testUnicodeString,clone,clonePojo,
METHOD_0,METHOD_1,METHOD_2,

E,mapdb,elsa,ElsaSerializerBaseTest,
IDENT_0,IDENT_1,IDENT_2,IDENT_3,







"Ciudad Bolva",
STRING_0,

























