progress_of_a_job_thats_taking_longer_than_expected_should_be_100,jobView,whereTheLast,isStillBuilding,startedAt,usuallyTakes,assuming,currentTime,progress,lastBuild,
METHOD_0,METHOD_1,METHOD_2,METHOD_3,METHOD_4,METHOD_5,METHOD_6,METHOD_7,METHOD_8,METHOD_9,










"12:00:00","12:20:00",
STRING_0,STRING_1,

























