testLockEntity,addRequest,lockEntity,
METHOD_0,METHOD_1,METHOD_2,

hp,alm,ali,idea,defect,entityService,
IDENT_0,IDENT_1,IDENT_2,IDENT_3,IDENT_4,IDENT_5,

86,
INT_0,




"POST","/qcbin/rest/domains/domain/projects/project/defects/86/lock","entityServiceTest_entity.xml","defect",
STRING_0,STRING_1,STRING_2,STRING_3,

























