set_date,PropertiesWrapper,getDate,
METHOD_0,METHOD_1,METHOD_2,

oakbot,PropertiesWrapper,wrapper,LocalDateTime,PropertiesWrapperTest,dateTimeFormatter,
IDENT_0,IDENT_1,IDENT_2,IDENT_3,IDENT_4,IDENT_5,







"2015-11-04","key",
STRING_0,STRING_1,

























