testNewWithLocation,HandlingEvent,getLocation,
METHOD_0,METHOD_1,METHOD_2,

cargotracker,handling,HandlingEvent,event1,cargo,CLAIM,SampleLocations,HELSINKI,handlingEvent,
IDENT_0,IDENT_1,IDENT_2,IDENT_3,IDENT_4,IDENT_5,IDENT_6,IDENT_7,IDENT_8,


































