listBatchJobsTest,getListBatchJobsData,executeCommandAndGetAsList,
METHOD_0,METHOD_1,METHOD_2,

javaee7,CommandUtil,cmd,
IDENT_0,IDENT_1,IDENT_2,







"asadmin","list-batch-jobs","--target",
STRING_0,STRING_1,STRING_2,

























