getIsInAppClientContainerFromEJB,getIsInAppClientContainer,
METHOD_0,METHOD_1,

isACC,testBean,isInAppClientContainer,
IDENT_0,IDENT_1,IDENT_2,







"get java:comp/InAppClientContainer from EJB:",
STRING_0,

























