testAttributesEmpty,AttributesImpl,addAttribute,getAttributeValues,
METHOD_0,METHOD_1,METHOD_2,METHOD_3,

attName,Attributes,att,vs,mappings,
IDENT_0,IDENT_1,IDENT_2,IDENT_3,IDENT_4,


































