testIsReified,getAliasDescriptor,isReified,
METHOD_0,METHOD_1,METHOD_2,

hk2,utilities,AliasDescriptor,locator,alias,MyService,aliasDescriptor,
IDENT_0,IDENT_1,IDENT_2,IDENT_3,IDENT_4,IDENT_5,IDENT_6,







"testIsReified",
STRING_0,

























