of_Period1,Rate,
METHOD_0,METHOD_1,

javamoney,calc,FutureValueGrowingAnnuity,Rate,rate,
IDENT_0,IDENT_1,IDENT_2,IDENT_3,IDENT_4,










0.07,0.05,
FLOAT_0,FLOAT_1,






















