of_Period0,RateAndPeriods,
METHOD_0,METHOD_1,

javamoney,calc,FutureValueOfAnnuityDue,RateAndPeriods,Rate,rate,periods,
IDENT_0,IDENT_1,IDENT_2,IDENT_3,IDENT_4,IDENT_5,IDENT_6,










0.08,
FLOAT_0,






















