


javamoney,calc,PresentValueOfAnnuityDue,RateAndPeriods,moneta,Money,money,MonetaryAmount,amount,MonetaryOperator,functions,
IDENT_0,IDENT_1,IDENT_2,IDENT_3,IDENT_4,IDENT_5,IDENT_6,IDENT_7,IDENT_8,IDENT_9,IDENT_10,







"CHF",
STRING_0,

0.08,
FLOAT_0,






















