testGetOpenPortDelayOk,getOpenPortDelay,parseInt,
METHOD_0,METHOD_1,METHOD_2,

sump,logicsniffer,profile,DeviceProfile,DEVICE_OPEN_PORT_DELAY,
IDENT_0,IDENT_1,IDENT_2,IDENT_3,IDENT_4,


































