testComparator,sort,getComparator,VersionSequence,
METHOD_0,METHOD_1,METHOD_2,METHOD_3,

fabric8,VersionSequence,Comparator,thisId,thatId,thisSeq,thatSeq,
IDENT_0,IDENT_1,IDENT_2,IDENT_3,IDENT_4,IDENT_5,IDENT_6,







"1.15","1.5","1.0.10","1.0","1.0.5",
STRING_0,STRING_1,STRING_2,STRING_3,STRING_4,

























