testReplaceTestProperties,replaceTestProperties,replaceProperties,
METHOD_0,METHOD_1,METHOD_2,

switchyard,Strings,TestPropertyResolver,
IDENT_0,IDENT_1,IDENT_2,







"The test value is ${test.key}.","The test value is testValue.",
STRING_0,STRING_1,

























