test_valid_xml,getValidator,DefaultMessage,setContent,getDetail,
METHOD_0,METHOD_1,METHOD_2,METHOD_3,METHOD_4,

switchyard,Validator,ValidationResult,_detail,
IDENT_0,IDENT_1,IDENT_2,IDENT_3,







"sw-config-xmlv-01.xml","<person name='foo' age='50' />","<person2 firstName='' lastName='' age='50' />",
STRING_0,STRING_1,STRING_2,

























