testSize,createTestNodes,
METHOD_0,METHOD_1,

eatthepath,jvptree,VPTreeNode,Number,testNode,VPTreeNodeTest,TEST_NODE_SIZE,points,closer,farther,
IDENT_0,IDENT_1,IDENT_2,IDENT_3,IDENT_4,IDENT_5,IDENT_6,IDENT_7,IDENT_8,IDENT_9,


































