testDCT,fdct4x4,
METHOD_0,METHOD_1,

jcodec,codecs,vpx,VPXDCT,a1,coef,b1,c1,d1,
IDENT_0,IDENT_1,IDENT_2,IDENT_3,IDENT_4,IDENT_5,IDENT_6,IDENT_7,IDENT_8,

87,38,116,155,154,331,85,171,301,132,101,55,231,77,42,125,23,2217,5352,14500,7500,12000,51000,
INT_0,INT_1,INT_2,INT_3,INT_4,INT_5,INT_6,INT_7,INT_8,INT_9,INT_10,INT_11,INT_12,INT_13,INT_14,INT_15,INT_16,INT_17,INT_18,INT_19,INT_20,INT_21,INT_22,































