testRandomNBit,randomData,DummyBitstreamReader,readNBit,read1BitInt,
METHOD_0,METHOD_1,METHOD_2,METHOD_3,METHOD_4,

bits,jcodec,BitStreamTest,BitReader,in1,DummyBitstreamReader,in2,exp1,
IDENT_0,IDENT_1,IDENT_2,IDENT_3,IDENT_4,IDENT_5,IDENT_6,IDENT_7,

32,10000,80000,
INT_0,INT_1,INT_2,




"Can not read more then 32 bit",
STRING_0,




<<=,|=,
OP_0,OP_1,



















