testVLC1,createVLC,allocate,BitWriter,writeVLC,flush,flip,createBitReader,readVLC,
METHOD_0,METHOD_1,METHOD_2,METHOD_3,METHOD_4,METHOD_5,METHOD_6,METHOD_7,METHOD_8,

jcodec,VLC,vlc,VLCTest,codes,BitWriter,BitReader,_in,readVLC,self,inverse,
IDENT_0,IDENT_1,IDENT_2,IDENT_3,IDENT_4,IDENT_5,IDENT_6,IDENT_7,IDENT_8,IDENT_9,IDENT_10,

1024,
INT_0,































