collectionListLookup,collectionList,buildQuery,
METHOD_0,METHOD_1,METHOD_2,

musicbrainz,webservice,QueryBuilder,LOOKUP_USER_COLLECTIONS,
IDENT_0,IDENT_1,IDENT_2,IDENT_3,







"http://musicbrainz.org/ws/2/collection?limit=100",
STRING_0,

























