testGetAliasNotRegistered,getAlias,containsAlias,checkNotNull,
METHOD_0,METHOD_1,METHOD_2,METHOD_3,

underTest,planet57,gshell,alias,AliasRegistry,aliases,
IDENT_0,IDENT_1,IDENT_2,IDENT_3,IDENT_4,IDENT_5,


































