testNullBinding,extractFromDto,
METHOD_0,METHOD_1,

jdto,SimpleEntity,TestReverseBinding,binder,businessObjectClass,
IDENT_0,IDENT_1,IDENT_2,IDENT_3,IDENT_4,


































