testGetAvailableFloatingIPActions,getAvailableFloatingIPActions,getActions,
METHOD_0,METHOD_1,METHOD_2,

myjeeva,digitalocean,pojo,Actions,actions,apiClient,Action,ReflectionToStringBuilder,
IDENT_0,IDENT_1,IDENT_2,IDENT_3,IDENT_4,IDENT_5,IDENT_6,IDENT_7,







"159.203.146.100"," -> ",
STRING_0,STRING_1,

























