testGetSnapshotInfo,getSnaphotInfo,validateSnapshotId,perform,ApiRequest,getData,
METHOD_0,METHOD_1,METHOD_2,METHOD_3,METHOD_4,METHOD_5,

myjeeva,digitalocean,pojo,Snapshot,snapshot,apiClient,snapshotId,ApiAction,GET_SNAPSHOT_INFO,
IDENT_0,IDENT_1,IDENT_2,IDENT_3,IDENT_4,IDENT_5,IDENT_6,IDENT_7,IDENT_8,







"fbe805e8-866b-11e6-96bf-000f53315a41",
STRING_0,

























