testSetNonFormattedDateStr,ClearCaseChangeLogEntry,setDateStr,getDateStr,SimpleDateFormat,
METHOD_0,METHOD_1,METHOD_2,METHOD_3,METHOD_4,

clearcase,ClearCaseChangeLogEntry,dateStr,DATE_FORMAT,
IDENT_0,IDENT_1,IDENT_2,IDENT_3,







"Tue Aug 28 15:27:00 CEST 2007",
STRING_0,

























