testJoinGroup,Minion,joinGroup,getChildren,forPath,closeZkClient,getUUID,
METHOD_0,METHOD_1,METHOD_2,METHOD_3,METHOD_4,METHOD_5,METHOD_6,

addthis,hydra,minion,Minion,zkClient,upMinions,uuid,
IDENT_0,IDENT_1,IDENT_2,IDENT_3,IDENT_4,IDENT_5,IDENT_6,







"/minion/up",
STRING_0,

























