parseEmptyString,parseOneBind,
METHOD_0,METHOD_1,

definition,dockerjava,Bind,lines,binds,jenkinsci,dockerbuildstep,BindParser,
IDENT_0,IDENT_1,IDENT_2,IDENT_3,IDENT_4,IDENT_5,IDENT_6,IDENT_7,







"\\r?\\n",
STRING_0,

























