testGetLocalIPString,getLocalIPString,getLocalInetAddress,getHostAddress,
METHOD_0,METHOD_1,METHOD_2,METHOD_3,

InetAddress,addr,NetUtils,
IDENT_0,IDENT_1,IDENT_2,







"127.0.0.1",
STRING_0,

























