escapeQuotesTests,escapeQuotes,
METHOD_0,METHOD_1,

valueOfParameter,escapedString,sonyericsson,gerrit,trigger,StringUtil,expectedString,QUOTES_PATTERN,
IDENT_0,IDENT_1,IDENT_2,IDENT_3,IDENT_4,IDENT_5,IDENT_6,IDENT_7,







"xxx\"xxx\"xxxx","xxx\\\"xxx\\\"xxxx","\\\\\"",
STRING_0,STRING_1,STRING_2,

























