testTrimRouterVersion,trimRouterVersion,
METHOD_0,METHOD_1,

cloudstack,CloudStackVersion,FULL_VERSION_FORMAT,
IDENT_0,IDENT_1,IDENT_2,







"0",
STRING_0,

























