shouldNotMatchEmptyUrl,isUrlCustom,isNotBlank,
METHOD_0,METHOD_1,METHOD_2,

apiUrl,jenkinsci,GitHubServerConfig,GITHUB_URL,
IDENT_0,IDENT_1,IDENT_2,IDENT_3,


































