toStringShouldReturnValueForAnyValue,
METHOD_0,

growl,Cleaner,VALUES_REPLACED_WITH_NULL,
IDENT_0,IDENT_1,IDENT_2,







"Something",
STRING_0,

























