testSourceFile,ClassReport,setSrcFileInfo,getSourceFilePath,
METHOD_0,METHOD_1,METHOD_2,METHOD_3,

jacoco,ClassReport,sourceFilePath,
IDENT_0,IDENT_1,IDENT_2,







"some/path",
STRING_0,

























