getPayload,MySCMEvent,sameInstance,
METHOD_0,METHOD_1,METHOD_2,

scm,SCMEventTest,SCMEvent,CREATED,
IDENT_0,IDENT_1,IDENT_2,IDENT_3,


































