testRemoveIgnoredDirPropChangesNotRemoving,addPathToEntry,getPaths,removePropertyOnlyPaths,
METHOD_0,METHOD_1,METHOD_2,METHOD_3,

oldSize,paths,
IDENT_0,IDENT_1,







"A","file","dir","D","c","d","M","e",
STRING_0,STRING_1,STRING_2,STRING_3,STRING_4,STRING_5,STRING_6,STRING_7,

























