testTopLevelArray,point,endArray,
METHOD_0,METHOD_1,METHOD_2,

w,jeo,Geom,JSONArray,JSONValue,
IDENT_0,IDENT_1,IDENT_2,IDENT_3,IDENT_4,


































