testUnrecognizedOptionWithBursting,getOption,
METHOD_0,METHOD_1,

UnrecognizedOptionException,option,
IDENT_0,IDENT_1,







"-adbtoast","UnrecognizedOptionException wasn't thrown",
STRING_0,STRING_1,

























