testGetName,ArchiveAnalyzer,initialize,getSettings,
METHOD_0,METHOD_1,METHOD_2,METHOD_3,

owasp,dependencycheck,analyzer,ArchiveAnalyzer,
IDENT_0,IDENT_1,IDENT_2,IDENT_3,







"Archive Analyzer","test-project",
STRING_0,STRING_1,

























