testGetFileName,Dependency,setFileName,getFileName,
METHOD_0,METHOD_1,METHOD_2,METHOD_3,

owasp,dependencycheck,dependency,Dependency,fileName,
IDENT_0,IDENT_1,IDENT_2,IDENT_3,IDENT_4,







"filename",
STRING_0,

























