testGetSha256sum,getResourceAsFile,Dependency,getSha256sum,determineHashes,
METHOD_0,METHOD_1,METHOD_2,METHOD_3,METHOD_4,

owasp,dependencycheck,BaseTest,dependency,Dependency,sha256sum,SHA256_HASHING_FUNCTION,
IDENT_0,IDENT_1,IDENT_2,IDENT_3,IDENT_4,IDENT_5,IDENT_6,







"struts2-core-2.1.2.jar","5c1847a10800027254fcd0073385cceb46b1dacee061f3cd465e314bec592e81",
STRING_0,STRING_1,

























