testGetMD5Checksum,getClassLoader,toURI,getMD5Checksum,getChecksum,getHex,
METHOD_0,METHOD_1,METHOD_2,METHOD_3,METHOD_4,METHOD_5,

owasp,dependencycheck,Checksum,MD5,
IDENT_0,IDENT_1,IDENT_2,IDENT_3,







"checkSumTest.file","f0915c5f46b8cfa283e5ad67a09b3793",
STRING_0,STRING_1,

























