testGetMD5Checksum_String,getMD5Checksum,getChecksum,getHex,
METHOD_0,METHOD_1,METHOD_2,METHOD_3,

owasp,dependencycheck,Checksum,MD5,
IDENT_0,IDENT_1,IDENT_2,IDENT_3,







"test string","6f8db599de986fab7a21625b7916589c",
STRING_0,STRING_1,

























