test_bitsyntax1,
METHOD_0,

jerlang,one,two,three,nil,Term,erts,Erlang,Atom,ISO_8859_1,
IDENT_0,IDENT_1,IDENT_2,IDENT_3,IDENT_4,IDENT_5,IDENT_6,IDENT_7,IDENT_8,IDENT_9,







"bitsyntax2",
STRING_0,

























