testAutoTemplateWithParam,queryParam,addFilter,LoggingFilter,
METHOD_0,METHOD_1,METHOD_2,METHOD_3,

WebResource,
IDENT_0,







"user","Paul",
STRING_0,STRING_1,

























