sortByPath,sort,TreePath,
METHOD_0,METHOD_1,METHOD_2,

jetbrains,jetpad,composite,TestComposite,composites,child2,child1,TreePath,CompositeT,paths,Comparator,composite1,composite2,
IDENT_0,IDENT_1,IDENT_2,IDENT_3,IDENT_4,IDENT_5,IDENT_6,IDENT_7,IDENT_8,IDENT_9,IDENT_10,IDENT_11,IDENT_12,


































