iteratorRemoveBeforeNext,createSetCountingBeforeRemove,unmodifiableList,
METHOD_0,METHOD_1,METHOD_2,

jetbrains,jetpad,Value,counter,
IDENT_0,IDENT_1,IDENT_2,IDENT_3,







"x",
STRING_0,

























