itemRemove,startTrans,
METHOD_0,METHOD_1,

jetbrains,jetpad,EventSource,myEventSources,
IDENT_0,IDENT_1,IDENT_2,IDENT_3,







"aaaa","bbb","c",
STRING_0,STRING_1,STRING_2,

























