exceptionInSuccessHandler,onSuccess,throwingHandler,success,hasSucceeded,
METHOD_0,METHOD_1,METHOD_2,METHOD_3,METHOD_4,

async,mySucceeded,
IDENT_0,IDENT_1,


































