managerByNamePart,createEdtManager,getEdt,getManager,
METHOD_0,METHOD_1,METHOD_2,METHOD_3,

managers,namePart,
IDENT_0,IDENT_1,







"abc",
STRING_0,

























