falseValue,getBooleanValue,
METHOD_0,METHOD_1,

jetbrains,jetpad,JsonBoolean,Json,myValue,
IDENT_0,IDENT_1,IDENT_2,IDENT_3,IDENT_4,







"false",
STRING_0,

























