testHasRelationshipsWithoutDirectionWithoutRelationshipType,hasRelationship,getRelationships,
METHOD_0,METHOD_1,METHOD_2,

hasRelationship,neo,
IDENT_0,IDENT_1,


































