testKeysOfDifferentClasses,PaintMap,getPaint,nullNotPermitted,
METHOD_0,METHOD_1,METHOD_2,METHOD_3,

PaintMap,Color,RED,BLUE,Comparable,ParamChecks,
IDENT_0,IDENT_1,IDENT_2,IDENT_3,IDENT_4,IDENT_5,

99,
INT_0,




"ABC","key",
STRING_0,STRING_1,

























