testVerbosePrintNullKeyToMap1,PrintStream,reset,verbosePrint,
METHOD_0,METHOD_1,METHOD_2,METHOD_3,

PrintStream,outPrint,INDENT,EXPECTED_OUT,collections4,MapUtils,last,
IDENT_0,IDENT_1,IDENT_2,IDENT_3,IDENT_4,IDENT_5,IDENT_6,







"{","null = (this Map)","}","MapIterator[","=","MapIterator[]",
STRING_0,STRING_1,STRING_2,STRING_3,STRING_4,STRING_5,

























