test1Jan1900Next,Day,getDayOfMonth,
METHOD_0,METHOD_1,METHOD_2,

Day,jan1st1900,MonthConstants,JANUARY,day,
IDENT_0,IDENT_1,IDENT_2,IDENT_3,IDENT_4,

1900,
INT_0,































