testKeys,SortedProperties,nextElement,
METHOD_0,METHOD_1,METHOD_2,

collections4,SortedProperties,sortedProperties,Enumeration,
IDENT_0,IDENT_1,IDENT_2,IDENT_3,







'Z','A',"Value",
STRING_0,STRING_1,STRING_2,




--,
OP_0,



















