testSerialization,TimeSeries,Year,serialised,
METHOD_0,METHOD_1,METHOD_2,METHOD_3,

TimeSeries,s1,s2,xy,YWithXInterval,xLow,xHigh,
IDENT_0,IDENT_1,IDENT_2,IDENT_3,IDENT_4,IDENT_5,IDENT_6,

2000,2001,2002,2005,2007,
INT_0,INT_1,INT_2,INT_3,INT_4,




"A test",
STRING_0,

13.75,11.9,19.32,16.89,
FLOAT_0,FLOAT_1,FLOAT_2,FLOAT_3,






















