testSerialization,PeriodAxis,serialised,
METHOD_0,METHOD_1,METHOD_2,

axis,PeriodAxis,a1,a2,xy,YWithXInterval,xLow,xHigh,
IDENT_0,IDENT_1,IDENT_2,IDENT_3,IDENT_4,IDENT_5,IDENT_6,IDENT_7,







"Test Axis",
STRING_0,

























