testSerialization,MonthDateFormat,serialised,
METHOD_0,METHOD_1,METHOD_2,

axis,MonthDateFormat,mf1,mf2,xy,YWithXInterval,xLow,xHigh,
IDENT_0,IDENT_1,IDENT_2,IDENT_3,IDENT_4,IDENT_5,IDENT_6,IDENT_7,


































