shouldUseSpecifiedEncodingWhenReadingGNULongNames,TarArchiveOutputStream,setLongFileMode,TarArchiveEntry,setSize,putArchiveEntry,closeArchiveEntry,TarArchiveInputStream,getNextTarEntry,
METHOD_0,METHOD_1,METHOD_2,METHOD_3,METHOD_4,METHOD_5,METHOD_6,METHOD_7,METHOD_8,

bos,encoding,compress,CharsetNames,UTF_16,archivers,tar,TarArchiveOutputStream,tos,LONGFILE_GNU,TarArchiveEntry,bis,TarArchiveInputStream,tis,
IDENT_0,IDENT_1,IDENT_2,IDENT_3,IDENT_4,IDENT_5,IDENT_6,IDENT_7,IDENT_8,IDENT_9,IDENT_10,IDENT_11,IDENT_12,IDENT_13,

30,
INT_0,




"1234567890123456789012345678901234567890123456789","01234567890123456789012345678901234567890123456789","01234567890ä",
STRING_0,STRING_1,STRING_2,

























