testParseOctalCompress330,parseOctalOrBinary,parseOctal,parseBinaryLong,parseBinaryBigInteger,
METHOD_0,METHOD_1,METHOD_2,METHOD_3,METHOD_4,

compress,archivers,tar,TarUtils,negative,
IDENT_0,IDENT_1,IDENT_2,IDENT_3,IDENT_4,

32768,32,49,48,128,
INT_0,INT_1,INT_2,INT_3,INT_4,































