testEquals,Quarter,
METHOD_0,METHOD_1,

Quarter,q1,q2,xy,YWithXInterval,xLow,xHigh,
IDENT_0,IDENT_1,IDENT_2,IDENT_3,IDENT_4,IDENT_5,IDENT_6,

2002,
INT_0,































