testShortSignature,FileInputStream,getFile,
METHOD_0,METHOD_1,METHOD_2,

sig,compress,compressors,pack200,Pack200CompressorInputStream,SIG_LENGTH,signature,CAFE_DOOD,
IDENT_0,IDENT_1,IDENT_2,IDENT_3,IDENT_4,IDENT_5,IDENT_6,IDENT_7,







"bla.pack",
STRING_0,

























