rewritingOfFourPairs,compress,prepareExpected,fill,
METHOD_0,METHOD_1,METHOD_2,METHOD_3,

compressed,
IDENT_0,

17,11,
INT_0,INT_1,































