trims,
METHOD_0,

Tag,p1,p2,tagName,ParseSettings,preserveCase,
IDENT_0,IDENT_1,IDENT_2,IDENT_3,IDENT_4,IDENT_5,







"p"," p ",
STRING_0,STRING_1,

























