handlesQuotesInCommentsInScripts,parseBodyFragment,findFirstElementByTagName,
METHOD_0,METHOD_1,METHOD_2,

Jsoup,
IDENT_0,







"<script>\n"," <!--\n"," document.write(\'</scr\' + \'ipt>\');\n"," // -->\n","</script>","body",
STRING_0,STRING_1,STRING_2,STRING_3,STRING_4,STRING_5,

























