shouldExcecuteFromBeanMethodWorksWithWhereCondition,Book,where,executeFrom,
METHOD_0,METHOD_1,METHOD_2,METHOD_3,

cn,jimmyshi,beanquery,Book,book,
IDENT_0,IDENT_1,IDENT_2,IDENT_3,IDENT_4,







"abc123","name,price","abc",
STRING_0,STRING_1,STRING_2,

























