testInspectPrivateFieldInObjectWithSuperclass,getAttr,
METHOD_0,METHOD_1,

b1,bis,b2,jitlogic,zorka,ObjectInspector,cur,
IDENT_0,IDENT_1,IDENT_2,IDENT_3,IDENT_4,IDENT_5,IDENT_6,







"ABCD","buf",
STRING_0,STRING_1,

























