sourceforge_issue_2081602,eval,
METHOD_0,METHOD_1,

Callable,bsh,TestUtil,
IDENT_0,IDENT_1,IDENT_2,







" + id);"," return x;","public class A implements "," int _id;"," print (\" A.<init> \" + id);"," }"," print (\" A.setId \" + id);"," public Object call() { return _id; }"," super (echo(\" B.<init>\", id * 3));"," print (\" B.setId \" + id);","return new B (1);",
STRING_0,STRING_1,STRING_2,STRING_3,STRING_4,STRING_5,STRING_6,STRING_7,STRING_8,STRING_9,STRING_10,

























