testChunkedResponseTooLarge,setMaxBodySize,HttpDecoder,sbuf,submit,check,hasError,
METHOD_0,METHOD_1,METHOD_2,METHOD_3,METHOD_4,METHOD_5,METHOD_6,

jitlogic,netkit,HttpDecoder,HttpDecoderState,READ_RESP_LINE,ERROR,
IDENT_0,IDENT_1,IDENT_2,IDENT_3,IDENT_4,IDENT_5,

400,
INT_0,




"HTTP/1.1 200 OK","Transfer-Encoding: chunked","0004","ABCD","EFGH","IJKL","0","error","too large",
STRING_0,STRING_1,STRING_2,STRING_3,STRING_4,STRING_5,STRING_6,STRING_7,STRING_8,

























