withError,createMock,HandlebarsException,getError,
METHOD_0,METHOD_1,METHOD_2,METHOD_3,

jknack,handlebars,HandlebarsError,HandlebarsException,
IDENT_0,IDENT_1,IDENT_2,IDENT_3,


































