arrayIndexOutOfBoundsShouldResolveAsEmpty,Handlebars,compileInline,
METHOD_0,METHOD_1,METHOD_2,

jknack,handlebars,Handlebars,Template,
IDENT_0,IDENT_1,IDENT_2,IDENT_3,







"{{list.[10]}}","list","s1","s2",
STRING_0,STRING_1,STRING_2,STRING_3,

























