toLittleEndianToStream,toLittleEndian,
METHOD_0,METHOD_1,

bos,compress,BitInputStream,inShadow,bin,
IDENT_0,IDENT_1,IDENT_2,IDENT_3,IDENT_4,

256,
INT_0,































