testWideChar,WriterOutputStream,flush,
METHOD_0,METHOD_1,METHOD_2,

sw,jline,WriterOutputStream,wos,charset,StandardCharsets,optSet,optArg,xargs,
IDENT_0,IDENT_1,IDENT_2,IDENT_3,IDENT_4,IDENT_5,IDENT_6,IDENT_7,IDENT_8,







"isSet","\nArg","\nargs",
STRING_0,STRING_1,STRING_2,

























