shouldFindOne,findOne,blocking,firstOrDefault,
METHOD_0,METHOD_1,METHOD_2,METHOD_3,

jloisel,reactive,findOne,async,
IDENT_0,IDENT_1,IDENT_2,IDENT_3,


































