shouldNotDeleteById,blocking,firstOrDefault,
METHOD_0,METHOD_1,METHOD_2,

jloisel,reactive,ReactiveEntity,async,
IDENT_0,IDENT_1,IDENT_2,IDENT_3,


































