testWriteValueWithCommentChar,INIConfiguration,StringReader,makePath,
METHOD_0,METHOD_1,METHOD_2,METHOD_3,

INIConfiguration,config2,
IDENT_0,IDENT_1,







"section.key1","1;2;3",
STRING_0,STRING_1,

























