testStartEmpty,SimpleMeasureManager,getMeasureKeys,keySet,
METHOD_0,METHOD_1,METHOD_2,METHOD_3,

uma,jmetal,measure,SimpleMeasureManager,pullers,pushers,
IDENT_0,IDENT_1,IDENT_2,IDENT_3,IDENT_4,IDENT_5,


































