shouldEqualsReturnFalseIfThePointsAreNotIdentical,ArrayPoint,
METHOD_0,METHOD_1,

dimension,uma,jmetal,point,Point,newPoint,
IDENT_0,IDENT_1,IDENT_2,IDENT_3,IDENT_4,IDENT_5,










45.5,323.234,
FLOAT_0,FLOAT_1,






















