testEmbeddedDBObject,ContainsDBObject,
METHOD_0,METHOD_1,

morphia,jmkgreen,TestMapping,ContainsDBObject,cdbo,ds,
IDENT_0,IDENT_1,IDENT_2,IDENT_3,IDENT_4,IDENT_5,


































