testE2,E2,getByKey,getCollectionName,updateKind,
METHOD_0,METHOD_1,METHOD_2,METHOD_3,METHOD_4,

jmkgreen,morphia,guice,GuiceTest,E2,initialEntity,Key,ds,loadedEntity,kind,mapr,keyKind,
IDENT_0,IDENT_1,IDENT_2,IDENT_3,IDENT_4,IDENT_5,IDENT_6,IDENT_7,IDENT_8,IDENT_9,IDENT_10,IDENT_11,







"collection names don't match for key and class: "," != ",
STRING_0,STRING_1,

























