testVersionSuccess,B,
METHOD_0,METHOD_1,

jmkgreen,morphia,VersionAnnotationTest,B,b1,ds,
IDENT_0,IDENT_1,IDENT_2,IDENT_3,IDENT_4,IDENT_5,


































