testGetAndSet,RegisterSet,pow,
METHOD_0,METHOD_1,METHOD_2,

clearspring,analytics,cardinality,RegisterSet,bucketPos,LOG2_BITS_PER_WORD,shift,REGISTER_SIZE,M,
IDENT_0,IDENT_1,IDENT_2,IDENT_3,IDENT_4,IDENT_5,IDENT_6,IDENT_7,IDENT_8,

11,31,
INT_0,INT_1,































