testWithinRadiusSphere,ensureIndexes,Place,within,
METHOD_0,METHOD_1,METHOD_2,METHOD_3,

ds,jmkgreen,morphia,TestGeoQueries,Place,place1,
IDENT_0,IDENT_1,IDENT_2,IDENT_3,IDENT_4,IDENT_5,







"place1","loc",
STRING_0,STRING_1,

























