cascadedEnum,Expectations,getBar,getEnum,
METHOD_0,METHOD_1,METHOD_2,METHOD_3,

mockit,CascadingParametersTest$Foo,CascadingParametersTest,AnEnum,Second,
IDENT_0,IDENT_1,IDENT_2,IDENT_3,IDENT_4,


































