overrideExpectationRecordedInBeforeMethod,Expectations,getAnotherValue,doSomething,
METHOD_0,METHOD_1,METHOD_2,METHOD_3,

mockit,foo,
IDENT_0,IDENT_1,

45,
INT_0,




"sdf",
STRING_0,

























