recordExpectationMatchingOnInstanceCreatedInsideCodeUnderTest,Expectations,Collaborator,
METHOD_0,METHOD_1,METHOD_2,

mockit,MockInstanceMatchingTest,
IDENT_0,IDENT_1,


































