indexQueriesByAliasOrName,getQueries,
METHOD_0,METHOD_1,

jmxtrans,embedded,queries,embeddedJmxTrans,tomcatProcessorQuery,
IDENT_0,IDENT_1,IDENT_2,IDENT_3,IDENT_4,







"tomcat.global-request-processor.http-nio",
STRING_0,

























