filestatDirectory,createTempFile,getParentFile,stat,isDirectory,mode,
METHOD_0,METHOD_1,METHOD_2,METHOD_3,METHOD_4,METHOD_5,

jnr,posix,FileStat,stat,FileStatTest,S_IFMT,S_IFDIR,
IDENT_0,IDENT_1,IDENT_2,IDENT_3,IDENT_4,IDENT_5,IDENT_6,







"stat",
STRING_0,

























