test_parseObjectKey,JsonInput,StringReader,parseObjectKey,parseString,acceptEvent,
METHOD_0,METHOD_1,METHOD_2,METHOD_3,METHOD_4,METHOD_5,

ser,JsonInput,cachedObjectKey,JsonEvent,COLON,
IDENT_0,IDENT_1,IDENT_2,IDENT_3,IDENT_4,







"\":",
STRING_0,

























