test_multipliedBy_doubleRoundingMode_one,multipliedBy,
METHOD_0,METHOD_1,

money,BigMoney,TestBigMoney,GBP_2_34,valueToMultiplyBy,
IDENT_0,IDENT_1,IDENT_2,IDENT_3,IDENT_4,


































