test_getDecimalPlaces_JPY,getDecimalPlaces,
METHOD_0,METHOD_1,

money,CurrencyUnit,decimalPlaces,
IDENT_0,IDENT_1,IDENT_2,







"JPY",
STRING_0,

























