test_isComplete_noAmount,MoneyParseContext,setCurrency,isComplete,
METHOD_0,METHOD_1,METHOD_2,METHOD_3,

money,MoneyParseContext,FRANCE,CurrencyUnit,GBP,currency,amount,
IDENT_0,IDENT_1,IDENT_2,IDENT_3,IDENT_4,IDENT_5,IDENT_6,







"GBP 123",
STRING_0,

























