test_toFormatter_Locale,toFormatter,getLocale,
METHOD_0,METHOD_1,METHOD_2,

money,MoneyFormatter,iBuilder,TestMoneyFormatterBuilder,TEST_FR_LOCALE,locale,
IDENT_0,IDENT_1,IDENT_2,IDENT_3,IDENT_4,IDENT_5,


































