testGetAllAccounts,getAllAccounts,
METHOD_0,METHOD_1,

accounts,Account,accountManager,accountRepository,
IDENT_0,IDENT_1,IDENT_2,IDENT_3,


































