testClassEqual,
METHOD_0,

androidtransfuse,scope,ScopeKey,one,ScopeKeyTest,two,inputClazz,
IDENT_0,IDENT_1,IDENT_2,IDENT_3,IDENT_4,IDENT_5,IDENT_6,


































