testExecute,isComplete,submit,
METHOD_0,METHOD_1,METHOD_2,

androidtransfuse,Transaction,complete,worker,
IDENT_0,IDENT_1,IDENT_2,IDENT_3,


































