testMerge,Point,Mean,merge,toPoint,dimensionality,
METHOD_0,METHOD_1,METHOD_2,METHOD_3,METHOD_4,METHOD_5,

tv,floe,metronome,clustering,kmeans,Point,zero,one,half,Mean,averagerA,averagerB,average,sum,averages,
IDENT_0,IDENT_1,IDENT_2,IDENT_3,IDENT_4,IDENT_5,IDENT_6,IDENT_7,IDENT_8,IDENT_9,IDENT_10,IDENT_11,IDENT_12,IDENT_13,IDENT_14,










0.5,
FLOAT_0,






















