testIsGameOver,addBlock,isGameOver,
METHOD_0,METHOD_1,METHOD_2,

tetrismina,game,Block,L,board,Color,BLUE,firstRow,blocks,width,
IDENT_0,IDENT_1,IDENT_2,IDENT_3,IDENT_4,IDENT_5,IDENT_6,IDENT_7,IDENT_8,IDENT_9,


































