


jqno,equalsverifier,prefabvalues,FactoryCacheTest,STRING_CLASS,STRING_FACTORY,TypeTag,tag,
IDENT_0,IDENT_1,IDENT_2,IDENT_3,IDENT_4,IDENT_5,IDENT_6,IDENT_7,


































