testPostNotSupported,Capabilities,isPostSupported,
METHOD_0,METHOD_1,METHOD_2,

jscep,Capabilities,caps,Capability,POST_PKI_OPERATION,
IDENT_0,IDENT_1,IDENT_2,IDENT_3,IDENT_4,


































