testServerNameAndInstanceParsingNull,Server,getFullyQualifiedName,
METHOD_0,METHOD_1,METHOD_2,

jsqlparser,Server,serverName,instanceName,simpleName,
IDENT_0,IDENT_1,IDENT_2,IDENT_3,IDENT_4,







"[%s\\%s]","[%s]",
STRING_0,STRING_1,

























