iterator_Empty,createLSData,putAll,
METHOD_0,METHOD_1,METHOD_2,

Cache,NoSuchElementException,LinkedHashMap,
IDENT_0,IDENT_1,IDENT_2,


































