testGetHardLimit,setHardLimit,getHardLimit,
METHOD_0,METHOD_1,METHOD_2,

jtrfp,trcl,IndexList,indexPool,
IDENT_0,IDENT_1,IDENT_2,IDENT_3,


































