testLockSharedWait,lock,checkLock,unlock,getClusterService,getSymmetricEngine,
METHOD_0,METHOD_1,METHOD_2,METHOD_3,METHOD_4,METHOD_5,

ClusterConstants,FILE_SYNC_SHARED,TYPE_EXCLUSIVE,TYPE_SHARED,
IDENT_0,IDENT_1,IDENT_2,IDENT_3,


































