notNullWithMessageShouldReturnNonNullValues,notNull,NullPointerException,
METHOD_0,METHOD_1,METHOD_2,

Float,Checks,
IDENT_0,IDENT_1,







"woops",
STRING_0,

3.14F,
FLOAT_0,






















