ignoreNonRules,runClasses,getFailureCount,
METHOD_0,METHOD_1,METHOD_2,

JUnitCore,TestRuleTest,NoRulesTest,failures,
IDENT_0,IDENT_1,IDENT_2,IDENT_3,


































