testNextAfterEndOfList,retain,getStep,
METHOD_0,METHOD_1,METHOD_2,

functor,FilteredIterable,isEven,evens,step,currentValue,Character,
IDENT_0,IDENT_1,IDENT_2,IDENT_3,IDENT_4,IDENT_5,IDENT_6,


































