testRetainOneType,retain,
METHOD_0,METHOD_1,

Iterable,objects,ZERO,strings,functor,FilteredIterable,
IDENT_0,IDENT_1,IDENT_2,IDENT_3,IDENT_4,IDENT_5,

2L,
INT_0,




"baz",
STRING_0,

























