remove_all_elements_from_the_collection__collection_is_now_empty,IntBag,IntBagIterator,
METHOD_0,METHOD_1,METHOD_2,

IntBag,bag,IntBagIterator,intBagIterator,
IDENT_0,IDENT_1,IDENT_2,IDENT_3,

8008,8009,
INT_0,INT_1,































