remove_on_that_collection__check_size_is_0_after,IntBag,IntBagIterator,
METHOD_0,METHOD_1,METHOD_2,

IntBag,bag,IntBagIterator,intBagIterator,
IDENT_0,IDENT_1,IDENT_2,IDENT_3,

8008,
INT_0,































