testOf,intValue,
METHOD_0,METHOD_1,

functor,Function,uf,composite,CompositeFunction,
IDENT_0,IDENT_1,IDENT_2,IDENT_3,IDENT_4,


































