testGetByNameFailsForIncorrectName,getByName,
METHOD_0,METHOD_1,

kaaproject,kaa,algorithms,override,ArrayOverrideStrategy,arrayMergeStrategy,
IDENT_0,IDENT_1,IDENT_2,IDENT_3,IDENT_4,IDENT_5,







"incorrect_name",
STRING_0,

























